,FL_DATE,CRS_ARR_TIME,ARR_TIME,ARR_DELAY
338,2015-01-01,0759,0743,-16.0
341,2015-01-01,1216,1215,-1.0
342,2015-01-01,2320,2319,-1.0
476,2015-01-01,2345,2335,-10.0
477,2015-01-01,2303,2228,-35.0
510,2015-01-01,0812,0803,-9.0
511,2015-01-01,1748,1735,-13.0
537,2015-01-01,2203,2155,-8.0
667,2015-01-01,1747,1738,-9.0
813,2015-01-01,2032,2008,-24.0
859,2015-01-01,2140,2130,-10.0
874,2015-01-01,1950,1958,8.0
882,2015-01-01,1819,1742,-37.0
893,2015-01-01,0758,0729,-29.0
896,2015-01-01,1246,1256,10.0
899,2015-01-01,2326,2324,-2.0
1110,2015-01-01,1223,1242,19.0
1111,2015-01-01,1546,1536,-10.0
1169,2015-01-01,1059,1030,-29.0
1189,2015-01-01,2059,2041,-18.0
2003,2015-01-01,1925,1922,-3.0
2010,2015-01-01,1035,1019,-16.0
2011,2015-01-01,2015,2022,7.0
2020,2015-01-01,1900,1858,-2.0
2021,2015-01-01,1705,1724,19.0
2022,2015-01-01,1025,1028,3.0
2023,2015-01-01,1805,1802,-3.0
2024,2015-01-01,1545,1538,-7.0
2025,2015-01-01,2105,2056,-9.0
2026,2015-01-01,2225,2222,-3.0
2027,2015-01-01,1430,1426,-4.0
2028,2015-01-01,1110,1105,-5.0
2029,2015-01-01,1315,1312,-3.0
2059,2015-01-01,1330,1309,-21.0
2060,2015-01-01,1850,1849,-1.0
2061,2015-01-01,2335,0039,64.0
2082,2015-01-01,2015,2046,31.0
2102,2015-01-01,1525,1551,26.0
2103,2015-01-01,2010,2035,25.0
2104,2015-01-01,2245,2317,32.0
2105,2015-01-01,1735,1734,-1.0
2106,2015-01-01,1325,1333,8.0
2107,2015-01-01,1140,1142,2.0
2188,2015-01-01,1900,1925,25.0
2189,2015-01-01,1710,1710,0.0
2190,2015-01-01,1450,1500,10.0
2191,2015-01-01,1205,1158,-7.0
2192,2015-01-01,2135,2152,17.0
2193,2015-01-01,1545,1548,3.0
2194,2015-01-01,1810,1853,43.0
2195,2015-01-01,2035,2017,-18.0
2232,2015-01-01,1840,1831,-9.0
2239,2015-01-01,1905,1850,-15.0
2240,2015-01-01,1135,1114,-21.0
2298,2015-01-01,1415,1430,15.0
2299,2015-01-01,2020,2042,22.0
2308,2015-01-01,1305,1305,0.0
2309,2015-01-01,2145,2145,0.0
2310,2015-01-01,1655,1716,21.0
2311,2015-01-01,2025,2038,13.0
2375,2015-01-01,1350,1425,35.0
2376,2015-01-01,2005,2028,23.0
2377,2015-01-01,1900,1906,6.0
2378,2015-01-01,2155,2245,50.0
2379,2015-01-01,1245,1321,36.0
2380,2015-01-01,1630,1628,-2.0
2381,2015-01-01,1535,1543,8.0
2382,2015-01-01,1800,1841,41.0
2422,2015-01-01,1535,1540,5.0
2423,2015-01-01,2015,2015,0.0
2424,2015-01-01,1810,1828,18.0
2425,2015-01-01,1905,1851,-14.0
2426,2015-01-01,1330,1324,-6.0
2514,2015-01-01,2015,2036,21.0
2515,2015-01-01,1730,1745,15.0
2516,2015-01-01,1445,1450,5.0
2567,2015-01-01,2055,2111,16.0
2568,2015-01-01,1900,1944,44.0
2569,2015-01-01,1800,1952,112.0
2570,2015-01-01,1225,1219,-6.0
2571,2015-01-01,1500,1452,-8.0
2600,2015-01-01,1130,1120,-10.0
2601,2015-01-01,2355,2340,-15.0
2640,2015-01-01,1910,1948,38.0
2641,2015-01-01,1125,1120,-5.0
2642,2015-01-01,1605,1604,-1.0
2643,2015-01-01,2225,2219,-6.0
2644,2015-01-01,1335,1345,10.0
2654,2015-01-01,2015,2010,-5.0
2655,2015-01-01,1555,1545,-10.0
2656,2015-01-01,1240,1234,-6.0
2657,2015-01-01,1905,1904,-1.0
2946,2015-01-01,1152,1146,-6.0
2979,2015-01-01,2207,2200,-7.0
