,FL_DATE,CRS_ARR_TIME,ARR_TIME,ARR_DELAY
29361,2015-01-10,0759,0746,-13.0
29363,2015-01-10,1804,1806,2.0
29365,2015-01-10,1216,1215,-1.0
29367,2015-01-10,2315,2325,10.0
29478,2015-01-10,2255,2236,-19.0
29480,2015-01-10,2226,2221,-5.0
29481,2015-01-10,2345,2332,-13.0
29499,2015-01-10,0834,0847,13.0
29501,2015-01-10,1809,1759,-10.0
29522,2015-01-10,2212,2147,-25.0
29754,2015-01-10,2105,2054,-11.0
29790,2015-01-10,2140,0129,
29805,2015-01-10,1950,1939,-11.0
29812,2015-01-10,1835,1809,-26.0
29817,2015-01-10,1316,1307,-9.0
29823,2015-01-10,0803,0729,-34.0
29828,2015-01-10,2326,2313,-13.0
30042,2015-01-10,2148,2148,0.0
30064,2015-01-10,1214,1207,-7.0
30121,2015-01-10,1453,1508,15.0
30125,2015-01-10,1855,1850,-5.0
30555,2015-01-10,0848,0848,0.0
30817,2015-01-10,1154,1201,7.0
30851,2015-01-10,2208,2201,-7.0
30960,2015-01-10,1725,1702,-23.0
30968,2015-01-10,1450,1438,-12.0
30973,2015-01-10,1715,1719,4.0
30974,2015-01-10,1015,0955,-20.0
30981,2015-01-10,1400,1350,-10.0
30982,2015-01-10,2040,2051,11.0
30983,2015-01-10,1725,1716,-9.0
30984,2015-01-10,0840,0824,-16.0
31039,2015-01-10,1500,,
31040,2015-01-10,1955,1940,-15.0
31041,2015-01-10,1040,1147,67.0
31042,2015-01-10,1620,1638,18.0
31043,2015-01-10,1330,1528,118.0
31044,2015-01-10,1725,1714,-11.0
31045,2015-01-10,1140,,
31046,2015-01-10,0840,0830,-10.0
31077,2015-01-10,1300,1316,16.0
31099,2015-01-10,1605,1613,8.0
31100,2015-01-10,1000,1035,35.0
31101,2015-01-10,1825,1819,-6.0
31102,2015-01-10,1345,1328,-17.0
31103,2015-01-10,1955,1938,-17.0
31104,2015-01-10,1150,1132,-18.0
31178,2015-01-10,1725,1724,-1.0
31179,2015-01-10,1855,1846,-9.0
31180,2015-01-10,1405,1426,21.0
31181,2015-01-10,2120,2125,5.0
31182,2015-01-10,1000,0943,-17.0
31183,2015-01-10,1235,,
31184,2015-01-10,1110,1107,-3.0
31185,2015-01-10,1520,1507,-13.0
31186,2015-01-10,0840,0833,-7.0
31187,2015-01-10,1620,1618,-2.0
31231,2015-01-10,1225,1220,-5.0
31312,2015-01-10,0840,0825,-15.0
31313,2015-01-10,1535,1520,-15.0
31314,2015-01-10,1725,1723,-2.0
31315,2015-01-10,1350,1401,11.0
31326,2015-01-10,1605,1605,0.0
31327,2015-01-10,1015,1028,13.0
31328,2015-01-10,1900,1857,-3.0
31349,2015-01-10,1405,1356,-9.0
31350,2015-01-10,1610,1603,-7.0
31351,2015-01-10,0845,0845,0.0
31352,2015-01-10,1725,1715,-10.0
31353,2015-01-10,1510,1503,-7.0
31354,2015-01-10,1015,1003,-12.0
31355,2015-01-10,1110,1124,14.0
31356,2015-01-10,2025,2039,14.0
31370,2015-01-10,1410,1346,-24.0
31376,2015-01-10,1655,1636,-19.0
31386,2015-01-10,2150,2126,-24.0
31387,2015-01-10,1340,1317,-23.0
31405,2015-01-10,1015,1015,0.0
31411,2015-01-10,1900,1843,-17.0
31412,2015-01-10,1625,1729,64.0
31413,2015-01-10,1015,1011,-4.0
31493,2015-01-10,1555,1537,-18.0
31494,2015-01-10,1145,1142,-3.0
31495,2015-01-10,1900,2155,175.0
31546,2015-01-10,0835,0821,-14.0
31547,2015-01-10,1725,1712,-13.0
31548,2015-01-10,1220,1214,-6.0
31549,2015-01-10,2105,2208,63.0
31550,2015-01-10,1515,1511,-4.0
