,FL_DATE,CRS_ARR_TIME,ARR_TIME,ARR_DELAY
37997,2015-01-13,0757,0758,1.0
37999,2015-01-13,1808,1804,-4.0
38001,2015-01-13,1220,1220,0.0
38003,2015-01-13,2314,2327,13.0
38120,2015-01-13,2345,2323,-22.0
38121,2015-01-13,2252,2224,-28.0
38135,2015-01-13,0834,0821,-13.0
38137,2015-01-13,1809,1840,31.0
38157,2015-01-13,2212,2155,-17.0
38235,2015-01-13,1045,1026,-19.0
38258,2015-01-13,2202,2128,-34.0
38270,2015-01-13,1600,1525,-35.0
38476,2015-01-13,2140,2144,4.0
38490,2015-01-13,1950,2048,58.0
38497,2015-01-13,1835,1944,69.0
38502,2015-01-13,1316,1307,-9.0
38508,2015-01-13,0803,0941,
38512,2015-01-13,2326,2323,-3.0
38639,2015-01-13,1050,1232,102.0
38743,2015-01-13,1257,1348,51.0
38745,2015-01-13,1709,1705,-4.0
38747,2015-01-13,2154,2135,-19.0
38831,2015-01-13,1450,1554,64.0
38836,2015-01-13,1900,1909,9.0
39505,2015-01-13,0848,1031,103.0
39618,2015-01-13,1840,1837,-3.0
39643,2015-01-13,1154,1210,16.0
39812,2015-01-13,2115,2133,18.0
39820,2015-01-13,2015,2118,63.0
39821,2015-01-13,1010,0953,-17.0
39833,2015-01-13,1605,1556,-9.0
39834,2015-01-13,1040,1044,4.0
39835,2015-01-13,0915,0919,4.0
39836,2015-01-13,0830,0829,-1.0
39837,2015-01-13,1225,1247,22.0
39838,2015-01-13,1330,1324,-6.0
39839,2015-01-13,1745,1741,-4.0
39840,2015-01-13,2220,2211,-9.0
39841,2015-01-13,2120,2114,-6.0
39842,2015-01-13,2035,2015,-20.0
39843,2015-01-13,1825,1834,9.0
39844,2015-01-13,1430,1431,1.0
39866,2015-01-13,2010,1929,-41.0
39873,2015-01-13,1655,1709,14.0
39886,2015-01-13,1345,1311,-34.0
39887,2015-01-13,1925,1855,-30.0
39888,2015-01-13,1045,1021,-24.0
39889,2015-01-13,2300,2222,-38.0
39892,2015-01-13,2015,1955,-20.0
39893,2015-01-13,1010,1004,-6.0
39899,2015-01-13,2235,2228,-7.0
39900,2015-01-13,1150,1157,7.0
39925,2015-01-13,1325,1332,7.0
39926,2015-01-13,1450,1435,-15.0
39927,2015-01-13,1645,1631,-14.0
39928,2015-01-13,1120,1111,-9.0
39929,2015-01-13,2025,2015,-10.0
39930,2015-01-13,2110,2058,-12.0
39931,2015-01-13,1850,1853,3.0
39932,2015-01-13,0730,0711,-19.0
39933,2015-01-13,1015,1010,-5.0
40027,2015-01-13,1205,1159,-6.0
40028,2015-01-13,0825,0822,-3.0
40029,2015-01-13,1825,1818,-7.0
40030,2015-01-13,0930,0938,8.0
40031,2015-01-13,0740,0731,-9.0
40032,2015-01-13,2050,2057,7.0
40033,2015-01-13,1450,1441,-9.0
40034,2015-01-13,1755,1742,-13.0
40035,2015-01-13,1305,1256,-9.0
40036,2015-01-13,1555,1601,6.0
40037,2015-01-13,1935,1949,14.0
40038,2015-01-13,1020,1018,-2.0
40039,2015-01-13,2230,2214,-16.0
40040,2015-01-13,1420,1407,-13.0
40101,2015-01-13,1135,1056,-39.0
40102,2015-01-13,2210,2126,-44.0
40114,2015-01-13,2015,1958,-17.0
40115,2015-01-13,0820,0821,1.0
40146,2015-01-13,1650,,
40147,2015-01-13,2115,2111,-4.0
40148,2015-01-13,0945,1000,15.0
40149,2015-01-13,2240,2242,2.0
40150,2015-01-13,0830,0826,-4.0
40151,2015-01-13,1825,1821,-4.0
40152,2015-01-13,1415,1413,-2.0
40153,2015-01-13,1215,1220,5.0
40322,2015-01-13,1825,1839,14.0
40323,2015-01-13,2140,2132,-8.0
40324,2015-01-13,1215,1217,2.0
40325,2015-01-13,1345,1418,33.0
40326,2015-01-13,0830,0824,-6.0
40327,2015-01-13,1515,1507,-8.0
40328,2015-01-13,1105,1203,58.0
40346,2015-01-13,1010,1007,-3.0
40347,2015-01-13,1440,1433,-7.0
40348,2015-01-13,2015,2020,5.0
40349,2015-01-13,1310,1307,-3.0
40350,2015-01-13,1805,1758,-7.0
40377,2015-01-13,1910,1903,-7.0
40378,2015-01-13,1445,1502,17.0
40379,2015-01-13,1820,1810,-10.0
40380,2015-01-13,1025,1123,58.0
40381,2015-01-13,2200,2158,-2.0
40382,2015-01-13,2055,2045,-10.0
40459,2015-01-13,1825,1814,-11.0
40460,2015-01-13,1430,1437,7.0
40461,2015-01-13,2205,2219,14.0
40462,2015-01-13,0850,1058,128.0
40463,2015-01-13,2000,1947,-13.0
40464,2015-01-13,1310,1308,-2.0
40465,2015-01-13,1115,1106,-9.0
40466,2015-01-13,0815,0820,5.0
40467,2015-01-13,1740,1826,46.0
40468,2015-01-13,1610,1638,28.0
40469,2015-01-13,2240,2238,-2.0
40522,2015-01-13,1010,1009,-1.0
40523,2015-01-13,1540,1558,18.0
40524,2015-01-13,1830,1829,-1.0
40525,2015-01-13,2015,2011,-4.0
40526,2015-01-13,1335,1350,15.0
40647,2015-01-13,1255,1240,-15.0
40648,2015-01-13,2230,2206,-24.0
40649,2015-01-13,1650,1629,-21.0
40650,2015-01-13,0725,0708,-17.0
