,FL_DATE,CRS_ARR_TIME,ARR_TIME,ARR_DELAY
47312,2015-01-16,0757,0751,-6.0
47314,2015-01-16,1808,1814,6.0
47316,2015-01-16,1220,1212,-8.0
47318,2015-01-16,2314,2328,14.0
47438,2015-01-16,2249,2333,44.0
47441,2015-01-16,2345,2304,-41.0
47457,2015-01-16,0834,0818,-16.0
47459,2015-01-16,1809,1802,-7.0
47485,2015-01-16,2212,2206,-6.0
47563,2015-01-16,1600,1545,-15.0
47682,2015-01-16,1045,1040,-5.0
47706,2015-01-16,2254,2244,-10.0
47803,2015-01-16,2034,2035,1.0
47826,2015-01-16,2140,2109,-31.0
47857,2015-01-16,1950,1911,-39.0
47864,2015-01-16,1835,1822,-13.0
47869,2015-01-16,1316,1309,-7.0
47875,2015-01-16,0803,0749,-14.0
47880,2015-01-16,2326,2345,19.0
48130,2015-01-16,1050,1039,-11.0
48133,2015-01-16,1257,1248,-9.0
48135,2015-01-16,1709,1707,-2.0
48137,2015-01-16,2129,2123,-6.0
48227,2015-01-16,1450,1502,12.0
48235,2015-01-16,1900,,
49012,2015-01-16,0848,0844,-4.0
49045,2015-01-16,1154,1144,-10.0
49080,2015-01-16,2208,2158,-10.0
49300,2015-01-16,2015,2010,-5.0
49301,2015-01-16,0820,0814,-6.0
49312,2015-01-16,2115,2111,-4.0
49320,2015-01-16,2015,2013,-2.0
49321,2015-01-16,1010,1028,18.0
49333,2015-01-16,1605,1619,14.0
49334,2015-01-16,1040,1041,1.0
49335,2015-01-16,0915,0912,-3.0
49336,2015-01-16,0830,0811,-19.0
49337,2015-01-16,1225,1228,3.0
49338,2015-01-16,1330,1351,21.0
49339,2015-01-16,1745,1807,22.0
49340,2015-01-16,2220,2228,8.0
49341,2015-01-16,2120,2114,-6.0
49342,2015-01-16,2035,2025,-10.0
49343,2015-01-16,1825,1831,6.0
49344,2015-01-16,1430,1441,11.0
49366,2015-01-16,2010,1950,-20.0
49373,2015-01-16,1655,1716,21.0
49385,2015-01-16,2015,2005,-10.0
49386,2015-01-16,1010,0956,-14.0
49392,2015-01-16,2235,2233,-2.0
49393,2015-01-16,1150,1151,1.0
49419,2015-01-16,1325,1318,-7.0
49420,2015-01-16,1450,1437,-13.0
49421,2015-01-16,1645,1638,-7.0
49422,2015-01-16,1120,1111,-9.0
49423,2015-01-16,2025,2013,-12.0
49424,2015-01-16,2110,2104,-6.0
49425,2015-01-16,1850,1858,8.0
49426,2015-01-16,0730,0723,-7.0
49427,2015-01-16,1015,1009,-6.0
49524,2015-01-16,1205,1153,-12.0
49525,2015-01-16,0825,0818,-7.0
49526,2015-01-16,1825,1844,19.0
49527,2015-01-16,0930,0928,-2.0
49528,2015-01-16,0740,0725,-15.0
49529,2015-01-16,2050,2048,-2.0
49530,2015-01-16,1450,1446,-4.0
49531,2015-01-16,1755,1758,3.0
49532,2015-01-16,1305,1258,-7.0
49533,2015-01-16,1555,1615,20.0
49534,2015-01-16,1935,2029,54.0
49535,2015-01-16,1020,1007,-13.0
49536,2015-01-16,2230,2228,-2.0
49537,2015-01-16,1420,1417,-3.0
49598,2015-01-16,1135,1126,-9.0
49599,2015-01-16,2210,2209,-1.0
49718,2015-01-16,1825,1901,36.0
49719,2015-01-16,2140,2142,2.0
49720,2015-01-16,1215,1211,-4.0
49721,2015-01-16,1345,1345,0.0
49722,2015-01-16,0830,0814,-16.0
49723,2015-01-16,1515,1513,-2.0
49724,2015-01-16,1105,1107,2.0
49742,2015-01-16,1010,1002,-8.0
49743,2015-01-16,1440,1508,28.0
49744,2015-01-16,2015,2242,147.0
49745,2015-01-16,1310,1313,3.0
49746,2015-01-16,1805,1824,19.0
49773,2015-01-16,1910,1920,10.0
49774,2015-01-16,1445,1444,-1.0
49775,2015-01-16,1820,1817,-3.0
49776,2015-01-16,1025,1025,0.0
49777,2015-01-16,2200,2203,3.0
49778,2015-01-16,2055,2053,-2.0
49856,2015-01-16,1825,1832,7.0
49857,2015-01-16,1430,1426,-4.0
49858,2015-01-16,2205,2200,-5.0
49859,2015-01-16,0850,0840,-10.0
49860,2015-01-16,2000,1956,-4.0
49861,2015-01-16,1310,1302,-8.0
49862,2015-01-16,1115,1108,-7.0
49863,2015-01-16,0815,0804,-11.0
49864,2015-01-16,1740,1736,-4.0
49865,2015-01-16,1610,1640,30.0
49866,2015-01-16,2240,2252,12.0
49920,2015-01-16,1010,1001,-9.0
49921,2015-01-16,1540,1604,24.0
49922,2015-01-16,1830,1839,9.0
49923,2015-01-16,2015,2023,8.0
49924,2015-01-16,1335,1327,-8.0
50004,2015-01-16,1345,1355,10.0
50005,2015-01-16,1925,1941,16.0
50006,2015-01-16,1045,1022,-23.0
50007,2015-01-16,2300,2234,-26.0
50074,2015-01-16,1255,1247,-8.0
50075,2015-01-16,2230,2215,-15.0
50076,2015-01-16,1650,1652,2.0
50077,2015-01-16,0725,0718,-7.0
50157,2015-01-16,1650,1839,109.0
50158,2015-01-16,2115,2104,-11.0
50159,2015-01-16,0945,0923,-22.0
50160,2015-01-16,2240,2232,-8.0
50161,2015-01-16,0830,0823,-7.0
50162,2015-01-16,1825,1828,3.0
50163,2015-01-16,1415,1458,43.0
50164,2015-01-16,1215,1159,-16.0
