,FL_DATE,CRS_ARR_TIME,ARR_TIME,ARR_DELAY
3351,2015-01-02,0759,0750,-9.0
3353,2015-01-02,1804,1756,-8.0
3355,2015-01-02,1216,1222,6.0
3357,2015-01-02,2320,2321,1.0
3495,2015-01-02,2255,0055,120.0
3498,2015-01-02,2345,2346,1.0
3518,2015-01-02,0812,0802,-10.0
3519,2015-01-02,1748,1751,3.0
3545,2015-01-02,2203,2207,4.0
3685,2015-01-02,2213,2206,-7.0
3703,2015-01-02,1011,0952,-19.0
3731,2015-01-02,2254,2239,-15.0
3746,2015-01-02,1745,1733,-12.0
3918,2015-01-02,2032,2111,39.0
3960,2015-01-02,2140,2226,46.0
3976,2015-01-02,1950,2242,172.0
3984,2015-01-02,1819,1753,-26.0
3995,2015-01-02,0758,0734,-24.0
3998,2015-01-02,1246,1235,-11.0
4001,2015-01-02,2326,2322,-4.0
4220,2015-01-02,1223,1347,84.0
4221,2015-01-02,1531,1603,32.0
4340,2015-01-02,2059,2242,103.0
4739,2015-01-02,0752,0746,-6.0
5334,2015-01-02,1152,1141,-11.0
5368,2015-01-02,2207,2220,13.0
5604,2015-01-02,1415,1406,-9.0
5605,2015-01-02,2020,2059,39.0
5606,2015-01-02,0945,0959,14.0
5616,2015-01-02,1925,1916,-9.0
5736,2015-01-02,1910,1945,35.0
5737,2015-01-02,1125,1121,-4.0
5738,2015-01-02,1600,1557,-3.0
5739,2015-01-02,0820,0849,29.0
5740,2015-01-02,2225,2236,11.0
5741,2015-01-02,1335,1403,28.0
5742,2015-01-02,0940,0937,-3.0
5760,2015-01-02,2015,2016,1.0
5761,2015-01-02,0850,0840,-10.0
5762,2015-01-02,1240,1321,41.0
5763,2015-01-02,1555,1544,-11.0
5764,2015-01-02,1905,2009,64.0
5765,2015-01-02,1005,0957,-8.0
5792,2015-01-02,2025,2029,4.0
5793,2015-01-02,0730,0715,-15.0
5794,2015-01-02,1305,1259,-6.0
5795,2015-01-02,1030,1043,13.0
5796,2015-01-02,2145,2238,53.0
5797,2015-01-02,1655,1711,16.0
5806,2015-01-02,1005,0946,-19.0
5807,2015-01-02,2015,2032,17.0
5819,2015-01-02,1900,1851,-9.0
5820,2015-01-02,0915,0925,10.0
5821,2015-01-02,1805,1812,7.0
5822,2015-01-02,1545,1555,10.0
5823,2015-01-02,2105,2109,4.0
5824,2015-01-02,0820,1007,107.0
5825,2015-01-02,1040,1044,4.0
5826,2015-01-02,2225,2256,31.0
5827,2015-01-02,1430,1443,13.0
5828,2015-01-02,1705,1709,4.0
5829,2015-01-02,1315,1317,2.0
5830,2015-01-02,1110,1102,-8.0
5870,2015-01-02,1850,1956,66.0
5871,2015-01-02,1010,1002,-8.0
5872,2015-01-02,1330,1330,0.0
5873,2015-01-02,2335,2334,-1.0
5898,2015-01-02,2015,2044,29.0
5899,2015-01-02,1005,1601,356.0
5928,2015-01-02,1110,1055,-15.0
5929,2015-01-02,2355,0001,6.0
5955,2015-01-02,1525,1541,16.0
5956,2015-01-02,0815,0804,-11.0
5957,2015-01-02,2125,2134,9.0
5958,2015-01-02,2010,2150,100.0
5959,2015-01-02,1735,1729,-6.0
5960,2015-01-02,0950,0951,1.0
5961,2015-01-02,1325,1407,42.0
5962,2015-01-02,1140,1133,-7.0
5963,2015-01-02,2310,2259,-11.0
6062,2015-01-02,1900,1852,-8.0
6063,2015-01-02,1105,1119,14.0
6064,2015-01-02,0910,0859,-11.0
6065,2015-01-02,1450,1453,3.0
6066,2015-01-02,1205,1204,-1.0
6067,2015-01-02,2255,2245,-10.0
6068,2015-01-02,1710,1843,93.0
6069,2015-01-02,0730,,
6070,2015-01-02,1340,1342,2.0
6071,2015-01-02,0820,0814,-6.0
6072,2015-01-02,2135,2212,37.0
6073,2015-01-02,1810,1840,30.0
6074,2015-01-02,2035,2034,-1.0
6075,2015-01-02,1545,1559,14.0
6131,2015-01-02,1840,1912,32.0
6140,2015-01-02,2205,2209,4.0
6141,2015-01-02,1935,1940,5.0
6142,2015-01-02,1135,1113,-22.0
6226,2015-01-02,2005,1958,-7.0
6227,2015-01-02,0900,0855,-5.0
6228,2015-01-02,0820,0829,9.0
6229,2015-01-02,1110,,
6230,2015-01-02,1900,1859,-1.0
6231,2015-01-02,1630,1738,68.0
6232,2015-01-02,2210,2235,25.0
6233,2015-01-02,1350,1357,7.0
6234,2015-01-02,1245,1246,1.0
6235,2015-01-02,1535,,
6236,2015-01-02,1800,1812,12.0
6291,2015-01-02,1535,1633,58.0
6292,2015-01-02,1005,0948,-17.0
6293,2015-01-02,2355,0105,70.0
6294,2015-01-02,2015,2038,23.0
6295,2015-01-02,1905,1920,15.0
6296,2015-01-02,1330,1447,77.0
6297,2015-01-02,1810,1854,44.0
6424,2015-01-02,1005,0945,-20.0
6425,2015-01-02,2015,2047,32.0
6426,2015-01-02,1730,1838,68.0
6427,2015-01-02,1445,1512,27.0
6506,2015-01-02,2105,2056,-9.0
6507,2015-01-02,1900,1906,6.0
6508,2015-01-02,1800,1827,27.0
6509,2015-01-02,1225,1223,-2.0
6510,2015-01-02,1500,1504,4.0
6511,2015-01-02,0920,0943,23.0
6512,2015-01-02,2235,2254,19.0
6513,2015-01-02,0820,0816,-4.0
