,FL_DATE,CRS_ARR_TIME,ARR_TIME,ARR_DELAY
76971,2015-01-26,0757,0804,7.0
76973,2015-01-26,1808,1807,-1.0
76975,2015-01-26,1220,1330,70.0
76977,2015-01-26,2314,2316,2.0
77034,2015-01-26,0834,0813,-21.0
77106,2015-01-26,2249,2353,64.0
77108,2015-01-26,2230,2219,-11.0
77109,2015-01-26,2345,2326,-19.0
77120,2015-01-26,1809,1801,-8.0
77145,2015-01-26,2212,2200,-12.0
77227,2015-01-26,2034,2037,3.0
77245,2015-01-26,1045,1029,-16.0
77269,2015-01-26,2254,2239,-15.0
77280,2015-01-26,1600,1538,-22.0
77488,2015-01-26,2140,2140,0.0
77502,2015-01-26,1950,1932,-18.0
77523,2015-01-26,1835,1834,-1.0
77529,2015-01-26,1316,1256,-20.0
77534,2015-01-26,0803,0726,-37.0
77539,2015-01-26,2326,0105,99.0
77665,2015-01-26,1050,1046,-4.0
77787,2015-01-26,1257,1248,-9.0
77789,2015-01-26,1709,1646,-23.0
77791,2015-01-26,2154,2144,-10.0
77886,2015-01-26,1450,1441,-9.0
77893,2015-01-26,1900,1856,-4.0
78664,2015-01-26,0848,0834,-14.0
78748,2015-01-26,1154,1152,-2.0
78780,2015-01-26,2208,2157,-11.0
78942,2015-01-26,1655,1628,-27.0
78955,2015-01-26,1345,1321,-24.0
78956,2015-01-26,1925,1909,-16.0
78957,2015-01-26,1045,1024,-21.0
78981,2015-01-26,2015,1957,-18.0
78982,2015-01-26,1010,1007,-3.0
78988,2015-01-26,2235,2212,-23.0
78989,2015-01-26,1150,1121,-29.0
79015,2015-01-26,1325,1322,-3.0
79016,2015-01-26,1450,1425,-25.0
79017,2015-01-26,1645,1640,-5.0
79018,2015-01-26,1120,1104,-16.0
79019,2015-01-26,2025,2012,-13.0
79020,2015-01-26,2110,2058,-12.0
79021,2015-01-26,1850,1841,-9.0
79022,2015-01-26,0730,0712,-18.0
79023,2015-01-26,1015,1002,-13.0
79077,2015-01-26,1135,1108,-27.0
79078,2015-01-26,2210,2155,-15.0
79125,2015-01-26,1825,1817,-8.0
79126,2015-01-26,1430,1415,-15.0
79127,2015-01-26,2205,2227,22.0
79128,2015-01-26,0850,0836,-14.0
79129,2015-01-26,2000,1937,-23.0
79130,2015-01-26,1310,1252,-18.0
79131,2015-01-26,1115,1059,-16.0
79132,2015-01-26,0815,0757,-18.0
79133,2015-01-26,1740,1730,-10.0
79134,2015-01-26,1610,1556,-14.0
79187,2015-01-26,1010,1005,-5.0
79188,2015-01-26,1540,1537,-3.0
79189,2015-01-26,1830,1835,5.0
79190,2015-01-26,2015,2022,7.0
79191,2015-01-26,1335,1340,5.0
79311,2015-01-26,1255,1315,20.0
79312,2015-01-26,2230,2205,-25.0
79313,2015-01-26,1650,1634,-16.0
79314,2015-01-26,0725,0707,-18.0
79393,2015-01-26,1650,1637,-13.0
79394,2015-01-26,2115,2059,-16.0
79395,2015-01-26,0945,0926,-19.0
79396,2015-01-26,2240,2231,-9.0
79397,2015-01-26,0830,0816,-14.0
79398,2015-01-26,1825,1818,-7.0
79399,2015-01-26,1415,1403,-12.0
79400,2015-01-26,1215,1203,-12.0
79442,2015-01-26,2015,1956,-19.0
79443,2015-01-26,0820,0757,-23.0
79454,2015-01-26,2115,2101,-14.0
79462,2015-01-26,2015,2000,-15.0
79463,2015-01-26,1010,0957,-13.0
79475,2015-01-26,1605,1631,26.0
79476,2015-01-26,1040,1036,-4.0
79477,2015-01-26,0915,0914,-1.0
79478,2015-01-26,0830,0809,-21.0
79479,2015-01-26,1225,1214,-11.0
79480,2015-01-26,1330,1318,-12.0
79481,2015-01-26,1745,1741,-4.0
79482,2015-01-26,2220,2210,-10.0
79483,2015-01-26,2120,2108,-12.0
79484,2015-01-26,2035,2021,-14.0
79485,2015-01-26,1825,1846,21.0
79486,2015-01-26,1430,1417,-13.0
79508,2015-01-26,2010,1941,-29.0
79619,2015-01-26,1825,1835,10.0
79620,2015-01-26,2140,2237,57.0
79621,2015-01-26,1215,1205,-10.0
79622,2015-01-26,1345,1325,-20.0
79623,2015-01-26,0830,0802,-28.0
79624,2015-01-26,1515,1518,3.0
79625,2015-01-26,1105,1054,-11.0
79643,2015-01-26,1010,1020,10.0
79644,2015-01-26,1440,1436,-4.0
79645,2015-01-26,1310,1314,4.0
79646,2015-01-26,1805,1806,1.0
79647,2015-01-26,2015,2014,-1.0
79674,2015-01-26,1910,1849,-21.0
79675,2015-01-26,1445,1428,-17.0
79676,2015-01-26,1820,1753,-27.0
79677,2015-01-26,1025,1026,1.0
79678,2015-01-26,2200,2153,-7.0
79679,2015-01-26,2055,2043,-12.0
79808,2015-01-26,1205,1151,-14.0
79809,2015-01-26,0825,0809,-16.0
79810,2015-01-26,1825,1836,11.0
79811,2015-01-26,0930,0927,-3.0
79812,2015-01-26,0740,0719,-21.0
79813,2015-01-26,2050,2030,-20.0
79814,2015-01-26,1450,1437,-13.0
79815,2015-01-26,1755,1744,-11.0
79816,2015-01-26,1305,1250,-15.0
79817,2015-01-26,1555,1559,4.0
79818,2015-01-26,1935,1926,-9.0
79819,2015-01-26,1020,,
79820,2015-01-26,2230,2226,-4.0
79821,2015-01-26,1420,1407,-13.0
