,FL_DATE,CRS_DEP_TIME,DEP_TIME,DEP_DELAY
40721,2015-01-14,1230,1223,-7.0
40874,2015-01-14,0715,0714,-1.0
41231,2015-01-14,0600,0602,2.0
41282,2015-01-14,0615,0613,-2.0
41557,2015-01-14,2000,2000,0.0
41587,2015-01-14,1451,1445,-6.0
41629,2015-01-14,1005,0957,-8.0
41731,2015-01-14,1110,1057,-13.0
41733,2015-01-14,1720,1711,-9.0
41741,2015-01-14,0600,0553,-7.0
41743,2015-01-14,0923,0916,-7.0
41860,2015-01-14,1725,1713,-12.0
41862,2015-01-14,1010,0959,-11.0
41914,2015-01-14,0530,0524,-6.0
41926,2015-01-14,1315,1320,5.0
41941,2015-01-14,0600,0553,-7.0
41988,2015-01-14,1813,1810,-3.0
42104,2015-01-14,1230,1223,-7.0
42259,2015-01-14,0701,0654,-7.0
42303,2015-01-14,1240,1256,16.0
42347,2015-01-14,0630,0620,-10.0
42369,2015-01-14,1925,1916,-9.0
43322,2015-01-14,0605,0603,-2.0
43323,2015-01-14,1535,1543,8.0
43324,2015-01-14,0920,0917,-3.0
43325,2015-01-14,1730,1726,-4.0
43326,2015-01-14,0710,0716,6.0
43327,2015-01-14,1140,1137,-3.0
43328,2015-01-14,1435,1435,0.0
43329,2015-01-14,1710,1713,3.0
43330,2015-01-14,2025,2021,-4.0
43331,2015-01-14,1100,1100,0.0
43332,2015-01-14,1230,1242,12.0
43333,2015-01-14,0705,0701,-4.0
43334,2015-01-14,1400,1402,2.0
43335,2015-01-14,0945,0941,-4.0
43336,2015-01-14,1040,1036,-4.0
43337,2015-01-14,1605,1609,4.0
43338,2015-01-14,2010,1958,-12.0
43339,2015-01-14,0800,0754,-6.0
43340,2015-01-14,0645,0700,15.0
43341,2015-01-14,1325,1321,-4.0
43342,2015-01-14,1015,1010,-5.0
43343,2015-01-14,1540,1534,-6.0
43344,2015-01-14,0600,0600,0.0
43345,2015-01-14,1845,1844,-1.0
43346,2015-01-14,1045,1044,-1.0
43347,2015-01-14,1955,2003,8.0
43348,2015-01-14,1555,1557,2.0
43349,2015-01-14,2110,2121,11.0
43350,2015-01-14,0600,0559,-1.0
43351,2015-01-14,0750,0746,-4.0
43352,2015-01-14,1230,1229,-1.0
