,FL_DATE,CRS_DEP_TIME,DEP_TIME,DEP_DELAY
46994,2015-01-16,1230,1226,-4.0
47111,2015-01-16,1455,1519,24.0
47156,2015-01-16,0715,0714,-1.0
47548,2015-01-16,0600,0557,-3.0
47624,2015-01-16,0615,0610,-5.0
47898,2015-01-16,2000,2042,42.0
47928,2015-01-16,1451,1542,51.0
47972,2015-01-16,1005,1116,71.0
48085,2015-01-16,1110,1053,-17.0
48087,2015-01-16,1720,1711,-9.0
48095,2015-01-16,0600,0548,-12.0
48097,2015-01-16,0923,0921,-2.0
48222,2015-01-16,1627,1623,-4.0
48224,2015-01-16,1010,1000,-10.0
48285,2015-01-16,0530,0523,-7.0
48297,2015-01-16,1315,1318,3.0
48313,2015-01-16,0600,0557,-3.0
48357,2015-01-16,1813,1919,66.0
48471,2015-01-16,1230,1228,-2.0
48997,2015-01-16,0701,0647,-14.0
49029,2015-01-16,1925,1919,-6.0
49096,2015-01-16,1240,1234,-6.0
49146,2015-01-16,0630,0624,-6.0
49711,2015-01-16,0605,0605,0.0
49712,2015-01-16,1535,1539,4.0
49713,2015-01-16,0920,0919,-1.0
49714,2015-01-16,1730,1740,10.0
49715,2015-01-16,0710,0705,-5.0
49716,2015-01-16,1140,1142,2.0
49717,2015-01-16,1435,1432,-3.0
49718,2015-01-16,1710,1752,42.0
49719,2015-01-16,2025,2032,7.0
49720,2015-01-16,1100,1101,1.0
49721,2015-01-16,1230,1236,6.0
49722,2015-01-16,0705,0705,0.0
49723,2015-01-16,1400,1403,3.0
49724,2015-01-16,0945,0945,0.0
49725,2015-01-16,1040,1041,1.0
49726,2015-01-16,1605,1611,6.0
49727,2015-01-16,2010,2005,-5.0
49728,2015-01-16,0800,0808,8.0
49729,2015-01-16,0645,0645,0.0
49730,2015-01-16,1325,1323,-2.0
49731,2015-01-16,1015,1031,16.0
49732,2015-01-16,1540,1549,9.0
49733,2015-01-16,0600,0558,-2.0
49734,2015-01-16,1845,1842,-3.0
49735,2015-01-16,1045,1044,-1.0
49736,2015-01-16,1955,2033,38.0
49737,2015-01-16,1555,1553,-2.0
49738,2015-01-16,2110,2106,-4.0
49739,2015-01-16,0600,0556,-4.0
49740,2015-01-16,0750,0750,0.0
49741,2015-01-16,1230,1245,15.0
