,FL_DATE,CRS_ARR_TIME,ARR_TIME,ARR_DELAY
31774,2015-01-11,1844,1849,5.0
32342,2015-01-11,2140,2142,2.0
32397,2015-01-11,1315,1302,-13.0
32528,2015-01-11,1900,1846,-14.0
32562,2015-01-11,0905,0855,-10.0
32578,2015-01-11,1450,1451,1.0
32582,2015-01-11,2014,2020,6.0
32587,2015-01-11,0004,2358,-6.0
32596,2015-01-11,1507,1459,-8.0
32598,2015-01-11,0900,0904,4.0
32636,2015-01-11,0900,0844,-16.0
32638,2015-01-11,2147,2220,33.0
32639,2015-01-11,0853,0856,3.0
32640,2015-01-11,0857,0845,-12.0
32641,2015-01-11,1853,1845,-8.0
32674,2015-01-11,1623,1621,-2.0
32678,2015-01-11,1715,1837,82.0
32679,2015-01-11,1006,1016,10.0
32681,2015-01-11,2127,2126,-1.0
32705,2015-01-11,0906,0900,-6.0
32707,2015-01-11,1854,1957,63.0
32765,2015-01-11,1135,1405,150.0
32766,2015-01-11,1400,1451,51.0
32915,2015-01-11,1050,1043,-7.0
33043,2015-01-11,2051,0046,235.0
33073,2015-01-11,1019,1012,-7.0
33243,2015-01-11,1548,1544,-4.0
33306,2015-01-11,2305,0144,159.0
33330,2015-01-11,1850,1842,-8.0
33351,2015-01-11,2122,2157,35.0
33510,2015-01-11,2327,2318,-9.0
33530,2015-01-11,2014,2126,72.0
33539,2015-01-11,1209,1233,24.0
33545,2015-01-11,2156,2209,13.0
33548,2015-01-11,1454,1529,35.0
33557,2015-01-11,1520,1524,4.0
33563,2015-01-11,2136,2151,15.0
33567,2015-01-11,1239,1257,18.0
33568,2015-01-11,1239,1242,3.0
33571,2015-01-11,2007,2006,-1.0
33572,2015-01-11,0913,1200,167.0
33575,2015-01-11,1214,1207,-7.0
33576,2015-01-11,1848,1857,9.0
33578,2015-01-11,1832,1832,0.0
33580,2015-01-11,1220,1225,5.0
33584,2015-01-11,2200,2155,-5.0
33585,2015-01-11,1453,1447,-6.0
33588,2015-01-11,1018,1014,-4.0
33590,2015-01-11,1900,1857,-3.0
33591,2015-01-11,0849,0853,4.0
33592,2015-01-11,2145,2139,-6.0
33594,2015-01-11,1520,1625,65.0
33596,2015-01-11,0857,0852,-5.0
33597,2015-01-11,1451,1458,7.0
33602,2015-01-11,0855,0900,5.0
33603,2015-01-11,1902,1855,-7.0
33607,2015-01-11,1211,1214,3.0
33608,2015-01-11,1508,1508,0.0
33609,2015-01-11,0845,0839,-6.0
33612,2015-01-11,1845,1838,-7.0
33615,2015-01-11,2135,2134,-1.0
33616,2015-01-11,0856,0857,1.0
33620,2015-01-11,1458,1441,-17.0
33623,2015-01-11,0849,0847,-2.0
33630,2015-01-11,1522,1647,85.0
33847,2015-01-11,1815,1839,24.0
33848,2015-01-11,1425,1423,-2.0
33849,2015-01-11,1150,1150,0.0
33850,2015-01-11,1640,1651,11.0
33851,2015-01-11,2145,2246,61.0
33852,2015-01-11,2235,0043,128.0
33853,2015-01-11,1955,2009,14.0
33959,2015-01-11,2345,2356,11.0
33960,2015-01-11,1525,1526,1.0
33961,2015-01-11,1310,1302,-8.0
33962,2015-01-11,1740,1754,14.0
33996,2015-01-11,1815,1826,11.0
33997,2015-01-11,2220,2230,10.0
33998,2015-01-11,1245,1250,5.0
33999,2015-01-11,1535,1553,18.0
34000,2015-01-11,0910,0903,-7.0
34082,2015-01-11,1505,1503,-2.0
34083,2015-01-11,1820,1829,9.0
34084,2015-01-11,2100,2052,-8.0
34085,2015-01-11,1255,1255,0.0
34242,2015-01-11,1225,1221,-4.0
34243,2015-01-11,1120,1144,24.0
34244,2015-01-11,1450,1526,36.0
34245,2015-01-11,1930,1917,-13.0
34246,2015-01-11,1815,1903,48.0
34247,2015-01-11,0925,0913,-12.0
34248,2015-01-11,1620,1635,15.0
34249,2015-01-11,1745,1739,-6.0
34250,2015-01-11,2315,0025,70.0
34251,2015-01-11,1335,1409,34.0
34316,2015-01-11,0045,0059,14.0
34317,2015-01-11,1855,1927,32.0
34318,2015-01-11,1450,1455,5.0
34363,2015-01-11,1350,1347,-3.0
34364,2015-01-11,0920,1331,251.0
34365,2015-01-11,1815,1850,35.0
34366,2015-01-11,2315,2314,-1.0
34421,2015-01-11,1355,1353,-2.0
34422,2015-01-11,2320,0041,81.0
34423,2015-01-11,1030,1043,13.0
34424,2015-01-11,0915,0907,-8.0
34425,2015-01-11,1815,1814,-1.0
34458,2015-01-11,2315,2310,-5.0
34459,2015-01-11,1630,1736,66.0
34460,2015-01-11,1815,1908,53.0
34461,2015-01-11,1255,1345,50.0
34462,2015-01-11,2045,2042,-3.0
34463,2015-01-11,1025,1023,-2.0
34464,2015-01-11,0955,0959,4.0
