,FL_DATE,CRS_ARR_TIME,ARR_TIME,ARR_DELAY
37884,2015-01-13,1844,1830,-14.0
38369,2015-01-13,2246,2235,-11.0
38467,2015-01-13,1315,1303,-12.0
38598,2015-01-13,1900,1846,-14.0
38600,2015-01-13,1509,1450,-19.0
38629,2015-01-13,0905,0855,-10.0
38660,2015-01-13,1507,1506,-1.0
38661,2015-01-13,0900,0905,5.0
38690,2015-01-13,0853,0837,-16.0
38694,2015-01-13,0900,0854,-6.0
38695,2015-01-13,0857,0837,-20.0
38726,2015-01-13,1623,1606,-17.0
38728,2015-01-13,1715,1712,-3.0
38729,2015-01-13,1006,1029,23.0
38752,2015-01-13,0906,0913,7.0
38803,2015-01-13,1135,1240,65.0
38804,2015-01-13,1400,1356,-4.0
39079,2015-01-13,2133,2130,-3.0
39112,2015-01-13,1415,1357,-18.0
39115,2015-01-13,1020,1116,56.0
39145,2015-01-13,1548,1535,-13.0
39156,2015-01-13,2118,2108,-10.0
39289,2015-01-13,1204,1213,9.0
39476,2015-01-13,2327,2323,-4.0
39491,2015-01-13,1834,1827,-7.0
39577,2015-01-13,0856,0852,-4.0
39578,2015-01-13,1453,1436,-17.0
39581,2015-01-13,0849,0842,-7.0
39587,2015-01-13,1522,1521,-1.0
39604,2015-01-13,1209,1206,-3.0
39612,2015-01-13,1454,1526,32.0
39617,2015-01-13,0845,0834,-11.0
39627,2015-01-13,1239,1242,3.0
39633,2015-01-13,0913,0912,-1.0
39636,2015-01-13,1845,1843,-2.0
39638,2015-01-13,1900,1857,-3.0
39639,2015-01-13,1832,1807,-25.0
39644,2015-01-13,1848,1846,-2.0
39647,2015-01-13,1458,1438,-20.0
39648,2015-01-13,1214,1225,11.0
39652,2015-01-13,0849,0843,-6.0
39653,2015-01-13,1520,1616,56.0
39654,2015-01-13,1211,1216,5.0
39655,2015-01-13,0857,0851,-6.0
39656,2015-01-13,1451,1427,-24.0
39660,2015-01-13,1012,1014,2.0
39661,2015-01-13,0913,0916,3.0
39662,2015-01-13,1902,1852,-10.0
39665,2015-01-13,0855,0842,-13.0
39666,2015-01-13,1221,1257,36.0
39667,2015-01-13,1508,1503,-5.0
39668,2015-01-13,1520,1522,2.0
39845,2015-01-13,1505,1449,-16.0
39846,2015-01-13,1820,1819,-1.0
39847,2015-01-13,0925,1009,44.0
39848,2015-01-13,2100,2047,-13.0
39849,2015-01-13,1255,1305,10.0
39850,2015-01-13,1040,1035,-5.0
40041,2015-01-13,1815,1854,39.0
40042,2015-01-13,1425,1421,-4.0
40043,2015-01-13,1640,1633,-7.0
40044,2015-01-13,0825,0825,0.0
40045,2015-01-13,2145,2217,32.0
40046,2015-01-13,0920,0909,-11.0
40047,2015-01-13,2235,2221,-14.0
40048,2015-01-13,1155,1201,6.0
40049,2015-01-13,1955,1954,-1.0
40154,2015-01-13,1310,1318,8.0
40155,2015-01-13,2315,2300,-15.0
40156,2015-01-13,1030,1038,8.0
40157,2015-01-13,1630,1712,42.0
40158,2015-01-13,1815,1805,-10.0
40159,2015-01-13,0915,0853,-22.0
40160,2015-01-13,2045,2045,0.0
40281,2015-01-13,2345,2325,-20.0
40282,2015-01-13,0950,1002,12.0
40283,2015-01-13,1525,1514,-11.0
40284,2015-01-13,1310,1324,14.0
40285,2015-01-13,1740,1735,-5.0
40286,2015-01-13,0850,0905,15.0
40329,2015-01-13,1245,1249,4.0
40330,2015-01-13,1815,1812,-3.0
40331,2015-01-13,2220,2205,-15.0
40332,2015-01-13,1005,1020,15.0
40333,2015-01-13,0900,0904,4.0
40334,2015-01-13,1535,1525,-10.0
40472,2015-01-13,1640,1630,-10.0
40473,2015-01-13,1225,1230,5.0
40474,2015-01-13,0910,0856,-14.0
40475,2015-01-13,1120,1111,-9.0
40476,2015-01-13,1450,1434,-16.0
40477,2015-01-13,1930,1917,-13.0
40478,2015-01-13,1815,1947,92.0
40479,2015-01-13,0945,0926,-19.0
40480,2015-01-13,1745,1740,-5.0
40481,2015-01-13,2315,2302,-13.0
40482,2015-01-13,1335,1321,-14.0
40560,2015-01-13,0925,0912,-13.0
40561,2015-01-13,1450,,
40562,2015-01-13,0045,0026,-19.0
40563,2015-01-13,1855,1849,-6.0
40619,2015-01-13,1110,1155,45.0
40620,2015-01-13,1350,1333,-17.0
40621,2015-01-13,0925,0913,-12.0
40622,2015-01-13,1815,1815,0.0
40623,2015-01-13,2315,2308,-7.0
40691,2015-01-13,1355,1403,8.0
40692,2015-01-13,0900,0847,-13.0
40693,2015-01-13,2320,2338,18.0
40694,2015-01-13,1135,1149,14.0
40695,2015-01-13,1815,1817,2.0
