,FL_DATE,CRS_ARR_TIME,ARR_TIME,ARR_DELAY
80025,2015-01-27,1844,1826,-18.0
80580,2015-01-27,2246,2236,-10.0
80587,2015-01-27,1315,1300,-15.0
80735,2015-01-27,1900,1849,-11.0
80737,2015-01-27,1509,1451,-18.0
80764,2015-01-27,0905,0854,-11.0
80799,2015-01-27,1507,1450,-17.0
80800,2015-01-27,0900,0854,-6.0
80828,2015-01-27,0853,0907,14.0
80832,2015-01-27,0900,0857,-3.0
80863,2015-01-27,1623,1613,-10.0
80865,2015-01-27,1715,1717,2.0
80866,2015-01-27,1006,1016,10.0
80889,2015-01-27,0906,,
80938,2015-01-27,1135,1119,-16.0
80939,2015-01-27,1400,1351,-9.0
81213,2015-01-27,2133,2130,-3.0
81246,2015-01-27,1415,1406,-9.0
81249,2015-01-27,1020,1008,-12.0
81274,2015-01-27,1548,1533,-15.0
81286,2015-01-27,2118,2115,-3.0
81421,2015-01-27,2327,2321,-6.0
81433,2015-01-27,1204,1148,-16.0
81581,2015-01-27,1834,1835,1.0
81612,2015-01-27,0856,0848,-8.0
81613,2015-01-27,1453,,
81616,2015-01-27,0849,0843,-6.0
81622,2015-01-27,1522,1500,-22.0
81639,2015-01-27,1209,1156,-13.0
81647,2015-01-27,1454,1443,-11.0
81652,2015-01-27,0845,0834,-11.0
81666,2015-01-27,1239,1229,-10.0
81672,2015-01-27,0913,0900,-13.0
81675,2015-01-27,1845,1832,-13.0
81677,2015-01-27,1900,1910,10.0
81678,2015-01-27,1832,1812,-20.0
81683,2015-01-27,1848,1850,2.0
81686,2015-01-27,1458,,
81687,2015-01-27,1214,1311,57.0
81691,2015-01-27,0849,0840,-9.0
81692,2015-01-27,1520,1504,-16.0
81693,2015-01-27,1211,1200,-11.0
81694,2015-01-27,0857,0837,-20.0
81695,2015-01-27,1451,1439,-12.0
81699,2015-01-27,1012,1009,-3.0
81700,2015-01-27,0913,0902,-11.0
81701,2015-01-27,1902,1853,-9.0
81704,2015-01-27,0855,0846,-9.0
81705,2015-01-27,1221,1224,3.0
81706,2015-01-27,1508,1502,-6.0
81707,2015-01-27,1520,1515,-5.0
81973,2015-01-27,1505,1504,-1.0
81974,2015-01-27,1820,1819,-1.0
81975,2015-01-27,0925,0919,-6.0
81976,2015-01-27,2100,2100,0.0
81977,2015-01-27,1255,1303,8.0
81978,2015-01-27,1040,1043,3.0
82068,2015-01-27,2345,2332,-13.0
82069,2015-01-27,0950,0949,-1.0
82070,2015-01-27,1525,1520,-5.0
82071,2015-01-27,1310,1306,-4.0
82072,2015-01-27,1740,1739,-1.0
82073,2015-01-27,0850,0853,3.0
82116,2015-01-27,1245,1241,-4.0
82117,2015-01-27,1815,1805,-10.0
82118,2015-01-27,2220,2220,0.0
82119,2015-01-27,1005,1016,11.0
82120,2015-01-27,0900,0853,-7.0
82121,2015-01-27,1535,1526,-9.0
82260,2015-01-27,1640,1633,-7.0
82261,2015-01-27,1225,1220,-5.0
82262,2015-01-27,0910,0924,14.0
82263,2015-01-27,1120,1115,-5.0
82264,2015-01-27,1450,1450,0.0
82265,2015-01-27,1930,1918,-12.0
82266,2015-01-27,1815,1821,6.0
82267,2015-01-27,0945,0930,-15.0
82268,2015-01-27,1745,1739,-6.0
82269,2015-01-27,2315,2305,-10.0
82270,2015-01-27,1335,1318,-17.0
82349,2015-01-27,0925,0925,0.0
82350,2015-01-27,1450,1443,-7.0
82351,2015-01-27,0045,0026,-19.0
82352,2015-01-27,1855,1855,0.0
82409,2015-01-27,1110,1104,-6.0
82410,2015-01-27,1350,1337,-13.0
82411,2015-01-27,0925,0917,-8.0
82412,2015-01-27,1815,1816,1.0
82413,2015-01-27,2315,2310,-5.0
82482,2015-01-27,1355,1350,-5.0
82483,2015-01-27,0900,0854,-6.0
82484,2015-01-27,2320,2307,-13.0
82485,2015-01-27,1135,1131,-4.0
82486,2015-01-27,1815,1803,-12.0
82528,2015-01-27,1310,1305,-5.0
82529,2015-01-27,2315,2255,-20.0
82530,2015-01-27,1030,1022,-8.0
82531,2015-01-27,1630,1629,-1.0
82532,2015-01-27,1815,1822,7.0
82533,2015-01-27,0915,0906,-9.0
82534,2015-01-27,2045,2039,-6.0
82705,2015-01-27,1815,1810,-5.0
82706,2015-01-27,1425,1416,-9.0
82707,2015-01-27,1640,1637,-3.0
82708,2015-01-27,0825,0904,39.0
82709,2015-01-27,2145,2132,-13.0
82710,2015-01-27,0920,0918,-2.0
82711,2015-01-27,2235,2225,-10.0
82712,2015-01-27,1155,1200,5.0
82713,2015-01-27,1955,1951,-4.0
