,FL_DATE,CRS_ARR_TIME,ARR_TIME,ARR_DELAY
92522,2015-01-31,1844,1906,22.0
92894,2015-01-31,2246,2244,-2.0
93161,2015-01-31,1900,1859,-1.0
93164,2015-01-31,1509,1502,-7.0
93187,2015-01-31,0905,0904,-1.0
93205,2015-01-31,2014,2020,6.0
93220,2015-01-31,0900,0856,-4.0
93246,2015-01-31,0853,0844,-9.0
93249,2015-01-31,1714,1711,-3.0
93250,2015-01-31,1853,1852,-1.0
93251,2015-01-31,0900,0908,8.0
93278,2015-01-31,1623,1624,1.0
93279,2015-01-31,1507,1504,-3.0
93282,2015-01-31,1006,1017,11.0
93298,2015-01-31,0906,0901,-5.0
93349,2015-01-31,1400,1416,16.0
93539,2015-01-31,1450,1446,-4.0
93588,2015-01-31,2135,2132,-3.0
93646,2015-01-31,2119,2100,-19.0
93730,2015-01-31,1646,1626,-20.0
93762,2015-01-31,1157,1154,-3.0
93792,2015-01-31,1227,1300,33.0
93954,2015-01-31,1045,1033,-12.0
93955,2015-01-31,1834,1828,-6.0
93974,2015-01-31,1850,1838,-12.0
93993,2015-01-31,2007,1957,-10.0
93997,2015-01-31,0913,0910,-3.0
93998,2015-01-31,1900,1931,31.0
93999,2015-01-31,1832,1821,-11.0
94003,2015-01-31,1848,1853,5.0
94005,2015-01-31,1453,1456,3.0
94009,2015-01-31,0849,0844,-5.0
94010,2015-01-31,1341,1353,12.0
94011,2015-01-31,2145,2204,19.0
94013,2015-01-31,2200,2151,-9.0
94014,2015-01-31,1522,1530,8.0
94016,2015-01-31,1211,1211,0.0
94017,2015-01-31,0857,0840,-17.0
94018,2015-01-31,1451,1456,5.0
94021,2015-01-31,1012,0953,-19.0
94023,2015-01-31,0913,1139,146.0
94024,2015-01-31,1902,1847,-15.0
94027,2015-01-31,2156,2139,-17.0
94029,2015-01-31,0855,0837,-18.0
94030,2015-01-31,1221,1322,61.0
94031,2015-01-31,1508,1526,18.0
94032,2015-01-31,1520,1522,2.0
94034,2015-01-31,1520,1523,3.0
94038,2015-01-31,2135,2124,-11.0
94040,2015-01-31,1458,1452,-6.0
94041,2015-01-31,0856,0842,-14.0
94045,2015-01-31,0849,0839,-10.0
94050,2015-01-31,1845,1836,-9.0
94052,2015-01-31,1214,1221,7.0
94062,2015-01-31,2014,2015,1.0
94070,2015-01-31,1209,1202,-7.0
94077,2015-01-31,1454,1443,-11.0
94084,2015-01-31,0845,0836,-9.0
94224,2015-01-31,1455,1508,13.0
94225,2015-01-31,1215,1311,56.0
94226,2015-01-31,1710,1716,6.0
94227,2015-01-31,0930,0931,1.0
94387,2015-01-31,0920,0917,-3.0
94388,2015-01-31,1345,1354,9.0
94389,2015-01-31,1530,1558,28.0
94390,2015-01-31,1710,1711,1.0
94391,2015-01-31,1205,1248,43.0
94392,2015-01-31,2015,2006,-9.0
94481,2015-01-31,0850,0847,-3.0
94482,2015-01-31,1710,1726,16.0
94483,2015-01-31,1345,1415,30.0
94484,2015-01-31,1110,1112,2.0
94515,2015-01-31,1440,1517,37.0
94516,2015-01-31,0920,0919,-1.0
94517,2015-01-31,1650,1706,16.0
94518,2015-01-31,1145,1155,10.0
94612,2015-01-31,1305,1315,10.0
94613,2015-01-31,1100,1103,3.0
94614,2015-01-31,1550,1548,-2.0
94615,2015-01-31,1435,1426,-9.0
94616,2015-01-31,0920,0916,-4.0
94617,2015-01-31,2035,2040,5.0
94618,2015-01-31,1700,1644,-16.0
94668,2015-01-31,0930,0923,-7.0
94669,2015-01-31,1405,1417,12.0
94670,2015-01-31,1725,1721,-4.0
94708,2015-01-31,1320,1331,11.0
94709,2015-01-31,1710,1713,3.0
94710,2015-01-31,0925,0910,-15.0
94751,2015-01-31,1345,1617,152.0
94752,2015-01-31,0925,0908,-17.0
94753,2015-01-31,1710,1703,-7.0
94782,2015-01-31,1930,1928,-2.0
94783,2015-01-31,0920,0916,-4.0
94784,2015-01-31,1455,1451,-4.0
94785,2015-01-31,1710,1708,-2.0
