,FL_DATE,CRS_ARR_TIME,ARR_TIME,ARR_DELAY
22861,2015-01-08,1844,1839,-5.0
23453,2015-01-08,2140,2137,-3.0
23489,2015-01-08,1315,1313,-2.0
23634,2015-01-08,1900,1859,-1.0
23637,2015-01-08,1509,1538,29.0
23667,2015-01-08,0905,0851,-14.0
23687,2015-01-08,2014,2010,-4.0
23695,2015-01-08,0008,0011,3.0
23704,2015-01-08,1507,1458,-9.0
23706,2015-01-08,0900,0855,-5.0
23741,2015-01-08,2147,2209,22.0
23742,2015-01-08,1853,1842,-11.0
23743,2015-01-08,0900,0859,-1.0
23744,2015-01-08,0857,0902,5.0
23777,2015-01-08,1623,1611,-12.0
23781,2015-01-08,1715,1713,-2.0
23782,2015-01-08,1006,1002,-4.0
23783,2015-01-08,2127,2116,-11.0
23807,2015-01-08,0906,0910,4.0
23809,2015-01-08,1854,1854,0.0
23860,2015-01-08,1145,1205,20.0
23861,2015-01-08,1400,1359,-1.0
24151,2015-01-08,2133,2219,46.0
24184,2015-01-08,1415,1432,17.0
24187,2015-01-08,1020,1025,5.0
24193,2015-01-08,1834,1845,11.0
24220,2015-01-08,1850,1905,15.0
24221,2015-01-08,0853,0909,16.0
24247,2015-01-08,1548,1539,-9.0
24256,2015-01-08,2118,2115,-3.0
24299,2015-01-08,2326,2316,-10.0
24321,2015-01-08,1203,1219,16.0
24684,2015-01-08,1239,1247,8.0
24686,2015-01-08,2136,2156,20.0
24691,2015-01-08,2007,1952,-15.0
24692,2015-01-08,0913,0915,2.0
24695,2015-01-08,1845,1843,-2.0
24697,2015-01-08,1900,1854,-6.0
24698,2015-01-08,1832,1823,-9.0
24703,2015-01-08,1848,1853,5.0
24705,2015-01-08,2200,2152,-8.0
24707,2015-01-08,1458,1448,-10.0
24708,2015-01-08,1214,1250,36.0
24712,2015-01-08,2145,2210,25.0
24714,2015-01-08,1520,1501,-19.0
24716,2015-01-08,1211,1220,9.0
24717,2015-01-08,0857,0902,5.0
24718,2015-01-08,1451,1439,-12.0
24722,2015-01-08,1012,1027,15.0
24724,2015-01-08,1239,1251,12.0
24725,2015-01-08,0913,0902,-11.0
24726,2015-01-08,0849,0846,-3.0
24727,2015-01-08,1902,1858,-4.0
24731,2015-01-08,0855,0854,-1.0
24732,2015-01-08,1221,1248,27.0
24733,2015-01-08,1508,1547,39.0
24734,2015-01-08,1520,1533,13.0
24739,2015-01-08,2135,2119,-16.0
24740,2015-01-08,0856,0850,-6.0
24743,2015-01-08,1453,1438,-15.0
24746,2015-01-08,0849,0852,3.0
24754,2015-01-08,1522,1507,-15.0
24768,2015-01-08,2014,2011,-3.0
24777,2015-01-08,1209,1218,9.0
24783,2015-01-08,2156,2222,26.0
24786,2015-01-08,1454,1751,177.0
24791,2015-01-08,0845,0859,14.0
24999,2015-01-08,1505,1505,0.0
25000,2015-01-08,1820,1819,-1.0
25001,2015-01-08,0925,0920,-5.0
25002,2015-01-08,2100,2207,67.0
25003,2015-01-08,1255,1307,12.0
25004,2015-01-08,1040,1044,4.0
25206,2015-01-08,1815,1816,1.0
25207,2015-01-08,1425,1421,-4.0
25208,2015-01-08,1640,1645,5.0
25209,2015-01-08,0825,0829,4.0
25210,2015-01-08,2145,2131,-14.0
25211,2015-01-08,0920,0914,-6.0
25212,2015-01-08,2235,2253,18.0
25213,2015-01-08,1155,1216,21.0
25214,2015-01-08,1955,1951,-4.0
25319,2015-01-08,1640,1628,-12.0
25320,2015-01-08,1225,1229,4.0
25321,2015-01-08,0910,0910,0.0
25322,2015-01-08,1120,1122,2.0
25323,2015-01-08,1450,1448,-2.0
25324,2015-01-08,1930,1934,4.0
25325,2015-01-08,1815,1817,2.0
25326,2015-01-08,0945,0934,-11.0
25327,2015-01-08,1745,1737,-8.0
25328,2015-01-08,2315,0022,67.0
25329,2015-01-08,1335,1337,2.0
25408,2015-01-08,0925,0931,6.0
25409,2015-01-08,1450,1446,-4.0
25410,2015-01-08,0045,0033,-12.0
25411,2015-01-08,1855,1907,12.0
25468,2015-01-08,1110,1127,17.0
25469,2015-01-08,1350,1349,-1.0
25470,2015-01-08,0925,0925,0.0
25471,2015-01-08,1815,1833,18.0
25472,2015-01-08,2315,2309,-6.0
25541,2015-01-08,1355,1404,9.0
25542,2015-01-08,0900,0906,6.0
25543,2015-01-08,2320,2306,-14.0
25544,2015-01-08,1135,1146,11.0
25545,2015-01-08,1815,1821,6.0
25587,2015-01-08,1310,1320,10.0
25588,2015-01-08,2315,2304,-11.0
25589,2015-01-08,1030,1038,8.0
25590,2015-01-08,1630,1637,7.0
25591,2015-01-08,1815,1810,-5.0
25592,2015-01-08,0915,0907,-8.0
25593,2015-01-08,2045,2039,-6.0
25713,2015-01-08,2345,2354,9.0
25714,2015-01-08,0950,1002,12.0
25715,2015-01-08,1525,1529,4.0
25716,2015-01-08,1310,1302,-8.0
25717,2015-01-08,1740,1741,1.0
25718,2015-01-08,0850,0846,-4.0
25761,2015-01-08,1245,1316,31.0
25762,2015-01-08,1815,1822,7.0
25763,2015-01-08,2220,2215,-5.0
25764,2015-01-08,1005,1018,13.0
25765,2015-01-08,0900,0913,13.0
25766,2015-01-08,1535,1531,-4.0
