,FL_DATE,CRS_DEP_TIME,DEP_TIME,DEP_DELAY
73692,2015-01-25,0900,0903,3.0
73694,2015-01-25,1230,1221,-9.0
73696,2015-01-25,0700,0652,-8.0
73700,2015-01-25,0800,0756,-4.0
73703,2015-01-25,1100,1055,-5.0
73705,2015-01-25,1845,2005,80.0
73715,2015-01-25,0800,0750,-10.0
73718,2015-01-25,1445,1444,-1.0
73721,2015-01-25,1630,1637,7.0
73739,2015-01-25,1955,2012,17.0
73749,2015-01-25,1530,1526,-4.0
73753,2015-01-25,1720,1714,-6.0
73770,2015-01-25,0600,0636,36.0
73772,2015-01-25,1745,1741,-4.0
73773,2015-01-25,1030,1023,-7.0
73775,2015-01-25,1730,1725,-5.0
73778,2015-01-25,2055,2102,7.0
73790,2015-01-25,1945,1940,-5.0
73824,2015-01-25,1000,0953,-7.0
74155,2015-01-25,0705,0658,-7.0
74159,2015-01-25,0815,0812,-3.0
74167,2015-01-25,1640,1639,-1.0
74174,2015-01-25,0630,0626,-4.0
74176,2015-01-25,1355,1536,101.0
74177,2015-01-25,0940,0937,-3.0
74186,2015-01-25,1555,1623,28.0
74192,2015-01-25,1730,1730,0.0
74197,2015-01-25,1635,1655,20.0
74202,2015-01-25,0945,0940,-5.0
74206,2015-01-25,1125,1121,-4.0
74210,2015-01-25,1835,1846,11.0
74216,2015-01-25,1833,1823,-10.0
74222,2015-01-25,2140,2148,8.0
74229,2015-01-25,1810,1804,-6.0
74236,2015-01-25,2029,2109,40.0
74270,2015-01-25,1941,1940,-1.0
74272,2015-01-25,1701,1705,4.0
74274,2015-01-25,0918,0942,24.0
74309,2015-01-25,0700,0656,-4.0
74321,2015-01-25,1630,1630,0.0
74322,2015-01-25,1700,1710,10.0
74323,2015-01-25,0920,0921,1.0
74324,2015-01-25,1525,1526,1.0
74325,2015-01-25,2110,2106,-4.0
74326,2015-01-25,1430,1424,-6.0
74327,2015-01-25,1130,1130,0.0
74328,2015-01-25,1900,1859,-1.0
74329,2015-01-25,1135,1124,-11.0
74330,2015-01-25,1830,1829,-1.0
74332,2015-01-25,0900,0858,-2.0
74333,2015-01-25,0815,0810,-5.0
74504,2015-01-25,1845,1859,14.0
75202,2015-01-25,1530,1620,50.0
75203,2015-01-25,1729,1822,53.0
75204,2015-01-25,1822,1843,21.0
75211,2015-01-25,1707,1703,-4.0
75248,2015-01-25,1129,1125,-4.0
75262,2015-01-25,1200,1154,-6.0
75281,2015-01-25,1430,1429,-1.0
75544,2015-01-25,1400,1352,-8.0
75586,2015-01-25,0605,0553,-12.0
75594,2015-01-25,0830,0829,-1.0
75595,2015-01-25,1950,2039,49.0
75772,2015-01-25,0730,0724,-6.0
75801,2015-01-25,1030,1023,-7.0
75807,2015-01-25,1630,1635,5.0
75808,2015-01-25,1850,1900,10.0
75835,2015-01-25,0920,0919,-1.0
75836,2015-01-25,1300,1257,-3.0
75838,2015-01-25,1655,1702,7.0
75839,2015-01-25,2001,2014,13.0
