,FL_DATE,CRS_DEP_TIME,DEP_TIME,DEP_DELAY
52948,2015-01-18,0600,0557,-3.0
52950,2015-01-18,0720,0720,0.0
52956,2015-01-18,0635,0641,6.0
52958,2015-01-18,0845,0841,-4.0
52960,2015-01-18,1855,1854,-1.0
52961,2015-01-18,1755,1751,-4.0
52964,2015-01-18,1155,1319,84.0
52966,2015-01-18,1525,1524,-1.0
52971,2015-01-18,1405,1505,60.0
52972,2015-01-18,0955,1002,7.0
52973,2015-01-18,0605,0626,21.0
52975,2015-01-18,1550,1543,-7.0
52976,2015-01-18,1210,1210,0.0
52977,2015-01-18,1805,1802,-3.0
52981,2015-01-18,2025,2024,-1.0
52984,2015-01-18,0600,0550,-10.0
52986,2015-01-18,1610,1610,0.0
52988,2015-01-18,1020,1033,13.0
52990,2015-01-18,2120,2117,-3.0
52992,2015-01-18,1425,1421,-4.0
52996,2015-01-18,1935,2032,57.0
52997,2015-01-18,0900,0856,-4.0
53015,2015-01-18,1000,0953,-7.0
53017,2015-01-18,1755,1823,28.0
53022,2015-01-18,0910,0920,10.0
53023,2015-01-18,0630,0623,-7.0
53025,2015-01-18,1110,1104,-6.0
53026,2015-01-18,0610,0600,-10.0
53028,2015-01-18,1955,1956,1.0
53030,2015-01-18,1200,1154,-6.0
53033,2015-01-18,1855,1858,3.0
53035,2015-01-18,0700,0658,-2.0
53037,2015-01-18,1420,1421,1.0
53041,2015-01-18,1745,1741,-4.0
53043,2015-01-18,0750,0753,3.0
53044,2015-01-18,1955,1952,-3.0
53046,2015-01-18,1100,1054,-6.0
53048,2015-01-18,1330,1347,17.0
53050,2015-01-18,1215,1212,-3.0
53052,2015-01-18,0900,0854,-6.0
53054,2015-01-18,1350,1345,-5.0
53056,2015-01-18,1650,1740,50.0
53058,2015-01-18,1950,1954,4.0
53059,2015-01-18,0750,0744,-6.0
53061,2015-01-18,1940,2009,29.0
53064,2015-01-18,1450,1446,-4.0
53067,2015-01-18,0810,0806,-4.0
53068,2015-01-18,1205,1207,2.0
53103,2015-01-18,0650,1011,201.0
53137,2015-01-18,1141,1130,-11.0
53194,2015-01-18,1725,1722,-3.0
53683,2015-01-18,1934,2021,47.0
53689,2015-01-18,1855,2142,167.0
53693,2015-01-18,0850,0851,1.0
53709,2015-01-18,1415,1643,148.0
53711,2015-01-18,0800,,
53724,2015-01-18,1430,1422,-8.0
53763,2015-01-18,0815,0806,-9.0
53838,2015-01-18,1815,1830,15.0
53863,2015-01-18,0925,0925,0.0
53982,2015-01-18,1255,1303,8.0
54126,2015-01-18,1250,1333,43.0
54206,2015-01-18,1621,1613,-8.0
54266,2015-01-18,1703,1657,-6.0
54403,2015-01-18,0730,0826,56.0
54460,2015-01-18,0930,0932,2.0
54483,2015-01-18,1416,1447,31.0
54741,2015-01-18,0840,0913,33.0
54742,2015-01-18,1710,1706,-4.0
54743,2015-01-18,1935,1944,9.0
54746,2015-01-18,0805,0800,-5.0
54748,2015-01-18,1700,1658,-2.0
55326,2015-01-18,1340,1338,-2.0
55327,2015-01-18,1630,1631,1.0
55328,2015-01-18,1815,1824,9.0
55329,2015-01-18,1135,1134,-1.0
55330,2015-01-18,0635,0632,-3.0
55331,2015-01-18,1915,2015,60.0
55332,2015-01-18,1045,1042,-3.0
55333,2015-01-18,1755,1801,6.0
55334,2015-01-18,0900,0907,7.0
55335,2015-01-18,1315,1313,-2.0
55336,2015-01-18,2005,2127,82.0
