,FL_DATE,CRS_DEP_TIME,DEP_TIME,DEP_DELAY
55818,2015-01-19,1425,1423,-2.0
55822,2015-01-19,1935,1935,0.0
55823,2015-01-19,0900,0900,0.0
55841,2015-01-19,1000,1020,20.0
55847,2015-01-19,0910,0909,-1.0
55849,2015-01-19,1655,1649,-6.0
55850,2015-01-19,1110,1107,-3.0
55851,2015-01-19,0610,0608,-2.0
55853,2015-01-19,1955,1950,-5.0
55855,2015-01-19,1200,1218,18.0
55858,2015-01-19,1855,1854,-1.0
55860,2015-01-19,0700,0654,-6.0
55862,2015-01-19,1420,1431,11.0
55866,2015-01-19,1745,1739,-6.0
55868,2015-01-19,0750,0750,0.0
55869,2015-01-19,1955,1951,-4.0
55871,2015-01-19,1100,1052,-8.0
55873,2015-01-19,1330,1325,-5.0
55875,2015-01-19,1215,1219,4.0
55877,2015-01-19,0900,0855,-5.0
55878,2015-01-19,0615,0605,-10.0
55880,2015-01-19,1350,1347,-3.0
55882,2015-01-19,1650,1642,-8.0
55884,2015-01-19,1950,1945,-5.0
55886,2015-01-19,0750,0746,-4.0
55888,2015-01-19,1940,1936,-4.0
55891,2015-01-19,1450,1520,30.0
55894,2015-01-19,0810,0812,2.0
55930,2015-01-19,0650,0645,-5.0
55950,2015-01-19,0600,0553,-7.0
55952,2015-01-19,0720,0724,4.0
55957,2015-01-19,0635,0630,-5.0
55959,2015-01-19,0845,0848,3.0
55960,2015-01-19,1855,1904,9.0
55961,2015-01-19,1755,1755,0.0
55964,2015-01-19,1155,1244,49.0
55970,2015-01-19,1405,1401,-4.0
55971,2015-01-19,0955,1158,123.0
55972,2015-01-19,0605,0637,32.0
55974,2015-01-19,1550,1545,-5.0
55975,2015-01-19,1210,1206,-4.0
55977,2015-01-19,1805,1817,12.0
55979,2015-01-19,0905,0907,2.0
55981,2015-01-19,2025,2021,-4.0
55984,2015-01-19,0600,0553,-7.0
55986,2015-01-19,1610,1616,6.0
55988,2015-01-19,1020,1031,11.0
55990,2015-01-19,2120,2115,-5.0
56008,2015-01-19,1141,1132,-9.0
56065,2015-01-19,1725,1720,-5.0
56330,2015-01-19,1233,1231,-2.0
56609,2015-01-19,1855,1846,-9.0
56613,2015-01-19,0850,0852,2.0
56631,2015-01-19,1415,1411,-4.0
56633,2015-01-19,0800,0809,9.0
56646,2015-01-19,1430,1419,-11.0
56690,2015-01-19,0815,0808,-7.0
56778,2015-01-19,1815,1821,6.0
56809,2015-01-19,0925,0918,-7.0
56811,2015-01-19,1459,1506,7.0
56813,2015-01-19,0700,0653,-7.0
56928,2015-01-19,1203,1158,-5.0
57098,2015-01-19,0730,0838,68.0
57115,2015-01-19,1703,1707,4.0
57179,2015-01-19,1621,1614,-7.0
57243,2015-01-19,0520,0521,1.0
57250,2015-01-19,1416,1414,-2.0
57300,2015-01-19,0930,0923,-7.0
57397,2015-01-19,1255,1301,6.0
57493,2015-01-19,1834,1834,0.0
57669,2015-01-19,0700,0702,2.0
57676,2015-01-19,0730,0839,69.0
57743,2015-01-19,1050,1116,26.0
57744,2015-01-19,1710,1704,-6.0
57745,2015-01-19,1935,1942,7.0
57749,2015-01-19,1020,1029,9.0
57751,2015-01-19,1700,1704,4.0
58380,2015-01-19,0805,0805,0.0
58381,2015-01-19,1340,1346,6.0
58382,2015-01-19,1630,1656,26.0
58383,2015-01-19,1815,1817,2.0
58384,2015-01-19,1135,1136,1.0
58385,2015-01-19,1105,1100,-5.0
58386,2015-01-19,0635,0630,-5.0
58387,2015-01-19,1915,1917,2.0
58388,2015-01-19,0600,0600,0.0
58389,2015-01-19,1755,1753,-2.0
58390,2015-01-19,2005,2008,3.0
58391,2015-01-19,0700,0656,-4.0
58392,2015-01-19,1315,1316,1.0
