,FL_DATE,CRS_DEP_TIME,DEP_TIME,DEP_DELAY
73982,2015-01-25,0600,0557,-3.0
73984,2015-01-25,0720,0714,-6.0
73990,2015-01-25,0635,0632,-3.0
73992,2015-01-25,0845,0841,-4.0
73994,2015-01-25,1855,1851,-4.0
73995,2015-01-25,1755,1745,-10.0
73998,2015-01-25,1155,1155,0.0
74000,2015-01-25,1525,1522,-3.0
74005,2015-01-25,1405,1520,75.0
74006,2015-01-25,0955,0944,-11.0
74007,2015-01-25,0605,0551,-14.0
74009,2015-01-25,1550,1550,0.0
74010,2015-01-25,1210,1203,-7.0
74011,2015-01-25,1805,1801,-4.0
74015,2015-01-25,2025,2020,-5.0
74018,2015-01-25,0600,0554,-6.0
74020,2015-01-25,1610,1604,-6.0
74022,2015-01-25,1020,1011,-9.0
74024,2015-01-25,2120,2115,-5.0
74026,2015-01-25,1425,1422,-3.0
74030,2015-01-25,1935,1929,-6.0
74031,2015-01-25,0900,0926,26.0
74049,2015-01-25,1000,0955,-5.0
74051,2015-01-25,1755,1750,-5.0
74056,2015-01-25,0910,0903,-7.0
74057,2015-01-25,0630,0623,-7.0
74059,2015-01-25,1110,1109,-1.0
74060,2015-01-25,0610,0602,-8.0
74062,2015-01-25,1955,1948,-7.0
74064,2015-01-25,1200,1151,-9.0
74067,2015-01-25,1855,1845,-10.0
74069,2015-01-25,0700,0652,-8.0
74071,2015-01-25,1420,1416,-4.0
74075,2015-01-25,1745,1739,-6.0
74077,2015-01-25,0750,0745,-5.0
74078,2015-01-25,1955,1949,-6.0
74080,2015-01-25,1100,1056,-4.0
74082,2015-01-25,1330,1317,-13.0
74084,2015-01-25,1215,1207,-8.0
74086,2015-01-25,0900,0901,1.0
74088,2015-01-25,1350,1345,-5.0
74090,2015-01-25,1650,1641,-9.0
74092,2015-01-25,1950,1943,-7.0
74093,2015-01-25,0750,0745,-5.0
74095,2015-01-25,1940,1942,2.0
74098,2015-01-25,1450,1445,-5.0
74101,2015-01-25,0810,0810,0.0
74102,2015-01-25,1205,1154,-11.0
74136,2015-01-25,0650,0645,-5.0
74171,2015-01-25,1141,1125,-16.0
74228,2015-01-25,1725,1904,99.0
74314,2015-01-25,1233,1233,0.0
74749,2015-01-25,1934,1928,-6.0
74757,2015-01-25,1855,1849,-6.0
74761,2015-01-25,0850,0841,-9.0
74778,2015-01-25,1415,1405,-10.0
74780,2015-01-25,0800,0750,-10.0
74793,2015-01-25,1430,1424,-6.0
74838,2015-01-25,0815,0810,-5.0
74924,2015-01-25,1815,1843,28.0
74953,2015-01-25,0925,0920,-5.0
74955,2015-01-25,1459,1450,-9.0
74957,2015-01-25,0700,0655,-5.0
75074,2015-01-25,1255,1254,-1.0
75227,2015-01-25,1621,1625,4.0
75274,2015-01-25,1416,1406,-10.0
75442,2015-01-25,1703,1707,4.0
75495,2015-01-25,0730,0721,-9.0
75542,2015-01-25,1250,1243,-7.0
75578,2015-01-25,0930,0917,-13.0
75859,2015-01-25,0840,0834,-6.0
75860,2015-01-25,1710,1707,-3.0
75861,2015-01-25,1935,1932,-3.0
75864,2015-01-25,0805,0801,-4.0
75866,2015-01-25,1700,1657,-3.0
76465,2015-01-25,1340,1340,0.0
76466,2015-01-25,1630,1629,-1.0
76467,2015-01-25,1815,1818,3.0
76468,2015-01-25,1135,1130,-5.0
76469,2015-01-25,0635,0630,-5.0
76470,2015-01-25,1915,1913,-2.0
76471,2015-01-25,1045,1040,-5.0
76472,2015-01-25,1755,1750,-5.0
76473,2015-01-25,0900,0858,-2.0
76474,2015-01-25,1315,1314,-1.0
76475,2015-01-25,2005,2000,-5.0
