,FL_DATE,CRS_DEP_TIME,DEP_TIME,DEP_DELAY
76937,2015-01-26,0600,0555,-5.0
76939,2015-01-26,0720,0713,-7.0
76944,2015-01-26,0635,0625,-10.0
76946,2015-01-26,0845,0842,-3.0
76947,2015-01-26,1855,1848,-7.0
76948,2015-01-26,1755,1755,0.0
76952,2015-01-26,1155,1312,77.0
76957,2015-01-26,1405,1400,-5.0
76958,2015-01-26,0955,0950,-5.0
76959,2015-01-26,0605,0600,-5.0
76961,2015-01-26,1550,1602,12.0
76962,2015-01-26,1210,1204,-6.0
76964,2015-01-26,1805,1801,-4.0
76966,2015-01-26,0905,0859,-6.0
76968,2015-01-26,2025,2020,-5.0
76971,2015-01-26,0600,0556,-4.0
76973,2015-01-26,1610,1606,-4.0
76975,2015-01-26,1020,1126,66.0
76977,2015-01-26,2120,2118,-2.0
76979,2015-01-26,1425,1420,-5.0
76983,2015-01-26,1935,1933,-2.0
76984,2015-01-26,0900,0854,-6.0
77002,2015-01-26,1000,0958,-2.0
77008,2015-01-26,0910,0910,0.0
77010,2015-01-26,1655,1652,-3.0
77011,2015-01-26,1110,1104,-6.0
77012,2015-01-26,0610,0608,-2.0
77014,2015-01-26,1955,1954,-1.0
77016,2015-01-26,1200,1157,-3.0
77019,2015-01-26,1855,1852,-3.0
77021,2015-01-26,0700,0700,0.0
77023,2015-01-26,1420,1457,37.0
77037,2015-01-26,1745,1740,-5.0
77039,2015-01-26,0750,0748,-2.0
77040,2015-01-26,1955,1945,-10.0
77042,2015-01-26,1100,1056,-4.0
77044,2015-01-26,1330,1325,-5.0
77046,2015-01-26,1215,1209,-6.0
77048,2015-01-26,0900,1031,91.0
77049,2015-01-26,0615,0603,-12.0
77051,2015-01-26,1350,1344,-6.0
77053,2015-01-26,1650,1648,-2.0
77055,2015-01-26,1950,1945,-5.0
77057,2015-01-26,0750,0748,-2.0
77059,2015-01-26,1940,2113,93.0
77062,2015-01-26,1450,1445,-5.0
77065,2015-01-26,0810,0824,14.0
77100,2015-01-26,0650,0648,-2.0
77126,2015-01-26,1141,1130,-11.0
77183,2015-01-26,1725,1722,-3.0
77332,2015-01-26,1233,1230,-3.0
77720,2015-01-26,1855,1855,0.0
77724,2015-01-26,0850,0846,-4.0
77741,2015-01-26,1415,1410,-5.0
77743,2015-01-26,0800,0750,-10.0
77756,2015-01-26,1430,1425,-5.0
77802,2015-01-26,0815,0807,-8.0
77861,2015-01-26,1815,1758,-17.0
77923,2015-01-26,0925,0934,9.0
77925,2015-01-26,1459,1514,15.0
77927,2015-01-26,0700,0703,3.0
78045,2015-01-26,1203,1241,38.0
78222,2015-01-26,0730,0719,-11.0
78234,2015-01-26,1125,1203,38.0
78245,2015-01-26,1718,1711,-7.0
78282,2015-01-26,0520,0514,-6.0
78317,2015-01-26,1621,1615,-6.0
78339,2015-01-26,1416,1412,-4.0
78369,2015-01-26,0930,0920,-10.0
78431,2015-01-26,1255,1253,-2.0
78530,2015-01-26,1834,1832,-2.0
78799,2015-01-26,1020,1012,-8.0
78801,2015-01-26,1700,1651,-9.0
78860,2015-01-26,0700,0658,-2.0
78867,2015-01-26,0730,0726,-4.0
78934,2015-01-26,1050,1041,-9.0
78935,2015-01-26,1710,1704,-6.0
78936,2015-01-26,1935,1931,-4.0
79187,2015-01-26,0805,0800,-5.0
79188,2015-01-26,1340,1336,-4.0
79189,2015-01-26,1630,1627,-3.0
79190,2015-01-26,1815,1813,-2.0
79191,2015-01-26,1135,1133,-2.0
79192,2015-01-26,1105,1057,-8.0
79193,2015-01-26,0635,0627,-8.0
79194,2015-01-26,1915,1910,-5.0
79195,2015-01-26,0600,0554,-6.0
79196,2015-01-26,1755,1754,-1.0
79197,2015-01-26,2005,1958,-7.0
79198,2015-01-26,0700,0656,-4.0
79199,2015-01-26,1315,1337,22.0
