,FL_DATE,CRS_DEP_TIME,DEP_TIME,DEP_DELAY
92603,2015-01-31,0600,0555,-5.0
92605,2015-01-31,0720,0811,51.0
92611,2015-01-31,0635,0630,-5.0
92613,2015-01-31,0845,0846,1.0
92615,2015-01-31,1855,1900,5.0
92616,2015-01-31,1755,1749,-6.0
92620,2015-01-31,1155,1155,0.0
92625,2015-01-31,1405,1419,14.0
92626,2015-01-31,0955,0951,-4.0
92627,2015-01-31,0605,0603,-2.0
92629,2015-01-31,1550,1545,-5.0
92630,2015-01-31,1210,1204,-6.0
92632,2015-01-31,1805,1806,1.0
92634,2015-01-31,0905,0907,2.0
92638,2015-01-31,0600,0638,38.0
92640,2015-01-31,1610,1605,-5.0
92642,2015-01-31,1020,1017,-3.0
92644,2015-01-31,2120,2121,1.0
92646,2015-01-31,1425,1422,-3.0
92649,2015-01-31,1935,1932,-3.0
92650,2015-01-31,0900,0856,-4.0
92666,2015-01-31,1000,1004,4.0
92668,2015-01-31,1755,1826,31.0
92669,2015-01-31,0910,0904,-6.0
92671,2015-01-31,1655,1853,118.0
92672,2015-01-31,1110,1109,-1.0
92673,2015-01-31,0610,0616,6.0
92675,2015-01-31,1955,1957,2.0
92680,2015-01-31,1855,1853,-2.0
92682,2015-01-31,0700,0657,-3.0
92684,2015-01-31,1420,1418,-2.0
92686,2015-01-31,1745,1743,-2.0
92688,2015-01-31,0750,0749,-1.0
92689,2015-01-31,1955,1950,-5.0
92691,2015-01-31,1100,1056,-4.0
92693,2015-01-31,1330,1404,34.0
92695,2015-01-31,1215,1257,42.0
92697,2015-01-31,0900,0854,-6.0
92698,2015-01-31,0615,0611,-4.0
92700,2015-01-31,1350,1430,40.0
92702,2015-01-31,1650,1644,-6.0
92704,2015-01-31,1950,1940,-10.0
92706,2015-01-31,0750,0748,-2.0
92708,2015-01-31,1940,2006,26.0
92711,2015-01-31,1450,1444,-6.0
92714,2015-01-31,0810,0808,-2.0
92715,2015-01-31,1205,1158,-7.0
92749,2015-01-31,0650,0646,-4.0
92785,2015-01-31,1141,1136,-5.0
92826,2015-01-31,1725,1718,-7.0
92905,2015-01-31,1234,1233,-1.0
92951,2015-01-31,0630,0624,-6.0
93200,2015-01-31,1133,1231,58.0
93241,2015-01-31,1855,1849,-6.0
93245,2015-01-31,0850,1329,279.0
93258,2015-01-31,1415,1408,-7.0
93260,2015-01-31,0800,1007,127.0
93272,2015-01-31,1430,1823,233.0
93301,2015-01-31,0815,0813,-2.0
93398,2015-01-31,1329,1521,112.0
93504,2015-01-31,1208,1300,52.0
93633,2015-01-31,0545,0546,1.0
93645,2015-01-31,1415,1603,108.0
93735,2015-01-31,0730,0720,-10.0
93744,2015-01-31,1706,1657,-9.0
93825,2015-01-31,0930,1217,167.0
94152,2015-01-31,0730,0722,-8.0
94153,2015-01-31,1050,1054,4.0
94155,2015-01-31,1055,1056,1.0
94156,2015-01-31,1700,1649,-11.0
94642,2015-01-31,1700,1703,3.0
94643,2015-01-31,1425,1501,36.0
94644,2015-01-31,0810,0808,-2.0
94645,2015-01-31,0730,0727,-3.0
94646,2015-01-31,1900,1929,29.0
94647,2015-01-31,1000,0959,-1.0
94648,2015-01-31,1555,1555,0.0
94649,2015-01-31,0730,0727,-3.0
