,FL_DATE,CRS_DEP_TIME,DEP_TIME,DEP_DELAY
152,2015-01-01,1500,1447,-13.0
157,2015-01-01,0750,0805,15.0
224,2015-01-01,0600,0611,11.0
247,2015-01-01,1155,1207,12.0
344,2015-01-01,1330,1324,-6.0
345,2015-01-01,1655,1643,-12.0
348,2015-01-01,0715,0710,-5.0
351,2015-01-01,1130,1124,-6.0
469,2015-01-01,1010,0957,-13.0
471,2015-01-01,1955,2000,5.0
528,2015-01-01,1949,2111,82.0
540,2015-01-01,0914,0910,-4.0
648,2015-01-01,1145,1145,0.0
731,2015-01-01,0615,0608,-7.0
737,2015-01-01,1252,1250,-2.0
744,2015-01-01,2355,2355,0.0
794,2015-01-01,0920,0929,9.0
812,2015-01-01,2348,2359,11.0
871,2015-01-01,0920,1010,50.0
922,2015-01-01,1840,1843,3.0
934,2015-01-01,1240,1235,-5.0
939,2015-01-01,0600,0551,-9.0
956,2015-01-01,1545,1539,-6.0
969,2015-01-01,0925,0930,5.0
991,2015-01-01,1700,1724,24.0
1023,2015-01-01,1507,1546,39.0
1173,2015-01-01,1833,1846,13.0
1216,2015-01-01,0600,,
1237,2015-01-01,1735,1725,-10.0
1242,2015-01-01,1025,1021,-4.0
1332,2015-01-01,1310,1427,77.0
1435,2015-01-01,1743,1733,-10.0
1451,2015-01-01,0843,0903,20.0
1454,2015-01-01,2030,2023,-7.0
1575,2015-01-01,0605,0613,8.0
1647,2015-01-01,0600,0551,-9.0
1819,2015-01-01,0809,0807,-2.0
2517,2015-01-01,1120,1118,-2.0
2518,2015-01-01,1255,1253,-2.0
2519,2015-01-01,1555,1553,-2.0
2520,2015-01-01,0810,0817,7.0
2521,2015-01-01,2005,2055,50.0
2522,2015-01-01,1350,1400,10.0
2523,2015-01-01,1920,1925,5.0
2524,2015-01-01,1620,1618,-2.0
2525,2015-01-01,1105,1103,-2.0
2526,2015-01-01,1415,1414,-1.0
2527,2015-01-01,0840,0843,3.0
2528,2015-01-01,2035,2105,30.0
2529,2015-01-01,1715,1738,23.0
2530,2015-01-01,0950,0945,-5.0
2531,2015-01-01,1100,1100,0.0
2532,2015-01-01,2005,2017,12.0
2533,2015-01-01,1440,1450,10.0
2534,2015-01-01,1235,1242,7.0
2535,2015-01-01,1010,1010,0.0
2536,2015-01-01,1700,1753,53.0
2537,2015-01-01,1310,1306,-4.0
2538,2015-01-01,1400,1436,36.0
2539,2015-01-01,1325,1344,19.0
2540,2015-01-01,1835,1828,-7.0
2541,2015-01-01,1240,1241,1.0
2542,2015-01-01,1855,1850,-5.0
2543,2015-01-01,0620,0615,-5.0
2544,2015-01-01,0740,0737,-3.0
2545,2015-01-01,1500,1455,-5.0
2546,2015-01-01,1225,1223,-2.0
2547,2015-01-01,1830,1835,5.0
2548,2015-01-01,1610,1620,10.0
2549,2015-01-01,0925,0929,4.0
2550,2015-01-01,2020,2016,-4.0
2551,2015-01-01,1425,1436,11.0
2552,2015-01-01,1255,1244,-11.0
2553,2015-01-01,0905,0900,-5.0
2554,2015-01-01,1630,1644,14.0
2555,2015-01-01,1520,1521,1.0
2556,2015-01-01,1915,1916,1.0
2557,2015-01-01,1425,1426,1.0
2814,2015-01-01,1326,1341,15.0
2828,2015-01-01,1344,1357,13.0
2837,2015-01-01,0538,0634,56.0
2838,2015-01-01,2303,2305,2.0
2942,2015-01-01,1615,1627,12.0
2949,2015-01-01,1916,1915,-1.0
2958,2015-01-01,1235,1245,10.0
