,FL_DATE,CRS_DEP_TIME,DEP_TIME,DEP_DELAY
89266,2015-01-30,1501,1452,-9.0
89272,2015-01-30,0740,0738,-2.0
89338,2015-01-30,0600,0556,-4.0
89361,2015-01-30,1138,1131,-7.0
89474,2015-01-30,1655,1652,-3.0
89478,2015-01-30,0715,0704,-11.0
89481,2015-01-30,1130,1128,-2.0
89588,2015-01-30,1010,1001,-9.0
89591,2015-01-30,1955,1946,-9.0
89628,2015-01-30,1956,1943,-13.0
89640,2015-01-30,0856,0846,-10.0
89719,2015-01-30,2359,0004,5.0
89785,2015-01-30,1325,1323,-2.0
89800,2015-01-30,0615,0612,-3.0
89845,2015-01-30,2310,2313,3.0
89891,2015-01-30,0640,0950,190.0
89944,2015-01-30,1300,1252,-8.0
90006,2015-01-30,0920,0911,-9.0
90057,2015-01-30,1840,1923,43.0
90073,2015-01-30,0700,0651,-9.0
90089,2015-01-30,1545,1538,-7.0
90105,2015-01-30,0918,0924,6.0
90159,2015-01-30,1608,1741,93.0
90256,2015-01-30,1220,1217,-3.0
90328,2015-01-30,0905,1030,85.0
90339,2015-01-30,1019,1011,-8.0
90343,2015-01-30,1635,1656,21.0
90360,2015-01-30,1540,1619,39.0
90362,2015-01-30,1813,1823,10.0
90390,2015-01-30,1019,1008,-11.0
90412,2015-01-30,0605,0558,-7.0
90434,2015-01-30,1700,1909,129.0
90495,2015-01-30,1742,1737,-5.0
90518,2015-01-30,1152,1340,108.0
90606,2015-01-30,0600,0556,-4.0
90618,2015-01-30,0951,1323,212.0
90621,2015-01-30,2045,2101,16.0
90682,2015-01-30,0627,0625,-2.0
90756,2015-01-30,1220,1215,-5.0
90768,2015-01-30,0540,0552,12.0
90790,2015-01-30,1009,1011,2.0
90822,2015-01-30,1339,1352,13.0
90860,2015-01-30,0820,0820,0.0
91137,2015-01-30,0616,0621,5.0
91183,2015-01-30,0955,1121,86.0
91204,2015-01-30,1915,1942,27.0
91367,2015-01-30,1235,1534,179.0
91379,2015-01-30,0600,0551,-9.0
91380,2015-01-30,1616,,
91857,2015-01-30,0755,0752,-3.0
91858,2015-01-30,0615,0614,-1.0
91859,2015-01-30,1540,1534,-6.0
91860,2015-01-30,1705,1712,7.0
91861,2015-01-30,0940,0939,-1.0
91862,2015-01-30,1305,1302,-3.0
91863,2015-01-30,1935,1933,-2.0
91864,2015-01-30,1405,1403,-2.0
91865,2015-01-30,0555,0554,-1.0
91866,2015-01-30,0900,0856,-4.0
91867,2015-01-30,1105,1101,-4.0
91868,2015-01-30,1715,2054,219.0
91869,2015-01-30,0950,0947,-3.0
91870,2015-01-30,2035,2158,83.0
91871,2015-01-30,0830,0831,1.0
91872,2015-01-30,1420,1443,23.0
91873,2015-01-30,0655,0653,-2.0
91874,2015-01-30,1230,1230,0.0
91875,2015-01-30,1950,2005,15.0
91876,2015-01-30,0700,0701,1.0
91877,2015-01-30,1705,1719,14.0
91878,2015-01-30,0905,0903,-2.0
91879,2015-01-30,1305,1303,-2.0
91880,2015-01-30,1115,1110,-5.0
91881,2015-01-30,1505,1510,5.0
91882,2015-01-30,2130,2126,-4.0
91883,2015-01-30,1905,1912,7.0
91884,2015-01-30,0540,0540,0.0
91885,2015-01-30,1330,1336,6.0
91886,2015-01-30,1530,1534,4.0
91887,2015-01-30,2155,2152,-3.0
91888,2015-01-30,0915,0912,-3.0
91889,2015-01-30,1825,1900,35.0
91890,2015-01-30,1215,1213,-2.0
91891,2015-01-30,0610,0607,-3.0
91892,2015-01-30,1700,1734,34.0
91893,2015-01-30,1150,1147,-3.0
91894,2015-01-30,1740,1752,12.0
91895,2015-01-30,2110,2226,76.0
91896,2015-01-30,1420,1442,22.0
91897,2015-01-30,0635,0632,-3.0
91898,2015-01-30,1110,1108,-2.0
91899,2015-01-30,0610,0614,4.0
91900,2015-01-30,2035,2032,-3.0
91901,2015-01-30,0850,1000,70.0
91902,2015-01-30,1530,1622,52.0
91903,2015-01-30,1455,1455,0.0
91904,2015-01-30,0600,0558,-2.0
91905,2015-01-30,1240,1238,-2.0
91906,2015-01-30,0700,0659,-1.0
91907,2015-01-30,1055,1054,-1.0
91908,2015-01-30,1845,1846,1.0
91909,2015-01-30,2035,2031,-4.0
91910,2015-01-30,0840,0836,-4.0
91911,2015-01-30,1920,1923,3.0
91912,2015-01-30,0800,0758,-2.0
91913,2015-01-30,1245,1241,-4.0
91914,2015-01-30,1025,1022,-3.0
91915,2015-01-30,1310,1318,8.0
91916,2015-01-30,2050,2056,6.0
91917,2015-01-30,0605,0601,-4.0
91918,2015-01-30,1630,1633,3.0
91919,2015-01-30,1505,1502,-3.0
91920,2015-01-30,0930,0951,21.0
