,FL_DATE,CRS_ARR_TIME,ARR_TIME,ARR_DELAY
65611,2015-01-22,1329,1328,-1.0
65613,2015-01-22,2246,2237,-9.0
65615,2015-01-22,1750,1755,5.0
65617,2015-01-22,1324,1334,10.0
65619,2015-01-22,2237,2228,-9.0
65621,2015-01-22,1224,1254,30.0
65622,2015-01-22,1011,1017,6.0
65624,2015-01-22,1335,1338,3.0
65626,2015-01-22,2242,2257,15.0
65632,2015-01-22,2240,2232,-8.0
65634,2015-01-22,1809,1817,8.0
65637,2015-01-22,1850,1841,-9.0
65761,2015-01-22,1440,1453,13.0
65795,2015-01-22,0920,0919,-1.0
65805,2015-01-22,1910,1905,-5.0
66057,2015-01-22,1907,1900,-7.0
66095,2015-01-22,1139,1245,66.0
66102,2015-01-22,1632,1654,22.0
66116,2015-01-22,0920,0936,16.0
66117,2015-01-22,1135,1138,3.0
66133,2015-01-22,1635,1730,55.0
66135,2015-01-22,1151,1220,29.0
66138,2015-01-22,1321,1328,7.0
66186,2015-01-22,1639,1644,5.0
66219,2015-01-22,1658,1708,10.0
66237,2015-01-22,0920,0923,3.0
66266,2015-01-22,1645,1649,4.0
66309,2015-01-22,0920,0923,3.0
66319,2015-01-22,2114,2116,2.0
66355,2015-01-22,1658,1641,-17.0
66370,2015-01-22,2220,2304,44.0
66386,2015-01-22,1423,1420,-3.0
66392,2015-01-22,1140,1135,-5.0
66402,2015-01-22,2116,2138,22.0
66424,2015-01-22,2107,2056,-11.0
66437,2015-01-22,1321,1352,31.0
66448,2015-01-22,1910,1919,9.0
66463,2015-01-22,1140,1136,-4.0
66472,2015-01-22,1020,1032,12.0
66500,2015-01-22,0942,0941,-1.0
66516,2015-01-22,0912,0912,0.0
66518,2015-01-22,1751,1805,14.0
66531,2015-01-22,0900,0857,-3.0
66556,2015-01-22,2113,2101,-12.0
66564,2015-01-22,1629,1658,29.0
66592,2015-01-22,1903,1905,2.0
66597,2015-01-22,1430,1509,39.0
66629,2015-01-22,1021,1025,4.0
66657,2015-01-22,1140,1144,4.0
66667,2015-01-22,1846,1836,-10.0
66684,2015-01-22,1415,1418,3.0
66687,2015-01-22,1607,1627,20.0
66693,2015-01-22,1100,1100,0.0
66706,2015-01-22,2111,2107,-4.0
66731,2015-01-22,1839,1846,7.0
66765,2015-01-22,0911,0906,-5.0
67152,2015-01-22,1720,1739,19.0
67153,2015-01-22,1105,1107,2.0
67250,2015-01-22,2220,2239,19.0
67251,2015-01-22,1315,1326,11.0
67252,2015-01-22,1845,1854,9.0
67253,2015-01-22,0930,0937,7.0
67327,2015-01-22,0925,0931,6.0
67328,2015-01-22,1845,1859,14.0
67440,2015-01-22,0005,0007,2.0
67441,2015-01-22,1530,1543,13.0
67442,2015-01-22,1720,1727,7.0
67443,2015-01-22,1200,1158,-2.0
67444,2015-01-22,1845,1855,10.0
67445,2015-01-22,0925,0941,16.0
67556,2015-01-22,1720,1748,28.0
67557,2015-01-22,1455,1507,12.0
67558,2015-01-22,0930,0920,-10.0
67604,2015-01-22,1010,1017,7.0
67605,2015-01-22,2335,2338,3.0
67606,2015-01-22,1720,1736,16.0
67674,2015-01-22,1720,1716,-4.0
67675,2015-01-22,0925,0908,-17.0
67676,2015-01-22,1220,1213,-7.0
67677,2015-01-22,1425,1429,4.0
67732,2015-01-22,1220,1217,-3.0
67733,2015-01-22,1535,1538,3.0
67734,2015-01-22,1845,1851,6.0
67735,2015-01-22,1015,1021,6.0
67898,2015-01-22,1840,1841,1.0
67899,2015-01-22,1625,1636,11.0
67900,2015-01-22,0955,0958,3.0
67901,2015-01-22,1335,1333,-2.0
67902,2015-01-22,2100,2106,6.0
