,FL_DATE,CRS_ARR_TIME,ARR_TIME,ARR_DELAY
68825,2015-01-23,2312,2327,15.0
68827,2015-01-23,1750,1738,-12.0
68829,2015-01-23,1224,1234,10.0
68831,2015-01-23,1850,1858,8.0
68833,2015-01-23,1324,1319,-5.0
68837,2015-01-23,2316,2305,-11.0
68841,2015-01-23,1335,1318,-17.0
68843,2015-01-23,1839,1829,-10.0
68846,2015-01-23,2242,2240,-2.0
68847,2015-01-23,1011,1016,5.0
68849,2015-01-23,2305,2252,-13.0
68973,2015-01-23,1440,1438,-2.0
69005,2015-01-23,0920,0904,-16.0
69015,2015-01-23,1910,1921,11.0
69268,2015-01-23,1907,1854,-13.0
69294,2015-01-23,1139,1133,-6.0
69312,2015-01-23,1632,1620,-12.0
69326,2015-01-23,0920,0925,5.0
69327,2015-01-23,1135,1134,-1.0
69343,2015-01-23,1635,1651,16.0
69345,2015-01-23,1151,1145,-6.0
69348,2015-01-23,1321,1418,57.0
69394,2015-01-23,1639,1639,0.0
69428,2015-01-23,1658,1656,-2.0
69445,2015-01-23,0920,0929,9.0
69474,2015-01-23,1645,1646,1.0
69521,2015-01-23,0920,0927,7.0
69530,2015-01-23,2114,2111,-3.0
69546,2015-01-23,2113,2101,-12.0
69552,2015-01-23,2117,2105,-12.0
69559,2015-01-23,1140,1133,-7.0
69582,2015-01-23,1751,1753,2.0
69587,2015-01-23,1430,1455,25.0
69603,2015-01-23,1140,1152,12.0
69605,2015-01-23,1607,1604,-3.0
69633,2015-01-23,2107,2044,-23.0
69645,2015-01-23,1321,1303,-18.0
69672,2015-01-23,1021,1020,-1.0
69698,2015-01-23,1140,1137,-3.0
69709,2015-01-23,1846,1903,17.0
69726,2015-01-23,1415,1409,-6.0
69735,2015-01-23,1100,1054,-6.0
69749,2015-01-23,2111,2104,-7.0
69763,2015-01-23,1020,1026,6.0
69773,2015-01-23,0942,0941,-1.0
69807,2015-01-23,1629,1641,12.0
69836,2015-01-23,1910,1924,14.0
69838,2015-01-23,0911,0909,-2.0
69857,2015-01-23,1839,1837,-2.0
69909,2015-01-23,0912,0914,2.0
69924,2015-01-23,0900,0859,-1.0
69932,2015-01-23,1903,1918,15.0
69963,2015-01-23,1658,1648,-10.0
69976,2015-01-23,2220,2215,-5.0
69994,2015-01-23,1423,1422,-1.0
70397,2015-01-23,1720,1756,36.0
70398,2015-01-23,1105,1100,-5.0
70497,2015-01-23,1840,1827,-13.0
70498,2015-01-23,1625,1625,0.0
70499,2015-01-23,0955,0957,2.0
70500,2015-01-23,1335,1324,-11.0
70501,2015-01-23,2100,2051,-9.0
70599,2015-01-23,1720,1745,25.0
70600,2015-01-23,1455,1505,10.0
70601,2015-01-23,0930,0925,-5.0
70647,2015-01-23,1010,1017,7.0
70648,2015-01-23,2335,2329,-6.0
70649,2015-01-23,1720,1737,17.0
70718,2015-01-23,1720,1721,1.0
70719,2015-01-23,0925,0904,-21.0
70720,2015-01-23,1220,1405,105.0
70721,2015-01-23,1425,1447,22.0
70776,2015-01-23,1220,1210,-10.0
70777,2015-01-23,1535,1527,-8.0
70778,2015-01-23,1845,1844,-1.0
70779,2015-01-23,1015,1012,-3.0
70924,2015-01-23,0005,0004,-1.0
70925,2015-01-23,1530,1522,-8.0
70926,2015-01-23,1720,1733,13.0
70927,2015-01-23,1200,1155,-5.0
70928,2015-01-23,1845,1854,9.0
70929,2015-01-23,0925,0926,1.0
71064,2015-01-23,2220,2305,45.0
71065,2015-01-23,1315,1314,-1.0
71066,2015-01-23,1845,1859,14.0
71067,2015-01-23,0930,0929,-1.0
71143,2015-01-23,0925,0921,-4.0
71144,2015-01-23,1845,1859,14.0
