,FL_DATE,CRS_ARR_TIME,ARR_TIME,ARR_DELAY
71902,2015-01-24,2312,2310,-2.0
71904,2015-01-24,1335,1342,7.0
71906,2015-01-24,1011,1019,8.0
71933,2015-01-24,1224,1231,7.0
71936,2015-01-24,1745,1729,-16.0
72030,2015-01-24,1430,1422,-8.0
72057,2015-01-24,0920,0940,20.0
72308,2015-01-24,1139,1147,8.0
72322,2015-01-24,1323,1315,-8.0
72323,2015-01-24,0920,0934,14.0
72324,2015-01-24,1135,1208,33.0
72338,2015-01-24,1151,1207,16.0
72427,2015-01-24,0920,0921,1.0
72492,2015-01-24,0920,1007,47.0
72547,2015-01-24,1924,1925,1.0
72565,2015-01-24,1100,1048,-12.0
72592,2015-01-24,1021,1019,-2.0
72608,2015-01-24,0912,0909,-3.0
72619,2015-01-24,1628,1643,15.0
72632,2015-01-24,1645,1645,0.0
72646,2015-01-24,1045,1114,29.0
72688,2015-01-24,1755,1756,1.0
72711,2015-01-24,1021,1039,18.0
72714,2015-01-24,0911,0924,13.0
72729,2015-01-24,1923,1922,-1.0
72766,2015-01-24,1430,1449,19.0
72774,2015-01-24,1417,1427,10.0
72778,2015-01-24,0900,1010,70.0
72827,2015-01-24,1142,1135,-7.0
72834,2015-01-24,1613,1621,8.0
73132,2015-01-24,1740,1742,2.0
73133,2015-01-24,2115,2102,-13.0
73134,2015-01-24,0930,0936,6.0
73135,2015-01-24,1600,1603,3.0
73230,2015-01-24,1740,1738,-2.0
73231,2015-01-24,0925,0924,-1.0
73281,2015-01-24,0930,0930,0.0
73372,2015-01-24,1605,1620,15.0
73373,2015-01-24,1240,1245,5.0
73374,2015-01-24,1045,1043,-2.0
73375,2015-01-24,1735,1749,14.0
73441,2015-01-24,1240,1223,-17.0
73442,2015-01-24,1600,1546,-14.0
73443,2015-01-24,0930,0915,-15.0
73474,2015-01-24,1040,1027,-13.0
73475,2015-01-24,1600,1559,-1.0
73519,2015-01-24,1205,1205,0.0
73520,2015-01-24,0925,0911,-14.0
73521,2015-01-24,1600,1554,-6.0
73554,2015-01-24,1415,1421,6.0
73555,2015-01-24,1740,1752,12.0
73556,2015-01-24,1040,1039,-1.0
73595,2015-01-24,1640,1740,60.0
