,FL_DATE,CRS_ARR_TIME,ARR_TIME,ARR_DELAY
77470,2015-01-26,1745,1731,-14.0
77472,2015-01-26,1850,1844,-6.0
77476,2015-01-26,1335,1316,-19.0
77478,2015-01-26,1224,1224,0.0
77480,2015-01-26,2242,2301,19.0
77506,2015-01-26,2245,2212,-33.0
77508,2015-01-26,2312,2258,-14.0
77512,2015-01-26,1324,1320,-4.0
77514,2015-01-26,1011,1014,3.0
77516,2015-01-26,2237,2233,-4.0
77518,2015-01-26,1839,1820,-19.0
77614,2015-01-26,1440,1423,-17.0
77649,2015-01-26,0920,0917,-3.0
77659,2015-01-26,1918,1906,-12.0
77661,2015-01-26,1632,1623,-9.0
77912,2015-01-26,1910,1925,15.0
77938,2015-01-26,1139,1135,-4.0
77968,2015-01-26,0920,0920,0.0
77969,2015-01-26,1135,1126,-9.0
77986,2015-01-26,1635,1631,-4.0
77988,2015-01-26,1151,1149,-2.0
77991,2015-01-26,1321,1320,-1.0
78039,2015-01-26,1639,1619,-20.0
78063,2015-01-26,1406,1401,-5.0
78073,2015-01-26,1658,1650,-8.0
78090,2015-01-26,0920,0915,-5.0
78120,2015-01-26,1645,1749,64.0
78165,2015-01-26,0920,0920,0.0
78175,2015-01-26,2114,2106,-8.0
78206,2015-01-26,1659,1643,-16.0
78219,2015-01-26,2220,2204,-16.0
78240,2015-01-26,1140,1137,-3.0
78242,2015-01-26,1607,1559,-8.0
78272,2015-01-26,2107,2054,-13.0
78285,2015-01-26,1321,1308,-13.0
78311,2015-01-26,1021,1016,-5.0
78340,2015-01-26,1140,1151,11.0
78351,2015-01-26,1846,1852,6.0
78368,2015-01-26,1415,1432,17.0
78377,2015-01-26,1100,1040,-20.0
78395,2015-01-26,1140,1127,-13.0
78414,2015-01-26,1839,1836,-3.0
78450,2015-01-26,0911,0909,-2.0
78479,2015-01-26,2111,,
78481,2015-01-26,1910,1906,-4.0
78503,2015-01-26,1027,1022,-5.0
78525,2015-01-26,0942,0938,-4.0
78527,2015-01-26,1430,1432,2.0
78543,2015-01-26,0912,0901,-11.0
78561,2015-01-26,0900,0850,-10.0
78571,2015-01-26,1903,1856,-7.0
78584,2015-01-26,2113,2054,-19.0
78591,2015-01-26,1629,1634,5.0
78600,2015-01-26,2117,2105,-12.0
78620,2015-01-26,1751,1839,48.0
79101,2015-01-26,1840,1824,-16.0
79102,2015-01-26,1625,1625,0.0
79103,2015-01-26,0955,0946,-9.0
79104,2015-01-26,1335,1340,5.0
79105,2015-01-26,2100,2052,-8.0
79203,2015-01-26,1720,1715,-5.0
79204,2015-01-26,1455,1454,-1.0
79205,2015-01-26,0930,0927,-3.0
79253,2015-01-26,1010,1009,-1.0
79254,2015-01-26,2335,2322,-13.0
79255,2015-01-26,1720,1844,84.0
79322,2015-01-26,1720,1718,-2.0
79323,2015-01-26,0925,0913,-12.0
79324,2015-01-26,1220,1219,-1.0
79325,2015-01-26,1425,1420,-5.0
79380,2015-01-26,1220,1215,-5.0
79381,2015-01-26,1535,1530,-5.0
79382,2015-01-26,1845,2019,94.0
79383,2015-01-26,1015,1006,-9.0
79464,2015-01-26,1720,1715,-5.0
79465,2015-01-26,1105,1100,-5.0
79535,2015-01-26,1315,1315,0.0
79536,2015-01-26,1845,1835,-10.0
79537,2015-01-26,0930,0923,-7.0
79612,2015-01-26,0925,0930,5.0
79613,2015-01-26,1845,1856,11.0
79773,2015-01-26,0005,2400,-5.0
79774,2015-01-26,1530,1523,-7.0
79775,2015-01-26,1720,1720,0.0
79776,2015-01-26,1200,1150,-10.0
79777,2015-01-26,1845,1843,-2.0
79778,2015-01-26,0925,0923,-2.0
