,FL_DATE,CRS_ARR_TIME,ARR_TIME,ARR_DELAY
23479,2015-01-08,1329,1329,0.0
23481,2015-01-08,2246,2259,13.0
23483,2015-01-08,2240,2250,10.0
23485,2015-01-08,1224,1232,8.0
23487,2015-01-08,1850,1851,1.0
23491,2015-01-08,1335,1333,-2.0
23496,2015-01-08,2242,2304,22.0
23498,2015-01-08,2237,2244,7.0
23499,2015-01-08,1011,1004,-7.0
23501,2015-01-08,1809,1807,-2.0
23503,2015-01-08,1324,1329,5.0
23505,2015-01-08,1750,1728,-22.0
23630,2015-01-08,1440,1505,25.0
23662,2015-01-08,0920,0901,-19.0
23672,2015-01-08,1910,1906,-4.0
23916,2015-01-08,1907,1900,-7.0
23942,2015-01-08,1139,1126,-13.0
23960,2015-01-08,1632,1631,-1.0
23970,2015-01-08,1321,1310,-11.0
23976,2015-01-08,0920,1201,161.0
23977,2015-01-08,1135,1127,-8.0
23994,2015-01-08,1635,1703,28.0
23996,2015-01-08,1151,1158,7.0
24046,2015-01-08,1639,1831,112.0
24079,2015-01-08,1658,1650,-8.0
24097,2015-01-08,0920,0905,-15.0
24128,2015-01-08,1645,1632,-13.0
24171,2015-01-08,0920,0920,0.0
24181,2015-01-08,2114,2111,-3.0
24242,2015-01-08,1658,1654,-4.0
24254,2015-01-08,2220,2314,54.0
24272,2015-01-08,1423,1413,-10.0
24278,2015-01-08,1140,1144,4.0
24288,2015-01-08,2116,2122,6.0
24309,2015-01-08,2107,2046,-21.0
24323,2015-01-08,1321,1308,-13.0
24326,2015-01-08,1607,1550,-17.0
24352,2015-01-08,1021,1020,-1.0
24362,2015-01-08,1139,1126,-13.0
24379,2015-01-08,1140,1143,3.0
24385,2015-01-08,1902,1922,20.0
24397,2015-01-08,1846,1851,5.0
24412,2015-01-08,1415,1417,2.0
24420,2015-01-08,1100,1100,0.0
24437,2015-01-08,2111,2114,3.0
24469,2015-01-08,1839,1854,15.0
24499,2015-01-08,1910,1933,23.0
24528,2015-01-08,0909,0915,6.0
24546,2015-01-08,1020,1018,-2.0
24577,2015-01-08,0942,0930,-12.0
24597,2015-01-08,0912,0904,-8.0
24605,2015-01-08,0900,0936,36.0
24626,2015-01-08,2113,2229,76.0
24633,2015-01-08,1629,1639,10.0
24636,2015-01-08,1751,1755,4.0
24664,2015-01-08,1430,1430,0.0
24976,2015-01-08,1720,1739,19.0
24977,2015-01-08,1105,1105,0.0
25157,2015-01-08,0005,,
25158,2015-01-08,1530,1527,-3.0
25159,2015-01-08,1720,1726,6.0
25160,2015-01-08,1200,1151,-9.0
25161,2015-01-08,1845,1844,-1.0
25162,2015-01-08,0925,0923,-2.0
25281,2015-01-08,1840,1911,31.0
25282,2015-01-08,1625,1658,33.0
25283,2015-01-08,0955,0942,-13.0
25284,2015-01-08,1335,1326,-9.0
25285,2015-01-08,2100,2109,9.0
25386,2015-01-08,1720,1726,6.0
25387,2015-01-08,1455,1709,134.0
25388,2015-01-08,0930,0925,-5.0
25436,2015-01-08,1010,1004,-6.0
25437,2015-01-08,2335,,
25438,2015-01-08,1720,1717,-3.0
25507,2015-01-08,1720,1727,7.0
25508,2015-01-08,0925,0926,1.0
25509,2015-01-08,1220,1221,1.0
25510,2015-01-08,1425,1509,44.0
25566,2015-01-08,1220,1205,-15.0
25567,2015-01-08,1535,1529,-6.0
25568,2015-01-08,1845,1854,9.0
25569,2015-01-08,1015,1011,-4.0
25668,2015-01-08,2220,2310,50.0
25669,2015-01-08,1315,1313,-2.0
25670,2015-01-08,1845,1900,15.0
25671,2015-01-08,0930,0935,5.0
25747,2015-01-08,0925,0916,-9.0
25748,2015-01-08,1845,1851,6.0
