,FL_DATE,CRS_DEP_TIME,DEP_TIME,DEP_DELAY
34524,2015-01-12,0900,0900,0.0
34526,2015-01-12,1230,1225,-5.0
34528,2015-01-12,2200,2155,-5.0
34529,2015-01-12,1130,1127,-3.0
34536,2015-01-12,1525,1608,43.0
34540,2015-01-12,1500,1457,-3.0
34543,2015-01-12,2330,2322,-8.0
34544,2015-01-12,0800,0756,-4.0
34545,2015-01-12,1425,1429,4.0
34547,2015-01-12,0800,,
34549,2015-01-12,0700,0655,-5.0
34550,2015-01-12,1250,1246,-4.0
34558,2015-01-12,1225,1220,-5.0
34564,2015-01-12,1740,1739,-1.0
34574,2015-01-12,1235,1230,-5.0
34577,2015-01-12,0950,0948,-2.0
34586,2015-01-12,0105,0100,-5.0
34588,2015-01-12,2150,2151,1.0
34596,2015-01-12,0800,0808,8.0
34598,2015-01-12,0625,0623,-2.0
34599,2015-01-12,1030,1027,-3.0
34602,2015-01-12,1650,1647,-3.0
34604,2015-01-12,1805,1807,2.0
34607,2015-01-12,0020,0013,-7.0
34609,2015-01-12,0915,0905,-10.0
34611,2015-01-12,1850,1846,-4.0
34616,2015-01-12,0600,0553,-7.0
34619,2015-01-12,1625,1625,0.0
34621,2015-01-12,0905,0905,0.0
34622,2015-01-12,1620,1617,-3.0
34626,2015-01-12,1840,1836,-4.0
34634,2015-01-12,0650,0645,-5.0
34636,2015-01-12,2354,2352,-2.0
34637,2015-01-12,0715,0710,-5.0
34638,2015-01-12,0655,0649,-6.0
34640,2015-01-12,0920,0917,-3.0
34641,2015-01-12,0820,0818,-2.0
34647,2015-01-12,1710,1707,-3.0
34648,2015-01-12,0900,0902,2.0
34651,2015-01-12,1330,1339,9.0
34666,2015-01-12,2300,2249,-11.0
34672,2015-01-12,1435,1544,69.0
34673,2015-01-12,1200,1156,-4.0
34675,2015-01-12,0900,0857,-3.0
34678,2015-01-12,1145,1140,-5.0
34688,2015-01-12,2215,2200,-15.0
34694,2015-01-12,1125,1124,-1.0
34698,2015-01-12,2224,2210,-14.0
34707,2015-01-12,1220,1308,48.0
34710,2015-01-12,1324,1321,-3.0
34717,2015-01-12,1400,1400,0.0
34719,2015-01-12,1525,1530,5.0
34725,2015-01-12,1950,1940,-10.0
34727,2015-01-12,1459,1456,-3.0
34731,2015-01-12,1105,1058,-7.0
34739,2015-01-12,1640,1643,3.0
34748,2015-01-12,1620,1614,-6.0
34753,2015-01-12,0605,0556,-9.0
34758,2015-01-12,1030,1106,36.0
34760,2015-01-12,1528,1523,-5.0
34761,2015-01-12,0800,0753,-7.0
34767,2015-01-12,2045,2041,-4.0
34769,2015-01-12,2155,2152,-3.0
34770,2015-01-12,0755,0754,-1.0
34771,2015-01-12,0830,0827,-3.0
34773,2015-01-12,1455,1452,-3.0
34775,2015-01-12,0930,0927,-3.0
34778,2015-01-12,1530,1748,138.0
34781,2015-01-12,0005,2400,-5.0
34783,2015-01-12,0110,0104,-6.0
34784,2015-01-12,0555,0552,-3.0
34787,2015-01-12,1030,1026,-4.0
34790,2015-01-12,1145,1141,-4.0
34791,2015-01-12,0630,0624,-6.0
34792,2015-01-12,0655,0657,2.0
34794,2015-01-12,1305,1310,5.0
34795,2015-01-12,0726,0722,-4.0
34798,2015-01-12,1700,1752,52.0
34806,2015-01-12,1815,1813,-2.0
34809,2015-01-12,1855,1846,-9.0
34874,2015-01-12,0800,0754,-6.0
34876,2015-01-12,1400,1400,0.0
34877,2015-01-12,1020,1009,-11.0
34879,2015-01-12,1500,1454,-6.0
34882,2015-01-12,0700,0658,-2.0
34886,2015-01-12,0840,0843,3.0
34888,2015-01-12,1845,1840,-5.0
34890,2015-01-12,1740,1734,-6.0
34891,2015-01-12,2110,2101,-9.0
34893,2015-01-12,1300,1329,29.0
34895,2015-01-12,1940,1936,-4.0
34897,2015-01-12,1040,1039,-1.0
34898,2015-01-12,0600,0554,-6.0
34899,2015-01-12,1515,1505,-10.0
34929,2015-01-12,1320,1315,-5.0
34931,2015-01-12,1740,1735,-5.0
34933,2015-01-12,0900,0849,-11.0
34934,2015-01-12,1950,1945,-5.0
34955,2015-01-12,1745,1749,4.0
34983,2015-01-12,1310,1302,-8.0
34991,2015-01-12,0800,0756,-4.0
35000,2015-01-12,2253,2257,4.0
35004,2015-01-12,0700,0653,-7.0
35006,2015-01-12,0630,0626,-4.0
35009,2015-01-12,1100,1056,-4.0
35018,2015-01-12,1420,1519,59.0
35038,2015-01-12,1245,1240,-5.0
35039,2015-01-12,1240,1255,15.0
35042,2015-01-12,1550,1605,15.0
35050,2015-01-12,2349,2354,5.0
35051,2015-01-12,1515,1512,-3.0
35053,2015-01-12,2100,2100,0.0
35077,2015-01-12,2325,2317,-8.0
35085,2015-01-12,0830,0822,-8.0
35095,2015-01-12,2140,2142,2.0
35097,2015-01-12,2300,2314,14.0
35099,2015-01-12,1215,1211,-4.0
35101,2015-01-12,0825,0830,5.0
35104,2015-01-12,0645,0643,-2.0
35106,2015-01-12,1800,1800,0.0
35112,2015-01-12,2355,2347,-8.0
35113,2015-01-12,2300,2253,-7.0
35114,2015-01-12,1844,1837,-7.0
35117,2015-01-12,1630,1626,-4.0
35119,2015-01-12,1325,1334,9.0
35121,2015-01-12,2245,2236,-9.0
35125,2015-01-12,0550,0550,0.0
35126,2015-01-12,2305,2257,-8.0
35128,2015-01-12,1025,1023,-2.0
35132,2015-01-12,0030,0022,-8.0
35133,2015-01-12,1655,1714,19.0
35137,2015-01-12,0710,0706,-4.0
35138,2015-01-12,0910,0904,-6.0
35141,2015-01-12,0915,0915,0.0
35143,2015-01-12,1115,1134,19.0
35146,2015-01-12,0800,0805,5.0
35151,2015-01-12,1140,1139,-1.0
35166,2015-01-12,0830,0830,0.0
35178,2015-01-12,2215,2206,-9.0
35179,2015-01-12,1255,1248,-7.0
35183,2015-01-12,1030,1035,5.0
35191,2015-01-12,1705,1704,-1.0
35195,2015-01-12,1445,1449,4.0
35197,2015-01-12,1200,1222,22.0
35199,2015-01-12,1445,1450,5.0
35201,2015-01-12,1150,1151,1.0
35203,2015-01-12,0820,0816,-4.0
35205,2015-01-12,1215,1247,32.0
35210,2015-01-12,1335,1407,32.0
35213,2015-01-12,1510,1539,29.0
35222,2015-01-12,1125,1128,3.0
35224,2015-01-12,1730,1726,-4.0
35227,2015-01-12,1230,1234,4.0
35233,2015-01-12,0650,0648,-2.0
35234,2015-01-12,0910,0911,1.0
35241,2015-01-12,1330,1328,-2.0
35253,2015-01-12,1630,1625,-5.0
35258,2015-01-12,0730,0728,-2.0
35266,2015-01-12,0805,0803,-2.0
35269,2015-01-12,0600,0600,0.0
35271,2015-01-12,1300,1253,-7.0
35273,2015-01-12,1135,1132,-3.0
35275,2015-01-12,1310,1310,0.0
35278,2015-01-12,1105,1106,1.0
35284,2015-01-12,1400,1357,-3.0
35295,2015-01-12,2230,2213,-17.0
35297,2015-01-12,1830,2121,171.0
35300,2015-01-12,1600,1603,3.0
35308,2015-01-12,0945,0939,-6.0
35312,2015-01-12,0730,0730,0.0
35314,2015-01-12,1915,1915,0.0
35315,2015-01-12,0915,0921,6.0
35326,2015-01-12,1646,1642,-4.0
35328,2015-01-12,1915,1915,0.0
35330,2015-01-12,1346,1341,-5.0
35351,2015-01-12,1959,1952,-7.0
35356,2015-01-12,1525,1520,-5.0
35359,2015-01-12,1019,1011,-8.0
35378,2015-01-12,1330,1413,43.0
35379,2015-01-12,0840,0835,-5.0
35381,2015-01-12,1000,0946,-14.0
35383,2015-01-12,1705,1701,-4.0
35393,2015-01-12,1115,1112,-3.0
35395,2015-01-12,0905,1015,70.0
35400,2015-01-12,1755,1905,70.0
35408,2015-01-12,0613,0909,176.0
35411,2015-01-12,2100,2116,16.0
35414,2015-01-12,2225,2210,-15.0
35417,2015-01-12,1530,1834,184.0
35418,2015-01-12,1045,1040,-5.0
35420,2015-01-12,1411,1458,47.0
35423,2015-01-12,1620,1617,-3.0
35424,2015-01-12,1900,1854,-6.0
35428,2015-01-12,1934,2014,40.0
35431,2015-01-12,1825,2140,195.0
35437,2015-01-12,1029,1053,24.0
35438,2015-01-12,1604,1559,-5.0
35440,2015-01-12,1650,1647,-3.0
35443,2015-01-12,2104,2059,-5.0
35444,2015-01-12,1215,1413,118.0
35446,2015-01-12,1950,2018,28.0
35448,2015-01-12,1746,1817,31.0
35450,2015-01-12,1400,1355,-5.0
35451,2015-01-12,1305,1301,-4.0
35454,2015-01-12,1430,1427,-3.0
35462,2015-01-12,1830,1826,-4.0
35465,2015-01-12,1000,1002,2.0
35467,2015-01-12,1540,1630,50.0
35470,2015-01-12,1355,1354,-1.0
35472,2015-01-12,2055,2049,-6.0
35474,2015-01-12,1705,1846,101.0
35476,2015-01-12,1129,1124,-5.0
35478,2015-01-12,1949,1945,-4.0
35479,2015-01-12,1754,1800,6.0
35481,2015-01-12,1959,2108,69.0
35482,2015-01-12,1420,1440,20.0
35486,2015-01-12,0728,1214,286.0
35488,2015-01-12,2040,2049,9.0
35489,2015-01-12,1252,1339,47.0
35497,2015-01-12,0805,0800,-5.0
35506,2015-01-12,0920,0934,14.0
35509,2015-01-12,0820,0819,-1.0
35511,2015-01-12,1240,1237,-3.0
35524,2015-01-12,1343,1338,-5.0
35525,2015-01-12,1440,1438,-2.0
35530,2015-01-12,1300,1404,64.0
35543,2015-01-12,0925,0917,-8.0
35555,2015-01-12,1534,1916,222.0
35557,2015-01-12,1600,1600,0.0
35560,2015-01-12,2130,2127,-3.0
35566,2015-01-12,0956,1018,22.0
35567,2015-01-12,1625,1657,32.0
35573,2015-01-12,1435,1448,13.0
35580,2015-01-12,1945,1951,6.0
35581,2015-01-12,1030,1025,-5.0
35582,2015-01-12,2140,2144,4.0
35591,2015-01-12,0745,0740,-5.0
35594,2015-01-12,0850,0850,0.0
35595,2015-01-12,2027,2025,-2.0
35609,2015-01-12,2107,2102,-5.0
35610,2015-01-12,1537,1536,-1.0
35615,2015-01-12,1840,1835,-5.0
35617,2015-01-12,0841,0839,-2.0
35641,2015-01-12,1030,1034,4.0
35659,2015-01-12,0945,1046,61.0
35661,2015-01-12,2025,2024,-1.0
35663,2015-01-12,1630,1638,8.0
35665,2015-01-12,1130,1144,14.0
35667,2015-01-12,1545,1537,-8.0
35669,2015-01-12,2030,2024,-6.0
35682,2015-01-12,1745,1739,-6.0
35683,2015-01-12,2043,2117,34.0
35687,2015-01-12,1145,1200,15.0
35689,2015-01-12,1850,1845,-5.0
35691,2015-01-12,1230,1254,24.0
35695,2015-01-12,1535,1529,-6.0
35697,2015-01-12,1030,1037,7.0
35701,2015-01-12,1539,1549,10.0
35703,2015-01-12,1025,1021,-4.0
35712,2015-01-12,0915,0909,-6.0
35721,2015-01-12,1045,1130,45.0
35723,2015-01-12,2005,2051,46.0
35731,2015-01-12,0910,0902,-8.0
35732,2015-01-12,1135,1132,-3.0
35743,2015-01-12,0805,0758,-7.0
35744,2015-01-12,1335,1336,1.0
35746,2015-01-12,1610,1608,-2.0
35761,2015-01-12,1329,1325,-4.0
35769,2015-01-12,1735,1730,-5.0
35776,2015-01-12,1833,1857,24.0
35780,2015-01-12,0844,0839,-5.0
35822,2015-01-12,2220,2214,-6.0
35825,2015-01-12,0830,0822,-8.0
35826,2015-01-12,1242,1237,-5.0
35827,2015-01-12,1835,1831,-4.0
35855,2015-01-12,1010,1007,-3.0
35863,2015-01-12,1254,1323,29.0
35864,2015-01-12,1722,1717,-5.0
35865,2015-01-12,1600,1556,-4.0
35869,2015-01-12,2319,2331,12.0
35872,2015-01-12,0840,0833,-7.0
35877,2015-01-12,0947,1013,26.0
35886,2015-01-12,0937,0955,18.0
35887,2015-01-12,1142,1141,-1.0
35889,2015-01-12,0830,1033,123.0
35892,2015-01-12,2000,2006,6.0
35893,2015-01-12,1645,1642,-3.0
35907,2015-01-12,1424,1415,-9.0
35909,2015-01-12,0802,0756,-6.0
35937,2015-01-12,1900,1855,-5.0
35941,2015-01-12,1000,1000,0.0
35942,2015-01-12,1310,1312,2.0
35945,2015-01-12,1735,1729,-6.0
35946,2015-01-12,1606,1609,3.0
35947,2015-01-12,2226,2234,8.0
35951,2015-01-12,0743,0741,-2.0
35953,2015-01-12,0904,1001,57.0
35957,2015-01-12,1104,1111,7.0
35968,2015-01-12,1437,1434,-3.0
35969,2015-01-12,1230,1312,42.0
35973,2015-01-12,1230,1300,30.0
35975,2015-01-12,1805,1759,-6.0
35977,2015-01-12,2005,2048,43.0
35987,2015-01-12,1830,2118,168.0
35990,2015-01-12,2031,2100,29.0
35993,2015-01-12,0700,0652,-8.0
35994,2015-01-12,1628,1649,21.0
35997,2015-01-12,1244,1233,-11.0
36003,2015-01-12,1850,1847,-3.0
36007,2015-01-12,1333,1350,17.0
36008,2015-01-12,0913,0909,-4.0
36010,2015-01-12,2235,2400,85.0
36017,2015-01-12,1224,1231,7.0
36019,2015-01-12,1909,1902,-7.0
36040,2015-01-12,1910,,
36045,2015-01-12,1247,1302,15.0
36046,2015-01-12,1040,1049,9.0
36047,2015-01-12,1543,1644,61.0
36048,2015-01-12,1956,2009,13.0
36050,2015-01-12,1002,1025,23.0
36054,2015-01-12,1150,1251,61.0
36057,2015-01-12,0752,0751,-1.0
36059,2015-01-12,2235,2232,-3.0
36088,2015-01-12,1247,1246,-1.0
36093,2015-01-12,0807,0809,2.0
36108,2015-01-12,1253,1320,27.0
36111,2015-01-12,1301,1304,3.0
36113,2015-01-12,1611,1613,2.0
36115,2015-01-12,0945,0945,0.0
36119,2015-01-12,1115,1154,39.0
36126,2015-01-12,0549,0558,9.0
36133,2015-01-12,2327,2325,-2.0
36135,2015-01-12,1510,1515,5.0
36140,2015-01-12,1030,1047,17.0
36151,2015-01-12,0700,0703,3.0
36156,2015-01-12,0810,0806,-4.0
36158,2015-01-12,1025,1105,40.0
36161,2015-01-12,2316,0057,101.0
36163,2015-01-12,1836,1934,58.0
36165,2015-01-12,1546,1540,-6.0
36166,2015-01-12,1340,1358,18.0
36170,2015-01-12,0800,0802,2.0
36183,2015-01-12,1003,1114,71.0
36185,2015-01-12,1635,1637,2.0
36192,2015-01-12,1611,1626,15.0
36195,2015-01-12,1317,1317,0.0
36200,2015-01-12,1112,1116,4.0
36208,2015-01-12,1806,1855,49.0
36211,2015-01-12,1145,1142,-3.0
36217,2015-01-12,0918,0931,13.0
36218,2015-01-12,0045,0053,8.0
36231,2015-01-12,1125,1141,16.0
36235,2015-01-12,1112,1202,50.0
36237,2015-01-12,2045,2135,50.0
36239,2015-01-12,0845,0852,7.0
36268,2015-01-12,1310,1315,5.0
36270,2015-01-12,2256,2305,9.0
36277,2015-01-12,0815,0814,-1.0
36279,2015-01-12,1755,1907,72.0
36281,2015-01-12,2245,0043,118.0
36304,2015-01-12,0830,0826,-4.0
36305,2015-01-12,1725,1721,-4.0
36308,2015-01-12,0920,0922,2.0
36315,2015-01-12,0600,0555,-5.0
36322,2015-01-12,1845,1839,-6.0
36323,2015-01-12,0859,0852,-7.0
36324,2015-01-12,2000,1957,-3.0
36326,2015-01-12,1610,1602,-8.0
36332,2015-01-12,1704,1655,-9.0
36334,2015-01-12,1000,,
36336,2015-01-12,2257,2253,-4.0
36338,2015-01-12,0725,0722,-3.0
36339,2015-01-12,1922,1919,-3.0
36341,2015-01-12,0625,0655,30.0
36343,2015-01-12,0725,0720,-5.0
36359,2015-01-12,1447,1447,0.0
36361,2015-01-12,0800,0759,-1.0
36362,2015-01-12,0605,0559,-6.0
36363,2015-01-12,1900,1848,-12.0
36367,2015-01-12,1621,1612,-9.0
36371,2015-01-12,1014,1014,0.0
36381,2015-01-12,2226,2222,-4.0
36383,2015-01-12,1646,1640,-6.0
36384,2015-01-12,0900,0904,4.0
36386,2015-01-12,0808,0803,-5.0
36388,2015-01-12,0652,0648,-4.0
36389,2015-01-12,1900,1847,-13.0
36391,2015-01-12,1310,1300,-10.0
36396,2015-01-12,0602,0559,-3.0
36402,2015-01-12,1947,2004,17.0
36406,2015-01-12,0730,0726,-4.0
36413,2015-01-12,1300,1424,84.0
36422,2015-01-12,1310,1312,2.0
36423,2015-01-12,2356,2349,-7.0
36440,2015-01-12,1412,1423,11.0
36441,2015-01-12,1709,1725,16.0
36449,2015-01-12,1606,1629,23.0
36451,2015-01-12,0600,0552,-8.0
36467,2015-01-12,1024,1017,-7.0
36477,2015-01-12,1002,1006,4.0
36480,2015-01-12,1231,1228,-3.0
36481,2015-01-12,0655,0739,44.0
36488,2015-01-12,1426,1428,2.0
36495,2015-01-12,0939,0935,-4.0
36496,2015-01-12,0845,0852,7.0
36515,2015-01-12,0700,0654,-6.0
36519,2015-01-12,1524,1516,-8.0
36533,2015-01-12,1032,1040,8.0
36535,2015-01-12,1652,1648,-4.0
36537,2015-01-12,1056,1115,19.0
36547,2015-01-12,1304,1303,-1.0
36549,2015-01-12,2145,2141,-4.0
36556,2015-01-12,0625,0620,-5.0
36560,2015-01-12,0930,0931,1.0
36564,2015-01-12,2240,2230,-10.0
36565,2015-01-12,0810,0803,-7.0
36567,2015-01-12,1145,1142,-3.0
36573,2015-01-12,1130,,
36575,2015-01-12,1750,1744,-6.0
36581,2015-01-12,0835,0839,4.0
36583,2015-01-12,0735,0736,1.0
36586,2015-01-12,2215,2229,14.0
36588,2015-01-12,1125,1141,16.0
36596,2015-01-12,0915,0911,-4.0
36599,2015-01-12,0035,0030,-5.0
36601,2015-01-12,1410,1419,9.0
36610,2015-01-12,0830,0822,-8.0
36611,2015-01-12,1100,1057,-3.0
36616,2015-01-12,0825,0826,1.0
36618,2015-01-12,1300,1329,29.0
36633,2015-01-12,1045,1042,-3.0
36635,2015-01-12,2100,2053,-7.0
36643,2015-01-12,0840,0835,-5.0
36647,2015-01-12,1325,1320,-5.0
36649,2015-01-12,1015,1034,19.0
36661,2015-01-12,0830,0825,-5.0
36664,2015-01-12,2155,2150,-5.0
36666,2015-01-12,0730,0733,3.0
36667,2015-01-12,1055,1104,9.0
36670,2015-01-12,1345,1348,3.0
36673,2015-01-12,1600,1600,0.0
36674,2015-01-12,2310,2315,5.0
36676,2015-01-12,0900,0850,-10.0
36678,2015-01-12,1340,1339,-1.0
36679,2015-01-12,1730,1720,-10.0
36698,2015-01-12,0700,0655,-5.0
36699,2015-01-12,1305,1259,-6.0
36701,2015-01-12,1735,1826,51.0
36707,2015-01-12,0710,0708,-2.0
36708,2015-01-12,1230,1234,4.0
36710,2015-01-12,1725,1722,-3.0
36726,2015-01-12,1635,1625,-10.0
36727,2015-01-12,0700,0658,-2.0
36728,2015-01-12,1125,1334,129.0
36730,2015-01-12,1330,1429,59.0
36732,2015-01-12,1530,1601,31.0
36733,2015-01-12,0910,1231,201.0
36736,2015-01-12,1825,1853,28.0
36738,2015-01-12,1720,1810,50.0
37317,2015-01-12,1110,1119,9.0
37318,2015-01-12,1525,1522,-3.0
37319,2015-01-12,1840,1833,-7.0
37320,2015-01-12,1235,1303,28.0
37321,2015-01-12,0900,0901,1.0
37322,2015-01-12,0600,0555,-5.0
37323,2015-01-12,0945,1030,45.0
37324,2015-01-12,1920,1940,20.0
37325,2015-01-12,1305,1344,39.0
37326,2015-01-12,0740,0750,10.0
37327,2015-01-12,0700,0718,18.0
37328,2015-01-12,0735,0737,2.0
37329,2015-01-12,1455,1503,8.0
37330,2015-01-12,1905,2159,174.0
37331,2015-01-12,1215,1216,1.0
37332,2015-01-12,2055,2055,0.0
37333,2015-01-12,1215,1212,-3.0
37334,2015-01-12,1400,1427,27.0
37335,2015-01-12,0845,0842,-3.0
37336,2015-01-12,1530,1541,11.0
37337,2015-01-12,0600,0612,12.0
37338,2015-01-12,1240,1304,24.0
37339,2015-01-12,0610,0608,-2.0
37340,2015-01-12,1725,1738,13.0
37341,2015-01-12,1235,1237,2.0
37342,2015-01-12,1055,1146,51.0
37343,2015-01-12,1950,2036,46.0
37344,2015-01-12,0750,0750,0.0
37345,2015-01-12,1020,1016,-4.0
37346,2015-01-12,1705,1726,21.0
37347,2015-01-12,2145,2139,-6.0
37348,2015-01-12,1615,1620,5.0
37349,2015-01-12,1205,1222,17.0
37350,2015-01-12,0605,,
37351,2015-01-12,1440,1444,4.0
37352,2015-01-12,1800,1758,-2.0
37353,2015-01-12,0855,0852,-3.0
37354,2015-01-12,1330,1414,44.0
37355,2015-01-12,1055,1100,5.0
37356,2015-01-12,1915,1933,18.0
37357,2015-01-12,0940,1005,25.0
37358,2015-01-12,0615,0623,8.0
37359,2015-01-12,1255,1320,25.0
37360,2015-01-12,1830,1935,65.0
37361,2015-01-12,1350,1348,-2.0
37362,2015-01-12,1005,1016,11.0
37363,2015-01-12,1405,1415,10.0
37364,2015-01-12,0850,0849,-1.0
37365,2015-01-12,1050,1050,0.0
37366,2015-01-12,0710,0711,1.0
37367,2015-01-12,1710,1711,1.0
37368,2015-01-12,0815,1016,121.0
37369,2015-01-12,0615,0609,-6.0
37370,2015-01-12,1935,1930,-5.0
37371,2015-01-12,1335,1334,-1.0
37372,2015-01-12,1640,1744,64.0
37373,2015-01-12,1150,1217,27.0
37374,2015-01-12,1440,1459,19.0
37375,2015-01-12,1820,,
37376,2015-01-12,0900,0914,14.0
37377,2015-01-12,2115,2250,95.0
37378,2015-01-12,1555,,
37379,2015-01-12,1205,1249,44.0
37380,2015-01-12,1425,1425,0.0
37381,2015-01-12,0605,0558,-7.0
37382,2015-01-12,1930,2000,30.0
37383,2015-01-12,0700,0714,14.0
37384,2015-01-12,2020,2019,-1.0
37385,2015-01-12,0945,0945,0.0
37386,2015-01-12,1740,1835,55.0
37387,2015-01-12,1140,1245,65.0
37388,2015-01-12,2055,2052,-3.0
37389,2015-01-12,1320,1321,1.0
37390,2015-01-12,0835,0836,1.0
37391,2015-01-12,0755,,
37392,2015-01-12,1350,1518,88.0
37393,2015-01-12,0545,0551,6.0
37394,2015-01-12,0950,1118,88.0
37395,2015-01-12,1730,1842,72.0
37396,2015-01-12,1200,,
37397,2015-01-12,2025,2022,-3.0
37398,2015-01-12,1105,1252,107.0
37399,2015-01-12,1455,,
37400,2015-01-12,1850,1908,18.0
37401,2015-01-12,1750,1819,29.0
37402,2015-01-12,0705,0703,-2.0
37403,2015-01-12,1410,1449,39.0
37404,2015-01-12,2000,1957,-3.0
37405,2015-01-12,0925,0919,-6.0
37406,2015-01-12,1245,1327,42.0
37407,2015-01-12,1905,1932,27.0
37408,2015-01-12,0610,0608,-2.0
37409,2015-01-12,1545,,
37410,2015-01-12,1100,1106,6.0
37411,2015-01-12,0850,0855,5.0
37412,2015-01-12,2005,2003,-2.0
37413,2015-01-12,1650,1711,21.0
37414,2015-01-12,0555,0549,-6.0
37415,2015-01-12,1845,1843,-2.0
37416,2015-01-12,1515,1548,33.0
37417,2015-01-12,0645,0637,-8.0
37418,2015-01-12,1635,1647,12.0
37419,2015-01-12,1315,1323,8.0
37420,2015-01-12,1120,1208,48.0
37421,2015-01-12,0920,0916,-4.0
37422,2015-01-12,0910,0908,-2.0
37423,2015-01-12,1340,1356,16.0
37424,2015-01-12,0800,0755,-5.0
37425,2015-01-12,2130,2129,-1.0
37426,2015-01-12,1155,1208,13.0
37614,2015-01-12,1625,1623,-2.0
37633,2015-01-12,0735,0725,-10.0
37640,2015-01-12,1005,1001,-4.0
37641,2015-01-12,1245,1241,-4.0
37654,2015-01-12,0625,0623,-2.0
