,FL_DATE,CRS_DEP_TIME,DEP_TIME,DEP_DELAY
50204,2015-01-17,0900,0854,-6.0
50206,2015-01-17,1230,1220,-10.0
50208,2015-01-17,2200,2151,-9.0
50209,2015-01-17,1130,1123,-7.0
50216,2015-01-17,1525,1516,-9.0
50219,2015-01-17,1500,1457,-3.0
50222,2015-01-17,2330,2324,-6.0
50223,2015-01-17,0800,0916,76.0
50224,2015-01-17,1425,1417,-8.0
50226,2015-01-17,0800,0757,-3.0
50228,2015-01-17,0700,0655,-5.0
50229,2015-01-17,1250,1342,52.0
50237,2015-01-17,1225,1216,-9.0
50243,2015-01-17,1740,1733,-7.0
50245,2015-01-17,1734,1731,-3.0
50252,2015-01-17,1235,1230,-5.0
50253,2015-01-17,0950,0945,-5.0
50260,2015-01-17,0105,0057,-8.0
50270,2015-01-17,0800,0757,-3.0
50272,2015-01-17,0625,0615,-10.0
50273,2015-01-17,1030,1023,-7.0
50277,2015-01-17,1805,1801,-4.0
50279,2015-01-17,0020,0018,-2.0
50281,2015-01-17,0915,0939,24.0
50283,2015-01-17,1850,1847,-3.0
50288,2015-01-17,1725,1717,-8.0
50292,2015-01-17,1625,1754,89.0
50294,2015-01-17,0905,0859,-6.0
50295,2015-01-17,1620,1615,-5.0
50299,2015-01-17,1840,1833,-7.0
50306,2015-01-17,2345,2342,-3.0
50308,2015-01-17,2354,2355,1.0
50309,2015-01-17,0715,0733,18.0
50311,2015-01-17,0920,0917,-3.0
50312,2015-01-17,0820,0815,-5.0
50318,2015-01-17,1710,1704,-6.0
50319,2015-01-17,0900,0847,-13.0
50322,2015-01-17,1330,1321,-9.0
50335,2015-01-17,1310,1304,-6.0
50336,2015-01-17,1200,1153,-7.0
50338,2015-01-17,0900,0853,-7.0
50340,2015-01-17,1145,1142,-3.0
50348,2015-01-17,2215,2208,-7.0
50356,2015-01-17,2224,2221,-3.0
50363,2015-01-17,1220,1217,-3.0
50365,2015-01-17,1324,1322,-2.0
50372,2015-01-17,1525,1519,-6.0
50376,2015-01-17,1950,2030,40.0
50378,2015-01-17,1459,1525,26.0
50388,2015-01-17,1640,1637,-3.0
50395,2015-01-17,1620,,
50400,2015-01-17,0605,0557,-8.0
50404,2015-01-17,1030,1023,-7.0
50406,2015-01-17,0800,0750,-10.0
50410,2015-01-17,1410,1355,-15.0
50413,2015-01-17,2045,2043,-2.0
50415,2015-01-17,2155,2150,-5.0
50416,2015-01-17,0755,0750,-5.0
50417,2015-01-17,0830,0826,-4.0
50419,2015-01-17,1455,1451,-4.0
50421,2015-01-17,0930,0928,-2.0
50424,2015-01-17,1530,1658,88.0
50427,2015-01-17,0005,0005,0.0
50429,2015-01-17,0110,0101,-9.0
50430,2015-01-17,0555,0554,-1.0
50433,2015-01-17,1030,1029,-1.0
50436,2015-01-17,1145,1144,-1.0
50437,2015-01-17,0630,0625,-5.0
50438,2015-01-17,0702,0655,-7.0
50440,2015-01-17,1305,1320,15.0
50441,2015-01-17,0726,0727,1.0
50444,2015-01-17,1700,1655,-5.0
50451,2015-01-17,1815,1810,-5.0
50454,2015-01-17,1855,1848,-7.0
50456,2015-01-17,1310,1314,4.0
50457,2015-01-17,1940,1943,3.0
50521,2015-01-17,0800,0803,3.0
50523,2015-01-17,1400,1352,-8.0
50526,2015-01-17,0700,0653,-7.0
50530,2015-01-17,0840,0835,-5.0
50532,2015-01-17,1650,1646,-4.0
50533,2015-01-17,1845,1840,-5.0
50534,2015-01-17,1740,1741,1.0
50535,2015-01-17,2110,2112,2.0
50537,2015-01-17,1300,1309,9.0
50539,2015-01-17,1940,1939,-1.0
50541,2015-01-17,0600,0549,-11.0
50573,2015-01-17,1320,1347,27.0
50575,2015-01-17,1740,1739,-1.0
50577,2015-01-17,0900,0855,-5.0
50578,2015-01-17,1950,1944,-6.0
50597,2015-01-17,1725,1717,-8.0
50629,2015-01-17,0800,0756,-4.0
50637,2015-01-17,2253,2252,-1.0
50640,2015-01-17,0700,0658,-2.0
50643,2015-01-17,0630,0640,10.0
50646,2015-01-17,1100,1055,-5.0
50653,2015-01-17,1420,1415,-5.0
50665,2015-01-17,1305,1300,-5.0
50672,2015-01-17,2349,2348,-1.0
50673,2015-01-17,1515,1516,1.0
50675,2015-01-17,2100,2106,6.0
50704,2015-01-17,0830,0835,5.0
50715,2015-01-17,0645,0641,-4.0
50716,2015-01-17,1836,2031,115.0
50720,2015-01-17,2355,2355,0.0
50722,2015-01-17,1725,1733,8.0
50724,2015-01-17,2245,2254,9.0
50725,2015-01-17,2305,2305,0.0
50727,2015-01-17,1025,1026,1.0
50730,2015-01-17,1530,1526,-4.0
50732,2015-01-17,0112,0108,-4.0
50734,2015-01-17,1407,1404,-3.0
50735,2015-01-17,0700,0654,-6.0
50738,2015-01-17,1435,1433,-2.0
50740,2015-01-17,1445,1444,-1.0
50742,2015-01-17,0820,0840,20.0
50743,2015-01-17,1215,1212,-3.0
50745,2015-01-17,1346,1339,-7.0
50746,2015-01-17,0910,0902,-8.0
50749,2015-01-17,1115,1111,-4.0
50764,2015-01-17,0830,0827,-3.0
50774,2015-01-17,2215,2212,-3.0
50775,2015-01-17,1255,1246,-9.0
50779,2015-01-17,1030,1035,5.0
50784,2015-01-17,1705,1708,3.0
50789,2015-01-17,2140,2137,-3.0
50791,2015-01-17,1215,1225,10.0
50793,2015-01-17,0825,0825,0.0
50796,2015-01-17,0730,0729,-1.0
50801,2015-01-17,1915,1915,0.0
50805,2015-01-17,1335,1333,-2.0
50808,2015-01-17,1510,1502,-8.0
50815,2015-01-17,1130,1127,-3.0
50817,2015-01-17,1735,1731,-4.0
50820,2015-01-17,1230,1227,-3.0
50823,2015-01-17,0650,0641,-9.0
50824,2015-01-17,1205,1200,-5.0
50825,2015-01-17,2220,2215,-5.0
50831,2015-01-17,1330,1328,-2.0
50839,2015-01-17,1623,1631,8.0
50845,2015-01-17,0730,0727,-3.0
50850,2015-01-17,1505,1500,-5.0
50851,2015-01-17,0830,0828,-2.0
50855,2015-01-17,0600,0558,-2.0
50856,2015-01-17,1300,1256,-4.0
50858,2015-01-17,1125,1124,-1.0
50859,2015-01-17,1945,1938,-7.0
50863,2015-01-17,1108,1106,-2.0
50873,2015-01-17,1845,1841,-4.0
50894,2015-01-17,1019,1014,-5.0
50906,2015-01-17,1959,1948,-11.0
50909,2015-01-17,0840,0830,-10.0
50911,2015-01-17,1000,0950,-10.0
50913,2015-01-17,1705,1656,-9.0
50923,2015-01-17,1115,1058,-17.0
50925,2015-01-17,0905,0900,-5.0
50930,2015-01-17,1755,1743,-12.0
50934,2015-01-17,0920,0931,11.0
50939,2015-01-17,0613,0607,-6.0
50942,2015-01-17,2100,2051,-9.0
50945,2015-01-17,2225,2212,-13.0
50948,2015-01-17,1530,1523,-7.0
50949,2015-01-17,1045,1038,-7.0
50951,2015-01-17,1411,1427,16.0
50952,2015-01-17,1900,1855,-5.0
50954,2015-01-17,1000,0955,-5.0
50958,2015-01-17,1934,1925,-9.0
50961,2015-01-17,1330,1328,-2.0
50968,2015-01-17,1026,1024,-2.0
50969,2015-01-17,1604,1559,-5.0
50971,2015-01-17,1650,1645,-5.0
50974,2015-01-17,2104,2103,-1.0
50975,2015-01-17,1215,1213,-2.0
50977,2015-01-17,1950,1943,-7.0
50979,2015-01-17,1746,1739,-7.0
50981,2015-01-17,1400,1355,-5.0
50982,2015-01-17,1305,1259,-6.0
50988,2015-01-17,1837,1834,-3.0
50991,2015-01-17,1922,1916,-6.0
50994,2015-01-17,0915,0917,2.0
50996,2015-01-17,1540,1537,-3.0
50999,2015-01-17,1355,1350,-5.0
51001,2015-01-17,2055,2048,-7.0
51003,2015-01-17,1705,1700,-5.0
51005,2015-01-17,1129,1124,-5.0
51007,2015-01-17,1949,1942,-7.0
51009,2015-01-17,1959,1952,-7.0
51010,2015-01-17,1420,1414,-6.0
51014,2015-01-17,0728,0721,-7.0
51016,2015-01-17,2040,2040,0.0
51022,2015-01-17,0945,0939,-6.0
51023,2015-01-17,0805,0800,-5.0
51034,2015-01-17,0820,0817,-3.0
51043,2015-01-17,1343,1336,-7.0
51044,2015-01-17,1455,1453,-2.0
51048,2015-01-17,1300,1251,-9.0
51056,2015-01-17,1715,1709,-6.0
51069,2015-01-17,2140,2134,-6.0
51078,2015-01-17,1625,1619,-6.0
51086,2015-01-17,1030,1027,-3.0
51087,2015-01-17,0956,0953,-3.0
51096,2015-01-17,0745,0738,-7.0
51099,2015-01-17,0850,0844,-6.0
51100,2015-01-17,2027,2024,-3.0
51117,2015-01-17,2107,2108,1.0
51122,2015-01-17,1840,1834,-6.0
51165,2015-01-17,1745,1741,-4.0
51169,2015-01-17,1145,1155,10.0
51171,2015-01-17,1850,1849,-1.0
51173,2015-01-17,1225,1218,-7.0
51177,2015-01-17,2126,2119,-7.0
51179,2015-01-17,1546,1544,-2.0
51181,2015-01-17,1130,1126,-4.0
51183,2015-01-17,0815,0809,-6.0
51187,2015-01-17,1539,1533,-6.0
51189,2015-01-17,1025,1033,8.0
51199,2015-01-17,0915,0914,-1.0
51204,2015-01-17,1045,1248,123.0
51206,2015-01-17,2005,2003,-2.0
51211,2015-01-17,0910,0913,3.0
51212,2015-01-17,1135,1134,-1.0
51220,2015-01-17,0805,0805,0.0
51222,2015-01-17,1300,1329,29.0
51231,2015-01-17,1332,1328,-4.0
51236,2015-01-17,1730,1727,-3.0
51240,2015-01-17,1730,1722,-8.0
51244,2015-01-17,0749,0732,-17.0
51245,2015-01-17,1605,1558,-7.0
51287,2015-01-17,1825,1828,3.0
51288,2015-01-17,1537,1531,-6.0
51292,2015-01-17,0830,0827,-3.0
51293,2015-01-17,1242,1239,-3.0
51323,2015-01-17,1140,1127,-13.0
51324,2015-01-17,1600,1556,-4.0
51329,2015-01-17,0840,0858,18.0
51343,2015-01-17,0937,0931,-6.0
51344,2015-01-17,1200,1158,-2.0
51346,2015-01-17,0830,0815,-15.0
51349,2015-01-17,2000,1954,-6.0
51350,2015-01-17,1648,1640,-8.0
51365,2015-01-17,1325,1331,6.0
51369,2015-01-17,0935,0933,-2.0
51374,2015-01-17,1920,1914,-6.0
51389,2015-01-17,2050,2049,-1.0
51390,2015-01-17,0855,0854,-1.0
51391,2015-01-17,1346,1343,-3.0
51394,2015-01-17,1735,1727,-8.0
51395,2015-01-17,1155,1219,24.0
51397,2015-01-17,2226,2224,-2.0
51398,2015-01-17,0743,0737,-6.0
51402,2015-01-17,0700,0652,-8.0
51405,2015-01-17,1104,1106,2.0
51410,2015-01-17,1225,1225,0.0
51415,2015-01-17,1424,1420,-4.0
51416,2015-01-17,1437,1437,0.0
51419,2015-01-17,2005,2004,-1.0
51421,2015-01-17,1805,1805,0.0
51423,2015-01-17,1633,1630,-3.0
51432,2015-01-17,1830,1822,-8.0
51435,2015-01-17,2031,2026,-5.0
51438,2015-01-17,0712,0705,-7.0
51439,2015-01-17,1244,1241,-3.0
51444,2015-01-17,1850,1847,-3.0
51448,2015-01-17,1010,1000,-10.0
51450,2015-01-17,2235,2259,24.0
51457,2015-01-17,1909,1901,-8.0
51472,2015-01-17,1810,1803,-7.0
51477,2015-01-17,0751,0738,-13.0
51478,2015-01-17,1040,1033,-7.0
51480,2015-01-17,0817,0809,-8.0
51488,2015-01-17,0918,0916,-2.0
51497,2015-01-17,0945,0940,-5.0
51499,2015-01-17,2356,2355,-1.0
51506,2015-01-17,1056,1055,-1.0
51507,2015-01-17,0549,0555,6.0
51517,2015-01-17,0045,0051,6.0
51525,2015-01-17,0900,0900,0.0
51529,2015-01-17,2331,2330,-1.0
51544,2015-01-17,1400,1402,2.0
51559,2015-01-17,0830,0825,-5.0
51560,2015-01-17,1113,1125,12.0
51562,2015-01-17,2215,2223,8.0
51565,2015-01-17,1510,1509,-1.0
51568,2015-01-17,1947,1941,-6.0
51577,2015-01-17,1900,1854,-6.0
51590,2015-01-17,2226,2218,-8.0
51594,2015-01-17,0808,0758,-10.0
51596,2015-01-17,1310,1302,-8.0
51618,2015-01-17,0807,0759,-8.0
51626,2015-01-17,1310,1308,-2.0
51639,2015-01-17,1635,1628,-7.0
51640,2015-01-17,1155,1152,-3.0
51644,2015-01-17,0652,0646,-6.0
51652,2015-01-17,0655,0705,10.0
51654,2015-01-17,0935,1416,281.0
51657,2015-01-17,0845,0844,-1.0
51679,2015-01-17,1310,1300,-10.0
51691,2015-01-17,1032,1029,-3.0
51692,2015-01-17,1652,1644,-8.0
51699,2015-01-17,0900,0858,-2.0
51700,2015-01-17,1304,1301,-3.0
51701,2015-01-17,2145,2137,-8.0
51704,2015-01-17,1700,1656,-4.0
51709,2015-01-17,2256,2251,-5.0
51719,2015-01-17,1300,1259,-1.0
51720,2015-01-17,1125,1136,11.0
51729,2015-01-17,2235,2232,-3.0
51730,2015-01-17,1247,1501,134.0
51736,2015-01-17,1253,1258,5.0
51748,2015-01-17,1447,1451,4.0
51750,2015-01-17,1301,1307,6.0
51752,2015-01-17,1611,1832,141.0
51753,2015-01-17,0800,0752,-8.0
51756,2015-01-17,1113,1139,26.0
51765,2015-01-17,1606,1557,-9.0
51766,2015-01-17,0600,0555,-5.0
51769,2015-01-17,1030,1041,11.0
51774,2015-01-17,0745,0739,-6.0
51775,2015-01-17,2316,0053,97.0
51777,2015-01-17,0602,0557,-5.0
51780,2015-01-17,1025,1203,98.0
51782,2015-01-17,1600,1556,-4.0
51783,2015-01-17,1340,1346,6.0
51787,2015-01-17,1105,1058,-7.0
51788,2015-01-17,1014,1015,1.0
51791,2015-01-17,1426,1423,-3.0
51795,2015-01-17,1003,0959,-4.0
51803,2015-01-17,1317,1316,-1.0
51805,2015-01-17,0845,0848,3.0
51812,2015-01-17,0859,1125,146.0
51813,2015-01-17,2000,1953,-7.0
51815,2015-01-17,1743,1741,-2.0
51816,2015-01-17,1610,1601,-9.0
51819,2015-01-17,1551,1543,-8.0
51823,2015-01-17,1704,1659,-5.0
51825,2015-01-17,1000,0955,-5.0
51827,2015-01-17,2257,2249,-8.0
51828,2015-01-17,0725,0718,-7.0
51829,2015-01-17,0725,0722,-3.0
51835,2015-01-17,1620,1617,-3.0
51838,2015-01-17,1310,1308,-2.0
51846,2015-01-17,0030,0029,-1.0
51868,2015-01-17,1625,1618,-7.0
51874,2015-01-17,0625,0621,-4.0
51875,2015-01-17,1120,1114,-6.0
51886,2015-01-17,0735,0731,-4.0
51893,2015-01-17,1005,1007,2.0
51894,2015-01-17,1245,1241,-4.0
51911,2015-01-17,0625,0621,-4.0
51918,2015-01-17,1145,1144,-1.0
51924,2015-01-17,0600,0603,3.0
51925,2015-01-17,1750,1742,-8.0
51931,2015-01-17,0835,0832,-3.0
51935,2015-01-17,2215,2211,-4.0
51937,2015-01-17,1125,1205,40.0
51942,2015-01-17,0915,0910,-5.0
51946,2015-01-17,0035,0037,2.0
51948,2015-01-17,1325,1328,3.0
51952,2015-01-17,1410,1404,-6.0
51953,2015-01-17,0830,0826,-4.0
51958,2015-01-17,0825,0818,-7.0
51968,2015-01-17,1045,1046,1.0
51974,2015-01-17,0840,0912,32.0
51978,2015-01-17,1325,1321,-4.0
51980,2015-01-17,1015,1015,0.0
51988,2015-01-17,0830,0831,1.0
51992,2015-01-17,0730,0723,-7.0
51993,2015-01-17,1040,1103,23.0
51996,2015-01-17,1345,1344,-1.0
51999,2015-01-17,0900,0940,40.0
52000,2015-01-17,1540,1539,-1.0
52001,2015-01-17,1730,1727,-3.0
52015,2015-01-17,1305,1314,9.0
52020,2015-01-17,1000,0958,-2.0
52021,2015-01-17,1200,1151,-9.0
52034,2015-01-17,1635,1627,-8.0
52035,2015-01-17,0700,0659,-1.0
52036,2015-01-17,1125,1156,31.0
52038,2015-01-17,1330,1327,-3.0
52040,2015-01-17,1545,1702,77.0
52041,2015-01-17,0910,1019,69.0
52043,2015-01-17,1825,1828,3.0
52439,2015-01-17,1500,1553,53.0
52440,2015-01-17,1025,1023,-2.0
52441,2015-01-17,1240,1249,9.0
52442,2015-01-17,0705,0700,-5.0
52443,2015-01-17,0740,0735,-5.0
52444,2015-01-17,1535,1606,31.0
52445,2015-01-17,0940,0949,9.0
52446,2015-01-17,1155,1222,27.0
52447,2015-01-17,0930,0934,4.0
52448,2015-01-17,1600,1555,-5.0
52449,2015-01-17,1915,1913,-2.0
52450,2015-01-17,1420,1419,-1.0
52451,2015-01-17,1425,1437,12.0
52452,2015-01-17,1805,1805,0.0
52453,2015-01-17,0600,0557,-3.0
52454,2015-01-17,1245,1258,13.0
52455,2015-01-17,1005,1001,-4.0
52456,2015-01-17,0835,0836,1.0
52457,2015-01-17,1710,1709,-1.0
52458,2015-01-17,1045,1042,-3.0
52459,2015-01-17,1000,1003,3.0
52460,2015-01-17,1145,1144,-1.0
52461,2015-01-17,1910,1907,-3.0
52462,2015-01-17,1800,1819,19.0
52463,2015-01-17,1415,1414,-1.0
52464,2015-01-17,0715,0713,-2.0
52465,2015-01-17,1555,1617,22.0
52466,2015-01-17,0820,0817,-3.0
52467,2015-01-17,1250,1259,9.0
52468,2015-01-17,0810,0811,1.0
52469,2015-01-17,1525,1533,8.0
52470,2015-01-17,0645,0645,0.0
52471,2015-01-17,1315,1319,4.0
52472,2015-01-17,1105,1103,-2.0
52473,2015-01-17,1130,1529,239.0
52474,2015-01-17,1605,1609,4.0
52475,2015-01-17,1740,1738,-2.0
52476,2015-01-17,1250,1246,-4.0
52477,2015-01-17,2005,2022,17.0
52478,2015-01-17,0840,0845,5.0
52479,2015-01-17,1120,1116,-4.0
52480,2015-01-17,0955,0956,1.0
52481,2015-01-17,1405,1814,249.0
52482,2015-01-17,0720,0719,-1.0
52483,2015-01-17,1505,,
52484,2015-01-17,0700,0745,45.0
52485,2015-01-17,1130,1135,5.0
52486,2015-01-17,1315,1327,12.0
52487,2015-01-17,1450,1456,6.0
52488,2015-01-17,0950,0949,-1.0
52489,2015-01-17,1800,1757,-3.0
52490,2015-01-17,1445,1443,-2.0
52491,2015-01-17,0820,0819,-1.0
52492,2015-01-17,1220,1218,-2.0
52493,2015-01-17,0900,1053,113.0
52494,2015-01-17,0655,0650,-5.0
52495,2015-01-17,1100,1123,23.0
52496,2015-01-17,1900,1856,-4.0
52497,2015-01-17,1500,1458,-2.0
52498,2015-01-17,1710,,
52499,2015-01-17,2100,2139,39.0
52500,2015-01-17,1305,1452,107.0
52501,2015-01-17,1245,1242,-3.0
52502,2015-01-17,0645,0637,-8.0
52503,2015-01-17,0805,,
52504,2015-01-17,1445,1520,35.0
52505,2015-01-17,1950,1948,-2.0
52506,2015-01-17,0955,0956,1.0
52507,2015-01-17,1635,1632,-3.0
52508,2015-01-17,0900,0859,-1.0
52509,2015-01-17,1450,1538,48.0
52510,2015-01-17,1805,1758,-7.0
52511,2015-01-17,1640,1654,14.0
52512,2015-01-17,1910,1906,-4.0
52513,2015-01-17,1100,1059,-1.0
52514,2015-01-17,1400,1412,12.0
52515,2015-01-17,0750,0747,-3.0
52516,2015-01-17,0700,0655,-5.0
52517,2015-01-17,0755,0751,-4.0
52518,2015-01-17,1825,1829,4.0
52519,2015-01-17,1325,1319,-6.0
