,FL_DATE,CRS_ARR_TIME,ARR_TIME,ARR_DELAY
3000,2015-01-02,1145,1148,3.0
3133,2015-01-02,1410,1421,11.0
3224,2015-01-02,1850,1858,8.0
3292,2015-01-02,2310,0132,142.0
3440,2015-01-02,0934,0922,-12.0
3443,2015-01-02,2319,2307,-12.0
3445,2015-01-02,1744,1728,-16.0
3779,2015-01-02,2046,2030,-16.0
3905,2015-01-02,2244,2236,-8.0
4011,2015-01-02,1206,1209,3.0
4017,2015-01-02,1733,1732,-1.0
4044,2015-01-02,1410,1413,3.0
4190,2015-01-02,0849,0835,-14.0
4192,2015-01-02,1907,1848,-19.0
4194,2015-01-02,2215,2159,-16.0
4330,2015-01-02,1601,1613,12.0
4332,2015-01-02,0935,0920,-15.0
4415,2015-01-02,1251,,
4470,2015-01-02,2010,2043,33.0
4479,2015-01-02,1938,1924,-14.0
4483,2015-01-02,2358,2356,-2.0
4614,2015-01-02,1045,1042,-3.0
4724,2015-01-02,2119,2117,-2.0
4732,2015-01-02,1010,1006,-4.0
5373,2015-01-02,2357,2355,-2.0
5375,2015-01-02,1134,1123,-11.0
5437,2015-01-02,2103,2058,-5.0
5679,2015-01-02,1720,1808,48.0
5680,2015-01-02,1350,1350,0.0
5681,2015-01-02,1950,2000,10.0
5682,2015-01-02,2205,2244,39.0
5683,2015-01-02,0755,0740,-15.0
5684,2015-01-02,0930,0917,-13.0
5685,2015-01-02,1155,1156,1.0
5798,2015-01-02,0625,0708,43.0
5799,2015-01-02,2040,2109,29.0
5800,2015-01-02,1200,1211,11.0
5801,2015-01-02,0825,0844,19.0
5802,2015-01-02,1725,1751,26.0
5803,2015-01-02,1515,1521,6.0
5874,2015-01-02,0945,0931,-14.0
5875,2015-01-02,2310,2311,1.0
5964,2015-01-02,2245,0019,94.0
5965,2015-01-02,0855,0842,-13.0
5966,2015-01-02,1720,1724,4.0
5967,2015-01-02,1405,1418,13.0
5968,2015-01-02,1940,1932,-8.0
6143,2015-01-02,2240,2259,19.0
6386,2015-01-02,1515,1533,18.0
6387,2015-01-02,1030,1114,44.0
6388,2015-01-02,2250,0026,96.0
6389,2015-01-02,2045,2105,20.0
6457,2015-01-02,2000,1958,-2.0
6458,2015-01-02,1415,1409,-6.0
6459,2015-01-02,1815,1812,-3.0
6460,2015-01-02,1140,1131,-9.0
6461,2015-01-02,1005,1002,-3.0
6462,2015-01-02,1515,1528,13.0
6463,2015-01-02,0720,0710,-10.0
