,FL_DATE,CRS_ARR_TIME,ARR_TIME,ARR_DELAY
9745,2015-01-04,1145,1144,-1.0
9881,2015-01-04,1410,1458,48.0
9969,2015-01-04,1850,1913,23.0
10036,2015-01-04,2310,0026,76.0
10179,2015-01-04,0934,0916,-18.0
10183,2015-01-04,1744,1849,65.0
10396,2015-01-04,2244,2305,21.0
10620,2015-01-04,2046,2028,-18.0
10743,2015-01-04,1206,1215,9.0
10748,2015-01-04,1733,1737,4.0
10774,2015-01-04,1410,1412,2.0
10849,2015-01-04,1257,1558,181.0
10922,2015-01-04,0849,0842,-7.0
10924,2015-01-04,1907,1930,23.0
10926,2015-01-04,2215,,
11057,2015-01-04,1601,1600,-1.0
11059,2015-01-04,0935,0934,-1.0
11142,2015-01-04,2119,2219,60.0
11195,2015-01-04,2011,2017,6.0
11203,2015-01-04,1938,1937,-1.0
11207,2015-01-04,2358,0011,13.0
11332,2015-01-04,1045,1057,12.0
11441,2015-01-04,0948,1008,20.0
11958,2015-01-04,2103,2110,7.0
12013,2015-01-04,2357,0023,26.0
12014,2015-01-04,1842,1850,8.0
12016,2015-01-04,1134,1132,-2.0
12279,2015-01-04,2310,2337,27.0
12280,2015-01-04,0950,0950,0.0
12335,2015-01-04,2245,0015,90.0
12336,2015-01-04,0855,0905,10.0
12337,2015-01-04,1720,1802,42.0
12338,2015-01-04,1930,2040,70.0
12339,2015-01-04,1405,1405,0.0
12502,2015-01-04,2240,0026,106.0
12563,2015-01-04,1720,1715,-5.0
12564,2015-01-04,1950,1949,-1.0
12565,2015-01-04,2205,2237,32.0
12566,2015-01-04,1350,1409,19.0
12567,2015-01-04,1155,1149,-6.0
12568,2015-01-04,0755,0744,-11.0
12569,2015-01-04,0915,0906,-9.0
12679,2015-01-04,2040,2057,17.0
12680,2015-01-04,1200,1224,24.0
12681,2015-01-04,0825,0819,-6.0
12682,2015-01-04,1725,1748,23.0
12683,2015-01-04,1500,1544,44.0
12684,2015-01-04,0720,0706,-14.0
12907,2015-01-04,1515,1525,10.0
12908,2015-01-04,1030,1105,35.0
12909,2015-01-04,2250,2331,41.0
12910,2015-01-04,2045,2110,25.0
12971,2015-01-04,1415,1518,63.0
12972,2015-01-04,1825,1923,58.0
12973,2015-01-04,2005,2131,86.0
12974,2015-01-04,1005,1012,7.0
12975,2015-01-04,1135,1153,18.0
12976,2015-01-04,1515,1510,-5.0
