,FL_DATE,CRS_ARR_TIME,ARR_TIME,ARR_DELAY
47007,2015-01-16,1343,1401,18.0
47016,2015-01-16,2337,2337,0.0
47032,2015-01-16,1500,1508,8.0
47036,2015-01-16,1400,1553,113.0
47042,2015-01-16,2334,0019,45.0
47092,2015-01-16,0550,0533,-17.0
47093,2015-01-16,1318,1320,2.0
47099,2015-01-16,1435,1436,1.0
47129,2015-01-16,1807,1809,2.0
47131,2015-01-16,1507,1506,-1.0
47153,2015-01-16,1250,1256,6.0
47167,2015-01-16,1930,1938,8.0
47183,2015-01-16,2105,2052,-13.0
47201,2015-01-16,0528,0527,-1.0
47203,2015-01-16,2252,2247,-5.0
47204,2015-01-16,2217,2211,-6.0
47260,2015-01-16,1845,1846,1.0
47545,2015-01-16,1836,1934,58.0
47552,2015-01-16,1809,1802,-7.0
47883,2015-01-16,1642,1646,4.0
47885,2015-01-16,2013,2034,21.0
47892,2015-01-16,1500,1439,-21.0
48533,2015-01-16,1717,1723,6.0
48541,2015-01-16,1910,1922,12.0
48577,2015-01-16,0439,0431,-8.0
48579,2015-01-16,1655,1843,108.0
48599,2015-01-16,1820,1840,20.0
48610,2015-01-16,1208,1225,17.0
48652,2015-01-16,2019,2032,13.0
48653,2015-01-16,2320,2256,-24.0
48691,2015-01-16,1610,1613,3.0
48694,2015-01-16,1842,1836,-6.0
48718,2015-01-16,1416,1414,-2.0
48731,2015-01-16,1621,1614,-7.0
48733,2015-01-16,1214,1207,-7.0
48748,2015-01-16,1738,1801,23.0
48770,2015-01-16,1425,1417,-8.0
48773,2015-01-16,1939,1935,-4.0
48809,2015-01-16,1303,1311,8.0
48840,2015-01-16,0519,0506,-13.0
48857,2015-01-16,1725,1737,12.0
48861,2015-01-16,1712,1730,18.0
48868,2015-01-16,0524,0515,-9.0
48893,2015-01-16,0045,0026,-19.0
48901,2015-01-16,1455,1646,111.0
48905,2015-01-16,1454,1447,-7.0
48908,2015-01-16,2302,2335,33.0
48933,2015-01-16,2020,2128,68.0
48936,2015-01-16,0450,0444,-6.0
48984,2015-01-16,1214,1215,1.0
49168,2015-01-16,1525,1522,-3.0
49176,2015-01-16,1640,1701,21.0
