,FL_DATE,CRS_ARR_TIME,ARR_TIME,ARR_DELAY
50234,2015-01-17,1343,1328,-15.0
50243,2015-01-17,2337,2333,-4.0
50254,2015-01-17,1500,1440,-20.0
50258,2015-01-17,1400,1404,4.0
50264,2015-01-17,2334,2316,-18.0
50308,2015-01-17,0550,0614,24.0
50309,2015-01-17,1318,1316,-2.0
50314,2015-01-17,1435,1420,-15.0
50336,2015-01-17,1807,1801,-6.0
50338,2015-01-17,1507,1440,-27.0
50354,2015-01-17,1250,1229,-21.0
50365,2015-01-17,1930,1909,-21.0
50378,2015-01-17,2105,2139,34.0
50392,2015-01-17,0528,0512,-16.0
50394,2015-01-17,2252,2237,-15.0
50395,2015-01-17,2217,,
50448,2015-01-17,1845,1842,-3.0
50701,2015-01-17,1836,1836,0.0
50707,2015-01-17,1809,1757,-12.0
50949,2015-01-17,1642,1635,-7.0
50951,2015-01-17,2013,2021,8.0
50959,2015-01-17,1500,1434,-26.0
51529,2015-01-17,0528,0516,-12.0
51569,2015-01-17,0455,0448,-7.0
51571,2015-01-17,1214,1204,-10.0
51630,2015-01-17,1446,1423,-23.0
51662,2015-01-17,1416,1406,-10.0
51665,2015-01-17,1915,2221,186.0
51676,2015-01-17,1619,1645,26.0
51678,2015-01-17,1218,1204,-14.0
51690,2015-01-17,1728,1708,-20.0
51706,2015-01-17,1425,1411,-14.0
51709,2015-01-17,0450,0447,-3.0
51719,2015-01-17,1913,1846,-27.0
51777,2015-01-17,1212,1145,-27.0
51787,2015-01-17,1705,1653,-12.0
51805,2015-01-17,1455,1442,-13.0
51963,2015-01-17,1525,1509,-16.0
51968,2015-01-17,1640,1633,-7.0
