,FL_DATE,CRS_ARR_TIME,ARR_TIME,ARR_DELAY
82873,2015-01-28,1343,1323,-20.0
82882,2015-01-28,2337,2316,-21.0
82897,2015-01-28,1500,1417,-43.0
82901,2015-01-28,1400,1328,-32.0
82906,2015-01-28,2334,2319,-15.0
82953,2015-01-28,0550,0537,-13.0
82954,2015-01-28,1318,1244,-34.0
82961,2015-01-28,1435,1427,-8.0
82989,2015-01-28,1807,1732,-35.0
82991,2015-01-28,1507,1435,-32.0
83010,2015-01-28,1250,1218,-32.0
83024,2015-01-28,1930,1903,-27.0
83038,2015-01-28,2105,2045,-20.0
83056,2015-01-28,0528,0515,-13.0
83058,2015-01-28,2252,2229,-23.0
83059,2015-01-28,2217,2202,-15.0
83112,2015-01-28,1845,1817,-28.0
83366,2015-01-28,1836,1810,-26.0
83373,2015-01-28,1809,1743,-26.0
83679,2015-01-28,1642,1617,-25.0
83681,2015-01-28,2013,1954,-19.0
83691,2015-01-28,1500,1445,-15.0
84308,2015-01-28,1212,,
84344,2015-01-28,0518,0453,-25.0
84348,2015-01-28,2320,2256,-24.0
84358,2015-01-28,1610,1538,-32.0
84379,2015-01-28,1842,1836,-6.0
84401,2015-01-28,1416,1412,-4.0
84404,2015-01-28,1914,1907,-7.0
84411,2015-01-28,2019,1950,-29.0
84415,2015-01-28,1619,1558,-21.0
84417,2015-01-28,1215,,
84427,2015-01-28,1738,1734,-4.0
84434,2015-01-28,1820,1754,-26.0
84447,2015-01-28,1425,1352,-33.0
84455,2015-01-28,1303,1236,-27.0
84469,2015-01-28,1455,1428,-27.0
84515,2015-01-28,2020,,
84548,2015-01-28,0441,0432,-9.0
84555,2015-01-28,1712,1712,0.0
84580,2015-01-28,1725,1651,-34.0
84585,2015-01-28,1454,1417,-37.0
84604,2015-01-28,0528,0443,-45.0
84613,2015-01-28,0450,0424,-26.0
84649,2015-01-28,1214,1213,-1.0
84663,2015-01-28,1659,1657,-2.0
84674,2015-01-28,1717,1651,-26.0
84693,2015-01-28,2302,2235,-27.0
84884,2015-01-28,1525,1528,3.0
84893,2015-01-28,1640,1634,-6.0
