,FL_DATE,CRS_ARR_TIME,ARR_TIME,ARR_DELAY
74125,2015-01-25,2345,2333,-12.0
74126,2015-01-25,2247,2234,-13.0
74128,2015-01-25,2040,2030,-10.0
74131,2015-01-25,2345,2345,0.0
74180,2015-01-25,1139,1215,36.0
74213,2015-01-25,1800,1759,-1.0
74265,2015-01-25,2337,0024,47.0
74340,2015-01-25,1925,1915,-10.0
74343,2015-01-25,0848,0848,0.0
74345,2015-01-25,0855,0852,-3.0
74346,2015-01-25,1315,1317,2.0
74386,2015-01-25,0851,0838,-13.0
74402,2015-01-25,0904,0851,-13.0
74420,2015-01-25,0913,0914,1.0
74425,2015-01-25,1416,1403,-13.0
74431,2015-01-25,1915,1909,-6.0
74438,2015-01-25,1924,1917,-7.0
74451,2015-01-25,1421,1404,-17.0
74453,2015-01-25,1603,1612,9.0
74461,2015-01-25,1557,1550,-7.0
74470,2015-01-25,1558,1552,-6.0
74471,2015-01-25,1309,1310,1.0
74476,2015-01-25,2124,2111,-13.0
74480,2015-01-25,1606,1611,5.0
74482,2015-01-25,1606,1559,-7.0
74489,2015-01-25,1027,1025,-2.0
74493,2015-01-25,2110,2103,-7.0
74497,2015-01-25,1918,1909,-9.0
74600,2015-01-25,1502,1534,32.0
74617,2015-01-25,1925,1907,-18.0
74622,2015-01-25,1006,1000,-6.0
74625,2015-01-25,1826,1828,2.0
74688,2015-01-25,1459,1632,93.0
74698,2015-01-25,0907,0859,-8.0
74704,2015-01-25,2150,2207,17.0
74735,2015-01-25,1544,1606,22.0
74752,2015-01-25,1141,1143,2.0
74774,2015-01-25,2125,2122,-3.0
74791,2015-01-25,0950,0950,0.0
74819,2015-01-25,2319,2309,-10.0
74828,2015-01-25,0912,0907,-5.0
74840,2015-01-25,0905,0848,-17.0
74854,2015-01-25,1312,1304,-8.0
74873,2015-01-25,1500,1440,-20.0
74882,2015-01-25,2119,2102,-17.0
74885,2015-01-25,1914,1909,-5.0
74886,2015-01-25,2110,2053,-17.0
74892,2015-01-25,1315,1314,-1.0
74893,2015-01-25,1921,1907,-14.0
74895,2015-01-25,0954,0953,-1.0
74897,2015-01-25,1310,1259,-11.0
74909,2015-01-25,0909,0857,-12.0
74910,2015-01-25,1054,1054,0.0
74912,2015-01-25,2109,2055,-14.0
74913,2015-01-25,1913,1916,3.0
74915,2015-01-25,1257,1305,8.0
74928,2015-01-25,1605,1558,-7.0
74929,2015-01-25,1300,1249,-11.0
74939,2015-01-25,1424,1431,7.0
75031,2015-01-25,1143,1200,17.0
75113,2015-01-25,1833,1857,24.0
75134,2015-01-25,2319,2318,-1.0
75142,2015-01-25,0955,0958,3.0
75143,2015-01-25,2030,2034,4.0
75190,2015-01-25,1326,1338,12.0
75643,2015-01-25,1556,1542,-14.0
76185,2015-01-25,1140,1140,0.0
76186,2015-01-25,2250,2236,-14.0
76187,2015-01-25,1935,1957,22.0
76282,2015-01-25,0850,0843,-7.0
76283,2015-01-25,2135,2123,-12.0
76284,2015-01-25,1200,1154,-6.0
76285,2015-01-25,1525,1521,-4.0
