,FL_DATE,CRS_ARR_TIME,ARR_TIME,ARR_DELAY
83276,2015-01-28,2345,2342,-3.0
83277,2015-01-28,2247,2224,-23.0
83279,2015-01-28,2040,2026,-14.0
83282,2015-01-28,2345,2324,-21.0
83304,2015-01-28,1139,1155,16.0
83333,2015-01-28,1800,1743,-17.0
83380,2015-01-28,2337,2324,-13.0
83469,2015-01-28,0904,0854,-10.0
83480,2015-01-28,1915,1854,-21.0
83487,2015-01-28,1027,1006,-21.0
83493,2015-01-28,2004,1936,-28.0
83505,2015-01-28,0913,0900,-13.0
83510,2015-01-28,1416,1359,-17.0
83542,2015-01-28,2014,2021,7.0
83544,2015-01-28,0848,0822,-26.0
83546,2015-01-28,0855,0848,-7.0
83547,2015-01-28,1315,1322,7.0
83560,2015-01-28,2005,1940,-25.0
83573,2015-01-28,1430,1416,-14.0
83575,2015-01-28,1603,1548,-15.0
83582,2015-01-28,1557,1541,-16.0
83591,2015-01-28,1558,1549,-9.0
83592,2015-01-28,1309,1254,-15.0
83598,2015-01-28,2124,2058,-26.0
83601,2015-01-28,1606,1608,2.0
83603,2015-01-28,1606,1551,-15.0
83605,2015-01-28,0854,0845,-9.0
83704,2015-01-28,1502,1449,-13.0
83719,2015-01-28,1006,0945,-21.0
83721,2015-01-28,1925,1920,-5.0
83728,2015-01-28,1826,1841,15.0
83792,2015-01-28,1459,1437,-22.0
83801,2015-01-28,0907,0857,-10.0
83807,2015-01-28,2150,2145,-5.0
83831,2015-01-28,1544,1547,3.0
83845,2015-01-28,1141,1129,-12.0
83865,2015-01-28,2125,2123,-2.0
83882,2015-01-28,0950,0932,-18.0
83909,2015-01-28,2319,2255,-24.0
83919,2015-01-28,0912,0853,-19.0
83939,2015-01-28,1312,1258,-14.0
83958,2015-01-28,1501,1453,-8.0
83970,2015-01-28,2005,1951,-14.0
83971,2015-01-28,2013,1953,-20.0
83977,2015-01-28,1315,1305,-10.0
83978,2015-01-28,1921,1904,-17.0
83980,2015-01-28,0954,0929,-25.0
83982,2015-01-28,1310,1310,0.0
83993,2015-01-28,0909,0902,-7.0
83994,2015-01-28,1004,0941,-23.0
83995,2015-01-28,2013,1947,-26.0
83997,2015-01-28,1257,1232,-25.0
84009,2015-01-28,1605,1559,-6.0
84011,2015-01-28,1300,1256,-4.0
84023,2015-01-28,1424,1431,7.0
84071,2015-01-28,1143,1144,1.0
84201,2015-01-28,1838,1824,-14.0
84222,2015-01-28,2319,2319,0.0
84231,2015-01-28,0953,0929,-24.0
84232,2015-01-28,1927,1901,-26.0
84234,2015-01-28,1337,1343,6.0
84747,2015-01-28,1314,1305,-9.0
84748,2015-01-28,1606,1541,-25.0
85168,2015-01-28,0850,0840,-10.0
85169,2015-01-28,2135,2127,-8.0
85170,2015-01-28,1200,1151,-9.0
85171,2015-01-28,1525,1539,14.0
85396,2015-01-28,1140,1129,-11.0
85397,2015-01-28,2250,2233,-17.0
85398,2015-01-28,1935,1926,-9.0
