,FL_DATE,CRS_DEP_TIME,DEP_TIME,DEP_DELAY
227,2015-01-01,1500,1515,15.0
830,2015-01-01,1735,1737,2.0
992,2015-01-01,1233,1226,-7.0
1010,2015-01-01,1450,1444,-6.0
1297,2015-01-01,1030,1023,-7.0
1464,2015-01-01,1444,1440,-4.0
1469,2015-01-01,0940,0937,-3.0
1472,2015-01-01,1943,1937,-6.0
1474,2015-01-01,1110,1109,-1.0
1477,2015-01-01,1450,1448,-2.0
1481,2015-01-01,1450,1447,-3.0
1482,2015-01-01,2103,2100,-3.0
1483,2015-01-01,1445,1444,-1.0
1486,2015-01-01,2059,2101,2.0
1487,2015-01-01,1435,1434,-1.0
1488,2015-01-01,2059,2107,8.0
1489,2015-01-01,1440,1433,-7.0
1491,2015-01-01,2055,2056,1.0
1492,2015-01-01,2103,2058,-5.0
1493,2015-01-01,1735,1746,11.0
1494,2015-01-01,1800,1758,-2.0
1497,2015-01-01,2100,2100,0.0
1501,2015-01-01,1755,1926,91.0
1502,2015-01-01,1105,1058,-7.0
1532,2015-01-01,1702,1743,41.0
1533,2015-01-01,0645,0701,16.0
1593,2015-01-01,0650,0751,61.0
1622,2015-01-01,1147,1156,9.0
1645,2015-01-01,2115,2140,25.0
1648,2015-01-01,2105,2102,-3.0
1649,2015-01-01,2345,0005,20.0
1650,2015-01-01,1830,1836,6.0
1652,2015-01-01,1115,1119,4.0
1654,2015-01-01,1805,1825,20.0
1655,2015-01-01,1800,1757,-3.0
1657,2015-01-01,1500,1456,-4.0
1661,2015-01-01,1755,1809,14.0
1662,2015-01-01,1800,1807,7.0
1674,2015-01-01,2115,2112,-3.0
1704,2015-01-01,2359,0005,6.0
1706,2015-01-01,1445,1446,1.0
1710,2015-01-01,2050,2049,-1.0
2302,2015-01-01,1255,1253,-2.0
2303,2015-01-01,1020,1017,-3.0
2304,2015-01-01,1145,1152,7.0
2305,2015-01-01,1640,1731,51.0
2306,2015-01-01,1445,1458,13.0
2307,2015-01-01,1940,1944,4.0
2308,2015-01-01,1200,1154,-6.0
2309,2015-01-01,2045,2056,11.0
2310,2015-01-01,1555,1624,29.0
2311,2015-01-01,1925,1921,-4.0
2312,2015-01-01,1455,1507,12.0
2313,2015-01-01,2035,2100,25.0
2314,2015-01-01,1145,1153,8.0
2315,2015-01-01,1720,1737,17.0
2316,2015-01-01,1510,1529,19.0
2317,2015-01-01,1145,1153,8.0
2318,2015-01-01,1645,1656,11.0
2319,2015-01-01,1905,1925,20.0
2320,2015-01-01,2025,2104,39.0
2321,2015-01-01,1315,1312,-3.0
2322,2015-01-01,1805,1810,5.0
2323,2015-01-01,1000,0959,-1.0
2324,2015-01-01,2100,2227,87.0
2325,2015-01-01,1145,1232,47.0
2326,2015-01-01,1710,1711,1.0
2327,2015-01-01,1940,1954,14.0
2328,2015-01-01,0855,0855,0.0
2329,2015-01-01,1150,1152,2.0
2330,2015-01-01,1710,1735,25.0
2331,2015-01-01,2025,2104,39.0
2332,2015-01-01,1145,1157,12.0
2333,2015-01-01,1840,1901,21.0
2334,2015-01-01,2035,2103,28.0
2335,2015-01-01,1505,1516,11.0
2336,2015-01-01,1335,1333,-2.0
2337,2015-01-01,1650,1741,51.0
2338,2015-01-01,1505,1526,21.0
2339,2015-01-01,2035,2057,22.0
2340,2015-01-01,1150,1154,4.0
2665,2015-01-01,2125,2210,45.0
2666,2015-01-01,2015,2101,46.0
2667,2015-01-01,1635,1630,-5.0
2668,2015-01-01,1145,1153,8.0
2923,2015-01-01,0845,0843,-2.0
2926,2015-01-01,1455,1503,8.0
2927,2015-01-01,0845,0842,-3.0
2928,2015-01-01,1050,1056,6.0
2929,2015-01-01,2359,2357,-2.0
2930,2015-01-01,1120,1148,28.0
2933,2015-01-01,0845,0837,-8.0
2939,2015-01-01,2350,0038,48.0
2941,2015-01-01,1045,1056,11.0
2945,2015-01-01,0840,0847,7.0
2946,2015-01-01,1050,1054,4.0
2948,2015-01-01,1115,1113,-2.0
2952,2015-01-01,1945,1939,-6.0
2953,2015-01-01,1435,1454,19.0
2954,2015-01-01,2105,2128,23.0
2957,2015-01-01,1737,1735,-2.0
2960,2015-01-01,2105,2118,13.0
2967,2015-01-01,0820,0856,36.0
2973,2015-01-01,1740,1738,-2.0
2974,2015-01-01,2110,2114,4.0
2977,2015-01-01,1120,1127,7.0
2978,2015-01-01,1120,1118,-2.0
2979,2015-01-01,2105,2105,0.0
