,FL_DATE,CRS_DEP_TIME,DEP_TIME,DEP_DELAY
52866,2015-01-18,1500,1521,21.0
53391,2015-01-18,1216,1210,-6.0
53392,2015-01-18,1920,1915,-5.0
53466,2015-01-18,1735,1735,0.0
53595,2015-01-18,1450,1442,-8.0
53596,2015-01-18,2055,2053,-2.0
53620,2015-01-18,1445,1442,-3.0
53656,2015-01-18,2100,2055,-5.0
53658,2015-01-18,1450,1442,-8.0
53696,2015-01-18,1755,1751,-4.0
53732,2015-01-18,2103,2058,-5.0
53733,2015-01-18,1735,1731,-4.0
53734,2015-01-18,1800,1751,-9.0
53737,2015-01-18,1943,1935,-8.0
53739,2015-01-18,2059,2052,-7.0
53740,2015-01-18,2103,2057,-6.0
53755,2015-01-18,1435,1433,-2.0
53756,2015-01-18,1110,1106,-4.0
53757,2015-01-18,2059,2100,1.0
53759,2015-01-18,1440,1438,-2.0
53761,2015-01-18,1330,1326,-4.0
53810,2015-01-18,1528,1521,-7.0
53929,2015-01-18,1050,1052,2.0
54102,2015-01-18,1700,1653,-7.0
54103,2015-01-18,0645,0636,-9.0
54105,2015-01-18,1120,1107,-13.0
54125,2015-01-18,1758,1752,-6.0
54137,2015-01-18,1156,1312,76.0
54289,2015-01-18,0800,0759,-1.0
54500,2015-01-18,1520,1514,-6.0
54528,2015-01-18,0845,0841,-4.0
54530,2015-01-18,1455,1552,57.0
54538,2015-01-18,1455,1453,-2.0
54541,2015-01-18,0845,0834,-11.0
54542,2015-01-18,1054,1051,-3.0
54544,2015-01-18,1120,1117,-3.0
54546,2015-01-18,0815,0809,-6.0
54549,2015-01-18,0846,0839,-7.0
54556,2015-01-18,1050,1047,-3.0
54560,2015-01-18,0835,0833,-2.0
54561,2015-01-18,1050,1048,-2.0
54562,2015-01-18,1115,1113,-2.0
54565,2015-01-18,1945,1952,7.0
54566,2015-01-18,1435,1428,-7.0
54568,2015-01-18,2105,2059,-6.0
54572,2015-01-18,1736,1732,-4.0
54574,2015-01-18,2100,2100,0.0
54580,2015-01-18,0820,0811,-9.0
54583,2015-01-18,1438,1552,74.0
54584,2015-01-18,1740,1823,43.0
54585,2015-01-18,2110,2105,-5.0
54589,2015-01-18,1120,1115,-5.0
54590,2015-01-18,1120,1116,-4.0
54592,2015-01-18,2105,2109,4.0
54593,2015-01-18,2115,2112,-3.0
54596,2015-01-18,2059,2053,-6.0
54597,2015-01-18,2105,2102,-3.0
54600,2015-01-18,1835,1854,19.0
54601,2015-01-18,1115,1113,-2.0
54603,2015-01-18,1810,1825,15.0
54604,2015-01-18,1800,1841,41.0
54609,2015-01-18,1759,1812,13.0
54610,2015-01-18,1805,1803,-2.0
54623,2015-01-18,2115,2108,-7.0
54647,2015-01-18,1500,1459,-1.0
55190,2015-01-18,1505,1503,-2.0
55191,2015-01-18,1150,1147,-3.0
55192,2015-01-18,1015,1011,-4.0
55193,2015-01-18,1825,1824,-1.0
55194,2015-01-18,2110,2105,-5.0
55195,2015-01-18,1305,1302,-3.0
55196,2015-01-18,1925,2032,67.0
55197,2015-01-18,2045,2047,2.0
55198,2015-01-18,1650,1658,8.0
55199,2015-01-18,1455,1453,-2.0
55200,2015-01-18,1100,1055,-5.0
55201,2015-01-18,1200,1157,-3.0
55202,2015-01-18,1810,1815,5.0
55203,2015-01-18,1345,1344,-1.0
55204,2015-01-18,2100,2059,-1.0
55205,2015-01-18,1720,1716,-4.0
55206,2015-01-18,2000,2121,81.0
55207,2015-01-18,1650,1704,14.0
55208,2015-01-18,2045,2054,9.0
55209,2015-01-18,1455,1454,-1.0
55210,2015-01-18,1150,1150,0.0
55211,2015-01-18,0915,0913,-2.0
55212,2015-01-18,1200,1157,-3.0
55213,2015-01-18,1315,1316,1.0
55214,2015-01-18,1940,1940,0.0
55215,2015-01-18,1700,1658,-2.0
55216,2015-01-18,1900,1915,15.0
55217,2015-01-18,1115,1112,-3.0
55218,2015-01-18,1405,1405,0.0
55219,2015-01-18,2045,2041,-4.0
55220,2015-01-18,1610,1718,68.0
55221,2015-01-18,2130,2145,15.0
55222,2015-01-18,1715,1746,31.0
55223,2015-01-18,1150,1310,80.0
55224,2015-01-18,2045,2045,0.0
55225,2015-01-18,1515,1522,7.0
55226,2015-01-18,1150,1148,-2.0
55227,2015-01-18,1810,1808,-2.0
55228,2015-01-18,2050,2045,-5.0
55229,2015-01-18,1545,1635,50.0
55230,2015-01-18,1940,1937,-3.0
55231,2015-01-18,1155,1202,7.0
55232,2015-01-18,1730,1728,-2.0
55233,2015-01-18,2045,2044,-1.0
55234,2015-01-18,1200,1159,-1.0
55235,2015-01-18,1530,1536,6.0
55236,2015-01-18,1405,1403,-2.0
55237,2015-01-18,1045,1038,-7.0
55238,2015-01-18,0915,0911,-4.0
