,FL_DATE,CRS_DEP_TIME,DEP_TIME,DEP_DELAY
3221,2015-01-02,1500,1504,4.0
3910,2015-01-02,0745,0743,-2.0
3949,2015-01-02,1735,1750,15.0
4253,2015-01-02,1757,2038,161.0
4451,2015-01-02,1829,1834,5.0
4453,2015-01-02,1030,1029,-1.0
4635,2015-01-02,1444,1435,-9.0
4642,2015-01-02,0940,0933,-7.0
4645,2015-01-02,1943,1942,-1.0
4647,2015-01-02,1110,1116,6.0
4650,2015-01-02,1450,1448,-2.0
4654,2015-01-02,1450,1500,10.0
4655,2015-01-02,2103,2100,-3.0
4656,2015-01-02,1445,1456,11.0
4659,2015-01-02,2059,2059,0.0
4660,2015-01-02,1435,1428,-7.0
4661,2015-01-02,2059,2055,-4.0
4662,2015-01-02,1440,1450,10.0
4664,2015-01-02,2055,2055,0.0
4665,2015-01-02,2103,2100,-3.0
4666,2015-01-02,1735,1735,0.0
4667,2015-01-02,1800,1800,0.0
4670,2015-01-02,2100,2055,-5.0
4674,2015-01-02,1755,1745,-10.0
4675,2015-01-02,1105,1241,96.0
4707,2015-01-02,1702,1806,64.0
4708,2015-01-02,0645,0749,64.0
4709,2015-01-02,0930,0928,-2.0
4737,2015-01-02,1924,1924,0.0
4794,2015-01-02,0650,0726,36.0
4826,2015-01-02,1142,1134,-8.0
5308,2015-01-02,0845,0841,-4.0
5311,2015-01-02,1455,1454,-1.0
5312,2015-01-02,0845,0925,40.0
5313,2015-01-02,1050,1106,16.0
5314,2015-01-02,2359,0018,19.0
5315,2015-01-02,1120,1119,-1.0
5318,2015-01-02,0845,0840,-5.0
5325,2015-01-02,2350,2359,9.0
5328,2015-01-02,1045,1047,2.0
5333,2015-01-02,0840,0835,-5.0
5334,2015-01-02,1050,1050,0.0
5336,2015-01-02,1115,1129,14.0
5340,2015-01-02,1945,2019,34.0
5341,2015-01-02,1435,1434,-1.0
5342,2015-01-02,2105,2116,11.0
5345,2015-01-02,1737,1737,0.0
5349,2015-01-02,2105,2103,-2.0
5357,2015-01-02,0820,0837,17.0
5362,2015-01-02,1740,1736,-4.0
5363,2015-01-02,2110,2111,1.0
5366,2015-01-02,1120,1116,-4.0
5367,2015-01-02,1120,1117,-3.0
5368,2015-01-02,2105,2116,11.0
5369,2015-01-02,2115,2111,-4.0
5372,2015-01-02,2105,2100,-5.0
5373,2015-01-02,2345,2343,-2.0
5375,2015-01-02,1115,1111,-4.0
5377,2015-01-02,1805,1759,-6.0
5378,2015-01-02,1800,1759,-1.0
5380,2015-01-02,1500,1454,-6.0
5384,2015-01-02,1755,1759,4.0
5385,2015-01-02,1800,1800,0.0
5397,2015-01-02,2115,2111,-4.0
5432,2015-01-02,2359,0003,4.0
5433,2015-01-02,1445,1450,5.0
5437,2015-01-02,2050,2047,-3.0
5777,2015-01-02,0810,0810,0.0
5778,2015-01-02,2125,2234,69.0
5779,2015-01-02,1020,1019,-1.0
5780,2015-01-02,2015,2215,120.0
5781,2015-01-02,1635,1645,10.0
5782,2015-01-02,1145,1201,16.0
5783,2015-01-02,2035,2055,20.0
5784,2015-01-02,1255,1309,14.0
5785,2015-01-02,1020,1023,3.0
5786,2015-01-02,0905,0902,-3.0
5787,2015-01-02,1445,1503,18.0
5788,2015-01-02,1145,1154,9.0
5789,2015-01-02,1940,2002,22.0
5790,2015-01-02,0640,0726,46.0
5791,2015-01-02,1725,1824,59.0
5792,2015-01-02,1925,1931,6.0
5793,2015-01-02,0625,0626,1.0
5794,2015-01-02,1200,1159,-1.0
5795,2015-01-02,0925,0921,-4.0
5796,2015-01-02,2045,2149,64.0
5797,2015-01-02,1555,1613,18.0
5798,2015-01-02,0615,0610,-5.0
5799,2015-01-02,2035,2100,25.0
5800,2015-01-02,1145,1154,9.0
5801,2015-01-02,0815,0841,26.0
5802,2015-01-02,1720,1746,26.0
5803,2015-01-02,1510,1520,10.0
5804,2015-01-02,1510,1524,14.0
6153,2015-01-02,0635,0707,32.0
6154,2015-01-02,1905,1907,2.0
6155,2015-01-02,0845,0848,3.0
6156,2015-01-02,0740,0803,23.0
6157,2015-01-02,1315,1329,14.0
6158,2015-01-02,0955,1003,8.0
6159,2015-01-02,1805,1819,14.0
6160,2015-01-02,1145,1151,6.0
6161,2015-01-02,1645,1703,18.0
6162,2015-01-02,2025,2116,51.0
6163,2015-01-02,2100,2154,54.0
6164,2015-01-02,0820,0831,11.0
6165,2015-01-02,1710,1745,35.0
6166,2015-01-02,1145,1156,11.0
6167,2015-01-02,1940,2024,44.0
6168,2015-01-02,0600,0617,17.0
6169,2015-01-02,1710,1804,54.0
6170,2015-01-02,1150,1151,1.0
6171,2015-01-02,0855,0904,9.0
6172,2015-01-02,2025,2212,107.0
6173,2015-01-02,0635,0636,1.0
6174,2015-01-02,1840,1853,13.0
6175,2015-01-02,1145,1146,1.0
6176,2015-01-02,2035,2100,25.0
6177,2015-01-02,1500,1520,20.0
6178,2015-01-02,1505,1509,4.0
6179,2015-01-02,1650,1707,17.0
6180,2015-01-02,2035,2101,26.0
6181,2015-01-02,1150,1205,15.0
6182,2015-01-02,0715,0713,-2.0
6183,2015-01-02,1335,1335,0.0
6184,2015-01-02,0925,0932,7.0
