,FL_DATE,CRS_DEP_TIME,DEP_TIME,DEP_DELAY
61916,2015-01-21,1500,1501,1.0
62462,2015-01-21,0720,0714,-6.0
62505,2015-01-21,1735,1840,65.0
62636,2015-01-21,1450,1443,-7.0
62637,2015-01-21,2055,2053,-2.0
62649,2015-01-21,1215,1529,194.0
62667,2015-01-21,1330,1320,-10.0
62668,2015-01-21,1445,1439,-6.0
62703,2015-01-21,2100,2059,-1.0
62732,2015-01-21,1100,1143,43.0
62733,2015-01-21,1755,1753,-2.0
62770,2015-01-21,2103,2117,14.0
62771,2015-01-21,1735,1728,-7.0
62772,2015-01-21,1800,1754,-6.0
62775,2015-01-21,1943,1952,9.0
62777,2015-01-21,2059,2058,-1.0
62778,2015-01-21,2103,2101,-2.0
62798,2015-01-21,1435,1431,-4.0
62799,2015-01-21,2059,2055,-4.0
62850,2015-01-21,1435,1432,-3.0
62980,2015-01-21,1050,1040,-10.0
62994,2015-01-21,1000,0959,-1.0
63131,2015-01-21,1450,1525,35.0
63165,2015-01-21,1700,1743,43.0
63166,2015-01-21,0736,0747,11.0
63206,2015-01-21,0801,0754,-7.0
63451,2015-01-21,1758,1834,36.0
63515,2015-01-21,1156,1150,-6.0
63635,2015-01-21,0845,0838,-7.0
63637,2015-01-21,1455,1519,24.0
63638,2015-01-21,0845,0841,-4.0
63640,2015-01-21,1054,1050,-4.0
63642,2015-01-21,1120,1115,-5.0
63644,2015-01-21,0815,0808,-7.0
63645,2015-01-21,0846,0838,-8.0
63651,2015-01-21,1050,1045,-5.0
63656,2015-01-21,0835,0828,-7.0
63657,2015-01-21,1050,1118,28.0
63659,2015-01-21,1115,1110,-5.0
63663,2015-01-21,1945,1941,-4.0
63664,2015-01-21,1435,1431,-4.0
63665,2015-01-21,2105,2101,-4.0
63668,2015-01-21,2100,2059,-1.0
63676,2015-01-21,0820,0816,-4.0
63681,2015-01-21,1435,1431,-4.0
63682,2015-01-21,1740,1738,-2.0
63683,2015-01-21,2110,2108,-2.0
63688,2015-01-21,1120,1117,-3.0
63689,2015-01-21,1120,1126,6.0
63690,2015-01-21,2105,2102,-3.0
63691,2015-01-21,2115,2114,-1.0
63694,2015-01-21,2059,2059,0.0
63695,2015-01-21,2105,2058,-7.0
63697,2015-01-21,1835,1835,0.0
63698,2015-01-21,1115,1111,-4.0
63700,2015-01-21,1810,1837,27.0
63701,2015-01-21,1800,1801,1.0
63704,2015-01-21,1500,1456,-4.0
63706,2015-01-21,1759,1820,21.0
63707,2015-01-21,1805,1822,17.0
63716,2015-01-21,2115,2111,-4.0
63743,2015-01-21,1455,1446,-9.0
64074,2015-01-21,1505,1504,-1.0
64075,2015-01-21,1150,1150,0.0
64076,2015-01-21,0705,0659,-6.0
64077,2015-01-21,1015,1014,-1.0
64078,2015-01-21,1825,1825,0.0
64079,2015-01-21,2110,2106,-4.0
64080,2015-01-21,0600,0555,-5.0
64081,2015-01-21,1305,1257,-8.0
64082,2015-01-21,1925,1922,-3.0
64083,2015-01-21,2045,2054,9.0
64084,2015-01-21,1455,1456,1.0
64085,2015-01-21,1650,1659,9.0
64086,2015-01-21,0755,0751,-4.0
64087,2015-01-21,1100,1110,10.0
64088,2015-01-21,1200,1201,1.0
64089,2015-01-21,1810,1812,2.0
64090,2015-01-21,1345,1341,-4.0
64091,2015-01-21,1720,1735,15.0
64092,2015-01-21,0920,0917,-3.0
64093,2015-01-21,2100,2055,-5.0
64094,2015-01-21,2000,1958,-2.0
64095,2015-01-21,1650,1649,-1.0
64096,2015-01-21,2045,2107,22.0
64097,2015-01-21,1150,1153,3.0
64098,2015-01-21,0930,0928,-2.0
64099,2015-01-21,1455,1613,78.0
64100,2015-01-21,0625,0618,-7.0
64101,2015-01-21,1200,1156,-4.0
64102,2015-01-21,0830,0834,4.0
64103,2015-01-21,1315,1322,7.0
64104,2015-01-21,1940,2012,32.0
64105,2015-01-21,1700,1656,-4.0
64106,2015-01-21,1900,2043,103.0
64107,2015-01-21,0620,0619,-1.0
64108,2015-01-21,1405,1401,-4.0
64109,2015-01-21,1115,1110,-5.0
64110,2015-01-21,2045,2051,6.0
64111,2015-01-21,1610,1648,38.0
64112,2015-01-21,2130,2126,-4.0
64113,2015-01-21,1150,1148,-2.0
64114,2015-01-21,1715,1725,10.0
64115,2015-01-21,0700,0656,-4.0
64116,2015-01-21,0825,1012,107.0
64117,2015-01-21,2045,2046,1.0
64118,2015-01-21,1515,1512,-3.0
64119,2015-01-21,1150,1232,42.0
64120,2015-01-21,1810,1819,9.0
64121,2015-01-21,1545,1555,10.0
64122,2015-01-21,2050,2108,18.0
64123,2015-01-21,0805,0759,-6.0
64124,2015-01-21,1155,1156,1.0
64125,2015-01-21,1940,1951,11.0
64126,2015-01-21,1200,1159,-1.0
64127,2015-01-21,1730,1730,0.0
64128,2015-01-21,2045,2047,2.0
64129,2015-01-21,1405,1404,-1.0
64130,2015-01-21,1530,1526,-4.0
64131,2015-01-21,0720,0717,-3.0
64132,2015-01-21,0915,0911,-4.0
