,FL_DATE,CRS_DEP_TIME,DEP_TIME,DEP_DELAY
89341,2015-01-30,1500,1629,89.0
89805,2015-01-30,0720,0713,-7.0
89986,2015-01-30,1735,2031,176.0
90115,2015-01-30,1450,,
90116,2015-01-30,2055,2058,3.0
90128,2015-01-30,1215,1308,53.0
90145,2015-01-30,1445,1519,34.0
90183,2015-01-30,2100,2052,-8.0
90185,2015-01-30,1450,1448,-2.0
90220,2015-01-30,1755,1841,46.0
90258,2015-01-30,2103,2119,16.0
90259,2015-01-30,1735,,
90260,2015-01-30,1800,1843,43.0
90263,2015-01-30,1943,2231,168.0
90265,2015-01-30,2059,2055,-4.0
90288,2015-01-30,1435,1512,37.0
90289,2015-01-30,1110,1100,-10.0
90290,2015-01-30,2059,2053,-6.0
90292,2015-01-30,1440,1754,194.0
90294,2015-01-30,1330,1424,54.0
90348,2015-01-30,1435,,
90490,2015-01-30,1050,1347,177.0
90502,2015-01-30,1000,0952,-8.0
90635,2015-01-30,1445,1755,190.0
90662,2015-01-30,2155,2317,82.0
90793,2015-01-30,1700,1954,174.0
90794,2015-01-30,0736,0731,-5.0
90817,2015-01-30,0800,0810,10.0
90821,2015-01-30,1758,1939,101.0
90837,2015-01-30,1333,1435,62.0
90902,2015-01-30,1156,1237,41.0
90917,2015-01-30,1513,1921,248.0
91064,2015-01-30,2056,2235,99.0
91160,2015-01-30,1920,,
91179,2015-01-30,0845,0918,33.0
91181,2015-01-30,1455,1500,5.0
91182,2015-01-30,0845,0838,-7.0
91184,2015-01-30,1054,1056,2.0
91186,2015-01-30,1120,1128,8.0
91188,2015-01-30,0815,0812,-3.0
91189,2015-01-30,0846,0841,-5.0
91195,2015-01-30,1050,1119,29.0
91200,2015-01-30,0835,0829,-6.0
91201,2015-01-30,1050,1126,36.0
91203,2015-01-30,1115,1109,-6.0
91208,2015-01-30,1945,2145,120.0
91209,2015-01-30,1435,,
91210,2015-01-30,2105,2205,60.0
91212,2015-01-30,1736,1759,23.0
91217,2015-01-30,1455,,
91368,2015-01-30,2100,2052,-8.0
91376,2015-01-30,0820,0814,-6.0
91381,2015-01-30,1435,1509,34.0
91382,2015-01-30,1740,1930,110.0
91383,2015-01-30,2110,2239,89.0
91388,2015-01-30,1120,1116,-4.0
91389,2015-01-30,1120,1117,-3.0
91390,2015-01-30,2105,2324,139.0
91391,2015-01-30,2115,2114,-1.0
91394,2015-01-30,2059,2357,178.0
91395,2015-01-30,2105,2108,3.0
91397,2015-01-30,1835,2022,107.0
91398,2015-01-30,1115,1137,22.0
91400,2015-01-30,1810,1935,85.0
91401,2015-01-30,1800,2040,160.0
91404,2015-01-30,1500,1459,-1.0
91408,2015-01-30,1759,1858,59.0
91409,2015-01-30,1805,1930,85.0
91422,2015-01-30,2115,2144,29.0
91625,2015-01-30,1505,1627,82.0
91626,2015-01-30,1150,1217,27.0
91627,2015-01-30,0705,0700,-5.0
91628,2015-01-30,1015,1037,22.0
91629,2015-01-30,1825,1909,44.0
91630,2015-01-30,2110,2212,62.0
91631,2015-01-30,0600,0556,-4.0
91632,2015-01-30,1305,1327,22.0
91633,2015-01-30,1925,2009,44.0
91634,2015-01-30,2045,2123,38.0
91635,2015-01-30,1455,1525,30.0
91636,2015-01-30,1650,1750,60.0
91637,2015-01-30,0755,0754,-1.0
91638,2015-01-30,1100,1254,114.0
91639,2015-01-30,1200,1215,15.0
92072,2015-01-30,1810,1950,100.0
92073,2015-01-30,1345,1418,33.0
92074,2015-01-30,1720,1742,22.0
92075,2015-01-30,0920,0938,18.0
92076,2015-01-30,2100,2133,33.0
92077,2015-01-30,2000,2041,41.0
92078,2015-01-30,1650,1652,2.0
92079,2015-01-30,2045,2225,100.0
92080,2015-01-30,1150,1207,17.0
92081,2015-01-30,0930,0929,-1.0
92082,2015-01-30,1455,1530,35.0
92083,2015-01-30,0625,0621,-4.0
92084,2015-01-30,1200,1210,10.0
92085,2015-01-30,0830,0823,-7.0
92086,2015-01-30,1315,1314,-1.0
92087,2015-01-30,1940,2149,129.0
92088,2015-01-30,1700,1726,26.0
92089,2015-01-30,1900,1945,45.0
92090,2015-01-30,0620,0614,-6.0
92091,2015-01-30,1405,1406,1.0
92092,2015-01-30,1115,1111,-4.0
92093,2015-01-30,2045,2046,1.0
92094,2015-01-30,1610,1737,87.0
92095,2015-01-30,1150,1158,8.0
92096,2015-01-30,1715,1754,39.0
92097,2015-01-30,0700,0654,-6.0
92098,2015-01-30,0825,0818,-7.0
92099,2015-01-30,2045,2112,27.0
92100,2015-01-30,1515,1529,14.0
92101,2015-01-30,1150,1159,9.0
92102,2015-01-30,1810,2027,137.0
92103,2015-01-30,1545,1930,225.0
92104,2015-01-30,2050,2242,112.0
92105,2015-01-30,0805,0758,-7.0
92106,2015-01-30,1155,1207,12.0
92107,2015-01-30,1940,2054,74.0
92108,2015-01-30,1200,1208,8.0
92109,2015-01-30,1730,1854,84.0
92110,2015-01-30,2045,2145,60.0
92111,2015-01-30,1405,1451,46.0
92112,2015-01-30,1530,1653,83.0
92113,2015-01-30,0720,0720,0.0
92114,2015-01-30,0915,0913,-2.0
