,FL_DATE,CRS_DEP_TIME,DEP_TIME,DEP_DELAY
52801,2015-01-18,1148,1155,7.0
52821,2015-01-18,0722,0722,0.0
52878,2015-01-18,1354,1357,3.0
52937,2015-01-18,1250,1255,5.0
52967,2015-01-18,0700,0654,-6.0
52983,2015-01-18,1720,1813,53.0
53066,2015-01-18,1930,1925,-5.0
53069,2015-01-18,1525,1524,-1.0
53088,2015-01-18,1135,1132,-3.0
53255,2015-01-18,1350,1348,-2.0
53588,2015-01-18,1132,1141,9.0
53621,2015-01-18,1214,1214,0.0
53628,2015-01-18,1042,1151,69.0
53632,2015-01-18,0620,0614,-6.0
53640,2015-01-18,1805,1804,-1.0
53727,2015-01-18,0800,0812,12.0
53731,2015-01-18,1415,1403,-12.0
53735,2015-01-18,1510,1505,-5.0
53736,2015-01-18,0750,0744,-6.0
53745,2015-01-18,1846,1929,43.0
53758,2015-01-18,0659,0658,-1.0
53762,2015-01-18,1130,1125,-5.0
53801,2015-01-18,1305,1314,9.0
53846,2015-01-18,1903,1856,-7.0
53911,2015-01-18,0605,0608,3.0
53915,2015-01-18,1302,1323,21.0
53920,2015-01-18,0840,0833,-7.0
54000,2015-01-18,1731,1730,-1.0
54005,2015-01-18,1048,1047,-1.0
54022,2015-01-18,0600,0551,-9.0
54042,2015-01-18,0919,1054,95.0
54091,2015-01-18,1659,1652,-7.0
54218,2015-01-18,0645,0654,9.0
54531,2015-01-18,1502,1551,49.0
54731,2015-01-18,1905,1918,13.0
54732,2015-01-18,0915,0950,35.0
