,FL_DATE,CRS_DEP_TIME,DEP_TIME,DEP_DELAY
3015,2015-01-02,0725,0743,18.0
3055,2015-01-02,1515,1523,8.0
3084,2015-01-02,0620,0628,8.0
3150,2015-01-02,0830,0848,18.0
3166,2015-01-02,1015,1008,-7.0
3169,2015-01-02,1255,1254,-1.0
3206,2015-01-02,1410,1429,19.0
3312,2015-01-02,1730,1720,-10.0
3337,2015-01-02,0650,0645,-5.0
3340,2015-01-02,1200,1216,16.0
3343,2015-01-02,1000,0959,-1.0
3346,2015-01-02,1500,1500,0.0
3348,2015-01-02,0800,0756,-4.0
3362,2015-01-02,1835,2007,92.0
3377,2015-01-02,1850,2157,187.0
3380,2015-01-02,0700,0656,-4.0
3382,2015-01-02,0900,0857,-3.0
3384,2015-01-02,1355,1354,-1.0
3478,2015-01-02,2055,2036,-19.0
3497,2015-01-02,0910,0910,0.0
3504,2015-01-02,0700,0718,18.0
3505,2015-01-02,0855,0856,1.0
3570,2015-01-02,2155,2227,32.0
3574,2015-01-02,2305,2312,7.0
3798,2015-01-02,2255,2255,0.0
3911,2015-01-02,0639,0635,-4.0
3955,2015-01-02,0950,0949,-1.0
3957,2015-01-02,0750,0738,-12.0
4039,2015-01-02,1445,1507,22.0
4054,2015-01-02,1145,1214,29.0
4106,2015-01-02,0925,1240,195.0
4250,2015-01-02,0609,0608,-1.0
4251,2015-01-02,1243,1240,-3.0
4255,2015-01-02,1821,1812,-9.0
4278,2015-01-02,0705,0759,54.0
4298,2015-01-02,1628,1620,-8.0
4335,2015-01-02,1322,1428,66.0
4341,2015-01-02,0630,0900,150.0
4371,2015-01-02,1215,1218,3.0
4373,2015-01-02,1745,,
4375,2015-01-02,0617,0615,-2.0
4539,2015-01-02,1318,1442,84.0
4696,2015-01-02,1751,1753,2.0
4738,2015-01-02,1724,1901,97.0
4749,2015-01-02,1020,1017,-3.0
5293,2015-01-02,1226,1231,5.0
5310,2015-01-02,1915,1910,-5.0
5320,2015-01-02,0620,0610,-10.0
5358,2015-01-02,0955,1006,11.0
5383,2015-01-02,1228,1230,2.0
6353,2015-01-02,0910,0908,-2.0
6354,2015-01-02,1935,1949,14.0
6355,2015-01-02,1625,1621,-4.0
6356,2015-01-02,1210,1205,-5.0
6357,2015-01-02,1830,1831,1.0
6358,2015-01-02,0845,0921,36.0
6359,2015-01-02,0635,0643,8.0
6360,2015-01-02,1400,1413,13.0
6361,2015-01-02,2055,2046,-9.0
6362,2015-01-02,1330,1334,4.0
6363,2015-01-02,0945,1005,20.0
6364,2015-01-02,0630,0645,15.0
6365,2015-01-02,0905,0923,18.0
6366,2015-01-02,1400,1359,-1.0
6367,2015-01-02,0735,0737,2.0
6368,2015-01-02,1650,1654,4.0
6369,2015-01-02,1830,1933,63.0
6370,2015-01-02,1200,1226,26.0
6371,2015-01-02,2130,2152,22.0
6372,2015-01-02,1920,1915,-5.0
6373,2015-01-02,0630,0652,22.0
6374,2015-01-02,2035,2343,188.0
6375,2015-01-02,0635,0701,26.0
6376,2015-01-02,1740,1750,10.0
6377,2015-01-02,0935,0956,21.0
6378,2015-01-02,1655,1654,-1.0
6379,2015-01-02,0810,0811,1.0
6380,2015-01-02,1020,1040,20.0
6381,2015-01-02,2215,2217,2.0
6382,2015-01-02,1240,1335,55.0
6383,2015-01-02,1410,1423,13.0
6384,2015-01-02,1910,1905,-5.0
6385,2015-01-02,1415,1445,30.0
6386,2015-01-02,1410,1432,22.0
6387,2015-01-02,0920,1003,43.0
6388,2015-01-02,2145,2323,98.0
6389,2015-01-02,1940,2001,21.0
6390,2015-01-02,1735,1751,16.0
6391,2015-01-02,1505,1618,73.0
6392,2015-01-02,2155,2239,44.0
6393,2015-01-02,0935,0944,9.0
6394,2015-01-02,1140,1155,15.0
6395,2015-01-02,0630,0626,-4.0
6396,2015-01-02,1005,1001,-4.0
6397,2015-01-02,2040,2110,30.0
6398,2015-01-02,1510,1519,9.0
6399,2015-01-02,1250,1320,30.0
6400,2015-01-02,0640,0642,2.0
6401,2015-01-02,1030,1030,0.0
6402,2015-01-02,1755,1747,-8.0
6403,2015-01-02,0810,0809,-1.0
6404,2015-01-02,1140,1202,22.0
6405,2015-01-02,2210,2205,-5.0
6406,2015-01-02,1910,1925,15.0
6407,2015-01-02,1545,1543,-2.0
6408,2015-01-02,2025,2100,35.0
6409,2015-01-02,0725,0739,14.0
6410,2015-01-02,2125,2210,45.0
6411,2015-01-02,1320,1320,0.0
6412,2015-01-02,1035,1032,-3.0
6413,2015-01-02,0700,0655,-5.0
6414,2015-01-02,1755,1814,19.0
6415,2015-01-02,1315,1315,0.0
6416,2015-01-02,2115,2110,-5.0
6417,2015-01-02,0755,0807,12.0
6418,2015-01-02,1940,1939,-1.0
6419,2015-01-02,1455,1529,34.0
6420,2015-01-02,0935,0935,0.0
