,FL_DATE,CRS_DEP_TIME,DEP_TIME,DEP_DELAY
64808,2015-01-22,0733,0728,-5.0
64840,2015-01-22,1529,1538,9.0
64868,2015-01-22,0628,0734,66.0
64925,2015-01-22,0803,0756,-7.0
64939,2015-01-22,1019,1012,-7.0
64944,2015-01-22,1257,1250,-7.0
65073,2015-01-22,1730,1722,-8.0
65094,2015-01-22,0650,0642,-8.0
65097,2015-01-22,1200,1152,-8.0
65099,2015-01-22,1000,0950,-10.0
65102,2015-01-22,1500,1510,10.0
65115,2015-01-22,1840,1834,-6.0
65128,2015-01-22,1855,1846,-9.0
65131,2015-01-22,0700,0650,-10.0
65133,2015-01-22,0900,0901,1.0
65135,2015-01-22,1355,1401,6.0
65219,2015-01-22,2055,2048,-7.0
65237,2015-01-22,0935,0927,-8.0
65246,2015-01-22,0845,0845,0.0
65312,2015-01-22,2259,2313,14.0
65428,2015-01-22,2303,2302,-1.0
65490,2015-01-22,0625,0625,0.0
65640,2015-01-22,0950,0959,9.0
65642,2015-01-22,0750,0942,112.0
65720,2015-01-22,1450,1503,13.0
65734,2015-01-22,1145,1153,8.0
65778,2015-01-22,1038,1034,-4.0
65780,2015-01-22,1430,1427,-3.0
65794,2015-01-22,1637,1643,6.0
65873,2015-01-22,1236,1312,36.0
65932,2015-01-22,1824,1821,-3.0
65938,2015-01-22,0615,0611,-4.0
65983,2015-01-22,0705,0657,-8.0
65995,2015-01-22,1817,1817,0.0
66006,2015-01-22,1625,1618,-7.0
66040,2015-01-22,0700,0650,-10.0
66041,2015-01-22,1310,1305,-5.0
66070,2015-01-22,1200,1152,-8.0
66072,2015-01-22,1745,1742,-3.0
66074,2015-01-22,0940,0925,-15.0
66075,2015-01-22,0618,0611,-7.0
66219,2015-01-22,1322,1318,-4.0
66461,2015-01-22,1226,1219,-7.0
66556,2015-01-22,1741,1732,-9.0
66693,2015-01-22,0730,0722,-8.0
66810,2015-01-22,0823,0825,2.0
66822,2015-01-22,1018,1027,9.0
66854,2015-01-22,0620,0617,-3.0
66859,2015-01-22,1610,1606,-4.0
66886,2015-01-22,0955,0951,-4.0
66916,2015-01-22,1235,1226,-9.0
66945,2015-01-22,1910,1905,-5.0
67595,2015-01-22,0850,0901,11.0
67596,2015-01-22,1945,1943,-2.0
67597,2015-01-22,2055,2051,-4.0
67598,2015-01-22,1345,1342,-3.0
67599,2015-01-22,0840,0937,57.0
67600,2015-01-22,1755,1816,21.0
67601,2015-01-22,0955,,
67602,2015-01-22,1615,1612,-3.0
67603,2015-01-22,1155,1150,-5.0
67604,2015-01-22,0635,0646,11.0
67605,2015-01-22,2010,2012,2.0
67606,2015-01-22,1355,1409,14.0
67607,2015-01-22,1035,1030,-5.0
67608,2015-01-22,1640,1646,6.0
67609,2015-01-22,2035,2030,-5.0
67610,2015-01-22,0700,0658,-2.0
67611,2015-01-22,0845,0841,-4.0
67612,2015-01-22,1720,1717,-3.0
67613,2015-01-22,1240,1242,2.0
67614,2015-01-22,1430,1429,-1.0
67615,2015-01-22,0920,0934,14.0
67616,2015-01-22,1540,1538,-2.0
67617,2015-01-22,1335,1334,-1.0
67618,2015-01-22,2145,2142,-3.0
67619,2015-01-22,0630,0629,-1.0
67620,2015-01-22,1810,1812,2.0
67621,2015-01-22,1015,1022,7.0
67622,2015-01-22,1150,1150,0.0
67623,2015-01-22,0820,0819,-1.0
67624,2015-01-22,1720,1729,9.0
67625,2015-01-22,2020,2024,4.0
67626,2015-01-22,1410,1407,-3.0
67627,2015-01-22,0905,0900,-5.0
67628,2015-01-22,1425,1439,14.0
67629,2015-01-22,1930,1941,11.0
67630,2015-01-22,1145,1143,-2.0
67631,2015-01-22,1940,1940,0.0
67632,2015-01-22,1550,1546,-4.0
67633,2015-01-22,1020,1018,-2.0
67634,2015-01-22,0745,0743,-2.0
67635,2015-01-22,0825,0820,-5.0
67636,2015-01-22,1105,1104,-1.0
67637,2015-01-22,0635,0629,-6.0
67638,2015-01-22,1530,1541,11.0
67639,2015-01-22,2030,2026,-4.0
67640,2015-01-22,0755,0751,-4.0
67641,2015-01-22,1120,1121,1.0
67642,2015-01-22,2000,2011,11.0
67643,2015-01-22,0635,0632,-3.0
67644,2015-01-22,2150,2146,-4.0
67645,2015-01-22,1550,1604,14.0
67646,2015-01-22,1855,1854,-1.0
67647,2015-01-22,1335,1333,-2.0
67648,2015-01-22,0925,0940,15.0
67649,2015-01-22,0755,0750,-5.0
67650,2015-01-22,2045,2043,-2.0
67651,2015-01-22,1610,1608,-2.0
67652,2015-01-22,1425,1421,-4.0
67653,2015-01-22,0915,0915,0.0
67654,2015-01-22,1920,1918,-2.0
67655,2015-01-22,0630,0631,1.0
67656,2015-01-22,1805,1800,-5.0
67657,2015-01-22,2115,2114,-1.0
67658,2015-01-22,1145,1145,0.0
67659,2015-01-22,0845,0841,-4.0
