,FL_DATE,CRS_DEP_TIME,DEP_TIME,DEP_DELAY
31623,2015-01-11,0930,1140,130.0
31657,2015-01-11,0720,0818,58.0
31693,2015-01-11,1130,1130,0.0
31786,2015-01-11,1840,2010,90.0
32115,2015-01-11,1501,1747,166.0
32126,2015-01-11,1709,1902,113.0
32143,2015-01-11,2010,2051,41.0
32144,2015-01-11,0700,0649,-11.0
32145,2015-01-11,1250,1642,232.0
32146,2015-01-11,1145,1142,-3.0
32249,2015-01-11,0622,0621,-1.0
32365,2015-01-11,1555,1705,70.0
32432,2015-01-11,1830,1827,-3.0
32439,2015-01-11,1145,1156,11.0
32441,2015-01-11,1331,1324,-7.0
32442,2015-01-11,1335,1339,4.0
32450,2015-01-11,2157,2153,-4.0
32451,2015-01-11,2020,2051,31.0
32569,2015-01-11,0754,0750,-4.0
32713,2015-01-11,1943,1942,-1.0
32723,2015-01-11,1418,1543,85.0
32731,2015-01-11,1808,1937,89.0
33116,2015-01-11,1737,1941,124.0
33131,2015-01-11,0623,0614,-9.0
33140,2015-01-11,1444,1450,6.0
33161,2015-01-11,0911,0910,-1.0
33199,2015-01-11,0805,0807,2.0
33225,2015-01-11,1313,1355,42.0
33233,2015-01-11,0957,1020,23.0
33257,2015-01-11,1150,1231,41.0
33272,2015-01-11,1535,1709,94.0
33294,2015-01-11,1850,1944,54.0
33335,2015-01-11,1301,1415,74.0
33362,2015-01-11,0600,0604,4.0
33405,2015-01-11,1056,1134,38.0
33497,2015-01-11,1652,1728,36.0
33645,2015-01-11,0805,0757,-8.0
33646,2015-01-11,1050,1053,3.0
33655,2015-01-11,0815,0843,28.0
33657,2015-01-11,1315,1859,344.0
33674,2015-01-11,1335,1359,24.0
33712,2015-01-11,1045,1148,63.0
33714,2015-01-11,1530,1647,77.0
33717,2015-01-11,1940,2015,35.0
33743,2015-01-11,0715,0706,-9.0
33745,2015-01-11,1125,1228,63.0
33748,2015-01-11,1550,,
33751,2015-01-11,1440,2030,350.0
33752,2015-01-11,2010,2041,31.0
33754,2015-01-11,1720,1939,139.0
33781,2015-01-11,1335,1409,34.0
33782,2015-01-11,0825,0936,71.0
33783,2015-01-11,1200,1218,18.0
33784,2015-01-11,1500,1509,9.0
33785,2015-01-11,1830,2003,93.0
33786,2015-01-11,1930,2026,56.0
33787,2015-01-11,2010,2101,51.0
33788,2015-01-11,0940,0935,-5.0
33789,2015-01-11,1840,1949,69.0
33790,2015-01-11,1425,1536,71.0
33791,2015-01-11,0830,0824,-6.0
33792,2015-01-11,1035,1043,8.0
33793,2015-01-11,1240,1330,50.0
33794,2015-01-11,1930,2012,42.0
33795,2015-01-11,1705,1712,7.0
34147,2015-01-11,1955,2108,73.0
34148,2015-01-11,1235,1230,-5.0
34149,2015-01-11,1050,1046,-4.0
34150,2015-01-11,1840,2029,109.0
34151,2015-01-11,1455,1629,94.0
34152,2015-01-11,1535,1533,-2.0
34153,2015-01-11,0840,0835,-5.0
34154,2015-01-11,2045,2344,179.0
34155,2015-01-11,1530,1529,-1.0
34156,2015-01-11,1745,1906,81.0
34157,2015-01-11,2045,2252,127.0
34158,2015-01-11,1135,1141,6.0
34159,2015-01-11,1300,1328,28.0
34160,2015-01-11,1400,1553,113.0
34161,2015-01-11,0935,0937,2.0
34162,2015-01-11,0800,0800,0.0
34163,2015-01-11,2150,2151,1.0
34164,2015-01-11,1930,2021,51.0
34165,2015-01-11,1020,1017,-3.0
34166,2015-01-11,1150,1335,105.0
34167,2015-01-11,1310,1421,71.0
34168,2015-01-11,1855,1854,-1.0
34169,2015-01-11,1935,2013,38.0
34170,2015-01-11,0830,0845,15.0
34171,2015-01-11,1720,1841,81.0
34172,2015-01-11,1030,1030,0.0
34173,2015-01-11,1515,1532,17.0
34174,2015-01-11,0955,1037,42.0
34175,2015-01-11,2010,2057,47.0
34176,2015-01-11,0915,0914,-1.0
34177,2015-01-11,1900,2058,118.0
34178,2015-01-11,1410,1603,113.0
34179,2015-01-11,1705,1807,62.0
34180,2015-01-11,2040,2107,27.0
34181,2015-01-11,2110,2115,5.0
34182,2015-01-11,1930,2052,82.0
34183,2015-01-11,1500,1633,93.0
34184,2015-01-11,1000,1007,7.0
34185,2015-01-11,0900,0857,-3.0
34186,2015-01-11,0810,0805,-5.0
34187,2015-01-11,1110,1133,23.0
34188,2015-01-11,1310,1434,84.0
34189,2015-01-11,1145,1239,54.0
34190,2015-01-11,0930,0959,29.0
34191,2015-01-11,2150,2303,73.0
34192,2015-01-11,1930,2140,130.0
34193,2015-01-11,1355,1407,12.0
34194,2015-01-11,1605,1913,188.0
34195,2015-01-11,1140,1207,27.0
34196,2015-01-11,1815,1918,63.0
34197,2015-01-11,1615,1717,62.0
34198,2015-01-11,2125,2131,6.0
34199,2015-01-11,0925,1002,37.0
34200,2015-01-11,1955,2010,15.0
