,FL_DATE,CRS_DEP_TIME,DEP_TIME,DEP_DELAY
52714,2015-01-18,0930,0922,-8.0
52747,2015-01-18,0720,0709,-11.0
52782,2015-01-18,1130,1414,1604.0
52872,2015-01-18,1840,1834,-6.0
53198,2015-01-18,1501,1500,-1.0
53209,2015-01-18,1709,1700,-9.0
53225,2015-01-18,2010,1959,-11.0
53226,2015-01-18,0700,0651,-9.0
53227,2015-01-18,1250,1339,49.0
53228,2015-01-18,1145,1141,-4.0
53231,2015-01-18,1555,1549,-6.0
53334,2015-01-18,0627,0624,-3.0
53378,2015-01-18,0848,0844,-4.0
53494,2015-01-18,1830,1824,-6.0
53502,2015-01-18,1145,1201,16.0
53504,2015-01-18,1331,1322,-9.0
53505,2015-01-18,1335,1329,-6.0
53513,2015-01-18,2157,2151,-6.0
53514,2015-01-18,2020,2024,4.0
53630,2015-01-18,0754,0746,-8.0
53765,2015-01-18,1938,1929,-9.0
53775,2015-01-18,1418,1413,-5.0
54112,2015-01-18,1313,1308,-5.0
54118,2015-01-18,0957,0951,-6.0
54140,2015-01-18,1306,1403,57.0
54155,2015-01-18,1535,1711,96.0
54212,2015-01-18,1737,1829,52.0
54215,2015-01-18,0623,0613,-10.0
54236,2015-01-18,1444,1503,19.0
54258,2015-01-18,0911,0858,-13.0
54286,2015-01-18,0805,0852,47.0
54311,2015-01-18,1150,1242,52.0
54337,2015-01-18,0600,0553,-7.0
54357,2015-01-18,1652,1647,-5.0
54467,2015-01-18,1850,1844,-6.0
54486,2015-01-18,1056,1048,-8.0
54656,2015-01-18,0805,0757,-8.0
54657,2015-01-18,1050,1044,-6.0
54666,2015-01-18,0815,0819,4.0
54668,2015-01-18,1315,1347,32.0
54686,2015-01-18,1335,1446,71.0
54724,2015-01-18,1045,1038,-7.0
54726,2015-01-18,1530,1527,-3.0
54729,2015-01-18,1940,1936,-4.0
54755,2015-01-18,0715,0710,-5.0
54757,2015-01-18,1125,1251,86.0
54760,2015-01-18,1550,1726,96.0
54763,2015-01-18,1440,1519,39.0
54764,2015-01-18,2010,2056,46.0
54766,2015-01-18,1720,1804,44.0
54860,2015-01-18,1955,1951,-4.0
54861,2015-01-18,1235,1304,29.0
54862,2015-01-18,1050,1052,2.0
54863,2015-01-18,1840,1834,-6.0
54864,2015-01-18,1455,1454,-1.0
54865,2015-01-18,1535,1557,22.0
54866,2015-01-18,0840,0837,-3.0
54867,2015-01-18,2045,2041,-4.0
54868,2015-01-18,1530,1530,0.0
54869,2015-01-18,1745,1756,11.0
54870,2015-01-18,2045,2107,22.0
54871,2015-01-18,1135,1129,-6.0
54872,2015-01-18,1300,1253,-7.0
54873,2015-01-18,1400,1354,-6.0
54874,2015-01-18,0935,0933,-2.0
54875,2015-01-18,0800,0753,-7.0
54876,2015-01-18,2150,2148,-2.0
54877,2015-01-18,1930,1928,-2.0
54878,2015-01-18,1020,1017,-3.0
54879,2015-01-18,1150,1149,-1.0
54880,2015-01-18,1310,1328,18.0
54881,2015-01-18,1855,1850,-5.0
54882,2015-01-18,1935,1929,-6.0
54883,2015-01-18,0830,0835,5.0
54884,2015-01-18,1720,1720,0.0
54885,2015-01-18,1030,1107,37.0
54886,2015-01-18,1515,1509,-6.0
54887,2015-01-18,0955,1002,7.0
54888,2015-01-18,2010,2008,-2.0
54889,2015-01-18,0915,0908,-7.0
54890,2015-01-18,1900,1857,-3.0
54891,2015-01-18,1410,1407,-3.0
54892,2015-01-18,1705,1720,15.0
54893,2015-01-18,2040,2114,34.0
54894,2015-01-18,2110,2104,-6.0
54895,2015-01-18,1930,2112,102.0
54896,2015-01-18,1500,1504,4.0
54897,2015-01-18,1000,1000,0.0
54898,2015-01-18,0900,0855,-5.0
54899,2015-01-18,0810,0806,-4.0
54900,2015-01-18,1110,1104,-6.0
54901,2015-01-18,1310,1309,-1.0
54902,2015-01-18,1145,1313,88.0
54903,2015-01-18,0930,0949,19.0
54904,2015-01-18,2150,2220,30.0
54905,2015-01-18,1930,1925,-5.0
54906,2015-01-18,1355,1528,93.0
54907,2015-01-18,1605,1609,4.0
54908,2015-01-18,1140,1150,10.0
54909,2015-01-18,1815,1813,-2.0
54910,2015-01-18,1615,1615,0.0
54911,2015-01-18,2125,2123,-2.0
54912,2015-01-18,0925,0951,26.0
54913,2015-01-18,1955,1956,1.0
54914,2015-01-18,1335,1332,-3.0
54915,2015-01-18,0825,0818,-7.0
54916,2015-01-18,1200,1158,-2.0
54917,2015-01-18,1500,1459,-1.0
54918,2015-01-18,1830,2002,92.0
54919,2015-01-18,1930,1928,-2.0
54920,2015-01-18,2010,2009,-1.0
54921,2015-01-18,0940,0942,2.0
54922,2015-01-18,1840,1834,-6.0
54923,2015-01-18,1425,1427,2.0
54924,2015-01-18,0830,0825,-5.0
54925,2015-01-18,1035,1037,2.0
54926,2015-01-18,1240,1259,19.0
54927,2015-01-18,1930,1927,-3.0
54928,2015-01-18,1705,1702,-3.0
