,FL_DATE,CRS_ARR_TIME,ARR_TIME,ARR_DELAY
50252,2015-01-17,1350,1338,-12.0
50277,2015-01-17,1915,1904,-11.0
50311,2015-01-17,1035,1036,1.0
50356,2015-01-17,2335,2319,-16.0
50388,2015-01-17,1750,1746,-4.0
50634,2015-01-17,1654,1646,-8.0
50651,2015-01-17,1207,1201,-6.0
50685,2015-01-17,1101,1051,-10.0
50693,2015-01-17,2004,1947,-17.0
50695,2015-01-17,1604,1559,-5.0
50745,2015-01-17,1500,1441,-19.0
50801,2015-01-17,2029,2024,-5.0
50850,2015-01-17,1618,1611,-7.0
50928,2015-01-17,0723,0714,-9.0
50936,2015-01-17,1040,1029,-11.0
50939,2015-01-17,0721,0709,-12.0
50948,2015-01-17,1636,1619,-17.0
51029,2015-01-17,1632,1621,-11.0
51030,2015-01-17,1520,1506,-14.0
51071,2015-01-17,2159,2154,-5.0
51165,2015-01-17,1857,1847,-10.0
51173,2015-01-17,1337,1327,-10.0
51577,2015-01-17,2013,1958,-15.0
51607,2015-01-17,1042,1030,-12.0
51616,2015-01-17,1258,1249,-9.0
51628,2015-01-17,1639,1620,-19.0
51631,2015-01-17,1838,1813,-25.0
51634,2015-01-17,1439,1444,5.0
51640,2015-01-17,1308,1257,-11.0
51673,2015-01-17,1942,1918,-24.0
51729,2015-01-17,2348,2334,-14.0
51753,2015-01-17,0913,0849,-24.0
51779,2015-01-17,2051,2049,-2.0
51971,2015-01-17,2120,2109,-11.0
51999,2015-01-17,1005,1040,35.0
52000,2015-01-17,1645,1639,-6.0
52001,2015-01-17,1835,1830,-5.0
52024,2015-01-17,1045,1040,-5.0
52026,2015-01-17,1510,1546,36.0
52027,2015-01-17,1620,1612,-8.0
52030,2015-01-17,1355,1346,-9.0
52032,2015-01-17,1930,1919,-11.0
52081,2015-01-17,1800,1848,48.0
52082,2015-01-17,0910,0903,-7.0
52083,2015-01-17,1235,1225,-10.0
52084,2015-01-17,1040,1039,-1.0
52085,2015-01-17,1555,1547,-8.0
52086,2015-01-17,0730,0707,-23.0
52129,2015-01-17,1155,1152,-3.0
52130,2015-01-17,1435,1418,-17.0
52131,2015-01-17,1910,1902,-8.0
52132,2015-01-17,0830,0822,-8.0
52133,2015-01-17,1650,1648,-2.0
52213,2015-01-17,1240,1225,-15.0
52214,2015-01-17,1520,1509,-11.0
52215,2015-01-17,1400,1400,0.0
52216,2015-01-17,0935,0951,16.0
52217,2015-01-17,1700,1704,4.0
52218,2015-01-17,1905,1903,-2.0
52219,2015-01-17,0825,0859,34.0
52220,2015-01-17,1130,1146,16.0
52279,2015-01-17,1115,1102,-13.0
52280,2015-01-17,1710,1715,5.0
52281,2015-01-17,1910,1853,-17.0
52304,2015-01-17,1220,1212,-8.0
52305,2015-01-17,2020,2007,-13.0
52306,2015-01-17,1040,1024,-16.0
52307,2015-01-17,0910,0902,-8.0
52308,2015-01-17,1340,1334,-6.0
52309,2015-01-17,1820,1810,-10.0
52310,2015-01-17,0800,0758,-2.0
52311,2015-01-17,1500,1451,-9.0
52312,2015-01-17,1635,1626,-9.0
52459,2015-01-17,1100,1054,-6.0
52460,2015-01-17,1250,1246,-4.0
52461,2015-01-17,2010,2000,-10.0
52462,2015-01-17,1905,1910,5.0
52463,2015-01-17,1515,1512,-3.0
52464,2015-01-17,0825,0809,-16.0
52465,2015-01-17,1700,1709,9.0
52466,2015-01-17,0925,0914,-11.0
52467,2015-01-17,1350,1402,12.0
52523,2015-01-17,1425,1449,24.0
52524,2015-01-17,0820,0812,-8.0
52553,2015-01-17,0845,0828,-17.0
52554,2015-01-17,1345,1415,30.0
52555,2015-01-17,1645,1643,-2.0
52556,2015-01-17,1835,1823,-12.0
52557,2015-01-17,1530,1545,15.0
52558,2015-01-17,1740,1810,30.0
52559,2015-01-17,1130,1120,-10.0
52599,2015-01-17,1025,1020,-5.0
52600,2015-01-17,1945,1929,-16.0
52601,2015-01-17,1410,1414,4.0
52602,2015-01-17,0825,0810,-15.0
52603,2015-01-17,1745,1740,-5.0
52604,2015-01-17,1605,1558,-7.0
52635,2015-01-17,1540,1537,-3.0
52636,2015-01-17,1725,1715,-10.0
52637,2015-01-17,1010,0959,-11.0
52638,2015-01-17,1940,1924,-16.0
52639,2015-01-17,1820,1816,-4.0
52640,2015-01-17,1345,1353,8.0
52641,2015-01-17,1445,1435,-10.0
