,FL_DATE,CRS_ARR_TIME,ARR_TIME,ARR_DELAY
79886,2015-01-27,1350,1337,-13.0
79912,2015-01-27,1915,1850,-25.0
79949,2015-01-27,1035,1034,-1.0
80002,2015-01-27,2335,2311,-24.0
80039,2015-01-27,1750,1738,-12.0
80279,2015-01-27,1420,1412,-8.0
80292,2015-01-27,1207,1204,-3.0
80337,2015-01-27,1101,1057,-4.0
80344,2015-01-27,1604,1557,-7.0
80366,2015-01-27,1500,1445,-15.0
80523,2015-01-27,2128,2108,-20.0
80631,2015-01-27,0723,0711,-12.0
80639,2015-01-27,1040,1121,41.0
80650,2015-01-27,1636,1618,-18.0
80658,2015-01-27,0721,0711,-10.0
80739,2015-01-27,1632,1610,-22.0
80740,2015-01-27,1520,1508,-12.0
80807,2015-01-27,2159,2156,-3.0
80894,2015-01-27,1858,1841,-17.0
80903,2015-01-27,1343,1330,-13.0
81257,2015-01-27,0912,0904,-8.0
81259,2015-01-27,2012,1956,-16.0
81285,2015-01-27,1413,1758,225.0
81314,2015-01-27,2347,2313,-34.0
81316,2015-01-27,1042,1023,-19.0
81318,2015-01-27,1215,1209,-6.0
81354,2015-01-27,1359,1350,-9.0
81391,2015-01-27,1624,1605,-19.0
81482,2015-01-27,1839,1828,-11.0
81498,2015-01-27,0005,2358,-7.0
81564,2015-01-27,2051,,
81737,2015-01-27,2120,2117,-3.0
81771,2015-01-27,1005,1029,24.0
81773,2015-01-27,1445,1437,-8.0
81803,2015-01-27,1045,1043,-2.0
81805,2015-01-27,1510,1508,-2.0
81806,2015-01-27,1620,1613,-7.0
81809,2015-01-27,1355,1358,3.0
81952,2015-01-27,0805,0758,-7.0
81953,2015-01-27,1955,1938,-17.0
81954,2015-01-27,1450,1444,-6.0
81955,2015-01-27,2120,2108,-12.0
81956,2015-01-27,0900,0915,15.0
81957,2015-01-27,1610,1556,-14.0
81958,2015-01-27,1820,1901,41.0
81959,2015-01-27,1215,1215,0.0
81960,2015-01-27,1130,1123,-7.0
82031,2015-01-27,0835,0831,-4.0
82032,2015-01-27,2025,2028,3.0
82033,2015-01-27,1125,1127,2.0
82034,2015-01-27,1245,1248,3.0
82035,2015-01-27,1855,1851,-4.0
82036,2015-01-27,2215,2216,1.0
82037,2015-01-27,1530,1541,11.0
82038,2015-01-27,1640,1633,-7.0
82039,2015-01-27,0735,0729,-6.0
82104,2015-01-27,1020,1042,22.0
82105,2015-01-27,1825,1814,-11.0
82106,2015-01-27,0810,0808,-2.0
82107,2015-01-27,1235,1249,14.0
82230,2015-01-27,1805,1755,-10.0
82231,2015-01-27,0850,0847,-3.0
82232,2015-01-27,0750,0741,-9.0
82233,2015-01-27,1110,1110,0.0
82234,2015-01-27,1415,1406,-9.0
82235,2015-01-27,1245,1313,28.0
82236,2015-01-27,2155,2201,6.0
82237,2015-01-27,1555,1546,-9.0
82238,2015-01-27,2050,2033,-17.0
82239,2015-01-27,2315,2248,-27.0
82240,2015-01-27,1950,1949,-1.0
82330,2015-01-27,1925,1915,-10.0
82331,2015-01-27,1135,1122,-13.0
82332,2015-01-27,1345,1340,-5.0
82333,2015-01-27,2255,2235,-20.0
82334,2015-01-27,1525,1512,-13.0
82335,2015-01-27,0815,0803,-12.0
82380,2015-01-27,1200,1147,-13.0
82381,2015-01-27,1800,1801,1.0
82382,2015-01-27,2155,2137,-18.0
82383,2015-01-27,0820,0814,-6.0
82384,2015-01-27,1005,1002,-3.0
82385,2015-01-27,1840,1831,-9.0
82386,2015-01-27,2310,2304,-6.0
82387,2015-01-27,1400,1358,-2.0
82388,2015-01-27,1550,1550,0.0
82452,2015-01-27,1835,1828,-7.0
82453,2015-01-27,1110,1107,-3.0
82454,2015-01-27,2150,2141,-9.0
82455,2015-01-27,0950,0946,-4.0
82456,2015-01-27,1540,1534,-6.0
82457,2015-01-27,0815,0816,1.0
82458,2015-01-27,1350,1349,-1.0
82459,2015-01-27,2105,2112,7.0
82512,2015-01-27,1415,1402,-13.0
82513,2015-01-27,1925,1921,-4.0
82514,2015-01-27,1715,1717,2.0
82515,2015-01-27,0850,0845,-5.0
82516,2015-01-27,1240,1241,1.0
82517,2015-01-27,2220,2208,-12.0
82518,2015-01-27,2115,2056,-19.0
82519,2015-01-27,1015,1037,22.0
82669,2015-01-27,0850,0852,2.0
82670,2015-01-27,1120,1125,5.0
82671,2015-01-27,1810,1759,-11.0
82672,2015-01-27,2250,2229,-21.0
82673,2015-01-27,1715,1706,-9.0
82674,2015-01-27,1305,1300,-5.0
82675,2015-01-27,0720,0706,-14.0
82676,2015-01-27,1545,1534,-11.0
82677,2015-01-27,1900,1916,16.0
82678,2015-01-27,2145,2128,-17.0
82679,2015-01-27,1000,1028,28.0
82680,2015-01-27,1435,1420,-15.0
