,FL_DATE,CRS_ARR_TIME,ARR_TIME,ARR_DELAY
89180,2015-01-30,1350,1343,-7.0
89210,2015-01-30,1915,1939,24.0
89249,2015-01-30,1035,1053,18.0
89308,2015-01-30,2335,2342,7.0
89348,2015-01-30,1750,1805,15.0
89613,2015-01-30,1420,1421,1.0
89632,2015-01-30,1207,1157,-10.0
89682,2015-01-30,1101,1046,-15.0
89689,2015-01-30,2004,1956,-8.0
89691,2015-01-30,1604,1639,35.0
89715,2015-01-30,1500,1527,27.0
89822,2015-01-30,2029,2026,-3.0
90015,2015-01-30,0723,0725,2.0
90023,2015-01-30,1040,1042,2.0
90033,2015-01-30,1636,1755,79.0
90041,2015-01-30,0721,0714,-7.0
90119,2015-01-30,1632,1741,69.0
90120,2015-01-30,1520,1510,-10.0
90167,2015-01-30,2159,2211,12.0
90299,2015-01-30,1858,1927,29.0
90300,2015-01-30,2155,2146,-9.0
90308,2015-01-30,1343,1351,8.0
90676,2015-01-30,2348,2347,-1.0
90741,2015-01-30,2051,2052,1.0
90807,2015-01-30,0912,0907,-5.0
90810,2015-01-30,2012,2027,15.0
90826,2015-01-30,1215,1212,-3.0
90863,2015-01-30,1413,1405,-8.0
90896,2015-01-30,0004,2355,-9.0
90906,2015-01-30,1042,1030,-12.0
90926,2015-01-30,1324,1319,-5.0
90939,2015-01-30,0937,0929,-8.0
90959,2015-01-30,1942,2257,195.0
90970,2015-01-30,1619,1740,81.0
90989,2015-01-30,1429,1420,-9.0
91002,2015-01-30,1839,1843,4.0
91234,2015-01-30,2220,2224,4.0
91251,2015-01-30,2120,2121,1.0
91291,2015-01-30,1005,1010,5.0
91294,2015-01-30,1445,1607,82.0
91295,2015-01-30,1605,1647,42.0
91296,2015-01-30,1835,1919,44.0
91331,2015-01-30,1045,1043,-2.0
91333,2015-01-30,1510,1617,67.0
91334,2015-01-30,1620,1639,19.0
91337,2015-01-30,1355,1353,-2.0
91340,2015-01-30,1930,2024,54.0
91507,2015-01-30,0835,0837,2.0
91508,2015-01-30,2025,2044,19.0
91509,2015-01-30,1125,1124,-1.0
91510,2015-01-30,1245,1301,16.0
91511,2015-01-30,1855,1918,23.0
91512,2015-01-30,2215,2226,11.0
91513,2015-01-30,1530,1614,44.0
91514,2015-01-30,1640,1737,57.0
91515,2015-01-30,0735,0734,-1.0
91580,2015-01-30,1020,1023,3.0
91581,2015-01-30,1825,1926,61.0
91582,2015-01-30,0810,0802,-8.0
91583,2015-01-30,1235,1248,13.0
91756,2015-01-30,0850,0919,29.0
91757,2015-01-30,1120,1126,6.0
91758,2015-01-30,1810,1848,38.0
91759,2015-01-30,2250,2311,21.0
91760,2015-01-30,1715,1808,53.0
91761,2015-01-30,1305,1322,17.0
91762,2015-01-30,0720,0712,-8.0
91763,2015-01-30,1545,1703,78.0
91764,2015-01-30,1900,1914,14.0
91765,2015-01-30,2145,2139,-6.0
91766,2015-01-30,1000,1013,13.0
91767,2015-01-30,1435,1438,3.0
91868,2015-01-30,1835,2213,218.0
91869,2015-01-30,1110,1110,0.0
91870,2015-01-30,2150,2318,88.0
91871,2015-01-30,0950,0951,1.0
91872,2015-01-30,1540,1604,24.0
91873,2015-01-30,0815,0820,5.0
91874,2015-01-30,1350,1400,10.0
91875,2015-01-30,2105,2123,18.0
91927,2015-01-30,1415,1437,22.0
91928,2015-01-30,1925,2042,77.0
91929,2015-01-30,1715,1747,32.0
91930,2015-01-30,0850,0842,-8.0
91931,2015-01-30,1240,1241,1.0
91932,2015-01-30,2220,2218,-2.0
91933,2015-01-30,2115,2140,25.0
91934,2015-01-30,1015,1023,8.0
91983,2015-01-30,0805,0800,-5.0
91984,2015-01-30,1955,2027,32.0
91985,2015-01-30,1450,1533,43.0
91986,2015-01-30,2120,2113,-7.0
91987,2015-01-30,0900,0859,-1.0
91988,2015-01-30,1610,1803,113.0
91989,2015-01-30,1820,1849,29.0
91990,2015-01-30,1215,1215,0.0
91991,2015-01-30,1130,1134,4.0
92137,2015-01-30,1805,1843,38.0
92138,2015-01-30,0850,0839,-11.0
92139,2015-01-30,0750,0737,-13.0
92140,2015-01-30,1110,1115,5.0
92141,2015-01-30,1415,1421,6.0
92142,2015-01-30,1245,1328,43.0
92143,2015-01-30,2155,2228,33.0
92144,2015-01-30,1555,1646,51.0
92145,2015-01-30,2050,2146,56.0
92146,2015-01-30,1950,2017,27.0
92234,2015-01-30,1925,1937,12.0
92235,2015-01-30,1135,1123,-12.0
92236,2015-01-30,1345,1416,31.0
92237,2015-01-30,2255,2301,6.0
92238,2015-01-30,1525,1636,71.0
92239,2015-01-30,0815,0935,80.0
92282,2015-01-30,1200,1159,-1.0
92283,2015-01-30,1800,1847,47.0
92284,2015-01-30,2155,2156,1.0
92285,2015-01-30,0820,0816,-4.0
92286,2015-01-30,1005,1013,8.0
92287,2015-01-30,1840,1913,33.0
92288,2015-01-30,2310,2346,36.0
92289,2015-01-30,1400,1406,6.0
92290,2015-01-30,1550,1609,19.0
