,FL_DATE,CRS_ARR_TIME,ARR_TIME,ARR_DELAY
34,2015-01-01,2155,2256,61.0
70,2015-01-01,1430,1510,40.0
100,2015-01-01,2300,2312,12.0
179,2015-01-01,1210,,
200,2015-01-01,1820,2013,113.0
208,2015-01-01,0930,0932,2.0
210,2015-01-01,1320,1317,-3.0
301,2015-01-01,0803,0754,-9.0
326,2015-01-01,1751,1745,-6.0
327,2015-01-01,1414,1411,-3.0
329,2015-01-01,2118,2111,-7.0
330,2015-01-01,2010,2000,-10.0
332,2015-01-01,1109,1116,7.0
360,2015-01-01,2230,2218,-12.0
362,2015-01-01,0742,0729,-13.0
364,2015-01-01,1312,1310,-2.0
456,2015-01-01,0743,0833,50.0
470,2015-01-01,2159,2127,-32.0
474,2015-01-01,2226,2209,-17.0
479,2015-01-01,2259,2247,-12.0
561,2015-01-01,2054,2108,14.0
565,2015-01-01,2214,2148,-26.0
720,2015-01-01,1737,1717,-20.0
785,2015-01-01,2157,2148,-9.0
855,2015-01-01,2220,2212,-8.0
857,2015-01-01,2020,2023,3.0
919,2015-01-01,2235,2306,31.0
937,2015-01-01,1415,1423,8.0
950,2015-01-01,1115,1119,4.0
1116,2015-01-01,1053,1037,-16.0
1167,2015-01-01,1602,1753,111.0
1171,2015-01-01,1617,1618,1.0
1188,2015-01-01,2018,2038,20.0
1220,2015-01-01,1140,1141,1.0
1222,2015-01-01,1658,1653,-5.0
1249,2015-01-01,1248,,
1257,2015-01-01,1721,1830,69.0
2006,2015-01-01,2050,2053,3.0
2034,2015-01-01,1100,1050,-10.0
2035,2015-01-01,1440,1509,29.0
2036,2015-01-01,1345,1358,13.0
2037,2015-01-01,1840,1831,-9.0
2072,2015-01-01,1725,1726,1.0
2073,2015-01-01,2225,2231,6.0
2074,2015-01-01,1330,1314,-16.0
2126,2015-01-01,1110,1056,-14.0
2127,2015-01-01,1220,1205,-15.0
2128,2015-01-01,2100,2121,21.0
2129,2015-01-01,1905,1850,-15.0
2130,2015-01-01,1430,1547,77.0
2131,2015-01-01,1720,1704,-16.0
2213,2015-01-01,1750,1741,-9.0
2214,2015-01-01,1340,1341,1.0
2215,2015-01-01,2000,2041,41.0
2216,2015-01-01,1615,1644,29.0
2217,2015-01-01,2105,2108,3.0
2218,2015-01-01,1840,1829,-11.0
2247,2015-01-01,2255,2258,3.0
2328,2015-01-01,0950,0949,-1.0
2329,2015-01-01,1250,1249,-1.0
2330,2015-01-01,1800,1822,22.0
2331,2015-01-01,2120,2153,33.0
2402,2015-01-01,0835,0827,-8.0
2403,2015-01-01,2030,2142,72.0
2404,2015-01-01,2130,2204,34.0
2405,2015-01-01,1015,0957,-18.0
2406,2015-01-01,2220,2221,1.0
2407,2015-01-01,1435,1428,-7.0
2408,2015-01-01,1835,1834,-1.0
2409,2015-01-01,1315,1307,-8.0
2410,2015-01-01,1710,1720,10.0
2430,2015-01-01,2030,2025,-5.0
2580,2015-01-01,2025,2011,-14.0
2581,2015-01-01,1240,1234,-6.0
2582,2015-01-01,1100,1051,-9.0
2583,2015-01-01,1710,1700,-10.0
2584,2015-01-01,1900,1917,17.0
2585,2015-01-01,1515,1514,-1.0
2649,2015-01-01,1125,1125,0.0
2650,2015-01-01,1905,1923,18.0
2660,2015-01-01,1545,1540,-5.0
2661,2015-01-01,1340,1336,-4.0
2740,2015-01-01,1136,1122,-14.0
2928,2015-01-01,1146,1146,0.0
2967,2015-01-01,0916,0951,35.0
2973,2015-01-01,1833,1837,4.0
2974,2015-01-01,2207,2207,0.0
