,FL_DATE,CRS_ARR_TIME,ARR_TIME,ARR_DELAY
61776,2015-01-21,1442,1409,-33.0
61853,2015-01-21,1915,1843,-32.0
61868,2015-01-21,0932,0915,-17.0
61873,2015-01-21,1209,1228,19.0
61893,2015-01-21,1815,2031,136.0
62002,2015-01-21,2155,2334,99.0
62010,2015-01-21,2251,2236,-15.0
62046,2015-01-21,1753,1805,12.0
62047,2015-01-21,1413,1505,52.0
62049,2015-01-21,2008,2021,13.0
62051,2015-01-21,1109,1101,-8.0
62053,2015-01-21,0809,0809,0.0
62081,2015-01-21,1813,1751,-22.0
62082,2015-01-21,2230,2212,-18.0
62084,2015-01-21,0740,0728,-12.0
62086,2015-01-21,1312,1258,-14.0
62162,2015-01-21,0743,0723,-20.0
62370,2015-01-21,2221,2150,-31.0
62441,2015-01-21,2138,2051,-47.0
62512,2015-01-21,2220,2244,24.0
62514,2015-01-21,2020,2009,-11.0
62562,2015-01-21,1112,1105,-7.0
62576,2015-01-21,2250,2240,-10.0
62589,2015-01-21,1417,1419,2.0
62645,2015-01-21,0943,0919,-24.0
62647,2015-01-21,1355,1355,0.0
62661,2015-01-21,1557,1615,18.0
62789,2015-01-21,1746,1749,3.0
62819,2015-01-21,1150,1142,-8.0
62854,2015-01-21,1600,1542,-18.0
62864,2015-01-21,2120,2130,10.0
62868,2015-01-21,1201,1204,3.0
62878,2015-01-21,2248,2236,-12.0
62881,2015-01-21,2017,2039,22.0
62886,2015-01-21,0947,0938,-9.0
62901,2015-01-21,1246,1328,42.0
62910,2015-01-21,1125,1131,6.0
62912,2015-01-21,1657,1655,-2.0
62914,2015-01-21,0905,0900,-5.0
63378,2015-01-21,1138,1136,-2.0
63566,2015-01-21,2043,2034,-9.0
63614,2015-01-21,0743,0734,-9.0
63640,2015-01-21,1153,1152,-1.0
63676,2015-01-21,0919,0905,-14.0
63681,2015-01-21,1530,1518,-12.0
63682,2015-01-21,1832,1829,-3.0
63683,2015-01-21,2208,2206,-2.0
63914,2015-01-21,1325,1324,-1.0
63915,2015-01-21,1730,1737,7.0
63916,2015-01-21,0835,0825,-10.0
63917,2015-01-21,1115,1115,0.0
63918,2015-01-21,2115,2127,12.0
63919,2015-01-21,1545,1538,-7.0
63920,2015-01-21,1850,1843,-7.0
63963,2015-01-21,0845,0826,-19.0
63964,2015-01-21,2255,2230,-25.0
63965,2015-01-21,1355,1359,4.0
64047,2015-01-21,1125,1129,4.0
64048,2015-01-21,1645,1656,11.0
64049,2015-01-21,0715,0708,-7.0
64050,2015-01-21,1950,2003,13.0
64065,2015-01-21,0850,0846,-4.0
64066,2015-01-21,1535,1524,-11.0
64067,2015-01-21,1340,1326,-14.0
64068,2015-01-21,2120,2110,-10.0
64116,2015-01-21,0925,1115,110.0
64117,2015-01-21,2140,2134,-6.0
64118,2015-01-21,1605,1558,-7.0
64119,2015-01-21,1250,1321,31.0
64120,2015-01-21,1900,1908,8.0
64209,2015-01-21,0855,0852,-3.0
64210,2015-01-21,1515,1518,3.0
64211,2015-01-21,2155,2210,15.0
64212,2015-01-21,1920,1915,-5.0
64213,2015-01-21,0750,0740,-10.0
64214,2015-01-21,1115,1111,-4.0
64215,2015-01-21,2030,2039,9.0
64216,2015-01-21,1315,1317,2.0
64217,2015-01-21,1810,1838,28.0
64241,2015-01-21,0810,0749,-21.0
64242,2015-01-21,2000,1958,-2.0
64371,2015-01-21,2240,2239,-1.0
64372,2015-01-21,0950,0929,-21.0
64425,2015-01-21,1000,0940,-20.0
64426,2015-01-21,1305,1334,29.0
64427,2015-01-21,1050,1038,-12.0
64428,2015-01-21,1940,1937,-3.0
64429,2015-01-21,1740,1746,6.0
64430,2015-01-21,0750,0755,5.0
64431,2015-01-21,2125,2125,0.0
64432,2015-01-21,1500,1447,-13.0
64535,2015-01-21,1855,1848,-7.0
64536,2015-01-21,0815,0811,-4.0
64537,2015-01-21,1520,1510,-10.0
64538,2015-01-21,2110,2103,-7.0
64539,2015-01-21,1030,1030,0.0
64540,2015-01-21,1355,1346,-9.0
64541,2015-01-21,2010,2012,2.0
64542,2015-01-21,0725,0721,-4.0
64543,2015-01-21,1650,1640,-10.0
64544,2015-01-21,2245,2238,-7.0
64545,2015-01-21,1205,1201,-4.0
64580,2015-01-21,2005,1919,-46.0
64755,2015-01-21,2025,2021,-4.0
64756,2015-01-21,1510,1503,-7.0
64757,2015-01-21,1910,1906,-4.0
64758,2015-01-21,1350,1342,-8.0
64759,2015-01-21,1725,1724,-1.0
64760,2015-01-21,0815,0808,-7.0
64761,2015-01-21,2210,2154,-16.0
64762,2015-01-21,0925,0920,-5.0
64763,2015-01-21,1120,1121,1.0
