,FL_DATE,CRS_ARR_TIME,ARR_TIME,ARR_DELAY
68050,2015-01-23,1442,1424,-18.0
68076,2015-01-23,2304,2239,-25.0
68132,2015-01-23,1915,1840,-35.0
68148,2015-01-23,0932,0858,-34.0
68153,2015-01-23,1209,1140,-29.0
68175,2015-01-23,1815,1759,-16.0
68283,2015-01-23,0809,0745,-24.0
68310,2015-01-23,1753,1750,-3.0
68311,2015-01-23,1413,1410,-3.0
68313,2015-01-23,2008,2010,2.0
68315,2015-01-23,1109,1114,5.0
68318,2015-01-23,2225,2220,-5.0
68344,2015-01-23,1813,1802,-11.0
68345,2015-01-23,2230,2208,-22.0
68347,2015-01-23,0740,0749,9.0
68349,2015-01-23,1312,1307,-5.0
68434,2015-01-23,0743,0712,-31.0
68448,2015-01-23,2155,2116,-39.0
68453,2015-01-23,2230,2244,14.0
68456,2015-01-23,2251,2211,-40.0
68522,2015-01-23,2208,2126,-42.0
68639,2015-01-23,2138,2058,-40.0
68762,2015-01-23,2221,2204,-17.0
68853,2015-01-23,2220,2236,16.0
68855,2015-01-23,2020,1947,-33.0
68930,2015-01-23,1417,1428,11.0
68945,2015-01-23,1112,1106,-6.0
68987,2015-01-23,0943,0937,-6.0
68989,2015-01-23,1355,1351,-4.0
69003,2015-01-23,1557,1552,-5.0
69059,2015-01-23,2250,2248,-2.0
69142,2015-01-23,1746,1746,0.0
69174,2015-01-23,1150,1147,-3.0
69203,2015-01-23,2120,2112,-8.0
69206,2015-01-23,1752,1727,-25.0
69216,2015-01-23,2017,2005,-12.0
69218,2015-01-23,1600,1537,-23.0
69232,2015-01-23,1217,1154,-23.0
69244,2015-01-23,2248,2223,-25.0
69253,2015-01-23,0947,0923,-24.0
69271,2015-01-23,1252,1253,1.0
69280,2015-01-23,1125,1123,-2.0
69282,2015-01-23,1657,1647,-10.0
69284,2015-01-23,0905,0853,-12.0
69701,2015-01-23,2043,2042,-1.0
69754,2015-01-23,1646,1624,-22.0
69912,2015-01-23,1138,1129,-9.0
70022,2015-01-23,0743,0729,-14.0
70047,2015-01-23,1153,1151,-2.0
70085,2015-01-23,0919,0910,-9.0
70090,2015-01-23,1530,1515,-15.0
70091,2015-01-23,1832,1853,21.0
70092,2015-01-23,2208,2155,-13.0
70346,2015-01-23,0845,0827,-18.0
70347,2015-01-23,2255,2233,-22.0
70348,2015-01-23,1355,1335,-20.0
70390,2015-01-23,2240,2208,-32.0
70391,2015-01-23,0950,0921,-29.0
70425,2015-01-23,1325,1322,-3.0
70426,2015-01-23,1730,1730,0.0
70427,2015-01-23,0835,0826,-9.0
70428,2015-01-23,1115,1111,-4.0
70429,2015-01-23,2115,2119,4.0
70430,2015-01-23,1545,1627,42.0
70431,2015-01-23,1850,1910,20.0
70466,2015-01-23,0925,0913,-12.0
70467,2015-01-23,2140,2121,-19.0
70468,2015-01-23,1605,1558,-7.0
70469,2015-01-23,1250,1245,-5.0
70470,2015-01-23,1900,1852,-8.0
70559,2015-01-23,0855,0850,-5.0
70560,2015-01-23,1515,1523,8.0
70561,2015-01-23,2155,2146,-9.0
70562,2015-01-23,1920,1921,1.0
70563,2015-01-23,0750,0749,-1.0
70564,2015-01-23,1115,1116,1.0
70565,2015-01-23,2030,2030,0.0
70566,2015-01-23,1315,1327,12.0
70567,2015-01-23,1810,1813,3.0
70591,2015-01-23,0810,0756,-14.0
70592,2015-01-23,2000,1951,-9.0
70810,2015-01-23,2025,2013,-12.0
70811,2015-01-23,1510,1522,12.0
70812,2015-01-23,1910,1916,6.0
70813,2015-01-23,1350,1435,45.0
70814,2015-01-23,1725,1728,3.0
70815,2015-01-23,0815,0812,-3.0
70816,2015-01-23,2210,2202,-8.0
70817,2015-01-23,0925,0927,2.0
70818,2015-01-23,1120,1120,0.0
70884,2015-01-23,1000,0949,-11.0
70885,2015-01-23,1305,1335,30.0
70886,2015-01-23,1050,1041,-9.0
70887,2015-01-23,1940,1936,-4.0
70888,2015-01-23,1740,1733,-7.0
70889,2015-01-23,2245,2239,-6.0
70890,2015-01-23,0750,0731,-19.0
70891,2015-01-23,2125,2113,-12.0
70892,2015-01-23,1500,1445,-15.0
70993,2015-01-23,1855,1847,-8.0
70994,2015-01-23,0815,0819,4.0
70995,2015-01-23,1520,1509,-11.0
70996,2015-01-23,2110,2106,-4.0
70997,2015-01-23,1030,1028,-2.0
70998,2015-01-23,1355,1348,-7.0
70999,2015-01-23,2010,2052,42.0
71000,2015-01-23,0725,0724,-1.0
71001,2015-01-23,1650,1643,-7.0
71002,2015-01-23,2245,2229,-16.0
71003,2015-01-23,1205,1205,0.0
71038,2015-01-23,2005,1905,-60.0
71162,2015-01-23,1125,1118,-7.0
71163,2015-01-23,1645,1651,6.0
71164,2015-01-23,0715,0709,-6.0
71165,2015-01-23,1950,1958,8.0
71180,2015-01-23,0850,0839,-11.0
71181,2015-01-23,1535,1520,-15.0
71182,2015-01-23,1340,1315,-25.0
71183,2015-01-23,2120,2131,11.0
