,FL_DATE,CRS_ARR_TIME,ARR_TIME,ARR_DELAY
46983,2015-01-16,1141,1127,-14.0
47013,2015-01-16,2213,2313,60.0
47023,2015-01-16,1050,1040,-10.0
47024,2015-01-16,0947,0931,-16.0
47031,2015-01-16,1914,1855,-19.0
47041,2015-01-16,1637,1704,27.0
47047,2015-01-16,1747,1756,9.0
47052,2015-01-16,2126,2127,1.0
47053,2015-01-16,1407,1330,-37.0
47077,2015-01-16,1740,1803,23.0
47079,2015-01-16,1220,1213,-7.0
47081,2015-01-16,2002,1951,-11.0
47083,2015-01-16,1340,1337,-3.0
47087,2015-01-16,1517,1534,17.0
47090,2015-01-16,0813,0754,-19.0
47098,2015-01-16,1854,1854,0.0
47157,2015-01-16,1933,1946,13.0
47159,2015-01-16,1629,1657,28.0
47164,2015-01-16,1342,1448,66.0
47190,2015-01-16,2322,2311,-11.0
47212,2015-01-16,1054,1033,-21.0
47214,2015-01-16,1153,1252,59.0
47218,2015-01-16,1754,1753,-1.0
47224,2015-01-16,2207,2159,-8.0
47242,2015-01-16,2055,2148,53.0
47276,2015-01-16,0929,0956,27.0
47283,2015-01-16,0929,0959,30.0
47286,2015-01-16,2104,2213,69.0
47287,2015-01-16,1958,2113,75.0
47291,2015-01-16,1402,1450,48.0
47292,2015-01-16,1730,1827,57.0
47293,2015-01-16,0830,0813,-17.0
47297,2015-01-16,1610,1626,16.0
47298,2015-01-16,1203,1320,77.0
47299,2015-01-16,0807,0755,-12.0
47310,2015-01-16,1850,2010,80.0
47328,2015-01-16,1205,1320,75.0
47331,2015-01-16,2053,2159,66.0
47333,2015-01-16,1447,1455,8.0
47426,2015-01-16,0855,0849,-6.0
47449,2015-01-16,1047,1021,-26.0
47455,2015-01-16,1219,1205,-14.0
47478,2015-01-16,2148,2316,88.0
47492,2015-01-16,2015,2034,19.0
47494,2015-01-16,1154,1153,-1.0
47497,2015-01-16,1322,1313,-9.0
47518,2015-01-16,2037,2024,-13.0
47520,2015-01-16,0936,0930,-6.0
47524,2015-01-16,2346,2355,9.0
47528,2015-01-16,2145,2212,27.0
47530,2015-01-16,0010,0004,-6.0
47535,2015-01-16,1834,1841,7.0
47544,2015-01-16,1123,1106,-17.0
47546,2015-01-16,2234,2320,46.0
47547,2015-01-16,2100,2206,66.0
47555,2015-01-16,0840,0826,-14.0
47556,2015-01-16,1431,1532,61.0
47576,2015-01-16,2009,2032,23.0
47598,2015-01-16,1320,1300,-20.0
47609,2015-01-16,1643,1703,20.0
47627,2015-01-16,1847,1839,-8.0
47634,2015-01-16,1201,1140,-21.0
47642,2015-01-16,2022,2047,25.0
47647,2015-01-16,2016,2044,28.0
47653,2015-01-16,1818,1830,12.0
47654,2015-01-16,1507,1511,4.0
47655,2015-01-16,2247,0004,77.0
47660,2015-01-16,1251,1241,-10.0
47664,2015-01-16,1114,1107,-7.0
47686,2015-01-16,1806,1816,10.0
47689,2015-01-16,1401,1408,7.0
47729,2015-01-16,2158,2308,70.0
47735,2015-01-16,1852,1921,29.0
47738,2015-01-16,2224,2328,64.0
47746,2015-01-16,1148,1156,8.0
47751,2015-01-16,1626,1707,41.0
47755,2015-01-16,1224,1312,48.0
47783,2015-01-16,2218,2319,61.0
47789,2015-01-16,1038,1022,-16.0
47814,2015-01-16,2259,0029,90.0
47820,2015-01-16,2155,2129,-26.0
47829,2015-01-16,0939,1004,25.0
47838,2015-01-16,1840,1840,0.0
47840,2015-01-16,0820,0812,-8.0
47842,2015-01-16,1443,1523,40.0
47851,2015-01-16,2100,2026,-34.0
47896,2015-01-16,1152,1422,150.0
47898,2015-01-16,2128,2212,44.0
47922,2015-01-16,0943,1121,98.0
47928,2015-01-16,1619,1715,56.0
47972,2015-01-16,1133,1230,57.0
47979,2015-01-16,2029,2123,54.0
47985,2015-01-16,1829,1957,88.0
47986,2015-01-16,2018,2111,53.0
47988,2015-01-16,1852,2017,85.0
48010,2015-01-16,1700,1932,152.0
48011,2015-01-16,0740,0732,-8.0
48012,2015-01-16,1211,1300,49.0
48026,2015-01-16,1505,1559,54.0
48028,2015-01-16,1840,1859,19.0
48040,2015-01-16,1537,2001,264.0
48042,2015-01-16,0826,0834,8.0
48050,2015-01-16,1410,1432,22.0
48052,2015-01-16,1535,1719,104.0
48053,2015-01-16,1140,1154,14.0
48054,2015-01-16,0805,0824,19.0
48055,2015-01-16,1851,1928,37.0
48079,2015-01-16,1520,1559,39.0
48105,2015-01-16,0951,,
48106,2015-01-16,2015,2014,-1.0
48120,2015-01-16,1220,1339,79.0
48123,2015-01-16,1851,2052,121.0
48162,2015-01-16,0948,1014,26.0
48177,2015-01-16,0959,1113,74.0
48182,2015-01-16,0958,1123,85.0
48183,2015-01-16,0945,0948,3.0
48213,2015-01-16,0952,0956,4.0
48231,2015-01-16,1528,1608,40.0
48243,2015-01-16,1305,1249,-16.0
48249,2015-01-16,1140,1236,56.0
48251,2015-01-16,1230,1305,35.0
48253,2015-01-16,2013,2150,97.0
48256,2015-01-16,1506,1553,47.0
48260,2015-01-16,2127,2121,-6.0
48262,2015-01-16,0659,,
48263,2015-01-16,1550,1626,36.0
48264,2015-01-16,1006,1028,22.0
48272,2015-01-16,1007,1632,385.0
48273,2015-01-16,1426,1513,47.0
48275,2015-01-16,1213,1254,41.0
48278,2015-01-16,1315,1353,38.0
48279,2015-01-16,0615,0616,1.0
48281,2015-01-16,0641,0629,-12.0
48283,2015-01-16,1752,2000,128.0
48285,2015-01-16,0658,0640,-18.0
48291,2015-01-16,1747,1810,23.0
48296,2015-01-16,0950,1031,41.0
48304,2015-01-16,1324,1357,33.0
48308,2015-01-16,1005,1055,50.0
48311,2015-01-16,1140,1347,127.0
48317,2015-01-16,0741,0729,-12.0
48320,2015-01-16,0730,0722,-8.0
48321,2015-01-16,1442,1504,22.0
48323,2015-01-16,1759,1801,2.0
48324,2015-01-16,1456,1552,56.0
48327,2015-01-16,0751,0724,-27.0
48329,2015-01-16,1459,1550,51.0
48331,2015-01-16,0745,0814,29.0
48335,2015-01-16,2053,2135,42.0
48339,2015-01-16,1205,1153,-12.0
48340,2015-01-16,0759,0759,0.0
48343,2015-01-16,1805,,
48345,2015-01-16,0733,0736,3.0
48347,2015-01-16,1525,1548,23.0
48357,2015-01-16,1941,2034,53.0
48358,2015-01-16,1849,2141,172.0
48361,2015-01-16,2145,2235,50.0
48364,2015-01-16,1527,1540,13.0
48367,2015-01-16,1245,1258,13.0
48369,2015-01-16,0736,0732,-4.0
48370,2015-01-16,1118,1249,91.0
48372,2015-01-16,0934,1427,293.0
48380,2015-01-16,1354,1459,65.0
48384,2015-01-16,1514,,
48385,2015-01-16,2015,2137,82.0
48387,2015-01-16,0730,0728,-2.0
48388,2015-01-16,0723,0709,-14.0
48396,2015-01-16,1919,2054,95.0
48397,2015-01-16,0955,1019,24.0
48399,2015-01-16,1000,1011,11.0
48400,2015-01-16,0736,0718,-18.0
48401,2015-01-16,1504,1500,-4.0
48403,2015-01-16,1915,2107,112.0
48405,2015-01-16,1417,1413,-4.0
48421,2015-01-16,1520,1529,9.0
48427,2015-01-16,1830,2003,93.0
48429,2015-01-16,1752,1809,17.0
48437,2015-01-16,1219,1257,38.0
48446,2015-01-16,1300,1344,44.0
48447,2015-01-16,1100,1110,10.0
48448,2015-01-16,0718,0703,-15.0
48450,2015-01-16,1835,1940,65.0
48454,2015-01-16,1735,1732,-3.0
48469,2015-01-16,1045,1128,43.0
48471,2015-01-16,1358,1406,8.0
48472,2015-01-16,2137,2137,0.0
48476,2015-01-16,1830,1914,44.0
48480,2015-01-16,0716,0705,-11.0
48483,2015-01-16,1645,1645,0.0
48493,2015-01-16,1417,1632,135.0
48495,2015-01-16,1055,1226,91.0
48497,2015-01-16,0730,0725,-5.0
48499,2015-01-16,1510,1610,60.0
48501,2015-01-16,1830,1905,35.0
48502,2015-01-16,0955,1053,58.0
48503,2015-01-16,1837,2116,159.0
48510,2015-01-16,0815,0820,5.0
48528,2015-01-16,1540,1629,49.0
48529,2015-01-16,1313,1356,43.0
48531,2015-01-16,1004,1005,1.0
48540,2015-01-16,1005,1011,6.0
48543,2015-01-16,2009,2104,55.0
48547,2015-01-16,1640,1636,-4.0
48548,2015-01-16,0741,0719,-22.0
48565,2015-01-16,1432,1407,-25.0
48567,2015-01-16,1527,1619,52.0
48569,2015-01-16,1854,1846,-8.0
48580,2015-01-16,2200,2310,70.0
48581,2015-01-16,1140,1400,140.0
48583,2015-01-16,1520,1532,12.0
48585,2015-01-16,0913,0902,-11.0
48586,2015-01-16,1152,1137,-15.0
48589,2015-01-16,1905,1901,-4.0
48591,2015-01-16,1735,1714,-21.0
48595,2015-01-16,2350,2332,-18.0
48597,2015-01-16,1339,1456,77.0
48598,2015-01-16,1030,1024,-6.0
48605,2015-01-16,0945,0945,0.0
48609,2015-01-16,1334,1543,129.0
48615,2015-01-16,0933,1028,55.0
48617,2015-01-16,2112,2147,35.0
48627,2015-01-16,1412,1630,138.0
48632,2015-01-16,2114,2043,-31.0
48633,2015-01-16,1617,1641,24.0
48635,2015-01-16,1005,1007,2.0
48637,2015-01-16,1440,1454,14.0
48642,2015-01-16,0454,0424,-30.0
48646,2015-01-16,0945,0924,-21.0
48649,2015-01-16,0940,0955,15.0
48650,2015-01-16,2149,0107,198.0
48651,2015-01-16,0945,0940,-5.0
48658,2015-01-16,2030,2126,56.0
48659,2015-01-16,1159,1203,4.0
48661,2015-01-16,1725,1805,40.0
48663,2015-01-16,0737,0713,-24.0
48665,2015-01-16,1309,1345,36.0
48673,2015-01-16,1950,2003,13.0
48674,2015-01-16,1332,1307,-25.0
48676,2015-01-16,0957,0937,-20.0
48679,2015-01-16,2108,2115,7.0
48681,2015-01-16,1910,1902,-8.0
48682,2015-01-16,2109,2111,2.0
48683,2015-01-16,2150,2301,71.0
48684,2015-01-16,2135,2140,5.0
48686,2015-01-16,1935,2014,39.0
48693,2015-01-16,1301,1245,-16.0
48697,2015-01-16,1115,1211,56.0
48699,2015-01-16,1149,1147,-2.0
48700,2015-01-16,2044,2233,109.0
48701,2015-01-16,2340,2337,-3.0
48702,2015-01-16,1834,1851,17.0
48715,2015-01-16,1748,1733,-15.0
48717,2015-01-16,1804,1823,19.0
48719,2015-01-16,1713,1729,16.0
48720,2015-01-16,1228,1213,-15.0
48723,2015-01-16,1629,1658,29.0
48728,2015-01-16,2100,2025,-35.0
48730,2015-01-16,0825,0819,-6.0
48732,2015-01-16,1622,1636,14.0
48740,2015-01-16,0945,0953,8.0
48742,2015-01-16,1506,1612,66.0
48744,2015-01-16,1540,1522,-18.0
48745,2015-01-16,1154,1147,-7.0
48752,2015-01-16,0955,0924,-31.0
48754,2015-01-16,1145,1149,4.0
48757,2015-01-16,1100,1300,120.0
48777,2015-01-16,2259,2302,3.0
48778,2015-01-16,1716,1741,25.0
48779,2015-01-16,1910,1925,15.0
48789,2015-01-16,0955,1014,19.0
48791,2015-01-16,1933,1918,-15.0
48792,2015-01-16,1830,2009,99.0
48794,2015-01-16,1747,1735,-12.0
48795,2015-01-16,1853,1936,43.0
48797,2015-01-16,2040,2045,5.0
48803,2015-01-16,1526,1506,-20.0
48812,2015-01-16,2359,2353,-6.0
48814,2015-01-16,1238,1356,78.0
48815,2015-01-16,2150,2228,38.0
48816,2015-01-16,1005,0955,-10.0
48818,2015-01-16,1338,1315,-23.0
48820,2015-01-16,0930,0924,-6.0
48822,2015-01-16,1505,1547,42.0
48826,2015-01-16,2013,2014,1.0
48831,2015-01-16,2105,2029,-36.0
48833,2015-01-16,0935,0908,-27.0
48835,2015-01-16,1540,1509,-31.0
48837,2015-01-16,2010,2116,66.0
48839,2015-01-16,2005,2007,2.0
48850,2015-01-16,2150,2250,60.0
48854,2015-01-16,1300,1440,100.0
48860,2015-01-16,2115,2138,23.0
48863,2015-01-16,1403,1400,-3.0
48870,2015-01-16,0952,1013,21.0
48881,2015-01-16,1818,1808,-10.0
48883,2015-01-16,2057,2132,35.0
48887,2015-01-16,1202,1144,-18.0
48897,2015-01-16,1240,1232,-8.0
48909,2015-01-16,1151,1149,-2.0
48912,2015-01-16,2107,2105,-2.0
48914,2015-01-16,1050,1048,-2.0
48917,2015-01-16,2045,2027,-18.0
48923,2015-01-16,1150,1126,-24.0
48924,2015-01-16,1900,1914,14.0
48927,2015-01-16,1055,1115,20.0
48930,2015-01-16,0953,1011,18.0
48932,2015-01-16,1204,1411,127.0
48935,2015-01-16,0958,0934,-24.0
48942,2015-01-16,2257,2308,11.0
48943,2015-01-16,2259,0336,277.0
48945,2015-01-16,1120,1122,2.0
48946,2015-01-16,1158,1147,-11.0
48951,2015-01-16,1725,1715,-10.0
48952,2015-01-16,0743,0729,-14.0
48954,2015-01-16,1424,1422,-2.0
48956,2015-01-16,0522,0458,-24.0
48957,2015-01-16,1826,1831,5.0
48959,2015-01-16,0453,0436,-17.0
48960,2015-01-16,1457,1639,102.0
48962,2015-01-16,0801,0754,-7.0
48971,2015-01-16,0859,0839,-20.0
48973,2015-01-16,2030,2013,-17.0
48975,2015-01-16,1547,1649,62.0
48977,2015-01-16,2121,2158,37.0
48979,2015-01-16,1955,1938,-17.0
48981,2015-01-16,0729,0713,-16.0
48986,2015-01-16,1548,1712,84.0
49015,2015-01-16,1203,1249,46.0
49017,2015-01-16,1129,1126,-3.0
49023,2015-01-16,0955,1008,13.0
49025,2015-01-16,1602,1618,16.0
49030,2015-01-16,1234,1330,56.0
49036,2015-01-16,1220,1200,-20.0
49049,2015-01-16,1107,1101,-6.0
49083,2015-01-16,0732,0721,-11.0
49089,2015-01-16,1921,1931,10.0
49103,2015-01-16,1017,0959,-18.0
49108,2015-01-16,1904,1911,7.0
49115,2015-01-16,1928,1915,-13.0
49117,2015-01-16,2127,2238,71.0
49122,2015-01-16,2223,2217,-6.0
49126,2015-01-16,1745,1738,-7.0
49138,2015-01-16,1348,1326,-22.0
49143,2015-01-16,2053,2138,45.0
49152,2015-01-16,1115,1048,-27.0
49162,2015-01-16,1105,1041,-24.0
49163,2015-01-16,1410,1317,-53.0
49165,2015-01-16,2120,2112,-8.0
49166,2015-01-16,2045,2141,56.0
49169,2015-01-16,1905,2116,131.0
49170,2015-01-16,0940,1009,29.0
49172,2015-01-16,1000,0945,-15.0
49173,2015-01-16,1900,1946,46.0
49177,2015-01-16,1410,1332,-38.0
49178,2015-01-16,2220,2237,17.0
49180,2015-01-16,1510,1545,35.0
49183,2015-01-16,2015,1954,-21.0
49184,2015-01-16,2240,2346,66.0
49185,2015-01-16,2015,2009,-6.0
49197,2015-01-16,1205,1222,17.0
49199,2015-01-16,2105,2103,-2.0
49201,2015-01-16,1245,1227,-18.0
49202,2015-01-16,0840,0833,-7.0
49204,2015-01-16,2244,2322,38.0
49229,2015-01-16,2030,2130,60.0
49230,2015-01-16,1305,1246,-19.0
49232,2015-01-16,0940,0948,8.0
49234,2015-01-16,1630,1717,47.0
49235,2015-01-16,2125,2242,77.0
49241,2015-01-16,1305,1425,80.0
49242,2015-01-16,1915,1956,41.0
49243,2015-01-16,2140,2241,61.0
49244,2015-01-16,2125,2223,58.0
49251,2015-01-16,0829,0832,3.0
49259,2015-01-16,0825,0832,7.0
49262,2015-01-16,1300,1425,85.0
49265,2015-01-16,1720,1828,68.0
49268,2015-01-16,1615,1720,65.0
49269,2015-01-16,2145,2210,25.0
49271,2015-01-16,1840,1943,63.0
49273,2015-01-16,1750,1840,50.0
49274,2015-01-16,0820,0803,-17.0
49275,2015-01-16,1245,1410,85.0
49277,2015-01-16,1445,1601,76.0
49279,2015-01-16,1645,1726,41.0
49280,2015-01-16,1030,1158,88.0
49283,2015-01-16,1945,2059,74.0
49285,2015-01-16,1835,2042,127.0
49288,2015-01-16,1140,1202,22.0
49292,2015-01-16,1540,1647,67.0
49293,2015-01-16,1845,2004,79.0
49295,2015-01-16,2110,2156,46.0
49308,2015-01-16,1125,1107,-18.0
49309,2015-01-16,2125,2121,-4.0
49376,2015-01-16,1035,1111,36.0
49443,2015-01-16,1320,1349,29.0
49444,2015-01-16,2330,2355,25.0
49445,2015-01-16,2100,2057,-3.0
49446,2015-01-16,1535,1536,1.0
49447,2015-01-16,1740,1754,14.0
49448,2015-01-16,1020,1005,-15.0
49551,2015-01-16,0920,,
49552,2015-01-16,1510,1541,31.0
49553,2015-01-16,0710,0702,-8.0
49554,2015-01-16,1120,1159,39.0
49555,2015-01-16,1845,1936,51.0
49556,2015-01-16,1325,,
49557,2015-01-16,2145,2336,111.0
49558,2015-01-16,1230,1221,-9.0
49559,2015-01-16,1610,1634,24.0
49560,2015-01-16,2005,2043,38.0
49604,2015-01-16,1135,1055,-40.0
49605,2015-01-16,2200,2232,32.0
49609,2015-01-16,1510,1647,97.0
49796,2015-01-16,2240,2245,5.0
49797,2015-01-16,1305,1441,96.0
49798,2015-01-16,1825,1828,3.0
49799,2015-01-16,0810,0749,-21.0
49887,2015-01-16,1330,1325,-5.0
49888,2015-01-16,1730,1814,44.0
49889,2015-01-16,2135,2203,28.0
49890,2015-01-16,0940,0957,17.0
49891,2015-01-16,1050,1109,19.0
49892,2015-01-16,0830,0826,-4.0
49893,2015-01-16,1500,1525,25.0
49894,2015-01-16,1900,1931,31.0
50015,2015-01-16,1350,1440,50.0
50016,2015-01-16,2300,2253,-7.0
50017,2015-01-16,1035,1024,-11.0
50172,2015-01-16,1725,1742,17.0
50173,2015-01-16,2205,2158,-7.0
50174,2015-01-16,0930,0920,-10.0
50175,2015-01-16,1325,1329,4.0
50176,2015-01-16,1110,1127,17.0
50177,2015-01-16,2000,2000,0.0
50196,2015-01-16,1240,1222,-18.0
