,FL_DATE,CRS_ARR_TIME,ARR_TIME,ARR_DELAY
13127,2015-01-05,1140,1121,-19.0
13134,2015-01-05,0945,1009,24.0
13164,2015-01-05,2201,2149,-12.0
13175,2015-01-05,2325,2339,14.0
13178,2015-01-05,1030,1026,-4.0
13186,2015-01-05,1910,1928,18.0
13198,2015-01-05,1635,1638,3.0
13206,2015-01-05,1739,1729,-10.0
13211,2015-01-05,2145,2155,10.0
13212,2015-01-05,1405,1411,6.0
13217,2015-01-05,1210,1655,285.0
13240,2015-01-05,1715,1711,-4.0
13243,2015-01-05,1920,1915,-5.0
13245,2015-01-05,1335,1355,20.0
13249,2015-01-05,1500,1515,15.0
13251,2015-01-05,0810,0801,-9.0
13261,2015-01-05,1850,1927,37.0
13263,2015-01-05,0018,0031,13.0
13289,2015-01-05,1625,1726,61.0
13328,2015-01-05,1925,1935,10.0
13369,2015-01-05,2320,2350,30.0
13390,2015-01-05,1045,1057,12.0
13392,2015-01-05,1115,1101,-14.0
13403,2015-01-05,1315,2000,405.0
13415,2015-01-05,2250,2359,69.0
13422,2015-01-05,2050,2202,72.0
13446,2015-01-05,0929,0919,-10.0
13452,2015-01-05,0929,0910,-19.0
13454,2015-01-05,2103,2109,6.0
13455,2015-01-05,2004,2003,-1.0
13458,2015-01-05,1359,1412,13.0
13460,2015-01-05,0835,0834,-1.0
13464,2015-01-05,1610,1612,2.0
13465,2015-01-05,1204,1219,15.0
13466,2015-01-05,0810,0815,5.0
13478,2015-01-05,1847,1829,-18.0
13497,2015-01-05,1210,1206,-4.0
13501,2015-01-05,2051,2040,-11.0
13503,2015-01-05,1447,1447,0.0
13592,2015-01-05,0855,0834,-21.0
13619,2015-01-05,2140,2122,-18.0
13623,2015-01-05,1043,1037,-6.0
13630,2015-01-05,1219,1237,18.0
13653,2015-01-05,2159,2140,-19.0
13666,2015-01-05,2016,2022,6.0
13669,2015-01-05,1139,1137,-2.0
13692,2015-01-05,2045,2120,35.0
13694,2015-01-05,0939,0936,-3.0
13698,2015-01-05,2346,0026,40.0
13702,2015-01-05,2156,2151,-5.0
13704,2015-01-05,0010,0028,18.0
13709,2015-01-05,1822,1824,2.0
13718,2015-01-05,1125,1159,34.0
13720,2015-01-05,2230,2230,0.0
13723,2015-01-05,2105,2122,17.0
13731,2015-01-05,0840,0837,-3.0
13732,2015-01-05,1353,1348,-5.0
13735,2015-01-05,1048,1033,-15.0
13744,2015-01-05,2022,1942,-40.0
13749,2015-01-05,2016,1958,-18.0
13755,2015-01-05,1823,1806,-17.0
13756,2015-01-05,1507,1507,0.0
13757,2015-01-05,2247,2241,-6.0
13763,2015-01-05,1114,1102,-12.0
13784,2015-01-05,1806,1938,92.0
13787,2015-01-05,1401,1336,-25.0
13828,2015-01-05,1320,1301,-19.0
13839,2015-01-05,1643,1632,-11.0
13857,2015-01-05,1846,1826,-20.0
13866,2015-01-05,2218,2155,-23.0
13872,2015-01-05,1038,1000,-38.0
13897,2015-01-05,1850,1821,-29.0
13900,2015-01-05,2224,2150,-34.0
13906,2015-01-05,1148,1130,-18.0
13911,2015-01-05,1626,1557,-29.0
13915,2015-01-05,1224,1213,-11.0
13953,2015-01-05,2009,2009,0.0
13986,2015-01-05,0939,0918,-21.0
13996,2015-01-05,2259,0102,123.0
13997,2015-01-05,1443,1446,3.0
13999,2015-01-05,0820,0831,11.0
14001,2015-01-05,1840,1910,30.0
14004,2015-01-05,2155,2134,-21.0
14019,2015-01-05,2100,2053,-7.0
14066,2015-01-05,2135,2118,-17.0
14091,2015-01-05,1212,1314,62.0
14097,2015-01-05,1604,1613,9.0
14126,2015-01-05,1211,1151,-20.0
14133,2015-01-05,1210,1141,-29.0
14140,2015-01-05,1738,1736,-2.0
14141,2015-01-05,0838,0825,-13.0
14146,2015-01-05,1418,1527,69.0
14148,2015-01-05,1745,1735,-10.0
14150,2015-01-05,1828,1801,-27.0
14152,2015-01-05,2039,2056,17.0
14154,2015-01-05,1852,1904,12.0
14167,2015-01-05,0936,0934,-2.0
14176,2015-01-05,1600,1606,6.0
14178,2015-01-05,1855,1850,-5.0
14180,2015-01-05,0714,0706,-8.0
14187,2015-01-05,1005,0958,-7.0
14189,2015-01-05,0759,0739,-20.0
14191,2015-01-05,1518,,
14202,2015-01-05,0826,0810,-16.0
14209,2015-01-05,1619,1631,12.0
14211,2015-01-05,1410,1426,16.0
14214,2015-01-05,0823,,
14215,2015-01-05,0955,0942,-13.0
14216,2015-01-05,0809,0749,-20.0
14217,2015-01-05,1750,1850,60.0
14220,2015-01-05,1508,1539,31.0
14257,2015-01-05,1947,2023,36.0
14258,2015-01-05,1830,1849,19.0
14260,2015-01-05,1630,1713,43.0
14261,2015-01-05,1152,1251,59.0
14263,2015-01-05,1901,,
14290,2015-01-05,1947,2212,145.0
14299,2015-01-05,0948,0945,-3.0
14313,2015-01-05,2131,2121,-10.0
14317,2015-01-05,0940,1441,301.0
14323,2015-01-05,0932,0855,-37.0
14327,2015-01-05,1231,1222,-9.0
14352,2015-01-05,1006,0950,-16.0
14372,2015-01-05,1519,1542,23.0
14381,2015-01-05,1054,1051,-3.0
14383,2015-01-05,1000,1148,108.0
14385,2015-01-05,2013,2003,-10.0
14391,2015-01-05,1414,1355,-19.0
14393,2015-01-05,1937,2012,35.0
14401,2015-01-05,1250,1303,13.0
14404,2015-01-05,2120,2157,37.0
14406,2015-01-05,0652,,
14407,2015-01-05,1845,1844,-1.0
14408,2015-01-05,1125,1135,10.0
14416,2015-01-05,0955,0952,-3.0
14417,2015-01-05,1724,1904,100.0
14422,2015-01-05,0612,0614,2.0
14423,2015-01-05,1005,1005,0.0
14425,2015-01-05,0700,,
14427,2015-01-05,1826,1808,-18.0
14429,2015-01-05,0629,0647,18.0
14431,2015-01-05,1526,1507,-19.0
14437,2015-01-05,1749,1737,-12.0
14441,2015-01-05,2138,2115,-23.0
14442,2015-01-05,2207,2222,15.0
14443,2015-01-05,0840,0838,-2.0
14444,2015-01-05,2025,2015,-10.0
14448,2015-01-05,1213,1202,-11.0
14457,2015-01-05,2128,2106,-22.0
14463,2015-01-05,0949,0938,-11.0
14465,2015-01-05,1257,1253,-4.0
14471,2015-01-05,0735,0728,-7.0
14474,2015-01-05,0715,0659,-16.0
14475,2015-01-05,1511,1503,-8.0
14480,2015-01-05,0750,0721,-29.0
14483,2015-01-05,0809,0818,9.0
14488,2015-01-05,2133,2131,-2.0
14490,2015-01-05,1939,2112,93.0
14492,2015-01-05,1139,1124,-15.0
14494,2015-01-05,0723,0704,-19.0
14496,2015-01-05,1321,1335,14.0
14502,2015-01-05,0725,0720,-5.0
14505,2015-01-05,1520,1640,80.0
14519,2015-01-05,1827,1933,66.0
14524,2015-01-05,1927,2318,231.0
14525,2015-01-05,1528,,
14528,2015-01-05,1403,1359,-4.0
14529,2015-01-05,0807,0800,-7.0
14539,2015-01-05,2019,2138,79.0
14542,2015-01-05,1350,,
14546,2015-01-05,1247,1621,214.0
14548,2015-01-05,0744,,
14557,2015-01-05,0951,1037,46.0
14559,2015-01-05,1141,1144,3.0
14561,2015-01-05,0736,,
14562,2015-01-05,2120,2119,-1.0
14565,2015-01-05,2114,2244,90.0
14566,2015-01-05,2043,2033,-10.0
14572,2015-01-05,1355,1347,-8.0
14573,2015-01-05,0950,0956,6.0
14579,2015-01-05,1321,1350,29.0
14590,2015-01-05,1439,1448,9.0
14596,2015-01-05,1637,1704,27.0
14597,2015-01-05,1736,1728,-8.0
14598,2015-01-05,1146,1140,-6.0
14603,2015-01-05,1520,1514,-6.0
14610,2015-01-05,1222,1217,-5.0
14619,2015-01-05,1300,1246,-14.0
14620,2015-01-05,1115,1102,-13.0
14621,2015-01-05,0646,0622,-24.0
14623,2015-01-05,1831,2138,187.0
14628,2015-01-05,1315,1551,156.0
14633,2015-01-05,1005,1030,25.0
14639,2015-01-05,1519,1608,49.0
14642,2015-01-05,2058,2254,116.0
14648,2015-01-05,1205,1801,356.0
14652,2015-01-05,1121,,
14654,2015-01-05,1400,1346,-14.0
14659,2015-01-05,1930,,
14664,2015-01-05,1944,1949,5.0
14709,2015-01-05,1356,1353,-3.0
14711,2015-01-05,1114,1141,27.0
14712,2015-01-05,1900,1852,-8.0
14713,2015-01-05,0930,,
14716,2015-01-05,1417,1446,29.0
14724,2015-01-05,0820,,
14740,2015-01-05,0953,0946,-7.0
14742,2015-01-05,1531,1515,-16.0
14749,2015-01-05,1529,1906,217.0
14755,2015-01-05,1540,1543,3.0
14770,2015-01-05,1511,1745,154.0
14779,2015-01-05,1435,1420,-15.0
14781,2015-01-05,1515,1638,83.0
14784,2015-01-05,2037,2047,10.0
14787,2015-01-05,1718,1720,2.0
14792,2015-01-05,1209,1201,-8.0
14794,2015-01-05,2013,1951,-22.0
14800,2015-01-05,1953,1937,-16.0
14802,2015-01-05,1351,1340,-11.0
14808,2015-01-05,0747,0724,-23.0
14809,2015-01-05,1743,1731,-12.0
14813,2015-01-05,2359,2351,-8.0
14815,2015-01-05,1152,1143,-9.0
14822,2015-01-05,0804,0740,-24.0
14833,2015-01-05,1300,1256,-4.0
14836,2015-01-05,0931,0923,-8.0
14840,2015-01-05,2123,2142,19.0
14845,2015-01-05,1416,1421,5.0
14848,2015-01-05,0950,1022,32.0
14851,2015-01-05,2153,2223,30.0
14853,2015-01-05,1249,1229,-20.0
14856,2015-01-05,2304,2250,-14.0
14857,2015-01-05,1928,0141,373.0
14858,2015-01-05,1806,1738,-28.0
14862,2015-01-05,1917,1920,3.0
14863,2015-01-05,1310,1312,2.0
14867,2015-01-05,0454,0433,-21.0
14869,2015-01-05,2204,2138,-26.0
14871,2015-01-05,0729,0715,-14.0
14872,2015-01-05,0949,0952,3.0
14873,2015-01-05,2145,2309,84.0
14874,2015-01-05,1902,1849,-13.0
14875,2015-01-05,0934,0930,-4.0
14883,2015-01-05,0958,0942,-16.0
14885,2015-01-05,0734,0707,-27.0
14887,2015-01-05,2128,2119,-9.0
14893,2015-01-05,1112,1057,-15.0
14900,2015-01-05,1351,1325,-26.0
14902,2015-01-05,1004,1027,23.0
14905,2015-01-05,1918,1906,-12.0
14908,2015-01-05,2117,2237,80.0
14909,2015-01-05,1851,1857,6.0
14910,2015-01-05,2045,2039,-6.0
14911,2015-01-05,2211,2159,-12.0
14919,2015-01-05,1830,1808,-22.0
14927,2015-01-05,1948,1932,-16.0
14930,2015-01-05,0927,0907,-20.0
14931,2015-01-05,2243,2231,-12.0
14933,2015-01-05,2302,,
14934,2015-01-05,0949,1130,101.0
14935,2015-01-05,1151,1147,-4.0
14936,2015-01-05,0853,0825,-28.0
14937,2015-01-05,1222,1235,13.0
14942,2015-01-05,1800,1753,-7.0
14944,2015-01-05,1824,1806,-18.0
14948,2015-01-05,2056,2104,8.0
14954,2015-01-05,1545,1550,5.0
14957,2015-01-05,1338,1402,24.0
14958,2015-01-05,1940,1943,3.0
14959,2015-01-05,1520,1524,4.0
14960,2015-01-05,2352,2342,-10.0
14962,2015-01-05,0940,0929,-11.0
14964,2015-01-05,0835,0832,-3.0
14969,2015-01-05,2139,2135,-4.0
14970,2015-01-05,1938,1911,-27.0
14971,2015-01-05,0934,1121,107.0
14975,2015-01-05,1220,1208,-12.0
14983,2015-01-05,2054,2047,-7.0
14986,2015-01-05,1138,1131,-7.0
14987,2015-01-05,1245,1220,-25.0
14989,2015-01-05,1639,1610,-29.0
14990,2015-01-05,1707,1700,-7.0
14992,2015-01-05,2204,0308,304.0
14994,2015-01-05,1841,1921,40.0
14995,2015-01-05,1958,1956,-2.0
15000,2015-01-05,0945,0954,9.0
15002,2015-01-05,1537,1518,-19.0
15005,2015-01-05,2135,2135,0.0
15015,2015-01-05,1608,1607,-1.0
15019,2015-01-05,1105,1042,-23.0
15022,2015-01-05,0107,0106,-1.0
15023,2015-01-05,0945,0935,-10.0
15027,2015-01-05,0753,0750,-3.0
15038,2015-01-05,2117,2050,-27.0
15044,2015-01-05,2348,0026,38.0
15045,2015-01-05,0059,0114,15.0
15046,2015-01-05,0945,0932,-13.0
15049,2015-01-05,2155,2146,-9.0
15052,2015-01-05,1052,1118,26.0
15058,2015-01-05,2059,2113,14.0
15059,2015-01-05,2017,2018,1.0
15061,2015-01-05,1650,1644,-6.0
15062,2015-01-05,1042,1100,18.0
15063,2015-01-05,1946,1954,8.0
15064,2015-01-05,1828,2143,195.0
15065,2015-01-05,0934,0945,11.0
15076,2015-01-05,0009,0011,2.0
15077,2015-01-05,2155,2153,-2.0
15085,2015-01-05,1000,0959,-1.0
15091,2015-01-05,1600,1600,0.0
15092,2015-01-05,1252,1247,-5.0
15094,2015-01-05,2212,2225,13.0
15096,2015-01-05,2315,2302,-13.0
15100,2015-01-05,1105,1121,16.0
15106,2015-01-05,1000,0938,-22.0
15108,2015-01-05,2135,2203,28.0
15120,2015-01-05,0727,0712,-15.0
15132,2015-01-05,2020,2017,-3.0
15136,2015-01-05,2048,2028,-20.0
15141,2015-01-05,2035,2108,33.0
15147,2015-01-05,1314,1329,15.0
15150,2015-01-05,2016,2017,1.0
15154,2015-01-05,1357,1356,-1.0
15157,2015-01-05,2144,2152,8.0
15168,2015-01-05,1000,0950,-10.0
15175,2015-01-05,1347,1652,185.0
15184,2015-01-05,1150,1207,17.0
15190,2015-01-05,2115,2125,10.0
15192,2015-01-05,1404,1404,0.0
15198,2015-01-05,1527,1533,6.0
15201,2015-01-05,1813,1807,-6.0
15209,2015-01-05,1927,1928,1.0
15215,2015-01-05,2155,2228,33.0
15220,2015-01-05,1144,1120,-24.0
15235,2015-01-05,1212,1208,-4.0
15244,2015-01-05,0606,0552,-14.0
15245,2015-01-05,1504,1606,62.0
15247,2015-01-05,2303,2320,17.0
15253,2015-01-05,0820,0815,-5.0
15255,2015-01-05,0654,0640,-14.0
15261,2015-01-05,1200,1210,10.0
15264,2015-01-05,1208,1130,-38.0
15266,2015-01-05,0959,1005,6.0
15268,2015-01-05,2318,0005,47.0
15279,2015-01-05,1420,1437,17.0
15280,2015-01-05,1152,1200,8.0
15283,2015-01-05,1107,1055,-12.0
15285,2015-01-05,1632,1632,0.0
15295,2015-01-05,0905,0914,9.0
15297,2015-01-05,2108,2053,-15.0
15299,2015-01-05,1730,1714,-16.0
15309,2015-01-05,1713,1711,-2.0
15312,2015-01-05,0849,0948,59.0
15315,2015-01-05,1447,1447,0.0
15317,2015-01-05,0530,0504,-26.0
15318,2015-01-05,0736,0725,-11.0
15320,2015-01-05,0452,0744,172.0
15321,2015-01-05,1437,1423,-14.0
15323,2015-01-05,2048,2029,-19.0
15334,2015-01-05,0940,0922,-18.0
15336,2015-01-05,1507,1508,1.0
15337,2015-01-05,1947,2227,160.0
15339,2015-01-05,1658,1642,-16.0
15342,2015-01-05,0952,1010,18.0
15345,2015-01-05,1600,1545,-15.0
15348,2015-01-05,1231,1258,27.0
15354,2015-01-05,1215,1213,-2.0
15355,2015-01-05,1344,1402,18.0
15378,2015-01-05,1102,1052,-10.0
15409,2015-01-05,1011,0957,-14.0
15414,2015-01-05,1858,1900,2.0
15419,2015-01-05,1926,1917,-9.0
15421,2015-01-05,2126,2143,17.0
15426,2015-01-05,2221,2215,-6.0
15430,2015-01-05,1745,1733,-12.0
15448,2015-01-05,2048,2032,-16.0
15462,2015-01-05,1920,1905,-15.0
15467,2015-01-05,1227,1153,-34.0
15469,2015-01-05,0743,0744,1.0
15473,2015-01-05,1110,1113,3.0
15485,2015-01-05,1105,1046,-19.0
15486,2015-01-05,1405,1406,1.0
15488,2015-01-05,2114,2115,1.0
15490,2015-01-05,1040,1049,9.0
15493,2015-01-05,1715,1700,-15.0
15495,2015-01-05,2115,2134,19.0
15497,2015-01-05,1000,0937,-23.0
15498,2015-01-05,1900,1845,-15.0
15503,2015-01-05,1400,1414,14.0
15505,2015-01-05,1450,1516,26.0
15508,2015-01-05,2010,2006,-4.0
15509,2015-01-05,2235,2248,13.0
15510,2015-01-05,2010,1951,-19.0
15520,2015-01-05,1200,1135,-25.0
15522,2015-01-05,2055,2024,-31.0
15524,2015-01-05,1250,1221,-29.0
15526,2015-01-05,2249,2248,-1.0
15548,2015-01-05,2040,2017,-23.0
15549,2015-01-05,1015,1008,-7.0
15550,2015-01-05,1255,1253,-2.0
15552,2015-01-05,0935,1012,37.0
15554,2015-01-05,1630,1645,15.0
15555,2015-01-05,2110,2225,75.0
15561,2015-01-05,0905,0850,-15.0
15562,2015-01-05,1155,1147,-8.0
15563,2015-01-05,1925,1923,-2.0
15564,2015-01-05,2140,2124,-16.0
15565,2015-01-05,2115,2138,23.0
15575,2015-01-05,0820,0808,-12.0
15577,2015-01-05,0835,0821,-14.0
15586,2015-01-05,0825,0817,-8.0
15589,2015-01-05,1250,1250,0.0
15592,2015-01-05,1730,1719,-11.0
15595,2015-01-05,1610,1603,-7.0
15596,2015-01-05,2200,2148,-12.0
15598,2015-01-05,1835,1824,-11.0
15600,2015-01-05,1750,1752,2.0
15601,2015-01-05,0820,0807,-13.0
15602,2015-01-05,1245,1236,-9.0
15604,2015-01-05,1445,1446,1.0
15606,2015-01-05,1700,1641,-19.0
15607,2015-01-05,1030,1018,-12.0
15610,2015-01-05,1945,1930,-15.0
15612,2015-01-05,1830,1823,-7.0
15613,2015-01-05,2155,2206,11.0
15615,2015-01-05,1035,1028,-7.0
15619,2015-01-05,1350,1332,-18.0
15620,2015-01-05,1910,1849,-21.0
15622,2015-01-05,2125,2107,-18.0
15629,2015-01-05,2135,2131,-4.0
15630,2015-01-05,1120,1047,-33.0
15693,2015-01-05,2245,2327,42.0
15694,2015-01-05,1205,1206,1.0
15695,2015-01-05,1300,1312,12.0
15696,2015-01-05,2155,2211,16.0
15697,2015-01-05,1720,1719,-1.0
15698,2015-01-05,0950,0940,-10.0
15802,2015-01-05,1210,1212,2.0
15803,2015-01-05,1550,1556,6.0
15804,2015-01-05,1930,1925,-5.0
15805,2015-01-05,0905,0852,-13.0
15806,2015-01-05,1100,1059,-1.0
15807,2015-01-05,0720,0716,-4.0
15808,2015-01-05,1310,1311,1.0
15809,2015-01-05,1445,1438,-7.0
15810,2015-01-05,1825,1816,-9.0
15811,2015-01-05,2100,2114,14.0
15840,2015-01-05,2220,2348,88.0
15841,2015-01-05,1145,1205,20.0
15845,2015-01-05,1330,1318,-12.0
16033,2015-01-05,1850,2012,82.0
16034,2015-01-05,1340,1318,-22.0
16035,2015-01-05,2345,2345,0.0
16036,2015-01-05,0930,0929,-1.0
16134,2015-01-05,0925,0927,2.0
16135,2015-01-05,1250,1301,11.0
16136,2015-01-05,1820,1827,7.0
16137,2015-01-05,2040,2059,19.0
16227,2015-01-05,0835,0827,-8.0
16228,2015-01-05,1305,1304,-1.0
16229,2015-01-05,1715,1718,3.0
16230,2015-01-05,2110,2059,-11.0
16231,2015-01-05,0930,0929,-1.0
16232,2015-01-05,1100,1057,-3.0
16233,2015-01-05,1505,1453,-12.0
16234,2015-01-05,1905,1953,48.0
16519,2015-01-05,2000,1950,-10.0
16520,2015-01-05,1630,1626,-4.0
16521,2015-01-05,1405,1355,-10.0
16522,2015-01-05,0845,0838,-7.0
16523,2015-01-05,1105,1046,-19.0
16524,2015-01-05,1735,1724,-11.0
16543,2015-01-05,1445,1527,42.0
