,FL_DATE,CRS_DEP_TIME,DEP_TIME,DEP_DELAY
53060,2015-01-18,1100,1042,-18.0
53062,2015-01-18,1755,1739,-16.0
53065,2015-01-18,0700,0643,-17.0
53158,2015-01-18,2152,2157,5.0
53554,2015-01-18,0710,0700,-10.0
53556,2015-01-18,1631,1620,-11.0
53665,2015-01-18,0700,,
53712,2015-01-18,2035,2017,-18.0
53714,2015-01-18,1500,1452,-8.0
53716,2015-01-18,0920,,
53867,2015-01-18,1034,1221,107.0
53908,2015-01-18,0755,0748,-7.0
53925,2015-01-18,1933,1919,-14.0
53976,2015-01-18,1316,1347,31.0
54017,2015-01-18,1704,1653,-11.0
54810,2015-01-18,1410,1435,25.0
54811,2015-01-18,0745,0743,-2.0
54812,2015-01-18,1855,2008,73.0
54813,2015-01-18,2020,2020,0.0
54814,2015-01-18,1510,1525,15.0
54815,2015-01-18,1720,1718,-2.0
54816,2015-01-18,1350,1355,5.0
54817,2015-01-18,1115,1111,-4.0
54818,2015-01-18,1025,1021,-4.0
54819,2015-01-18,1455,1451,-4.0
54820,2015-01-18,0930,0923,-7.0
54821,2015-01-18,1115,1112,-3.0
54822,2015-01-18,1220,1220,0.0
54823,2015-01-18,1635,1633,-2.0
54824,2015-01-18,1000,0956,-4.0
54825,2015-01-18,2110,2109,-1.0
54826,2015-01-18,2010,2007,-3.0
54827,2015-01-18,1920,1915,-5.0
54828,2015-01-18,1710,1722,12.0
54829,2015-01-18,1320,1316,-4.0
54830,2015-01-18,1245,1244,-1.0
54831,2015-01-18,1555,1601,6.0
54832,2015-01-18,1840,1839,-1.0
54833,2015-01-18,1035,1032,-3.0
54834,2015-01-18,1220,1215,-5.0
54835,2015-01-18,1010,1002,-8.0
54836,2015-01-18,2010,2007,-3.0
54837,2015-01-18,1440,1439,-1.0
54838,2015-01-18,1625,1626,1.0
54839,2015-01-18,1745,1742,-3.0
54840,2015-01-18,1355,1356,1.0
54841,2015-01-18,0920,0916,-4.0
54842,2015-01-18,1925,1922,-3.0
54843,2015-01-18,1715,1828,73.0
54844,2015-01-18,1120,1116,-4.0
54845,2015-01-18,2110,2106,-4.0
