,FL_DATE,CRS_DEP_TIME,DEP_TIME,DEP_DELAY
83245,2015-01-28,1100,1045,-15.0
83247,2015-01-28,1755,1807,12.0
83250,2015-01-28,0700,0646,-14.0
83313,2015-01-28,2152,2204,12.0
83719,2015-01-28,0710,0705,-5.0
83721,2015-01-28,1631,1629,-2.0
83830,2015-01-28,0700,0652,-8.0
83872,2015-01-28,2035,2023,-12.0
83874,2015-01-28,1500,1451,-9.0
83876,2015-01-28,0920,0919,-1.0
84040,2015-01-28,1411,1543,92.0
84076,2015-01-28,0803,0752,-11.0
84099,2015-01-28,1933,1923,-10.0
84149,2015-01-28,1316,1314,-2.0
84197,2015-01-28,1004,0955,-9.0
84741,2015-01-28,1704,1653,-11.0
85641,2015-01-28,1410,1407,-3.0
85642,2015-01-28,0745,0806,21.0
85643,2015-01-28,0705,0716,11.0
85644,2015-01-28,1855,2132,157.0
85645,2015-01-28,1350,1351,1.0
85646,2015-01-28,2020,2116,56.0
85647,2015-01-28,0800,0759,-1.0
85648,2015-01-28,1510,1514,4.0
85649,2015-01-28,1720,1719,-1.0
85650,2015-01-28,1115,1115,0.0
85651,2015-01-28,1025,1023,-2.0
85652,2015-01-28,1455,1457,2.0
85653,2015-01-28,0930,0929,-1.0
85654,2015-01-28,0805,0802,-3.0
85655,2015-01-28,0710,0705,-5.0
85656,2015-01-28,1115,1116,1.0
85657,2015-01-28,1220,1217,-3.0
85658,2015-01-28,1635,1631,-4.0
85659,2015-01-28,2110,2107,-3.0
85660,2015-01-28,2010,2102,52.0
85661,2015-01-28,1920,1918,-2.0
85662,2015-01-28,1710,1708,-2.0
85663,2015-01-28,1320,1316,-4.0
85664,2015-01-28,1245,1243,-2.0
85665,2015-01-28,1555,1555,0.0
85666,2015-01-28,0700,0659,-1.0
85667,2015-01-28,1840,1838,-2.0
85668,2015-01-28,1035,1031,-4.0
85669,2015-01-28,0820,0824,4.0
85670,2015-01-28,1220,1218,-2.0
85671,2015-01-28,1625,1625,0.0
85672,2015-01-28,0725,0720,-5.0
85673,2015-01-28,1010,1007,-3.0
85674,2015-01-28,2010,2001,-9.0
85675,2015-01-28,1440,1439,-1.0
85676,2015-01-28,1745,1740,-5.0
85677,2015-01-28,1355,1350,-5.0
85678,2015-01-28,0910,0908,-2.0
85679,2015-01-28,1925,1925,0.0
85680,2015-01-28,0715,0709,-6.0
85681,2015-01-28,1715,1714,-1.0
85682,2015-01-28,1120,1118,-2.0
85683,2015-01-28,2110,2106,-4.0
