,FL_DATE,CRS_DEP_TIME,DEP_TIME,DEP_DELAY
20006,2015-01-07,1100,1057,-3.0
20008,2015-01-07,1755,1749,-6.0
20011,2015-01-07,0700,0917,137.0
20066,2015-01-07,2145,2145,0.0
20467,2015-01-07,0710,0659,-11.0
20469,2015-01-07,1631,1623,-8.0
20501,2015-01-07,1316,1558,162.0
20584,2015-01-07,0700,0650,-10.0
20629,2015-01-07,2035,2030,-5.0
20631,2015-01-07,1500,1507,7.0
20633,2015-01-07,0920,0912,-8.0
20790,2015-01-07,1411,1404,-7.0
20827,2015-01-07,0803,0840,37.0
20849,2015-01-07,1933,2042,69.0
20944,2015-01-07,1004,0956,-8.0
21064,2015-01-07,1704,1656,-8.0
22043,2015-01-07,1410,1413,3.0
22044,2015-01-07,0745,0820,35.0
22045,2015-01-07,0705,0700,-5.0
22046,2015-01-07,1855,1854,-1.0
22047,2015-01-07,1350,1352,2.0
22048,2015-01-07,2020,2052,32.0
22049,2015-01-07,0800,0757,-3.0
22050,2015-01-07,1510,1508,-2.0
22051,2015-01-07,1720,1720,0.0
22052,2015-01-07,1115,1115,0.0
22053,2015-01-07,1025,1024,-1.0
22054,2015-01-07,1455,,
22055,2015-01-07,0930,0929,-1.0
22056,2015-01-07,0805,0800,-5.0
22057,2015-01-07,0710,0705,-5.0
22058,2015-01-07,1115,1116,1.0
22059,2015-01-07,1220,1227,7.0
22060,2015-01-07,1635,1641,6.0
22061,2015-01-07,2110,2106,-4.0
22062,2015-01-07,2010,2022,12.0
22063,2015-01-07,1920,1934,14.0
22064,2015-01-07,1710,1727,17.0
22065,2015-01-07,1320,1320,0.0
22066,2015-01-07,1245,1246,1.0
22067,2015-01-07,1555,1554,-1.0
22068,2015-01-07,0700,0654,-6.0
22069,2015-01-07,1840,1837,-3.0
22070,2015-01-07,1035,1038,3.0
22071,2015-01-07,0820,0833,13.0
22072,2015-01-07,1220,1229,9.0
22073,2015-01-07,1625,1627,2.0
22074,2015-01-07,0725,0722,-3.0
22075,2015-01-07,1010,1005,-5.0
22076,2015-01-07,2010,2102,52.0
22077,2015-01-07,1440,1436,-4.0
22078,2015-01-07,1745,1742,-3.0
22079,2015-01-07,1355,1402,7.0
22080,2015-01-07,0910,0908,-2.0
22081,2015-01-07,1925,2013,48.0
22082,2015-01-07,0715,0721,6.0
22083,2015-01-07,1715,1710,-5.0
22084,2015-01-07,1120,1119,-1.0
22085,2015-01-07,2110,2103,-7.0
