,FL_DATE,CRS_DEP_TIME,DEP_TIME,DEP_DELAY
67,2015-01-01,0805,0801,-4.0
138,2015-01-01,0850,0916,26.0
148,2015-01-01,1000,1012,12.0
172,2015-01-01,1130,1130,0.0
184,2015-01-01,1215,1307,52.0
188,2015-01-01,0645,0645,0.0
192,2015-01-01,0800,0807,7.0
205,2015-01-01,1100,1114,14.0
207,2015-01-01,1445,1444,-1.0
215,2015-01-01,1335,1330,-5.0
219,2015-01-01,1625,1621,-4.0
234,2015-01-01,1545,1548,3.0
245,2015-01-01,1705,1704,-1.0
401,2015-01-01,1000,0947,-13.0
405,2015-01-01,1555,1548,-7.0
406,2015-01-01,1110,1056,-14.0
409,2015-01-01,1220,1210,-10.0
411,2015-01-01,1705,1702,-3.0
412,2015-01-01,0700,0645,-15.0
417,2015-01-01,0800,0748,-12.0
451,2015-01-01,1835,1823,-12.0
452,2015-01-01,0940,0931,-9.0
621,2015-01-01,0645,0641,-4.0
626,2015-01-01,0645,0642,-3.0
714,2015-01-01,1320,1318,-2.0
732,2015-01-01,0900,0856,-4.0
805,2015-01-01,1240,1236,-4.0
810,2015-01-01,1745,1743,-2.0
833,2015-01-01,0645,0638,-7.0
835,2015-01-01,1930,1922,-8.0
847,2015-01-01,1015,1015,0.0
1166,2015-01-01,1019,1009,-10.0
1224,2015-01-01,1004,1019,15.0
1288,2015-01-01,1803,1852,49.0
1397,2015-01-01,1013,1013,0.0
1419,2015-01-01,1248,1237,-11.0
1519,2015-01-01,0645,0657,12.0
1581,2015-01-01,1147,1155,8.0
1583,2015-01-01,0645,0653,8.0
1611,2015-01-01,0800,0809,9.0
1614,2015-01-01,0810,0820,10.0
1698,2015-01-01,1240,1251,11.0
1752,2015-01-01,1703,1657,-6.0
1815,2015-01-01,2009,2007,-2.0
1823,2015-01-01,0700,0701,1.0
1824,2015-01-01,1551,1549,-2.0
1851,2015-01-01,1325,1410,45.0
2558,2015-01-01,1235,1304,29.0
2559,2015-01-01,0905,0901,-4.0
2560,2015-01-01,1535,1559,24.0
2561,2015-01-01,1320,1321,1.0
2562,2015-01-01,1425,1432,7.0
2563,2015-01-01,1225,1228,3.0
2564,2015-01-01,1505,1529,24.0
2565,2015-01-01,1835,1853,18.0
2566,2015-01-01,1955,1947,-8.0
2567,2015-01-01,1935,1946,11.0
2568,2015-01-01,1740,1826,46.0
2569,2015-01-01,1640,1810,90.0
2570,2015-01-01,1105,1100,-5.0
2571,2015-01-01,1340,1339,-1.0
2572,2015-01-01,1545,1632,47.0
2573,2015-01-01,1730,1730,0.0
2574,2015-01-01,1255,1258,3.0
2575,2015-01-01,1055,1050,-5.0
2576,2015-01-01,0820,0816,-4.0
2577,2015-01-01,1510,1544,34.0
2578,2015-01-01,1855,1855,0.0
2579,2015-01-01,1125,1123,-2.0
2580,2015-01-01,1910,1905,-5.0
2581,2015-01-01,1130,1125,-5.0
2582,2015-01-01,0945,0942,-3.0
2583,2015-01-01,1555,1555,0.0
2584,2015-01-01,1750,1811,21.0
2585,2015-01-01,1400,1407,7.0
2586,2015-01-01,1815,1856,41.0
2587,2015-01-01,1230,1230,0.0
2588,2015-01-01,1400,1401,1.0
2682,2015-01-01,2128,2126,-2.0
2695,2015-01-01,1637,1628,-9.0
2778,2015-01-01,0815,0819,4.0
2786,2015-01-01,1115,1117,2.0
2790,2015-01-01,1749,,
2869,2015-01-01,0705,0658,-7.0
2890,2015-01-01,1447,1449,2.0
2910,2015-01-01,1309,1331,22.0
2951,2015-01-01,1000,0954,-6.0
2956,2015-01-01,1930,1928,-2.0
2969,2015-01-01,0645,0645,0.0
