,FL_DATE,CRS_DEP_TIME,DEP_TIME,DEP_DELAY
71258,2015-01-24,0807,0803,-4.0
71316,2015-01-24,0855,0851,-4.0
71352,2015-01-24,0645,0641,-4.0
71354,2015-01-24,0755,0753,-2.0
71369,2015-01-24,1102,1059,-3.0
71371,2015-01-24,1450,1442,-8.0
71375,2015-01-24,1335,1334,-1.0
71376,2015-01-24,1625,1619,-6.0
71387,2015-01-24,1556,1830,154.0
71395,2015-01-24,1705,1654,-11.0
71551,2015-01-24,1000,0950,-10.0
71554,2015-01-24,1555,1550,-5.0
71556,2015-01-24,1220,1206,-14.0
71558,2015-01-24,1710,1656,-14.0
71560,2015-01-24,0700,0648,-12.0
71565,2015-01-24,0800,0747,-13.0
71585,2015-01-24,1835,1817,-18.0
71586,2015-01-24,0940,0924,-16.0
71749,2015-01-24,0645,0639,-6.0
71812,2015-01-24,0829,0832,3.0
71844,2015-01-24,1310,1318,8.0
71860,2015-01-24,0900,0852,-8.0
71861,2015-01-24,0645,0643,-2.0
71890,2015-01-24,1250,1313,23.0
71906,2015-01-24,0645,0639,-6.0
72228,2015-01-24,1022,1018,-4.0
72242,2015-01-24,0705,0704,-1.0
72244,2015-01-24,1635,1629,-6.0
72443,2015-01-24,1015,1007,-8.0
72468,2015-01-24,1703,1652,-11.0
72494,2015-01-24,0645,0640,-5.0
72513,2015-01-24,1250,1522,152.0
72514,2015-01-24,0645,0637,-8.0
72579,2015-01-24,0800,0749,-11.0
72598,2015-01-24,1259,1313,14.0
72632,2015-01-24,1329,1330,1.0
72644,2015-01-24,0820,0819,-1.0
72654,2015-01-24,0650,0648,-2.0
72711,2015-01-24,0655,0652,-3.0
72769,2015-01-24,0849,0837,-12.0
72881,2015-01-24,1000,0950,-10.0
72906,2015-01-24,1240,1234,-6.0
72952,2015-01-24,1930,1924,-6.0
72964,2015-01-24,0645,0637,-8.0
73553,2015-01-24,0755,0756,1.0
73554,2015-01-24,1105,1105,0.0
73555,2015-01-24,1425,1433,8.0
73556,2015-01-24,0710,0703,-7.0
73557,2015-01-24,1055,1051,-4.0
73558,2015-01-24,1440,1440,0.0
73559,2015-01-24,1620,1617,-3.0
73560,2015-01-24,0905,0903,-2.0
73561,2015-01-24,1840,1837,-3.0
73562,2015-01-24,1715,1711,-4.0
73563,2015-01-24,1240,1240,0.0
73564,2015-01-24,1340,1341,1.0
73565,2015-01-24,0700,0656,-4.0
73566,2015-01-24,1600,1601,1.0
73567,2015-01-24,1055,1058,3.0
73568,2015-01-24,1945,1939,-6.0
73569,2015-01-24,1355,1352,-3.0
73570,2015-01-24,1720,1720,0.0
73571,2015-01-24,0655,0705,10.0
73572,2015-01-24,1245,1244,-1.0
73573,2015-01-24,1455,1453,-2.0
73574,2015-01-24,1820,1817,-3.0
73575,2015-01-24,0750,0740,-10.0
73576,2015-01-24,0900,0856,-4.0
73577,2015-01-24,1255,1322,27.0
73578,2015-01-24,1530,1526,-4.0
73579,2015-01-24,1920,1917,-3.0
73580,2015-01-24,0815,0812,-3.0
73581,2015-01-24,0930,0930,0.0
73582,2015-01-24,1820,1821,1.0
73583,2015-01-24,0730,0727,-3.0
73584,2015-01-24,1430,1436,6.0
