,FL_DATE,CRS_DEP_TIME,DEP_TIME,DEP_DELAY
13192,2015-01-05,0805,0806,1.0
13264,2015-01-05,0850,0849,-1.0
13274,2015-01-05,1000,1049,49.0
13303,2015-01-05,1130,1331,121.0
13315,2015-01-05,1215,1214,-1.0
13319,2015-01-05,0645,0642,-3.0
13323,2015-01-05,0800,0757,-3.0
13338,2015-01-05,0645,0644,-1.0
13340,2015-01-05,1100,1119,19.0
13344,2015-01-05,1445,1455,10.0
13352,2015-01-05,1335,1408,33.0
13357,2015-01-05,1625,1624,-1.0
13372,2015-01-05,1545,1545,0.0
13383,2015-01-05,1705,1704,-1.0
13541,2015-01-05,1000,1001,1.0
13544,2015-01-05,1555,1553,-2.0
13546,2015-01-05,1220,1213,-7.0
13548,2015-01-05,1705,1704,-1.0
13550,2015-01-05,0700,0658,-2.0
13555,2015-01-05,0800,0754,-6.0
13579,2015-01-05,1440,1438,-2.0
13581,2015-01-05,1835,1842,7.0
13582,2015-01-05,0940,0938,-2.0
13765,2015-01-05,1255,1252,-3.0
13769,2015-01-05,0645,0644,-1.0
13792,2015-01-05,0645,0729,44.0
13803,2015-01-05,1629,1622,-7.0
13844,2015-01-05,1250,1310,20.0
13863,2015-01-05,0829,0827,-2.0
13896,2015-01-05,1310,1331,21.0
13919,2015-01-05,0845,0843,-2.0
13963,2015-01-05,1745,1735,-10.0
13981,2015-01-05,0645,0658,13.0
13983,2015-01-05,1930,1950,20.0
13985,2015-01-05,0940,0929,-11.0
14146,2015-01-05,1248,1415,87.0
14186,2015-01-05,1004,1024,20.0
14340,2015-01-05,1022,1014,-8.0
14358,2015-01-05,0705,0700,-5.0
14360,2015-01-05,1820,1824,4.0
14598,2015-01-05,1013,1022,9.0
14619,2015-01-05,1132,1132,0.0
14659,2015-01-05,1803,,
14724,2015-01-05,0645,,
14790,2015-01-05,0645,0643,-2.0
14836,2015-01-05,0800,0805,5.0
14843,2015-01-05,1147,1144,-3.0
14844,2015-01-05,0810,0803,-7.0
14919,2015-01-05,1703,1659,-4.0
15005,2015-01-05,2009,2003,-6.0
15011,2015-01-05,0700,0650,-10.0
15012,2015-01-05,1551,1546,-5.0
15036,2015-01-05,1637,1635,-2.0
15041,2015-01-05,1335,1408,33.0
15055,2015-01-05,0705,0714,9.0
15103,2015-01-05,2128,2136,8.0
15173,2015-01-05,0815,0814,-1.0
15191,2015-01-05,1749,1758,9.0
15252,2015-01-05,1115,1118,3.0
15304,2015-01-05,1513,1820,187.0
15327,2015-01-05,1309,1313,4.0
15370,2015-01-05,1000,0958,-2.0
15375,2015-01-05,1930,1922,-8.0
15390,2015-01-05,0645,0641,-4.0
15453,2015-01-05,1240,1241,1.0
16492,2015-01-05,1235,1237,2.0
16493,2015-01-05,1535,1534,-1.0
16494,2015-01-05,1320,1336,16.0
16495,2015-01-05,0705,0704,-1.0
16496,2015-01-05,0825,0836,11.0
16497,2015-01-05,1425,1420,-5.0
16498,2015-01-05,1225,1220,-5.0
16499,2015-01-05,1955,2002,7.0
16500,2015-01-05,1025,1022,-3.0
16501,2015-01-05,1505,1514,9.0
16502,2015-01-05,1900,1900,0.0
16503,2015-01-05,0815,0825,10.0
16504,2015-01-05,2115,2117,2.0
16505,2015-01-05,1945,1942,-3.0
16506,2015-01-05,1740,1747,7.0
16507,2015-01-05,1640,1639,-1.0
16508,2015-01-05,1105,1100,-5.0
16509,2015-01-05,1340,1339,-1.0
16510,2015-01-05,0805,0802,-3.0
16511,2015-01-05,0645,0644,-1.0
16512,2015-01-05,1545,1553,8.0
16513,2015-01-05,1745,1742,-3.0
16514,2015-01-05,1305,1303,-2.0
16515,2015-01-05,1055,1053,-2.0
16516,2015-01-05,2125,2121,-4.0
16517,2015-01-05,0715,0712,-3.0
16518,2015-01-05,0820,0820,0.0
16519,2015-01-05,1840,1839,-1.0
16520,2015-01-05,1510,1510,0.0
16521,2015-01-05,1240,1240,0.0
16522,2015-01-05,0720,0725,5.0
16523,2015-01-05,0940,0938,-2.0
16524,2015-01-05,1615,1612,-3.0
16525,2015-01-05,1910,1906,-4.0
16526,2015-01-05,1025,1020,-5.0
16527,2015-01-05,1130,1153,23.0
16528,2015-01-05,1555,1552,-3.0
16529,2015-01-05,0855,0854,-1.0
16530,2015-01-05,0745,0744,-1.0
16531,2015-01-05,1750,1752,2.0
16532,2015-01-05,2105,2109,4.0
16533,2015-01-05,1400,1410,10.0
16534,2015-01-05,1025,1024,-1.0
16535,2015-01-05,1235,1229,-6.0
16536,2015-01-05,1435,1433,-2.0
16537,2015-01-05,0835,0831,-4.0
16538,2015-01-05,0645,0643,-2.0
16539,2015-01-05,1815,1824,9.0
16540,2015-01-05,1945,1945,0.0
