,FL_DATE,CRS_DEP_TIME,DEP_TIME,DEP_DELAY
19650,2015-01-07,0807,0801,-6.0
19710,2015-01-07,0855,0844,-11.0
19720,2015-01-07,1000,0951,-9.0
19751,2015-01-07,1217,1205,-12.0
19755,2015-01-07,0645,0642,-3.0
19757,2015-01-07,0755,0748,-7.0
19775,2015-01-07,1102,1057,-5.0
19777,2015-01-07,1450,1459,9.0
19783,2015-01-07,1335,1328,-7.0
19784,2015-01-07,1625,1617,-8.0
19797,2015-01-07,1556,1550,-6.0
19807,2015-01-07,1705,1700,-5.0
19995,2015-01-07,1000,0949,-11.0
19998,2015-01-07,1555,1547,-8.0
20000,2015-01-07,1220,1219,-1.0
20002,2015-01-07,1705,1706,1.0
20004,2015-01-07,0700,0649,-11.0
20009,2015-01-07,0800,0755,-5.0
20029,2015-01-07,1440,1431,-9.0
20031,2015-01-07,1835,1827,-8.0
20032,2015-01-07,0940,0931,-9.0
20157,2015-01-07,1310,1304,-6.0
20181,2015-01-07,0845,0839,-6.0
20230,2015-01-07,1250,1240,-10.0
20246,2015-01-07,0829,0823,-6.0
20279,2015-01-07,0645,0640,-5.0
20287,2015-01-07,1715,1710,-5.0
20298,2015-01-07,1750,1859,69.0
20307,2015-01-07,1255,1249,-6.0
20311,2015-01-07,0645,0645,0.0
20367,2015-01-07,1015,1033,18.0
20378,2015-01-07,1930,1928,-2.0
20379,2015-01-07,0645,0706,21.0
20730,2015-01-07,1022,1015,-7.0
20749,2015-01-07,0705,0656,-9.0
20772,2015-01-07,1015,1015,0.0
20921,2015-01-07,1247,1252,5.0
20963,2015-01-07,1054,1055,1.0
20991,2015-01-07,1703,1700,-3.0
21024,2015-01-07,0645,0635,-10.0
21070,2015-01-07,1555,1546,-9.0
21085,2015-01-07,0820,0820,0.0
21159,2015-01-07,0800,0759,-1.0
21165,2015-01-07,1107,1103,-4.0
21166,2015-01-07,0645,0657,12.0
21172,2015-01-07,1129,1128,-1.0
21216,2015-01-07,1805,1830,25.0
21279,2015-01-07,0655,0757,62.0
21378,2015-01-07,0849,0909,20.0
21380,2015-01-07,1117,1117,0.0
21455,2015-01-07,0701,0655,-6.0
21462,2015-01-07,2107,2101,-6.0
21478,2015-01-07,1307,1309,2.0
21522,2015-01-07,1000,0956,-4.0
21526,2015-01-07,1930,1921,-9.0
21538,2015-01-07,0645,0641,-4.0
21593,2015-01-07,1240,1239,-1.0
22136,2015-01-07,0645,0744,59.0
22137,2015-01-07,1255,1306,11.0
22138,2015-01-07,1310,1303,-7.0
22139,2015-01-07,1825,1823,-2.0
22140,2015-01-07,1610,1608,-2.0
22141,2015-01-07,0745,0744,-1.0
22142,2015-01-07,1135,1135,0.0
22143,2015-01-07,2120,2115,-5.0
22144,2015-01-07,2010,2122,72.0
22145,2015-01-07,0910,0908,-2.0
22146,2015-01-07,1530,1536,6.0
22147,2015-01-07,1955,1953,-2.0
22148,2015-01-07,0810,0809,-1.0
22149,2015-01-07,2120,2116,-4.0
22150,2015-01-07,0655,0652,-3.0
22151,2015-01-07,1700,1700,0.0
22152,2015-01-07,1250,1248,-2.0
22153,2015-01-07,1050,1053,3.0
22154,2015-01-07,1100,1101,1.0
22155,2015-01-07,2105,2058,-7.0
22156,2015-01-07,0820,0819,-1.0
22157,2015-01-07,1415,1415,0.0
22158,2015-01-07,1600,1600,0.0
22159,2015-01-07,0645,0642,-3.0
22160,2015-01-07,1835,1834,-1.0
22161,2015-01-07,1605,1601,-4.0
22162,2015-01-07,2040,2121,41.0
22163,2015-01-07,0805,0803,-2.0
22164,2015-01-07,1205,1208,3.0
22165,2015-01-07,0940,0941,1.0
22166,2015-01-07,1835,1914,39.0
22167,2015-01-07,1910,1948,38.0
22168,2015-01-07,1355,1352,-3.0
22169,2015-01-07,1755,1753,-2.0
22170,2015-01-07,1235,1300,25.0
22171,2015-01-07,1610,1617,7.0
22172,2015-01-07,0645,0640,-5.0
22173,2015-01-07,2055,2055,0.0
22174,2015-01-07,0810,0808,-2.0
22175,2015-01-07,1005,1005,0.0
22176,2015-01-07,1825,1822,-3.0
22177,2015-01-07,1740,1741,1.0
22178,2015-01-07,1450,1446,-4.0
22179,2015-01-07,1330,1325,-5.0
22180,2015-01-07,1030,1026,-4.0
22181,2015-01-07,0730,0727,-3.0
22182,2015-01-07,1955,1949,-6.0
22649,2015-01-07,1400,1405,5.0
22650,2015-01-07,0900,0902,2.0
22651,2015-01-07,1225,1223,-2.0
22652,2015-01-07,1535,1535,0.0
