,FL_DATE,CRS_DEP_TIME,DEP_TIME,DEP_DELAY
59121,2015-01-20,0640,0633,-7.0
59124,2015-01-20,0835,0839,4.0
59126,2015-01-20,0700,0649,-11.0
59127,2015-01-20,0750,0753,3.0
59159,2015-01-20,1222,1251,29.0
59188,2015-01-20,1843,1837,-6.0
59234,2015-01-20,0720,0715,-5.0
59285,2015-01-20,1648,1644,-4.0
59318,2015-01-20,2100,2053,-7.0
59331,2015-01-20,1501,1456,-5.0
59344,2015-01-20,2100,2050,-10.0
59346,2015-01-20,1123,1126,3.0
59351,2015-01-20,1514,1510,-4.0
59359,2015-01-20,1125,1121,-4.0
59362,2015-01-20,0836,0828,-8.0
59371,2015-01-20,1120,1131,11.0
59373,2015-01-20,1120,1112,-8.0
59385,2015-01-20,1138,1151,13.0
59387,2015-01-20,2152,2144,-8.0
59406,2015-01-20,0950,0947,-3.0
59407,2015-01-20,1346,1341,-5.0
59415,2015-01-20,2100,2059,-1.0
59420,2015-01-20,2002,2001,-1.0
59428,2015-01-20,2100,2054,-6.0
59438,2015-01-20,1505,1510,5.0
59443,2015-01-20,0830,0825,-5.0
59553,2015-01-20,1530,1524,-6.0
59571,2015-01-20,2054,2051,-3.0
59581,2015-01-20,1855,1836,-19.0
59596,2015-01-20,0655,0654,-1.0
59643,2015-01-20,1101,1121,20.0
59653,2015-01-20,2100,2049,-11.0
59662,2015-01-20,2050,2046,-4.0
59671,2015-01-20,1206,1155,-11.0
59698,2015-01-20,1315,1307,-8.0
59751,2015-01-20,0714,0716,2.0
59782,2015-01-20,0832,0855,23.0
59803,2015-01-20,1106,1100,-6.0
59812,2015-01-20,1510,1502,-8.0
59815,2015-01-20,1500,1459,-1.0
59819,2015-01-20,0840,0832,-8.0
59822,2015-01-20,1500,1454,-6.0
59824,2015-01-20,2045,2042,-3.0
59826,2015-01-20,0836,0826,-10.0
59827,2015-01-20,2045,2040,-5.0
59836,2015-01-20,1114,1121,7.0
59839,2015-01-20,1502,1459,-3.0
59841,2015-01-20,1505,1501,-4.0
59843,2015-01-20,0835,0828,-7.0
59844,2015-01-20,1505,1458,-7.0
59847,2015-01-20,2103,2059,-4.0
59854,2015-01-20,0840,0840,0.0
59868,2015-01-20,1902,1856,-6.0
59884,2015-01-20,0848,0936,48.0
59915,2015-01-20,1407,1404,-3.0
59951,2015-01-20,0615,0615,0.0
59985,2015-01-20,1213,1221,8.0
60068,2015-01-20,0655,0649,-6.0
60085,2015-01-20,1740,1735,-5.0
60090,2015-01-20,1536,1819,163.0
60588,2015-01-20,0835,0828,-7.0
60591,2015-01-20,1115,1122,7.0
61138,2015-01-20,1925,1921,-4.0
61139,2015-01-20,1235,1234,-1.0
61140,2015-01-20,0810,0831,21.0
61141,2015-01-20,1200,1159,-1.0
61142,2015-01-20,2135,2134,-1.0
61143,2015-01-20,1555,1635,40.0
61144,2015-01-20,0620,0616,-4.0
