,FL_DATE,CRS_DEP_TIME,DEP_TIME,DEP_DELAY
23101,2015-01-08,0640,0639,-1.0
23104,2015-01-08,0835,0834,-1.0
23106,2015-01-08,0700,0648,-12.0
23107,2015-01-08,0750,0800,10.0
23158,2015-01-08,1222,1221,-1.0
23191,2015-01-08,1843,1926,43.0
23255,2015-01-08,2210,2211,1.0
23257,2015-01-08,1123,1119,-4.0
23262,2015-01-08,1514,1527,13.0
23270,2015-01-08,1125,1124,-1.0
23273,2015-01-08,0836,0831,-5.0
23281,2015-01-08,1120,1119,-1.0
23283,2015-01-08,1120,1115,-5.0
23291,2015-01-08,2155,2240,45.0
23302,2015-01-08,1505,1501,-4.0
23308,2015-01-08,0830,0825,-5.0
23331,2015-01-08,1648,1645,-3.0
23370,2015-01-08,2140,2137,-3.0
23383,2015-01-08,1501,1500,-1.0
23428,2015-01-08,1346,1358,12.0
23436,2015-01-08,2146,2142,-4.0
23442,2015-01-08,2002,2002,0.0
23456,2015-01-08,1645,1641,-4.0
23457,2015-01-08,1138,1142,4.0
23459,2015-01-08,2142,2141,-1.0
23580,2015-01-08,1530,1529,-1.0
23597,2015-01-08,2001,2001,0.0
23605,2015-01-08,1855,1848,-7.0
23621,2015-01-08,0655,0644,-11.0
23669,2015-01-08,1101,1115,14.0
23679,2015-01-08,2140,2138,-2.0
23691,2015-01-08,2005,2003,-2.0
23700,2015-01-08,1206,1319,73.0
23718,2015-01-08,2006,2005,-1.0
23734,2015-01-08,1315,1446,91.0
23792,2015-01-08,0724,0720,-4.0
23823,2015-01-08,0832,0836,4.0
23844,2015-01-08,1106,1104,-2.0
23855,2015-01-08,1650,1648,-2.0
23856,2015-01-08,1510,1506,-4.0
23859,2015-01-08,1653,1647,-6.0
23863,2015-01-08,0840,1009,89.0
23867,2015-01-08,1500,1452,-8.0
23869,2015-01-08,2008,2121,73.0
23871,2015-01-08,0836,0831,-5.0
23880,2015-01-08,1114,1108,-6.0
23883,2015-01-08,1650,1649,-1.0
23886,2015-01-08,1505,1502,-3.0
23888,2015-01-08,0835,0828,-7.0
23889,2015-01-08,1505,1509,4.0
23892,2015-01-08,2150,2252,62.0
23901,2015-01-08,0840,0834,-6.0
23915,2015-01-08,1902,1907,5.0
23934,2015-01-08,0848,0847,-1.0
23940,2015-01-08,1154,1240,46.0
23973,2015-01-08,1407,1408,1.0
24009,2015-01-08,0615,0612,-3.0
24125,2015-01-08,0650,0643,-7.0
24143,2015-01-08,1740,1748,8.0
24148,2015-01-08,1536,1606,30.0
24509,2015-01-08,0835,0832,-3.0
24512,2015-01-08,1115,1122,7.0
25493,2015-01-08,1925,1920,-5.0
25494,2015-01-08,1235,1252,17.0
25495,2015-01-08,0810,0757,-13.0
25496,2015-01-08,1200,1157,-3.0
25497,2015-01-08,2135,2133,-2.0
25498,2015-01-08,1555,1558,3.0
25499,2015-01-08,0620,0615,-5.0
