,FL_DATE,CRS_DEP_TIME,DEP_TIME,DEP_DELAY
6868,2015-01-03,1305,1319,14.0
6870,2015-01-03,0610,0621,11.0
6872,2015-01-03,1855,1906,11.0
6877,2015-01-03,0920,0924,4.0
6995,2015-01-03,0950,0938,-12.0
7006,2015-01-03,0720,1017,177.0
7021,2015-01-03,0853,0847,-6.0
7046,2015-01-03,0600,0555,-5.0
7062,2015-01-03,1830,1824,-6.0
7137,2015-01-03,1051,1046,-5.0
7176,2015-01-03,1827,1817,-10.0
7180,2015-01-03,0615,0729,74.0
7380,2015-01-03,2123,2143,20.0
7410,2015-01-03,0935,0930,-5.0
7426,2015-01-03,0820,0957,97.0
7434,2015-01-03,0600,0557,-3.0
7461,2015-01-03,0838,0834,-4.0
7526,2015-01-03,1326,1322,-4.0
7527,2015-01-03,1859,1925,26.0
7652,2015-01-03,0606,0755,109.0
7655,2015-01-03,1258,1418,80.0
7759,2015-01-03,1632,1628,-4.0
7800,2015-01-03,0842,0834,-8.0
8086,2015-01-03,1606,1603,-3.0
8572,2015-01-03,0600,0952,232.0
8613,2015-01-03,1230,1227,-3.0
8873,2015-01-03,0800,0759,-1.0
8874,2015-01-03,1450,1526,36.0
8875,2015-01-03,1850,1946,56.0
8876,2015-01-03,1135,1234,59.0
8877,2015-01-03,1935,2031,56.0
8878,2015-01-03,0855,0903,8.0
8879,2015-01-03,0950,0947,-3.0
8880,2015-01-03,2050,2110,20.0
8881,2015-01-03,1040,1053,13.0
8882,2015-01-03,1535,1547,12.0
8883,2015-01-03,0715,0709,-6.0
8884,2015-01-03,1140,1200,20.0
8885,2015-01-03,0850,0850,0.0
8886,2015-01-03,1355,1403,8.0
8887,2015-01-03,1700,1722,22.0
8888,2015-01-03,1835,1855,20.0
8889,2015-01-03,1530,1640,70.0
8890,2015-01-03,1810,1937,87.0
8891,2015-01-03,1020,1121,61.0
8892,2015-01-03,0555,0550,-5.0
8893,2015-01-03,1935,2040,65.0
8894,2015-01-03,0855,0859,4.0
8895,2015-01-03,1025,1034,9.0
8896,2015-01-03,1345,1358,13.0
8897,2015-01-03,1140,1204,24.0
8898,2015-01-03,2050,2055,5.0
8899,2015-01-03,1635,1722,47.0
8900,2015-01-03,1940,2114,94.0
8901,2015-01-03,0955,1018,23.0
8902,2015-01-03,1350,1417,27.0
8903,2015-01-03,0725,0723,-2.0
8904,2015-01-03,1745,1912,87.0
8905,2015-01-03,1040,1056,16.0
8906,2015-01-03,0800,0757,-3.0
8907,2015-01-03,1310,1319,9.0
8908,2015-01-03,1625,1633,8.0
8909,2015-01-03,1200,,
8910,2015-01-03,0930,0931,1.0
8911,2015-01-03,1400,1447,47.0
8912,2015-01-03,2050,2112,22.0
8913,2015-01-03,1725,1730,5.0
8914,2015-01-03,1515,1540,25.0
8915,2015-01-03,1830,1901,31.0
8916,2015-01-03,1045,1202,77.0
8917,2015-01-03,1420,1428,8.0
8918,2015-01-03,0620,0618,-2.0
8919,2015-01-03,1010,1034,24.0
8920,2015-01-03,1610,1725,75.0
8921,2015-01-03,1835,1905,30.0
8922,2015-01-03,2050,2120,30.0
8923,2015-01-03,1240,1258,18.0
8924,2015-01-03,0800,0757,-3.0
8925,2015-01-03,1040,1056,16.0
8926,2015-01-03,1935,2033,58.0
8927,2015-01-03,1615,1647,32.0
8928,2015-01-03,0855,0909,14.0
8929,2015-01-03,1415,1446,31.0
8930,2015-01-03,1110,1136,26.0
8931,2015-01-03,1610,1623,13.0
8932,2015-01-03,0940,0940,0.0
8933,2015-01-03,1800,1815,15.0
8934,2015-01-03,1140,1210,30.0
8935,2015-01-03,0720,0719,-1.0
8936,2015-01-03,1445,1504,19.0
8937,2015-01-03,1040,1100,20.0
8938,2015-01-03,1255,1301,6.0
8939,2015-01-03,1935,1954,19.0
8940,2015-01-03,0920,1014,54.0
8941,2015-01-03,2050,2128,38.0
8942,2015-01-03,1845,1923,38.0
8943,2015-01-03,1620,1633,13.0
8944,2015-01-03,0715,0711,-4.0
8945,2015-01-03,1210,1212,2.0
8946,2015-01-03,1935,2015,40.0
8947,2015-01-03,1100,1159,59.0
8948,2015-01-03,0600,0600,0.0
8949,2015-01-03,1420,1421,1.0
8950,2015-01-03,0855,0901,6.0
8951,2015-01-03,1735,1800,25.0
8952,2015-01-03,0855,0855,0.0
8953,2015-01-03,1420,1436,16.0
8954,2015-01-03,1935,2022,47.0
8955,2015-01-03,1110,1110,0.0
8956,2015-01-03,1040,1055,15.0
8957,2015-01-03,1320,1434,74.0
8958,2015-01-03,2050,2119,29.0
8959,2015-01-03,0630,0630,0.0
8960,2015-01-03,1555,1642,47.0
8961,2015-01-03,0825,0841,16.0
8962,2015-01-03,1210,1304,54.0
