,FL_DATE,CRS_ARR_TIME,ARR_TIME,ARR_DELAY
37691,2015-01-13,1235,1155,-40.0
37693,2015-01-13,1555,1525,-30.0
37695,2015-01-13,1032,1006,-26.0
37698,2015-01-13,0604,0550,-14.0
37702,2015-01-13,1429,1348,-41.0
37704,2015-01-13,2211,2139,-32.0
37708,2015-01-13,1237,1230,-7.0
37715,2015-01-13,1133,1112,-21.0
37717,2015-01-13,1824,1743,-41.0
37720,2015-01-13,2007,1931,-36.0
37721,2015-01-13,1517,1539,22.0
37728,2015-01-13,1149,1127,-22.0
37734,2015-01-13,1641,1637,-4.0
37737,2015-01-13,2103,0005,182.0
37740,2015-01-13,1949,1911,-38.0
37743,2015-01-13,1041,1036,-5.0
37745,2015-01-13,0922,0858,-24.0
37746,2015-01-13,2126,2056,-30.0
37760,2015-01-13,1041,1011,-30.0
37761,2015-01-13,2159,2206,7.0
37763,2015-01-13,0938,0941,3.0
37770,2015-01-13,2104,2018,-46.0
37772,2015-01-13,0832,0821,-11.0
37773,2015-01-13,0028,2336,-52.0
37775,2015-01-13,1914,1915,1.0
37777,2015-01-13,2233,2210,-23.0
37780,2015-01-13,1555,1536,-19.0
37782,2015-01-13,1703,1701,-2.0
37784,2015-01-13,2318,2237,-41.0
37785,2015-01-13,1229,1231,2.0
37787,2015-01-13,0520,0726,126.0
37790,2015-01-13,1956,1952,-4.0
37794,2015-01-13,2219,2159,-20.0
37803,2015-01-13,1030,1032,2.0
37807,2015-01-13,1246,1230,-16.0
37813,2015-01-13,2007,1938,-29.0
37814,2015-01-13,0540,0522,-18.0
37817,2015-01-13,2132,2121,-11.0
37818,2015-01-13,1330,1303,-27.0
37826,2015-01-13,2257,2232,-25.0
37833,2015-01-13,0945,0949,4.0
37839,2015-01-13,1033,1017,-16.0
37841,2015-01-13,0955,0955,0.0
37843,2015-01-13,2355,0002,7.0
37847,2015-01-13,0834,0828,-6.0
37859,2015-01-13,0841,0833,-8.0
37866,2015-01-13,1015,0959,-16.0
37867,2015-01-13,1052,1110,18.0
37870,2015-01-13,1604,1556,-8.0
37871,2015-01-13,2123,2101,-22.0
37873,2015-01-13,1229,1217,-12.0
37888,2015-01-13,1401,1354,-7.0
37889,2015-01-13,1814,1809,-5.0
37894,2015-01-13,2150,2104,-46.0
37897,2015-01-13,1948,1942,-6.0
37901,2015-01-13,2036,2022,-14.0
37908,2015-01-13,1523,1502,-21.0
37912,2015-01-13,1438,1405,-33.0
37917,2015-01-13,1422,1412,-10.0
37921,2015-01-13,2009,1932,-37.0
37925,2015-01-13,1853,1855,2.0
37929,2015-01-13,1333,1521,108.0
37931,2015-01-13,1429,1423,-6.0
37933,2015-01-13,1451,1456,5.0
37934,2015-01-13,1522,1522,0.0
37936,2015-01-13,1718,1722,4.0
37939,2015-01-13,0816,0830,14.0
37943,2015-01-13,0929,0924,-5.0
37945,2015-01-13,2302,2249,-13.0
37946,2015-01-13,1043,1051,8.0
37950,2015-01-13,1204,1217,13.0
37954,2015-01-13,2300,2325,25.0
37956,2015-01-13,1952,1947,-5.0
37957,2015-01-13,1555,1600,5.0
37961,2015-01-13,2058,2117,19.0
37962,2015-01-13,2349,2342,-7.0
37964,2015-01-13,2204,2205,1.0
37965,2015-01-13,1758,1759,1.0
37967,2015-01-13,1223,1201,-22.0
38029,2015-01-13,1244,1223,-21.0
38031,2015-01-13,2034,2008,-26.0
38033,2015-01-13,1144,1152,8.0
38035,2015-01-13,1921,1933,12.0
38036,2015-01-13,1343,1501,78.0
38037,2015-01-13,0842,0838,-4.0
38039,2015-01-13,2220,2230,10.0
38041,2015-01-13,1432,1423,-9.0
38043,2015-01-13,2134,2125,-9.0
38045,2015-01-13,0938,0920,-18.0
38047,2015-01-13,1646,1709,23.0
38053,2015-01-13,1030,1106,36.0
38083,2015-01-13,0859,0857,-2.0
38085,2015-01-13,2018,1955,-23.0
38088,2015-01-13,1203,1151,-12.0
38089,2015-01-13,1650,1637,-13.0
38107,2015-01-13,0805,0741,-24.0
38131,2015-01-13,1135,1115,-20.0
38140,2015-01-13,1149,1121,-28.0
38142,2015-01-13,1439,1438,-1.0
38143,2015-01-13,0947,0921,-26.0
38146,2015-01-13,1259,1241,-18.0
38153,2015-01-13,1920,1852,-28.0
38171,2015-01-13,0056,0028,-28.0
38175,2015-01-13,2158,2154,-4.0
38180,2015-01-13,2055,2017,-38.0
38181,2015-01-13,2258,2248,-10.0
38184,2015-01-13,1421,1432,11.0
38206,2015-01-13,0933,0923,-10.0
38217,2015-01-13,2001,2000,-1.0
38218,2015-01-13,2122,2101,-21.0
38223,2015-01-13,1950,1923,-27.0
38227,2015-01-13,0900,1318,258.0
38230,2015-01-13,1600,1600,0.0
38233,2015-01-13,2151,2139,-12.0
38236,2015-01-13,1440,1417,-23.0
38237,2015-01-13,1050,1040,-10.0
38241,2015-01-13,1548,1552,4.0
38245,2015-01-13,1105,1101,-4.0
38247,2015-01-13,2110,2111,1.0
38249,2015-01-13,2107,2055,-12.0
38250,2015-01-13,0540,0538,-2.0
38253,2015-01-13,1640,1611,-29.0
38254,2015-01-13,2030,2014,-16.0
38255,2015-01-13,0840,0849,9.0
38256,2015-01-13,1800,1721,-39.0
38262,2015-01-13,0615,0558,-17.0
38265,2015-01-13,0940,0958,18.0
38266,2015-01-13,1445,1421,-24.0
38275,2015-01-13,0940,0946,6.0
38277,2015-01-13,2349,2325,-24.0
38279,2015-01-13,1155,1153,-2.0
38282,2015-01-13,0735,0726,-9.0
38284,2015-01-13,1325,1341,16.0
38286,2015-01-13,1030,1015,-15.0
38288,2015-01-13,1330,1307,-23.0
38291,2015-01-13,2215,2158,-17.0
38294,2015-01-13,2205,2116,-49.0
38307,2015-01-13,1130,1119,-11.0
38310,2015-01-13,0830,0813,-17.0
38314,2015-01-13,2005,2003,-2.0
38323,2015-01-13,0649,0721,32.0
38326,2015-01-13,2145,2147,2.0
38328,2015-01-13,1130,1126,-4.0
38332,2015-01-13,1225,1212,-13.0
38335,2015-01-13,1820,1804,-16.0
38337,2015-01-13,1610,1600,-10.0
38352,2015-01-13,2350,2313,-37.0
38354,2015-01-13,2359,2349,-10.0
38362,2015-01-13,2100,2045,-15.0
38365,2015-01-13,0750,0736,-14.0
38368,2015-01-13,1240,1215,-25.0
38373,2015-01-13,2255,2235,-20.0
38375,2015-01-13,0950,0955,5.0
38384,2015-01-13,1040,1050,10.0
38385,2015-01-13,1505,1459,-6.0
38390,2015-01-13,1726,1739,13.0
38394,2015-01-13,2040,1950,-50.0
38395,2015-01-13,1235,1223,-12.0
38396,2015-01-13,1905,1835,-30.0
38397,2015-01-13,1040,1010,-30.0
38398,2015-01-13,0045,0009,-36.0
38401,2015-01-13,1505,1430,-35.0
38402,2015-01-13,2210,2113,-57.0
38406,2015-01-13,1930,1923,-7.0
38410,2015-01-13,1745,1733,-12.0
38412,2015-01-13,1428,1440,12.0
38420,2015-01-13,1100,1052,-8.0
38422,2015-01-13,1410,1356,-14.0
38431,2015-01-13,0625,0619,-6.0
38432,2015-01-13,1702,1702,0.0
38443,2015-01-13,1404,1402,-2.0
38445,2015-01-13,1843,1905,22.0
38451,2015-01-13,0934,0929,-5.0
38478,2015-01-13,2205,2206,1.0
38480,2015-01-13,0555,0542,-13.0
38482,2015-01-13,1525,1520,-5.0
38492,2015-01-13,2345,2328,-17.0
38494,2015-01-13,1915,1847,-28.0
38499,2015-01-13,1703,1704,1.0
38505,2015-01-13,1444,1451,7.0
38509,2015-01-13,1843,1826,-17.0
38510,2015-01-13,2008,1941,-27.0
38513,2015-01-13,2131,2111,-20.0
38516,2015-01-13,1002,0955,-7.0
38518,2015-01-13,1706,1701,-5.0
38521,2015-01-13,2100,2110,10.0
38522,2015-01-13,1331,1352,21.0
38524,2015-01-13,0836,0840,4.0
38527,2015-01-13,1630,1621,-9.0
38533,2015-01-13,0922,0919,-3.0
38537,2015-01-13,2012,2009,-3.0
38538,2015-01-13,0904,0853,-11.0
38541,2015-01-13,1624,1618,-6.0
38543,2015-01-13,1455,,
38545,2015-01-13,2024,2022,-2.0
38547,2015-01-13,1820,1820,0.0
38550,2015-01-13,1605,1609,4.0
38551,2015-01-13,1705,1649,-16.0
38553,2015-01-13,0834,0817,-17.0
38555,2015-01-13,1454,1449,-5.0
38565,2015-01-13,2121,2100,-21.0
38567,2015-01-13,1304,1304,0.0
38569,2015-01-13,1956,1932,-24.0
38570,2015-01-13,0943,0931,-12.0
38572,2015-01-13,1714,1745,31.0
38574,2015-01-13,0810,0758,-12.0
38576,2015-01-13,1909,1902,-7.0
38578,2015-01-13,1459,1449,-10.0
38580,2015-01-13,0721,0712,-9.0
38583,2015-01-13,1620,1559,-21.0
38584,2015-01-13,0801,0757,-4.0
38585,2015-01-13,0915,0914,-1.0
38587,2015-01-13,1049,1053,4.0
38590,2015-01-13,1749,1733,-16.0
38591,2015-01-13,0925,0940,15.0
38594,2015-01-13,1930,1927,-3.0
38601,2015-01-13,2359,0007,8.0
38609,2015-01-13,1200,1201,1.0
38611,2015-01-13,1550,1537,-13.0
38612,2015-01-13,1249,1335,46.0
38623,2015-01-13,1755,1827,32.0
38625,2015-01-13,1603,1550,-13.0
38626,2015-01-13,1800,1759,-1.0
38637,2015-01-13,1149,1157,8.0
38638,2015-01-13,0920,0857,-23.0
38650,2015-01-13,1454,1439,-15.0
38657,2015-01-13,1303,1307,4.0
38659,2015-01-13,0718,0711,-7.0
38663,2015-01-13,1733,1720,-13.0
38668,2015-01-13,1529,,
38672,2015-01-13,1350,1341,-9.0
38689,2015-01-13,1400,1525,85.0
38698,2015-01-13,1303,1311,8.0
38699,2015-01-13,2030,2022,-8.0
38700,2015-01-13,1524,1524,0.0
38701,2015-01-13,1221,1222,1.0
38725,2015-01-13,1500,1458,-2.0
38737,2015-01-13,1216,1243,27.0
38738,2015-01-13,0825,0933,68.0
38740,2015-01-13,0721,0751,30.0
38742,2015-01-13,1950,1948,-2.0
38744,2015-01-13,1455,1526,31.0
38746,2015-01-13,1910,1917,7.0
38749,2015-01-13,1255,1402,67.0
38756,2015-01-13,0845,1035,110.0
38758,2015-01-13,0711,0710,-1.0
38765,2015-01-13,1530,1545,15.0
38767,2015-01-13,1055,1106,11.0
38772,2015-01-13,1750,1748,-2.0
38774,2015-01-13,1915,1903,-12.0
38775,2015-01-13,0945,1001,16.0
38776,2015-01-13,0703,0718,15.0
38778,2015-01-13,1909,1907,-2.0
38782,2015-01-13,1915,1859,-16.0
38783,2015-01-13,0854,0852,-2.0
38784,2015-01-13,1921,1902,-19.0
38785,2015-01-13,1334,1332,-2.0
38787,2015-01-13,0828,0832,4.0
38798,2015-01-13,1150,1144,-6.0
38805,2015-01-13,1505,1457,-8.0
38816,2015-01-13,1705,1712,7.0
38818,2015-01-13,1945,1934,-11.0
38821,2015-01-13,1445,1441,-4.0
38832,2015-01-13,1645,1731,46.0
38837,2015-01-13,2059,2045,-14.0
38845,2015-01-13,1950,1954,4.0
38846,2015-01-13,1804,1838,34.0
38849,2015-01-13,1916,1911,-5.0
38869,2015-01-13,0740,0733,-7.0
38877,2015-01-13,0652,0652,0.0
38889,2015-01-13,0829,0827,-2.0
38891,2015-01-13,1350,1345,-5.0
38896,2015-01-13,2048,2243,115.0
38905,2015-01-13,0955,1016,21.0
38908,2015-01-13,1746,1728,-18.0
38916,2015-01-13,1942,1927,-15.0
38933,2015-01-13,0723,0710,-13.0
38935,2015-01-13,1921,1911,-10.0
38940,2015-01-13,1351,1350,-1.0
38941,2015-01-13,1029,1030,1.0
38942,2015-01-13,1621,1704,43.0
38952,2015-01-13,1135,1127,-8.0
38957,2015-01-13,0641,0814,93.0
38963,2015-01-13,1805,1805,0.0
38965,2015-01-13,1115,1110,-5.0
38972,2015-01-13,1829,1815,-14.0
38983,2015-01-13,1451,1445,-6.0
39004,2015-01-13,1815,1759,-16.0
39009,2015-01-13,1234,1240,6.0
39011,2015-01-13,0900,0904,4.0
39013,2015-01-13,1130,1116,-14.0
39015,2015-01-13,1347,1352,5.0
39030,2015-01-13,1652,1625,-27.0
39034,2015-01-13,1017,1009,-8.0
39038,2015-01-13,2020,2000,-20.0
39050,2015-01-13,0705,0652,-13.0
39052,2015-01-13,0737,0740,3.0
39053,2015-01-13,0805,0754,-11.0
39065,2015-01-13,1200,1147,-13.0
39070,2015-01-13,1849,1858,9.0
39071,2015-01-13,0835,0825,-10.0
39077,2015-01-13,1015,1008,-7.0
39080,2015-01-13,1520,1514,-6.0
39081,2015-01-13,1455,1607,72.0
39083,2015-01-13,1747,1847,60.0
39098,2015-01-13,0846,1332,286.0
39105,2015-01-13,1516,1442,-34.0
39108,2015-01-13,0725,0721,-4.0
39110,2015-01-13,1145,1147,2.0
39113,2015-01-13,1730,1731,1.0
39114,2015-01-13,0800,0811,11.0
39122,2015-01-13,1429,1410,-19.0
39124,2015-01-13,1841,1833,-8.0
39128,2015-01-13,1127,1133,6.0
39132,2015-01-13,1322,1323,1.0
39146,2015-01-13,1908,1912,4.0
39151,2015-01-13,1950,1920,-30.0
39160,2015-01-13,1851,1908,17.0
39168,2015-01-13,2000,2008,8.0
39176,2015-01-13,1944,1927,-17.0
39181,2015-01-13,0924,0858,-26.0
39182,2015-01-13,2052,2043,-9.0
39188,2015-01-13,0933,0945,12.0
39190,2015-01-13,0447,0433,-14.0
39196,2015-01-13,0926,0900,-26.0
39197,2015-01-13,1159,1251,52.0
39198,2015-01-13,2306,2215,-51.0
39207,2015-01-13,0959,1017,18.0
39220,2015-01-13,0459,0526,27.0
39221,2015-01-13,2032,2000,-32.0
39228,2015-01-13,1450,1429,-21.0
39231,2015-01-13,1254,1251,-3.0
39238,2015-01-13,2115,2108,-7.0
39244,2015-01-13,0738,0735,-3.0
39246,2015-01-13,1446,1435,-11.0
39255,2015-01-13,1709,1818,69.0
39264,2015-01-13,2037,2057,20.0
39266,2015-01-13,1803,1829,26.0
39271,2015-01-13,1114,1057,-17.0
39276,2015-01-13,0536,0509,-27.0
39277,2015-01-13,1755,1723,-32.0
39282,2015-01-13,1504,1513,9.0
39283,2015-01-13,1917,1946,29.0
39284,2015-01-13,1615,1625,10.0
39290,2015-01-13,2103,2115,12.0
39295,2015-01-13,1634,1611,-23.0
39303,2015-01-13,2354,2349,-5.0
39308,2015-01-13,1535,1557,22.0
39312,2015-01-13,0949,0932,-17.0
39316,2015-01-13,2256,2226,-30.0
39320,2015-01-13,1934,1947,13.0
39325,2015-01-13,0905,0917,12.0
39328,2015-01-13,1119,1058,-21.0
39329,2015-01-13,1244,1233,-11.0
39334,2015-01-13,1022,1022,0.0
39340,2015-01-13,1150,1137,-13.0
39343,2015-01-13,2000,1947,-13.0
39347,2015-01-13,1754,1721,-33.0
39356,2015-01-13,2226,2138,-48.0
39365,2015-01-13,1020,0958,-22.0
39372,2015-01-13,2025,2001,-24.0
39380,2015-01-13,1838,1810,-28.0
39392,2015-01-13,1602,1558,-4.0
39410,2015-01-13,1147,1126,-21.0
39411,2015-01-13,1655,1642,-13.0
39413,2015-01-13,1218,1203,-15.0
39418,2015-01-13,1441,1421,-20.0
39428,2015-01-13,2255,2304,9.0
39430,2015-01-13,0919,0940,21.0
39432,2015-01-13,1513,1448,-25.0
39436,2015-01-13,1704,1656,-8.0
39447,2015-01-13,0735,0717,-18.0
39455,2015-01-13,2241,2239,-2.0
39456,2015-01-13,2144,2129,-15.0
39460,2015-01-13,1117,1112,-5.0
39468,2015-01-13,1407,1344,-23.0
39469,2015-01-13,1855,1815,-40.0
39474,2015-01-13,2031,2027,-4.0
39478,2015-01-13,1100,1100,0.0
39486,2015-01-13,1212,1227,15.0
39490,2015-01-13,0825,0902,37.0
39492,2015-01-13,1135,1129,-6.0
39494,2015-01-13,2128,2107,-21.0
39495,2015-01-13,2034,2030,-4.0
39504,2015-01-13,0950,1211,141.0
39506,2015-01-13,1050,1227,97.0
39508,2015-01-13,1135,1118,-17.0
39512,2015-01-13,1903,1922,19.0
39513,2015-01-13,2115,2054,-21.0
39519,2015-01-13,1735,1720,-15.0
39529,2015-01-13,2015,2023,8.0
39537,2015-01-13,1343,1353,10.0
39538,2015-01-13,0508,0556,48.0
39541,2015-01-13,1858,1850,-8.0
39542,2015-01-13,1957,1940,-17.0
39555,2015-01-13,1445,1447,2.0
39589,2015-01-13,1831,1819,-12.0
39592,2015-01-13,1909,1852,-17.0
39596,2015-01-13,2033,2033,0.0
39602,2015-01-13,1910,1842,-28.0
39605,2015-01-13,1652,1635,-17.0
39607,2015-01-13,2114,2040,-34.0
39609,2015-01-13,1046,1050,4.0
39620,2015-01-13,1306,1248,-18.0
39642,2015-01-13,0905,0933,28.0
39645,2015-01-13,1148,1149,1.0
39649,2015-01-13,2013,2004,-9.0
39671,2015-01-13,1534,1519,-15.0
39672,2015-01-13,1752,1811,19.0
39676,2015-01-13,1030,1014,-16.0
39677,2015-01-13,1424,1359,-25.0
39678,2015-01-13,1523,1519,-4.0
39679,2015-01-13,1219,1206,-13.0
39686,2015-01-13,1620,1533,-47.0
39688,2015-01-13,2050,2018,-32.0
39704,2015-01-13,2010,1955,-15.0
39712,2015-01-13,2000,1951,-9.0
39713,2015-01-13,1500,1509,9.0
39715,2015-01-13,1230,1229,-1.0
39717,2015-01-13,0925,0919,-6.0
39718,2015-01-13,2155,2145,-10.0
39728,2015-01-13,1100,1040,-20.0
39729,2015-01-13,2125,2111,-14.0
39730,2015-01-13,1030,0958,-32.0
39733,2015-01-13,1250,1218,-32.0
39734,2015-01-13,1624,1538,-46.0
39736,2015-01-13,2025,1946,-39.0
39737,2015-01-13,2326,2247,-39.0
39740,2015-01-13,1155,1145,-10.0
39742,2015-01-13,1640,1626,-14.0
39760,2015-01-13,1130,1128,-2.0
39762,2015-01-13,1930,1916,-14.0
39766,2015-01-13,0915,0928,13.0
39769,2015-01-13,1420,1421,1.0
39771,2015-01-13,1905,1911,6.0
39772,2015-01-13,1150,1135,-15.0
39782,2015-01-13,0800,0757,-3.0
39786,2015-01-13,1445,1440,-5.0
39788,2015-01-13,1650,1644,-6.0
39791,2015-01-13,1730,1717,-13.0
39792,2015-01-13,1845,1843,-2.0
39794,2015-01-13,2005,1952,-13.0
39796,2015-01-13,2210,2153,-17.0
39806,2015-01-13,2000,1925,-35.0
39810,2015-01-13,0725,0727,2.0
39811,2015-01-13,1850,1851,1.0
39817,2015-01-13,1450,1435,-15.0
39818,2015-01-13,2205,2142,-23.0
39865,2015-01-13,1305,1251,-14.0
39869,2015-01-13,1705,1828,83.0
39870,2015-01-13,2005,2018,13.0
39871,2015-01-13,1150,1223,33.0
39872,2015-01-13,0815,0815,0.0
39880,2015-01-13,1020,1001,-19.0
39881,2015-01-13,1545,1609,24.0
39882,2015-01-13,1220,1210,-10.0
39883,2015-01-13,0740,0722,-18.0
39884,2015-01-13,1825,1800,-25.0
39885,2015-01-13,2235,2216,-19.0
39894,2015-01-13,1910,1908,-2.0
39895,2015-01-13,1110,1118,8.0
39896,2015-01-13,2250,2307,17.0
39897,2015-01-13,0820,0804,-16.0
39898,2015-01-13,1410,1420,10.0
39914,2015-01-13,1640,1630,-10.0
39915,2015-01-13,0910,0858,-12.0
39916,2015-01-13,1855,1939,44.0
39917,2015-01-13,2150,2159,9.0
39918,2015-01-13,1405,1359,-6.0
39919,2015-01-13,1050,1032,-18.0
39920,2015-01-13,1510,,
39921,2015-01-13,0805,0757,-8.0
39922,2015-01-13,2255,2236,-19.0
39923,2015-01-13,1135,1123,-12.0
39924,2015-01-13,2045,2027,-18.0
40092,2015-01-13,1605,1614,9.0
40093,2015-01-13,1030,1016,-14.0
40096,2015-01-13,1130,1111,-19.0
40097,2015-01-13,1815,1800,-15.0
40098,2015-01-13,1350,1322,-28.0
40099,2015-01-13,2150,2118,-32.0
40100,2015-01-13,0850,0820,-30.0
40111,2015-01-13,1920,1921,1.0
40112,2015-01-13,0855,0900,5.0
40113,2015-01-13,1215,1208,-7.0
40117,2015-01-13,1110,1057,-13.0
40118,2015-01-13,1750,1745,-5.0
40119,2015-01-13,2100,2052,-8.0
40183,2015-01-13,1120,1051,-29.0
40184,2015-01-13,2230,2153,-37.0
40186,2015-01-13,0635,0636,1.0
40187,2015-01-13,1200,1155,-5.0
40188,2015-01-13,1905,1922,17.0
40211,2015-01-13,0945,1001,16.0
40212,2015-01-13,1300,1239,-21.0
40214,2015-01-13,1705,1708,3.0
40215,2015-01-13,1300,1323,23.0
40253,2015-01-13,1635,1629,-6.0
40254,2015-01-13,2115,2103,-12.0
40255,2015-01-13,1330,1333,3.0
40256,2015-01-13,1835,1834,-1.0
40257,2015-01-13,2205,2157,-8.0
40258,2015-01-13,1245,1252,7.0
40259,2015-01-13,0820,0820,0.0
40260,2015-01-13,1020,1016,-4.0
40261,2015-01-13,0915,0912,-3.0
40262,2015-01-13,1455,1446,-9.0
40263,2015-01-13,1750,1809,19.0
40264,2015-01-13,0720,0722,2.0
40265,2015-01-13,1950,1941,-9.0
40266,2015-01-13,1205,1205,0.0
40368,2015-01-13,0630,0633,3.0
40369,2015-01-13,1340,1340,0.0
40370,2015-01-13,1945,1941,-4.0
40371,2015-01-13,2110,2104,-6.0
40372,2015-01-13,1525,1605,40.0
40373,2015-01-13,1710,1712,2.0
40374,2015-01-13,0830,0828,-2.0
40375,2015-01-13,1135,1127,-8.0
40376,2015-01-13,1235,1223,-12.0
40421,2015-01-13,0820,0805,-15.0
40422,2015-01-13,1610,1557,-13.0
40518,2015-01-13,1845,1843,-2.0
40519,2015-01-13,1250,1309,19.0
40547,2015-01-13,1130,,
40548,2015-01-13,1425,1423,-2.0
40549,2015-01-13,1030,1014,-16.0
40550,2015-01-13,0915,0911,-4.0
40551,2015-01-13,0725,0709,-16.0
40552,2015-01-13,1320,1344,24.0
40553,2015-01-13,1655,1657,2.0
40554,2015-01-13,1950,1921,-29.0
40555,2015-01-13,1805,1746,-19.0
40556,2015-01-13,2155,2144,-11.0
40599,2015-01-13,1040,1033,-7.0
40600,2015-01-13,1655,1705,10.0
40601,2015-01-13,1445,1447,2.0
40602,2015-01-13,2255,2254,-1.0
40603,2015-01-13,0745,0744,-1.0
40604,2015-01-13,1930,1918,-12.0
40605,2015-01-13,1135,1133,-2.0
40606,2015-01-13,1300,1310,10.0
40607,2015-01-13,0930,0954,24.0
40608,2015-01-13,1835,1823,-12.0
40609,2015-01-13,2130,2117,-13.0
40644,2015-01-13,2025,2024,-1.0
40645,2015-01-13,1330,1543,133.0
40646,2015-01-13,0915,0858,-17.0
40669,2015-01-13,0820,0812,-8.0
40670,2015-01-13,1820,1813,-7.0
40671,2015-01-13,1025,1034,9.0
40672,2015-01-13,1425,1415,-10.0
40673,2015-01-13,1235,1240,5.0
40674,2015-01-13,1620,1639,19.0
40675,2015-01-13,2250,2239,-11.0
40676,2015-01-13,2025,2020,-5.0
40677,2015-01-13,0705,0655,-10.0
