,FL_DATE,CRS_ARR_TIME,ARR_TIME,ARR_DELAY
73692,2015-01-25,1235,1145,-50.0
73694,2015-01-25,1555,1501,-54.0
73696,2015-01-25,1032,0936,-56.0
73699,2015-01-25,0604,0551,-13.0
73703,2015-01-25,1429,1350,-39.0
73705,2015-01-25,2211,2243,32.0
73715,2015-01-25,1133,1038,-55.0
73718,2015-01-25,1824,1722,-62.0
73721,2015-01-25,2007,1929,-38.0
73722,2015-01-25,1517,1549,32.0
73729,2015-01-25,1149,1111,-38.0
73735,2015-01-25,1641,1604,-37.0
73738,2015-01-25,2103,2056,-7.0
73741,2015-01-25,1949,1935,-14.0
73744,2015-01-25,1041,1043,2.0
73746,2015-01-25,2126,2143,17.0
73761,2015-01-25,1041,0939,-62.0
73763,2015-01-25,2159,2137,-22.0
73765,2015-01-25,0938,0940,2.0
73768,2015-01-25,1343,1318,-25.0
73770,2015-01-25,0922,1043,81.0
73775,2015-01-25,2104,2030,-34.0
73777,2015-01-25,0832,0818,-14.0
73778,2015-01-25,0028,2345,-43.0
73780,2015-01-25,1914,1857,-17.0
73782,2015-01-25,2233,2237,4.0
73786,2015-01-25,1555,1556,1.0
73788,2015-01-25,1703,1800,57.0
73790,2015-01-25,2318,2224,-54.0
73791,2015-01-25,1229,1229,0.0
73793,2015-01-25,0520,0513,-7.0
73796,2015-01-25,1956,2005,9.0
73800,2015-01-25,2219,2213,-6.0
73807,2015-01-25,1030,1026,-4.0
73812,2015-01-25,2351,2258,-53.0
73813,2015-01-25,1246,1221,-25.0
73819,2015-01-25,2007,1918,-49.0
73820,2015-01-25,0540,0538,-2.0
73823,2015-01-25,2132,2139,7.0
73824,2015-01-25,1330,1228,-62.0
73834,2015-01-25,2257,2257,0.0
73842,2015-01-25,0945,1017,32.0
73847,2015-01-25,1033,1011,-22.0
73849,2015-01-25,2058,2044,-14.0
73851,2015-01-25,2355,2354,-1.0
73856,2015-01-25,0834,0822,-12.0
73865,2015-01-25,2059,2055,-4.0
73868,2015-01-25,0841,0831,-10.0
73875,2015-01-25,1015,0927,-48.0
73876,2015-01-25,1052,1002,-50.0
73879,2015-01-25,1604,1556,-8.0
73880,2015-01-25,2123,2042,-41.0
73882,2015-01-25,1229,1207,-22.0
73897,2015-01-25,1401,1325,-36.0
73898,2015-01-25,1814,1736,-38.0
73903,2015-01-25,2150,2308,78.0
73906,2015-01-25,1948,1946,-2.0
73910,2015-01-25,2036,2024,-12.0
73917,2015-01-25,1523,1514,-9.0
73921,2015-01-25,1438,1410,-28.0
73926,2015-01-25,1422,1412,-10.0
73930,2015-01-25,1125,1108,-17.0
73931,2015-01-25,2009,1955,-14.0
73936,2015-01-25,1853,1852,-1.0
73940,2015-01-25,1333,1316,-17.0
73942,2015-01-25,1429,1416,-13.0
73944,2015-01-25,1451,1432,-19.0
73945,2015-01-25,1522,1529,7.0
73949,2015-01-25,0816,0806,-10.0
73953,2015-01-25,0929,0900,-29.0
73955,2015-01-25,2302,2228,-34.0
73956,2015-01-25,1043,1036,-7.0
73960,2015-01-25,1204,1458,174.0
73964,2015-01-25,2300,2230,-30.0
73966,2015-01-25,1952,1941,-11.0
73967,2015-01-25,1555,1555,0.0
73971,2015-01-25,2058,2050,-8.0
73972,2015-01-25,2349,2319,-30.0
73974,2015-01-25,2204,2145,-19.0
73975,2015-01-25,1718,1714,-4.0
73976,2015-01-25,1758,1749,-9.0
73978,2015-01-25,1223,1118,-65.0
73981,2015-01-25,0600,0602,2.0
74049,2015-01-25,1244,1239,-5.0
74051,2015-01-25,2034,2034,0.0
74053,2015-01-25,1540,1546,6.0
74055,2015-01-25,2128,2129,1.0
74056,2015-01-25,1144,1134,-10.0
74057,2015-01-25,0902,0912,10.0
74059,2015-01-25,1343,1345,2.0
74060,2015-01-25,0842,0823,-19.0
74062,2015-01-25,2220,2229,9.0
74064,2015-01-25,1432,1424,-8.0
74067,2015-01-25,2134,2142,8.0
74069,2015-01-25,0938,0935,-3.0
74071,2015-01-25,1647,1656,9.0
74077,2015-01-25,1030,1022,-8.0
74105,2015-01-25,0859,0910,11.0
74107,2015-01-25,2018,2018,0.0
74110,2015-01-25,1203,1206,3.0
74111,2015-01-25,1650,1649,-1.0
74129,2015-01-25,0805,0734,-31.0
74159,2015-01-25,1135,1053,-42.0
74170,2015-01-25,2151,2150,-1.0
74172,2015-01-25,1149,1118,-31.0
74174,2015-01-25,0947,0907,-40.0
74177,2015-01-25,1259,1211,-48.0
74186,2015-01-25,1920,1843,-37.0
74206,2015-01-25,1439,1350,-49.0
74210,2015-01-25,2158,2129,-29.0
74215,2015-01-25,2055,2030,-25.0
74218,2015-01-25,2258,2208,-50.0
74221,2015-01-25,1421,1427,6.0
74222,2015-01-25,0056,0028,-28.0
74248,2015-01-25,0933,0911,-22.0
74259,2015-01-25,2001,1938,-23.0
74260,2015-01-25,2122,2120,-2.0
74266,2015-01-25,1702,1650,-12.0
74282,2015-01-25,1548,1559,11.0
74288,2015-01-25,2110,2123,13.0
74290,2015-01-25,2107,2056,-11.0
74291,2015-01-25,0540,0533,-7.0
74295,2015-01-25,1640,1628,-12.0
74296,2015-01-25,2020,1931,-49.0
74297,2015-01-25,1800,1751,-9.0
74303,2015-01-25,0615,0617,2.0
74307,2015-01-25,0940,0910,-30.0
74313,2015-01-25,1018,0959,-19.0
74314,2015-01-25,1505,1505,0.0
74319,2015-01-25,1726,1650,-36.0
74322,2015-01-25,2040,1942,-58.0
74323,2015-01-25,1255,1212,-43.0
74324,2015-01-25,1905,1806,-59.0
74325,2015-01-25,0045,2345,-60.0
74329,2015-01-25,1505,1403,-62.0
74330,2015-01-25,2210,2123,-47.0
74333,2015-01-25,1155,1131,-24.0
74335,2015-01-25,1930,1924,-6.0
74347,2015-01-25,1007,0957,-10.0
74349,2015-01-25,2349,2347,-2.0
74352,2015-01-25,1155,1114,-41.0
74356,2015-01-25,0735,0728,-7.0
74358,2015-01-25,1325,1245,-40.0
74360,2015-01-25,1030,1015,-15.0
74362,2015-01-25,1330,1251,-39.0
74366,2015-01-25,2215,2203,-12.0
74370,2015-01-25,1745,1730,-15.0
74373,2015-01-25,1428,1407,-21.0
74383,2015-01-25,1100,1058,-2.0
74385,2015-01-25,1410,1317,-53.0
74390,2015-01-25,1610,1538,-32.0
74397,2015-01-25,0625,0622,-3.0
74398,2015-01-25,2205,2154,-11.0
74411,2015-01-25,1130,1034,-56.0
74414,2015-01-25,1950,1918,-32.0
74417,2015-01-25,0900,0811,-49.0
74421,2015-01-25,1600,1547,-13.0
74423,2015-01-25,2151,0152,241.0
74427,2015-01-25,1440,1423,-17.0
74428,2015-01-25,1050,1027,-23.0
74432,2015-01-25,0935,0936,1.0
74436,2015-01-25,2005,1925,-40.0
74445,2015-01-25,0649,0642,-7.0
74448,2015-01-25,2145,2114,-31.0
74450,2015-01-25,1125,1118,-7.0
74454,2015-01-25,1225,1200,-25.0
74458,2015-01-25,1820,1740,-40.0
74460,2015-01-25,1610,1603,-7.0
74475,2015-01-25,2350,2312,-38.0
74478,2015-01-25,2359,2330,-29.0
74485,2015-01-25,2100,2023,-37.0
74487,2015-01-25,0750,0747,-3.0
74490,2015-01-25,1240,1203,-37.0
74499,2015-01-25,2245,2257,12.0
74501,2015-01-25,0950,0936,-14.0
74515,2015-01-25,2205,2216,11.0
74517,2015-01-25,0555,0555,0.0
74519,2015-01-25,1525,1525,0.0
74529,2015-01-25,2345,0007,22.0
74532,2015-01-25,1843,2215,212.0
74550,2015-01-25,0934,0911,-23.0
74552,2015-01-25,1407,1354,-13.0
74557,2015-01-25,1915,1929,14.0
74562,2015-01-25,1703,1645,-18.0
74569,2015-01-25,1444,1425,-19.0
74573,2015-01-25,1843,2001,78.0
74574,2015-01-25,2008,2109,61.0
74577,2015-01-25,2131,2126,-5.0
74580,2015-01-25,1002,0926,-36.0
74582,2015-01-25,1706,1709,3.0
74583,2015-01-25,2100,2058,-2.0
74585,2015-01-25,1331,1355,24.0
74587,2015-01-25,0836,0813,-23.0
74594,2015-01-25,0922,0948,26.0
74597,2015-01-25,2012,2001,-11.0
74598,2015-01-25,0904,0855,-9.0
74601,2015-01-25,1624,1643,19.0
74603,2015-01-25,1455,1453,-2.0
74605,2015-01-25,2024,2022,-2.0
74607,2015-01-25,1820,1948,88.0
74610,2015-01-25,1605,1604,-1.0
74611,2015-01-25,1705,1655,-10.0
74613,2015-01-25,0834,0813,-21.0
74621,2015-01-25,2121,2137,16.0
74624,2015-01-25,1304,1255,-9.0
74626,2015-01-25,1956,1947,-9.0
74628,2015-01-25,1714,1734,20.0
74630,2015-01-25,0810,0741,-29.0
74632,2015-01-25,1909,1912,3.0
74634,2015-01-25,1459,1510,11.0
74637,2015-01-25,0721,0706,-15.0
74640,2015-01-25,1620,1603,-17.0
74641,2015-01-25,0801,0741,-20.0
74642,2015-01-25,0915,0912,-3.0
74644,2015-01-25,1049,1225,96.0
74648,2015-01-25,1749,1747,-2.0
74659,2015-01-25,2359,2344,-15.0
74666,2015-01-25,1030,1026,-4.0
74668,2015-01-25,1550,1540,-10.0
74669,2015-01-25,1254,1235,-19.0
74682,2015-01-25,1755,1805,10.0
74684,2015-01-25,1800,1742,-18.0
74695,2015-01-25,0909,0907,-2.0
74696,2015-01-25,0920,0913,-7.0
74707,2015-01-25,1216,1227,11.0
74713,2015-01-25,1454,1454,0.0
74723,2015-01-25,1303,1315,12.0
74725,2015-01-25,0718,0656,-22.0
74730,2015-01-25,1733,1720,-13.0
74746,2015-01-25,1505,1504,-1.0
74754,2015-01-25,1350,1339,-11.0
74770,2015-01-25,1300,1256,-4.0
74771,2015-01-25,2030,2018,-12.0
74772,2015-01-25,1524,1532,8.0
74773,2015-01-25,1221,1220,-1.0
74775,2015-01-25,1320,1307,-13.0
74798,2015-01-25,1500,1517,17.0
74800,2015-01-25,1350,1358,8.0
74820,2015-01-25,0725,0720,-5.0
74822,2015-01-25,1950,1946,-4.0
74824,2015-01-25,1455,1458,3.0
74826,2015-01-25,1910,1907,-3.0
74829,2015-01-25,1255,1242,-13.0
74839,2015-01-25,0845,0857,12.0
74841,2015-01-25,2050,2052,2.0
74844,2015-01-25,0711,0704,-7.0
74848,2015-01-25,1603,1551,-12.0
74851,2015-01-25,1530,1518,-12.0
74853,2015-01-25,1055,1038,-17.0
74857,2015-01-25,1755,1745,-10.0
74858,2015-01-25,1915,1911,-4.0
74859,2015-01-25,0945,0935,-10.0
74860,2015-01-25,0703,0717,14.0
74862,2015-01-25,1909,1902,-7.0
74866,2015-01-25,1915,1916,1.0
74867,2015-01-25,0854,0912,18.0
74868,2015-01-25,1921,1917,-4.0
74871,2015-01-25,1334,1333,-1.0
74872,2015-01-25,0828,0816,-12.0
74881,2015-01-25,1150,1209,19.0
74890,2015-01-25,1505,1436,-29.0
74901,2015-01-25,1705,1715,10.0
74903,2015-01-25,1945,1941,-4.0
74907,2015-01-25,1434,1429,-5.0
74919,2015-01-25,1650,1646,-4.0
74926,2015-01-25,2055,2050,-5.0
74933,2015-01-25,1957,1945,-12.0
74934,2015-01-25,1916,2040,84.0
74937,2015-01-25,1918,1916,-2.0
74959,2015-01-25,0740,0745,5.0
74960,2015-01-25,1743,1720,-23.0
74969,2015-01-25,0652,0640,-12.0
74973,2015-01-25,1630,1633,3.0
74986,2015-01-25,1350,1414,24.0
74992,2015-01-25,2048,2043,-5.0
74994,2015-01-25,1541,1554,13.0
75000,2015-01-25,0922,0913,-9.0
75003,2015-01-25,1651,1639,-12.0
75009,2015-01-25,2042,2007,-35.0
75015,2015-01-25,1950,1926,-24.0
75027,2015-01-25,0855,0841,-14.0
75034,2015-01-25,2056,2106,10.0
75036,2015-01-25,1351,1353,2.0
75038,2015-01-25,1118,1434,196.0
75039,2015-01-25,1521,1507,-14.0
75040,2015-01-25,1740,1906,86.0
75051,2015-01-25,1135,1149,14.0
75056,2015-01-25,0641,0613,-28.0
75061,2015-01-25,1058,1121,23.0
75066,2015-01-25,1829,1809,-20.0
75074,2015-01-25,1538,1540,2.0
75092,2015-01-25,1820,1811,-9.0
75097,2015-01-25,1144,1159,15.0
75100,2015-01-25,1017,1002,-15.0
75102,2015-01-25,1106,1054,-12.0
75104,2015-01-25,1306,1248,-18.0
75120,2015-01-25,1652,1647,-5.0
75123,2015-01-25,1831,1822,-9.0
75127,2015-01-25,2020,2012,-8.0
75135,2015-01-25,1015,1019,4.0
75138,2015-01-25,0705,0649,-16.0
75140,2015-01-25,0737,0728,-9.0
75141,2015-01-25,0800,0740,-20.0
75154,2015-01-25,1200,1207,7.0
75157,2015-01-25,1854,1901,7.0
75158,2015-01-25,0835,0824,-11.0
75165,2015-01-25,1030,1037,7.0
75166,2015-01-25,1654,1703,9.0
75168,2015-01-25,1747,1742,-5.0
75184,2015-01-25,0846,0813,-33.0
75191,2015-01-25,1921,2011,50.0
75194,2015-01-25,1730,1757,27.0
75195,2015-01-25,0711,0726,15.0
75197,2015-01-25,1149,1157,8.0
75210,2015-01-25,0459,0455,-4.0
75211,2015-01-25,2032,1929,-63.0
75224,2015-01-25,1504,1450,-14.0
75228,2015-01-25,1054,1038,-16.0
75230,2015-01-25,1254,1226,-28.0
75233,2015-01-25,1851,1902,11.0
75246,2015-01-25,0738,0716,-22.0
75248,2015-01-25,1446,1346,-60.0
75261,2015-01-25,2038,2034,-4.0
75264,2015-01-25,1803,1813,10.0
75267,2015-01-25,1139,1126,-13.0
75268,2015-01-25,1322,1255,-27.0
75273,2015-01-25,2330,2323,-7.0
75277,2015-01-25,1947,1901,-46.0
75279,2015-01-25,0536,0541,5.0
75281,2015-01-25,1755,1714,-41.0
75291,2015-01-25,0919,0844,-35.0
75299,2015-01-25,1934,1945,11.0
75300,2015-01-25,1711,1658,-13.0
75308,2015-01-25,1634,1555,-39.0
75309,2015-01-25,1441,1455,14.0
75318,2015-01-25,1655,1639,-16.0
75323,2015-01-25,1615,1620,5.0
75327,2015-01-25,1910,1859,-11.0
75332,2015-01-25,1707,1714,7.0
75334,2015-01-25,1112,1111,-1.0
75336,2015-01-25,1735,1733,-2.0
75338,2015-01-25,1917,1913,-4.0
75349,2015-01-25,2111,2056,-15.0
75351,2015-01-25,2255,2307,12.0
75353,2015-01-25,1858,1856,-2.0
75354,2015-01-25,1513,1421,-52.0
75364,2015-01-25,1218,1211,-7.0
75367,2015-01-25,2241,2240,-1.0
75368,2015-01-25,1117,1035,-42.0
75371,2015-01-25,2144,2102,-42.0
75373,2015-01-25,0736,0722,-14.0
75375,2015-01-25,1401,1352,-9.0
75380,2015-01-25,2031,2016,-15.0
75387,2015-01-25,2115,2136,21.0
75401,2015-01-25,2100,2043,-17.0
75406,2015-01-25,0929,0925,-4.0
75413,2015-01-25,1213,1213,0.0
75422,2015-01-25,1143,1103,-40.0
75426,2015-01-25,1958,1939,-19.0
75432,2015-01-25,2223,2206,-17.0
75442,2015-01-25,1945,1946,1.0
75449,2015-01-25,1856,1752,-64.0
75452,2015-01-25,2354,0008,14.0
75457,2015-01-25,2256,2311,15.0
75460,2015-01-25,1838,1805,-33.0
75462,2015-01-25,1240,1212,-28.0
75466,2015-01-25,2320,2314,-6.0
75486,2015-01-25,2025,2017,-8.0
75489,2015-01-25,2015,2009,-6.0
75490,2015-01-25,2110,2125,15.0
75493,2015-01-25,1628,1708,40.0
75494,2015-01-25,1957,2019,22.0
75508,2015-01-25,1426,1345,-41.0
75523,2015-01-25,1446,1453,7.0
75530,2015-01-25,1429,1406,-23.0
75531,2015-01-25,2000,1947,-13.0
75568,2015-01-25,1342,1330,-12.0
75571,2015-01-25,1016,0923,-53.0
75579,2015-01-25,1601,1609,8.0
75580,2015-01-25,2052,2112,20.0
75583,2015-01-25,0933,0933,0.0
75587,2015-01-25,0447,0425,-22.0
75594,2015-01-25,1159,1107,-52.0
75595,2015-01-25,2306,2254,-12.0
75604,2015-01-25,1058,1052,-6.0
75609,2015-01-25,1212,1201,-11.0
75615,2015-01-25,0728,0733,5.0
75618,2015-01-25,1550,1632,42.0
75620,2015-01-25,1135,1130,-5.0
75621,2015-01-25,1502,1458,-4.0
75622,2015-01-25,2128,2116,-12.0
75626,2015-01-25,1903,1909,6.0
75634,2015-01-25,2034,2034,0.0
75635,2015-01-25,1950,1950,0.0
75636,2015-01-25,1020,1002,-18.0
75645,2015-01-25,1556,1539,-17.0
75646,2015-01-25,1752,2235,283.0
75649,2015-01-25,1909,1913,4.0
75653,2015-01-25,2033,2017,-16.0
75655,2015-01-25,1041,1000,-41.0
75663,2015-01-25,1910,1838,-32.0
75666,2015-01-25,1652,1601,-51.0
75668,2015-01-25,2114,2059,-15.0
75670,2015-01-25,1046,1017,-29.0
75683,2015-01-25,1306,1218,-48.0
75686,2015-01-25,2221,2139,-42.0
75687,2015-01-25,1424,1353,-31.0
75688,2015-01-25,1523,1508,-15.0
75690,2015-01-25,1219,1151,-28.0
75714,2015-01-25,0905,0839,-26.0
75716,2015-01-25,1148,1139,-9.0
75719,2015-01-25,2013,2006,-7.0
75751,2015-01-25,2133,2148,15.0
75760,2015-01-25,1837,1805,-32.0
75764,2015-01-25,1831,1829,-2.0
75767,2015-01-25,1937,1844,-53.0
75774,2015-01-25,0915,0908,-7.0
75775,2015-01-25,1200,1156,-4.0
75777,2015-01-25,1620,1526,-54.0
75779,2015-01-25,2050,2015,-35.0
75788,2015-01-25,1550,1543,-7.0
75791,2015-01-25,2235,2239,4.0
75803,2015-01-25,2010,2025,15.0
75811,2015-01-25,2000,1939,-21.0
75812,2015-01-25,1000,0944,-16.0
75813,2015-01-25,1500,2017,317.0
75815,2015-01-25,1230,1229,-1.0
75817,2015-01-25,0925,0930,5.0
75818,2015-01-25,2155,2137,-18.0
75831,2015-01-25,2125,2108,-17.0
75835,2015-01-25,1250,1156,-54.0
75836,2015-01-25,1624,1531,-53.0
75838,2015-01-25,2025,1936,-49.0
75839,2015-01-25,2326,2251,-35.0
75842,2015-01-25,1155,1144,-11.0
75844,2015-01-25,1640,1639,-1.0
75847,2015-01-25,2050,2042,-8.0
75864,2015-01-25,1040,1029,-11.0
75866,2015-01-25,1930,1931,1.0
75870,2015-01-25,1120,1109,-11.0
75872,2015-01-25,1905,1856,-9.0
75886,2015-01-25,1125,1111,-14.0
75889,2015-01-25,1445,1442,-3.0
75891,2015-01-25,1650,1646,-4.0
75894,2015-01-25,1730,1726,-4.0
75895,2015-01-25,1845,1842,-3.0
75898,2015-01-25,2005,2327,202.0
75900,2015-01-25,2210,2208,-2.0
75909,2015-01-25,2000,1939,-21.0
75910,2015-01-25,1705,1657,-8.0
75911,2015-01-25,2005,2011,6.0
75912,2015-01-25,1100,1042,-18.0
75913,2015-01-25,1150,1129,-21.0
75921,2015-01-25,1350,1332,-18.0
75922,2015-01-25,2150,2128,-22.0
75923,2015-01-25,1815,1741,-34.0
75924,2015-01-25,1130,1050,-40.0
75925,2015-01-25,1920,1906,-14.0
75926,2015-01-25,1215,1220,5.0
75929,2015-01-25,1750,1730,-20.0
75930,2015-01-25,2100,2029,-31.0
75934,2015-01-25,1850,1835,-15.0
75938,2015-01-25,1450,1406,-44.0
75939,2015-01-25,2205,2110,-55.0
75979,2015-01-25,1300,1209,-51.0
76006,2015-01-25,1545,1519,-26.0
76007,2015-01-25,1220,1202,-18.0
76008,2015-01-25,1825,1911,46.0
76009,2015-01-25,2235,2223,-12.0
76028,2015-01-25,0945,0929,-16.0
76029,2015-01-25,2100,2101,1.0
76031,2015-01-25,1110,1057,-13.0
76032,2015-01-25,2250,2219,-31.0
76033,2015-01-25,1905,1935,30.0
76034,2015-01-25,1320,1300,-20.0
76048,2015-01-25,1640,1633,-7.0
76049,2015-01-25,1855,1957,62.0
76050,2015-01-25,2150,2213,23.0
76051,2015-01-25,1240,1244,4.0
76052,2015-01-25,1405,1411,6.0
76053,2015-01-25,1510,1512,2.0
76054,2015-01-25,1050,1038,-12.0
76055,2015-01-25,0905,0855,-10.0
76056,2015-01-25,2255,2304,9.0
76057,2015-01-25,2045,2033,-12.0
76058,2015-01-25,1135,1121,-14.0
76198,2015-01-25,1605,1530,-35.0
76199,2015-01-25,1015,0935,-40.0
76210,2015-01-25,1305,1226,-39.0
76212,2015-01-25,1705,1658,-7.0
76244,2015-01-25,1635,1654,19.0
76245,2015-01-25,2115,2114,-1.0
76246,2015-01-25,1330,1324,-6.0
76247,2015-01-25,1835,1840,5.0
76248,2015-01-25,2205,2214,9.0
76249,2015-01-25,1245,1249,4.0
76250,2015-01-25,1455,1450,-5.0
76251,2015-01-25,1750,1833,43.0
76252,2015-01-25,1950,2007,17.0
76253,2015-01-25,1205,1221,16.0
76334,2015-01-25,1340,1311,-29.0
76335,2015-01-25,1945,1949,4.0
76336,2015-01-25,2110,2109,-1.0
76337,2015-01-25,1710,1712,2.0
76338,2015-01-25,1525,1500,-25.0
76339,2015-01-25,1135,1111,-24.0
76340,2015-01-25,1235,1213,-22.0
76378,2015-01-25,1610,1602,-8.0
76461,2015-01-25,1845,1907,22.0
76462,2015-01-25,1250,1221,-29.0
76486,2015-01-25,1130,1120,-10.0
76487,2015-01-25,1425,1424,-1.0
76488,2015-01-25,1320,1323,3.0
76489,2015-01-25,1655,1722,27.0
76490,2015-01-25,1950,1932,-18.0
76491,2015-01-25,1805,1758,-7.0
76492,2015-01-25,2155,2154,-1.0
76508,2015-01-25,1655,1710,15.0
76509,2015-01-25,1445,1443,-2.0
76510,2015-01-25,2255,2249,-6.0
76511,2015-01-25,1930,1917,-13.0
76512,2015-01-25,1135,1124,-11.0
76513,2015-01-25,1300,1301,1.0
76514,2015-01-25,1835,1836,1.0
76515,2015-01-25,2130,2129,-1.0
76542,2015-01-25,2025,2049,24.0
76543,2015-01-25,1330,1330,0.0
76544,2015-01-25,0855,0821,-34.0
76563,2015-01-25,1820,1818,-2.0
76564,2015-01-25,1425,1423,-2.0
76565,2015-01-25,1235,1243,8.0
76566,2015-01-25,1620,1630,10.0
76567,2015-01-25,1105,1055,-10.0
76568,2015-01-25,2250,2245,-5.0
76569,2015-01-25,2025,2027,2.0
76641,2015-01-25,2230,2242,12.0
76643,2015-01-25,1200,1144,-16.0
76644,2015-01-25,1905,1908,3.0
