,FL_DATE,CRS_ARR_TIME,ARR_TIME,ARR_DELAY
15,2015-01-01,1620,1700,40.0
20,2015-01-01,1720,1933,133.0
31,2015-01-01,1425,1420,-5.0
35,2015-01-01,1330,1314,-16.0
43,2015-01-01,1205,1150,-15.0
71,2015-01-01,2040,2125,45.0
94,2015-01-01,1840,1941,61.0
101,2015-01-01,1155,,
121,2015-01-01,2000,2314,194.0
123,2015-01-01,1820,1819,-1.0
125,2015-01-01,2120,2155,35.0
138,2015-01-01,1345,1412,27.0
148,2015-01-01,1450,1455,5.0
150,2015-01-01,1945,1938,-7.0
152,2015-01-01,2020,2040,20.0
156,2015-01-01,2220,2237,17.0
157,2015-01-01,1315,1356,41.0
161,2015-01-01,2245,2259,14.0
163,2015-01-01,1400,1358,-2.0
166,2015-01-01,0545,0532,-13.0
167,2015-01-01,1130,,
170,2015-01-01,1210,1232,22.0
177,2015-01-01,1540,1542,2.0
178,2015-01-01,1215,1300,45.0
180,2015-01-01,1825,1850,25.0
184,2015-01-01,1705,1804,59.0
187,2015-01-01,1910,1947,37.0
188,2015-01-01,1150,1136,-14.0
189,2015-01-01,1125,1101,-24.0
192,2015-01-01,1255,1246,-9.0
195,2015-01-01,1210,1210,0.0
197,2015-01-01,1240,1237,-3.0
205,2015-01-01,1550,1556,6.0
207,2015-01-01,1935,1929,-6.0
215,2015-01-01,1825,1819,-6.0
218,2015-01-01,1900,1901,1.0
221,2015-01-01,1455,1447,-8.0
224,2015-01-01,1130,1201,31.0
229,2015-01-01,1635,1630,-5.0
234,2015-01-01,2035,2032,-3.0
240,2015-01-01,1845,1835,-10.0
247,2015-01-01,1715,1738,23.0
253,2015-01-01,1720,1736,16.0
266,2015-01-01,1550,1554,4.0
270,2015-01-01,1300,1250,-10.0
271,2015-01-01,1335,1332,-3.0
273,2015-01-01,1935,2011,36.0
275,2015-01-01,2020,2023,3.0
276,2015-01-01,1430,1429,-1.0
283,2015-01-01,1050,1052,2.0
286,2015-01-01,1530,1757,147.0
289,2015-01-01,1650,1728,38.0
290,2015-01-01,1120,1119,-1.0
291,2015-01-01,1150,1149,-1.0
293,2015-01-01,1800,1823,23.0
294,2015-01-01,1220,1206,-14.0
487,2015-01-01,2155,2152,-3.0
494,2015-01-01,2310,2321,11.0
498,2015-01-01,2350,2348,-2.0
680,2015-01-01,1345,1337,-8.0
684,2015-01-01,2030,2027,-3.0
686,2015-01-01,1100,,
810,2015-01-01,2230,2227,-3.0
886,2015-01-01,2211,2231,20.0
909,2015-01-01,0022,0020,-2.0
987,2015-01-01,0015,0021,6.0
1200,2015-01-01,1933,2031,58.0
1259,2015-01-01,0040,0050,10.0
1307,2015-01-01,1454,1502,8.0
1369,2015-01-01,2332,0007,35.0
1598,2015-01-01,1920,1921,1.0
2801,2015-01-01,1614,1615,1.0
