,FL_DATE,CRS_ARR_TIME,ARR_TIME,ARR_DELAY
55543,2015-01-19,1615,1553,-22.0
55548,2015-01-19,1724,1713,-11.0
55559,2015-01-19,1430,1406,-24.0
55562,2015-01-19,1315,1257,-18.0
55568,2015-01-19,1200,1144,-16.0
55618,2015-01-19,1200,1144,-16.0
55631,2015-01-19,1845,1849,4.0
55635,2015-01-19,2002,2010,8.0
55637,2015-01-19,1820,1810,-10.0
55639,2015-01-19,2133,2141,8.0
55651,2015-01-19,1347,1331,-16.0
55660,2015-01-19,1446,1436,-10.0
55662,2015-01-19,1949,1947,-2.0
55664,2015-01-19,2020,2004,-16.0
55666,2015-01-19,1630,1626,-4.0
55669,2015-01-19,2225,2159,-26.0
55670,2015-01-19,1302,0058,716.0
55674,2015-01-19,1330,1319,-11.0
55677,2015-01-19,0539,0535,-4.0
55678,2015-01-19,1124,1105,-19.0
55688,2015-01-19,1545,1524,-21.0
55689,2015-01-19,1210,1153,-17.0
55690,2015-01-19,1210,1153,-17.0
55693,2015-01-19,1825,1826,1.0
55695,2015-01-19,1705,1659,-6.0
55698,2015-01-19,1915,1902,-13.0
55699,2015-01-19,1148,1146,-2.0
55700,2015-01-19,1125,1107,-18.0
55703,2015-01-19,1247,1250,3.0
55707,2015-01-19,1210,1151,-19.0
55709,2015-01-19,1240,1227,-13.0
55711,2015-01-19,2240,2230,-10.0
55721,2015-01-19,1550,1538,-12.0
55723,2015-01-19,1940,1929,-11.0
55728,2015-01-19,1824,1822,-2.0
55730,2015-01-19,1900,1851,-9.0
55733,2015-01-19,1450,1433,-17.0
55736,2015-01-19,1123,1128,5.0
55744,2015-01-19,2044,2030,-14.0
55748,2015-01-19,2030,2002,-28.0
55751,2015-01-19,1840,1824,-16.0
55759,2015-01-19,1656,1641,-15.0
55764,2015-01-19,1720,1808,48.0
55773,2015-01-19,1545,1530,-15.0
55777,2015-01-19,1250,1325,35.0
55778,2015-01-19,1330,1319,-11.0
55780,2015-01-19,1955,1931,-24.0
55782,2015-01-19,1423,1420,-3.0
55785,2015-01-19,2027,2016,-11.0
55787,2015-01-19,0454,0434,-20.0
55789,2015-01-19,0556,0543,-13.0
55790,2015-01-19,1053,1051,-2.0
55793,2015-01-19,1526,1534,8.0
55796,2015-01-19,1646,1642,-4.0
55797,2015-01-19,1130,1117,-13.0
55798,2015-01-19,1200,1154,-6.0
55800,2015-01-19,1808,1745,-23.0
55801,2015-01-19,1225,1158,-27.0
55804,2015-01-19,2156,2131,-25.0
55812,2015-01-19,2308,2249,-19.0
55816,2015-01-19,2345,2325,-20.0
56086,2015-01-19,1330,1319,-11.0
56091,2015-01-19,1059,1038,-21.0
56106,2015-01-19,2234,2218,-16.0
56411,2015-01-19,2211,2156,-15.0
56435,2015-01-19,0022,0002,-20.0
56513,2015-01-19,0042,0027,-15.0
56732,2015-01-19,1726,1942,136.0
56791,2015-01-19,2106,2101,-5.0
56841,2015-01-19,2354,2356,2.0
56886,2015-01-19,1450,1442,-8.0
56929,2015-01-19,1416,1539,83.0
57295,2015-01-19,1840,1931,51.0
