,FL_DATE,CRS_ARR_TIME,ARR_TIME,ARR_DELAY
89142,2015-01-30,1615,1623,8.0
89147,2015-01-30,1724,1812,48.0
89159,2015-01-30,1430,1422,-8.0
89162,2015-01-30,1315,1327,12.0
89168,2015-01-30,1200,1150,-10.0
89192,2015-01-30,2055,2040,-15.0
89219,2015-01-30,1200,1144,-16.0
89233,2015-01-30,1845,1907,22.0
89238,2015-01-30,1820,1809,-11.0
89240,2015-01-30,2133,2132,-1.0
89246,2015-01-30,2002,2035,33.0
89253,2015-01-30,1347,1338,-9.0
89262,2015-01-30,1446,1440,-6.0
89264,2015-01-30,1949,1951,2.0
89266,2015-01-30,2020,2025,5.0
89268,2015-01-30,1630,1635,5.0
89271,2015-01-30,2225,2214,-11.0
89272,2015-01-30,1302,1251,-11.0
89276,2015-01-30,1330,1327,-3.0
89279,2015-01-30,0539,0541,2.0
89280,2015-01-30,1124,1107,-17.0
89290,2015-01-30,1545,1550,5.0
89291,2015-01-30,1210,1205,-5.0
89292,2015-01-30,1210,1208,-2.0
89295,2015-01-30,1825,1851,26.0
89297,2015-01-30,1705,1721,16.0
89300,2015-01-30,1915,1907,-8.0
89301,2015-01-30,1148,1141,-7.0
89302,2015-01-30,1125,1124,-1.0
89305,2015-01-30,1247,1240,-7.0
89309,2015-01-30,1210,1206,-4.0
89311,2015-01-30,1240,1235,-5.0
89313,2015-01-30,2240,2230,-10.0
89323,2015-01-30,1550,1551,1.0
89325,2015-01-30,1940,1949,9.0
89330,2015-01-30,1824,1829,5.0
89332,2015-01-30,1900,1853,-7.0
89335,2015-01-30,1450,1458,8.0
89338,2015-01-30,1123,1126,3.0
89346,2015-01-30,2044,2053,9.0
89350,2015-01-30,2030,2017,-13.0
89353,2015-01-30,1840,1832,-8.0
89361,2015-01-30,1656,1655,-1.0
89366,2015-01-30,1720,1759,39.0
89376,2015-01-30,1545,1534,-11.0
89381,2015-01-30,1250,1241,-9.0
89382,2015-01-30,1330,1327,-3.0
89384,2015-01-30,1955,1956,1.0
89386,2015-01-30,1423,1436,13.0
89389,2015-01-30,2027,2012,-15.0
89391,2015-01-30,0454,0504,10.0
89393,2015-01-30,0556,0542,-14.0
89394,2015-01-30,1053,1036,-17.0
89397,2015-01-30,1526,1521,-5.0
89400,2015-01-30,1646,1631,-15.0
89401,2015-01-30,1130,1116,-14.0
89402,2015-01-30,1200,1159,-1.0
89404,2015-01-30,1808,1813,5.0
89405,2015-01-30,1225,1209,-16.0
89407,2015-01-30,2156,2151,-5.0
89415,2015-01-30,2308,2259,-9.0
89419,2015-01-30,2345,2342,-3.0
89696,2015-01-30,1330,1324,-6.0
89701,2015-01-30,1059,1044,-15.0
89717,2015-01-30,2234,2223,-11.0
90020,2015-01-30,2211,2214,3.0
90045,2015-01-30,0022,0058,36.0
90121,2015-01-30,0042,0036,-6.0
90338,2015-01-30,1726,1823,57.0
90397,2015-01-30,2106,2057,-9.0
90449,2015-01-30,2354,0004,10.0
90497,2015-01-30,1450,1446,-4.0
90538,2015-01-30,1416,1429,13.0
90948,2015-01-30,1840,1900,20.0
