,FL_DATE,CRS_ARR_TIME,ARR_TIME,ARR_DELAY
29094,2015-01-10,2205,2150,-15.0
29097,2015-01-10,2041,2031,-10.0
29103,2015-01-10,1911,1857,-14.0
29117,2015-01-10,1941,2012,31.0
29119,2015-01-10,2040,2050,10.0
29129,2015-01-10,2250,2230,-20.0
29165,2015-01-10,1236,1448,132.0
29191,2015-01-10,1707,1637,-30.0
29212,2015-01-10,1332,1315,-17.0
29255,2015-01-10,1451,1438,-13.0
29277,2015-01-10,1009,0956,-13.0
29329,2015-01-10,0857,0917,20.0
29333,2015-01-10,0918,0904,-14.0
29335,2015-01-10,1126,1125,-1.0
29409,2015-01-10,2019,2025,6.0
29412,2015-01-10,2235,2234,-1.0
29414,2015-01-10,1330,1323,-7.0
29416,2015-01-10,1609,1601,-8.0
29449,2015-01-10,1435,1423,-12.0
29459,2015-01-10,2154,2325,91.0
29463,2015-01-10,0940,0928,-12.0
29469,2015-01-10,1950,1926,-24.0
29471,2015-01-10,2200,2249,49.0
29485,2015-01-10,2345,2313,-32.0
29489,2015-01-10,2358,2338,-20.0
29493,2015-01-10,2029,2027,-2.0
29503,2015-01-10,1958,1931,-27.0
29573,2015-01-10,1121,1056,-25.0
29586,2015-01-10,1813,1738,-35.0
29605,2015-01-10,1251,1402,71.0
29615,2015-01-10,1208,1206,-2.0
29627,2015-01-10,2318,2317,-1.0
29717,2015-01-10,2216,2148,-28.0
29723,2015-01-10,1126,1113,-13.0
29725,2015-01-10,1011,0942,-29.0
29732,2015-01-10,1554,1547,-7.0
29738,2015-01-10,2221,2146,-35.0
29751,2015-01-10,2105,2055,-10.0
29755,2015-01-10,1926,1910,-16.0
29777,2015-01-10,1353,1340,-13.0
29781,2015-01-10,1912,1909,-3.0
29801,2015-01-10,2220,2210,-10.0
29810,2015-01-10,1934,2048,74.0
29815,2015-01-10,0947,0929,-18.0
29819,2015-01-10,1436,1421,-15.0
29822,2015-01-10,2238,2215,-23.0
29852,2015-01-10,1649,1649,0.0
29857,2015-01-10,2151,2153,2.0
29885,2015-01-10,1752,1758,6.0
29892,2015-01-10,1506,1504,-2.0
29931,2015-01-10,1347,1342,-5.0
29983,2015-01-10,0832,0817,-15.0
29989,2015-01-10,1410,1406,-4.0
30023,2015-01-10,1935,1939,4.0
30065,2015-01-10,1625,1627,2.0
30075,2015-01-10,1110,1142,32.0
30145,2015-01-10,1722,1719,-3.0
30157,2015-01-10,0938,0941,3.0
30216,2015-01-10,0937,0932,-5.0
30288,2015-01-10,0837,0834,-3.0
30290,2015-01-10,1424,1429,5.0
30295,2015-01-10,1159,1201,2.0
30306,2015-01-10,1531,1525,-6.0
30311,2015-01-10,2056,2058,2.0
30313,2015-01-10,1859,1853,-6.0
30315,2015-01-10,1726,1738,12.0
30373,2015-01-10,0928,0929,1.0
30380,2015-01-10,2025,2010,-15.0
30390,2015-01-10,2235,2223,-12.0
30439,2015-01-10,1144,1130,-14.0
30454,2015-01-10,1020,0952,-28.0
30466,2015-01-10,1028,1245,137.0
30481,2015-01-10,1244,1430,106.0
30504,2015-01-10,2031,2025,-6.0
30507,2015-01-10,2006,2007,1.0
30520,2015-01-10,2028,2015,-13.0
30521,2015-01-10,1427,1415,-12.0
30550,2015-01-10,1946,1959,13.0
30575,2015-01-10,1603,1554,-9.0
30644,2015-01-10,1221,1305,44.0
30686,2015-01-10,1917,1941,24.0
30707,2015-01-10,2359,0007,8.0
30749,2015-01-10,1819,1817,-2.0
30754,2015-01-10,1510,1509,-1.0
30768,2015-01-10,2118,2058,-20.0
30807,2015-01-10,0901,0855,-6.0
30810,2015-01-10,1900,1840,-20.0
30815,2015-01-10,1017,0945,-32.0
30830,2015-01-10,2112,2101,-11.0
30834,2015-01-10,1035,1004,-31.0
30850,2015-01-10,1139,1127,-12.0
30954,2015-01-10,1300,1256,-4.0
30955,2015-01-10,1640,1621,-19.0
30961,2015-01-10,0950,0947,-3.0
30964,2015-01-10,1750,1751,1.0
30969,2015-01-10,1330,1314,-16.0
30972,2015-01-10,1330,1316,-14.0
30989,2015-01-10,1440,1436,-4.0
30990,2015-01-10,1300,1255,-5.0
30991,2015-01-10,1650,1644,-6.0
30992,2015-01-10,0840,0830,-10.0
30993,2015-01-10,1950,1953,3.0
30994,2015-01-10,0645,0640,-5.0
30995,2015-01-10,1215,1203,-12.0
31011,2015-01-10,1705,1655,-10.0
31012,2015-01-10,0955,0948,-7.0
31078,2015-01-10,1210,1211,1.0
31079,2015-01-10,1950,1947,-3.0
31110,2015-01-10,1935,1957,22.0
31111,2015-01-10,1825,1819,-6.0
31112,2015-01-10,0820,0814,-6.0
31113,2015-01-10,1050,1045,-5.0
31114,2015-01-10,1715,1716,1.0
31115,2015-01-10,1340,1332,-8.0
31116,2015-01-10,1145,1138,-7.0
31117,2015-01-10,1515,1506,-9.0
31225,2015-01-10,1035,1032,-3.0
31226,2015-01-10,1355,1321,-34.0
31233,2015-01-10,2110,2137,27.0
31234,2015-01-10,1155,1240,45.0
31239,2015-01-10,1420,1345,-35.0
31286,2015-01-10,0940,0939,-1.0
31287,2015-01-10,1215,1221,6.0
31288,2015-01-10,1430,,
31289,2015-01-10,1300,1258,-2.0
31290,2015-01-10,1725,1722,-3.0
31291,2015-01-10,1615,1619,4.0
31292,2015-01-10,2100,2350,170.0
31293,2015-01-10,0830,0834,4.0
31329,2015-01-10,1450,1507,17.0
31330,2015-01-10,1005,0956,-9.0
31371,2015-01-10,1325,1347,22.0
31377,2015-01-10,0955,0949,-6.0
31378,2015-01-10,1945,1934,-11.0
31389,2015-01-10,1020,1029,9.0
31390,2015-01-10,1325,1415,50.0
31391,2015-01-10,2135,2120,-15.0
31392,2015-01-10,1955,1940,-15.0
31410,2015-01-10,1310,1241,-29.0
31414,2015-01-10,1015,1007,-8.0
31415,2015-01-10,2140,2141,1.0
31440,2015-01-10,1225,1245,20.0
31441,2015-01-10,0830,0822,-8.0
31442,2015-01-10,1620,1724,64.0
31443,2015-01-10,2020,2006,-14.0
31444,2015-01-10,1900,1845,-15.0
31480,2015-01-10,0815,0807,-8.0
31481,2015-01-10,1425,1446,21.0
31482,2015-01-10,2020,2015,-5.0
31483,2015-01-10,1125,1116,-9.0
31484,2015-01-10,0950,0944,-6.0
31523,2015-01-10,1015,1011,-4.0
31524,2015-01-10,1955,1951,-4.0
31525,2015-01-10,1225,1224,-1.0
31526,2015-01-10,0750,0741,-9.0
31527,2015-01-10,1520,1526,6.0
31571,2015-01-10,0835,0824,-11.0
