,FL_DATE,CRS_ARR_TIME,ARR_TIME,ARR_DELAY
52694,2015-01-18,2205,2234,29.0
52697,2015-01-18,2041,2110,29.0
52703,2015-01-18,1911,1927,16.0
52706,2015-01-18,2344,2338,-6.0
52722,2015-01-18,1941,1935,-6.0
52724,2015-01-18,2040,2026,-14.0
52736,2015-01-18,2250,2331,41.0
52771,2015-01-18,1236,1220,-16.0
52803,2015-01-18,1651,1614,-37.0
52828,2015-01-18,1332,1340,8.0
52874,2015-01-18,1451,1444,-7.0
52899,2015-01-18,1009,0959,-10.0
52935,2015-01-18,2338,2328,-10.0
52952,2015-01-18,0859,0852,-7.0
52956,2015-01-18,0913,0918,5.0
52958,2015-01-18,1123,1111,-12.0
53041,2015-01-18,2028,2019,-9.0
53044,2015-01-18,2232,2224,-8.0
53046,2015-01-18,1335,1342,7.0
53048,2015-01-18,1610,1627,17.0
53079,2015-01-18,1433,1427,-6.0
53089,2015-01-18,2152,2235,43.0
53093,2015-01-18,0940,0910,-30.0
53099,2015-01-18,1949,1938,-11.0
53101,2015-01-18,2155,2146,-9.0
53114,2015-01-18,2352,2318,-34.0
53118,2015-01-18,2359,2331,-28.0
53123,2015-01-18,2029,2015,-14.0
53133,2015-01-18,1958,1950,-8.0
53171,2015-01-18,1036,1011,-25.0
53222,2015-01-18,1121,1219,58.0
53256,2015-01-18,2100,2052,-8.0
53275,2015-01-18,2209,2152,-17.0
53342,2015-01-18,2246,2237,-9.0
53354,2015-01-18,1129,1117,-12.0
53356,2015-01-18,1012,0946,-26.0
53363,2015-01-18,1232,1202,-30.0
53371,2015-01-18,1929,1902,-27.0
53382,2015-01-18,1109,1021,-48.0
53384,2015-01-18,1547,1540,-7.0
53393,2015-01-18,1651,1636,-15.0
53413,2015-01-18,1251,1227,-24.0
53418,2015-01-18,1041,1020,-21.0
53428,2015-01-18,1210,1206,-4.0
53439,2015-01-18,1726,1708,-18.0
53444,2015-01-18,1907,1925,18.0
53485,2015-01-18,2220,2157,-23.0
53494,2015-01-18,1934,1930,-4.0
53499,2015-01-18,0947,0925,-22.0
53504,2015-01-18,1436,1426,-10.0
53507,2015-01-18,2238,2217,-21.0
53534,2015-01-18,1649,1650,1.0
53537,2015-01-18,2151,2158,7.0
53568,2015-01-18,1752,1738,-14.0
53576,2015-01-18,1506,1455,-11.0
53619,2015-01-18,1347,1357,10.0
53643,2015-01-18,1719,1751,32.0
53682,2015-01-18,0832,0823,-9.0
53690,2015-01-18,1410,1408,-2.0
53726,2015-01-18,1935,1934,-1.0
53778,2015-01-18,1626,1621,-5.0
53785,2015-01-18,1110,1101,-9.0
53856,2015-01-18,1721,1718,-3.0
53924,2015-01-18,0935,0937,2.0
53928,2015-01-18,0012,0008,-4.0
54007,2015-01-18,0837,0824,-13.0
54025,2015-01-18,1531,1537,6.0
54026,2015-01-18,1319,1335,16.0
54031,2015-01-18,1859,1859,0.0
54033,2015-01-18,2056,2059,3.0
54123,2015-01-18,2025,2023,-2.0
54138,2015-01-18,1603,1556,-7.0
54160,2015-01-18,1926,1921,-5.0
54178,2015-01-18,1422,1414,-8.0
54244,2015-01-18,1244,1241,-3.0
54290,2015-01-18,1212,1232,20.0
54373,2015-01-18,1221,1254,33.0
54385,2015-01-18,2027,2033,6.0
54391,2015-01-18,1400,1338,-22.0
54402,2015-01-18,2359,2345,-14.0
54419,2015-01-18,2014,2010,-4.0
54428,2015-01-18,1918,1947,29.0
54434,2015-01-18,1021,1004,-17.0
54436,2015-01-18,1914,1854,-20.0
54438,2015-01-18,1201,1145,-16.0
54451,2015-01-18,2236,2220,-16.0
54498,2015-01-18,1142,1307,85.0
54509,2015-01-18,1946,2009,23.0
54549,2015-01-18,0901,0850,-11.0
54553,2015-01-18,2036,2020,-16.0
54574,2015-01-18,2112,2109,-3.0
54578,2015-01-18,1035,1028,-7.0
54590,2015-01-18,1139,1123,-16.0
54603,2015-01-18,1819,1827,8.0
54625,2015-01-18,2118,2056,-22.0
54647,2015-01-18,1510,1515,5.0
54784,2015-01-18,1320,1328,8.0
54785,2015-01-18,1630,1634,4.0
54786,2015-01-18,1850,1901,11.0
54789,2015-01-18,2215,2237,22.0
54795,2015-01-18,1645,1659,14.0
54798,2015-01-18,1755,1747,-8.0
54803,2015-01-18,2140,2123,-17.0
54807,2015-01-18,1355,1335,-20.0
54848,2015-01-18,1330,1304,-26.0
54849,2015-01-18,1845,1838,-7.0
54856,2015-01-18,1515,1454,-21.0
54857,2015-01-18,1105,1043,-22.0
54859,2015-01-18,1835,1816,-19.0
54892,2015-01-18,1810,1825,15.0
54893,2015-01-18,2145,2215,30.0
54894,2015-01-18,2215,2159,-16.0
54895,2015-01-18,2035,2208,93.0
54896,2015-01-18,1605,1609,4.0
54897,2015-01-18,1105,1104,-1.0
54898,2015-01-18,1005,0952,-13.0
54899,2015-01-18,0915,0908,-7.0
54900,2015-01-18,1215,1216,1.0
54901,2015-01-18,1415,1411,-4.0
54993,2015-01-18,0940,0938,-2.0
54994,2015-01-18,2030,2013,-17.0
55007,2015-01-18,2245,2243,-2.0
55008,2015-01-18,1605,1602,-3.0
55009,2015-01-18,2010,2036,26.0
55010,2015-01-18,1330,1322,-8.0
55055,2015-01-18,1410,1350,-20.0
55056,2015-01-18,2000,1957,-3.0
55064,2015-01-18,1630,1610,-20.0
55065,2015-01-18,2150,2150,0.0
55066,2015-01-18,1125,1103,-22.0
55074,2015-01-18,1625,1600,-25.0
55131,2015-01-18,1625,1618,-7.0
55132,2015-01-18,1950,1943,-7.0
55133,2015-01-18,1730,1731,1.0
55134,2015-01-18,2130,2126,-4.0
55135,2015-01-18,1210,1223,13.0
55136,2015-01-18,1310,1305,-5.0
55137,2015-01-18,2215,2203,-12.0
55138,2015-01-18,1505,1456,-9.0
55181,2015-01-18,1220,1221,1.0
55182,2015-01-18,2040,2041,1.0
55212,2015-01-18,1215,1211,-4.0
55213,2015-01-18,1325,1325,0.0
55214,2015-01-18,1945,1951,6.0
55215,2015-01-18,1710,1703,-7.0
55216,2015-01-18,1905,1918,13.0
55217,2015-01-18,1135,1120,-15.0
55218,2015-01-18,1415,1410,-5.0
55219,2015-01-18,2055,2050,-5.0
55220,2015-01-18,1615,1724,69.0
55240,2015-01-18,0930,0926,-4.0
55241,2015-01-18,1535,1532,-3.0
55324,2015-01-18,1230,1210,-20.0
55325,2015-01-18,1700,1644,-16.0
55330,2015-01-18,0915,0908,-7.0
55331,2015-01-18,2155,2249,54.0
55332,2015-01-18,1325,1319,-6.0
55360,2015-01-18,1115,1120,5.0
55361,2015-01-18,1530,1717,107.0
55362,2015-01-18,1925,2104,99.0
55363,2015-01-18,1250,1252,2.0
55364,2015-01-18,1655,1743,48.0
55365,2015-01-18,2100,2120,20.0
55408,2015-01-18,0910,0906,-4.0
55409,2015-01-18,1235,1258,23.0
55410,2015-01-18,2115,2109,-6.0
55411,2015-01-18,2305,2304,-1.0
55412,2015-01-18,1705,1703,-2.0
55413,2015-01-18,2010,2005,-5.0
55414,2015-01-18,1450,1448,-2.0
55415,2015-01-18,1045,1033,-12.0
55467,2015-01-18,1615,1623,8.0
55468,2015-01-18,1405,1357,-8.0
55469,2015-01-18,1220,1207,-13.0
55470,2015-01-18,2240,2239,-1.0
55471,2015-01-18,2010,2014,4.0
55472,2015-01-18,2200,2312,72.0
55473,2015-01-18,1010,0956,-14.0
55527,2015-01-18,1035,1023,-12.0
55528,2015-01-18,1545,1537,-8.0
