,FL_DATE,CRS_ARR_TIME,ARR_TIME,ARR_DELAY
73724,2015-01-25,2205,2133,-32.0
73727,2015-01-25,2041,2028,-13.0
73733,2015-01-25,1911,1901,-10.0
73736,2015-01-25,2344,2314,-30.0
73751,2015-01-25,1941,1917,-24.0
73753,2015-01-25,2040,1955,-45.0
73764,2015-01-25,2250,2252,2.0
73801,2015-01-25,1236,1224,-12.0
73835,2015-01-25,1651,1624,-27.0
73862,2015-01-25,1332,1327,-5.0
73908,2015-01-25,1451,1449,-2.0
73933,2015-01-25,1009,0954,-15.0
73968,2015-01-25,2338,2311,-27.0
73986,2015-01-25,0859,0851,-8.0
73990,2015-01-25,0913,0910,-3.0
73992,2015-01-25,1123,1118,-5.0
74075,2015-01-25,2028,2023,-5.0
74078,2015-01-25,2232,2236,4.0
74080,2015-01-25,1335,1332,-3.0
74082,2015-01-25,1608,1602,-6.0
74113,2015-01-25,1433,1436,3.0
74123,2015-01-25,2152,2202,10.0
74127,2015-01-25,0940,0859,-41.0
74133,2015-01-25,1949,1948,-1.0
74135,2015-01-25,2155,2124,-31.0
74148,2015-01-25,2352,2352,0.0
74152,2015-01-25,2359,2349,-10.0
74157,2015-01-25,2029,1951,-38.0
74167,2015-01-25,1958,1907,-51.0
74204,2015-01-25,1036,0938,-58.0
74257,2015-01-25,1121,1055,-26.0
74274,2015-01-25,1232,1210,-22.0
74364,2015-01-25,2246,2213,-33.0
74371,2015-01-25,2215,2148,-27.0
74379,2015-01-25,1129,1027,-62.0
74381,2015-01-25,1012,1005,-7.0
74393,2015-01-25,1341,1300,-41.0
74409,2015-01-25,2238,2236,-2.0
74412,2015-01-25,1929,1844,-45.0
74437,2015-01-25,1109,1011,-58.0
74439,2015-01-25,1550,1539,-11.0
74446,2015-01-25,1815,1742,-33.0
74466,2015-01-25,1251,1213,-38.0
74472,2015-01-25,0940,0913,-27.0
74483,2015-01-25,1209,1157,-12.0
74494,2015-01-25,1738,1723,-15.0
74500,2015-01-25,2134,2105,-29.0
74504,2015-01-25,2209,2119,-50.0
74523,2015-01-25,2220,2239,19.0
74530,2015-01-25,1353,1422,29.0
74534,2015-01-25,1907,1855,-12.0
74558,2015-01-25,1934,1931,-3.0
74563,2015-01-25,0947,0922,-25.0
74568,2015-01-25,1436,1427,-9.0
74570,2015-01-25,2238,2206,-32.0
74596,2015-01-25,1649,1639,-10.0
74599,2015-01-25,2151,2146,-5.0
74631,2015-01-25,1752,1756,4.0
74639,2015-01-25,1506,1458,-8.0
74685,2015-01-25,1347,1411,24.0
74712,2015-01-25,1719,1715,-4.0
74748,2015-01-25,0832,0827,-5.0
74758,2015-01-25,1410,1343,-27.0
74795,2015-01-25,1935,1921,-14.0
74856,2015-01-25,1626,1617,-9.0
74863,2015-01-25,1110,1118,8.0
74946,2015-01-25,1721,1751,30.0
75018,2015-01-25,0935,0937,2.0
75022,2015-01-25,0012,2354,-18.0
75099,2015-01-25,0837,0823,-14.0
75118,2015-01-25,1531,1519,-12.0
75119,2015-01-25,1319,1331,12.0
75124,2015-01-25,1859,1853,-6.0
75126,2015-01-25,2056,2041,-15.0
75205,2015-01-25,1917,1910,-7.0
75242,2015-01-25,1603,1610,7.0
75290,2015-01-25,2359,2355,-4.0
75312,2015-01-25,2027,2012,-15.0
75320,2015-01-25,1212,1202,-10.0
75397,2015-01-25,2031,1950,-41.0
75398,2015-01-25,1221,1248,27.0
75411,2015-01-25,1245,1221,-24.0
75417,2015-01-25,1400,1347,-13.0
75435,2015-01-25,2150,2110,-40.0
75446,2015-01-25,2014,1944,-30.0
75461,2015-01-25,1021,1000,-21.0
75463,2015-01-25,1914,1909,-5.0
75465,2015-01-25,1201,1105,-56.0
75483,2015-01-25,2236,2231,-5.0
75529,2015-01-25,1928,2043,75.0
75603,2015-01-25,1422,1416,-6.0
75616,2015-01-25,1142,1135,-7.0
75627,2015-01-25,1946,1948,2.0
75659,2015-01-25,2118,2032,-46.0
75681,2015-01-25,1510,1512,2.0
75703,2015-01-25,0901,0842,-19.0
75707,2015-01-25,2036,2007,-29.0
75728,2015-01-25,2112,2102,-10.0
75732,2015-01-25,1035,0928,-67.0
75744,2015-01-25,1139,1127,-12.0
75757,2015-01-25,1819,1823,4.0
75902,2015-01-25,1320,1314,-6.0
75903,2015-01-25,1630,1635,5.0
75904,2015-01-25,1855,1857,2.0
75907,2015-01-25,2215,2223,8.0
75915,2015-01-25,0940,0919,-21.0
75916,2015-01-25,2030,2026,-4.0
75919,2015-01-25,1410,1326,-44.0
75920,2015-01-25,2000,1932,-28.0
75928,2015-01-25,1645,1641,-4.0
75931,2015-01-25,1755,1705,-50.0
75936,2015-01-25,2140,2113,-27.0
75940,2015-01-25,1355,1318,-37.0
75981,2015-01-25,1330,1231,-59.0
75982,2015-01-25,1845,1827,-18.0
75989,2015-01-25,1115,1108,-7.0
75990,2015-01-25,1530,1523,-7.0
75991,2015-01-25,1925,1935,10.0
75992,2015-01-25,1250,1252,2.0
75993,2015-01-25,1655,1651,-4.0
75994,2015-01-25,2100,2159,59.0
76014,2015-01-25,2245,2227,-18.0
76015,2015-01-25,1605,1600,-5.0
76016,2015-01-25,2010,2047,37.0
76017,2015-01-25,1330,1305,-25.0
76036,2015-01-25,1515,1515,0.0
76037,2015-01-25,1105,1028,-37.0
76039,2015-01-25,1835,1819,-16.0
76072,2015-01-25,1810,1803,-7.0
76073,2015-01-25,2145,2139,-6.0
76074,2015-01-25,2215,2210,-5.0
76075,2015-01-25,2035,2030,-5.0
76076,2015-01-25,1605,1555,-10.0
76077,2015-01-25,1105,1059,-6.0
76078,2015-01-25,1005,1012,7.0
76079,2015-01-25,0915,0903,-12.0
76080,2015-01-25,1215,1235,20.0
76081,2015-01-25,1415,1404,-11.0
76203,2015-01-25,1630,1655,25.0
76204,2015-01-25,2150,2129,-21.0
76205,2015-01-25,1125,1105,-20.0
76213,2015-01-25,1625,1606,-19.0
76270,2015-01-25,1625,1702,37.0
76271,2015-01-25,1950,1951,1.0
76272,2015-01-25,1730,1743,13.0
76273,2015-01-25,2130,2217,47.0
76274,2015-01-25,1210,1205,-5.0
76275,2015-01-25,1310,1312,2.0
76276,2015-01-25,2215,2231,16.0
76277,2015-01-25,1505,1502,-3.0
76320,2015-01-25,1220,1216,-4.0
76321,2015-01-25,2040,2101,21.0
76351,2015-01-25,1215,1156,-19.0
76352,2015-01-25,1325,1321,-4.0
76353,2015-01-25,1945,1940,-5.0
76354,2015-01-25,1710,1700,-10.0
76355,2015-01-25,1905,1856,-9.0
76356,2015-01-25,1135,1116,-19.0
76357,2015-01-25,1415,1359,-16.0
76358,2015-01-25,2055,2058,3.0
76359,2015-01-25,1615,1616,1.0
76379,2015-01-25,0930,0926,-4.0
76380,2015-01-25,1535,1532,-3.0
76463,2015-01-25,1230,1204,-26.0
76464,2015-01-25,1700,1633,-27.0
76469,2015-01-25,0915,0918,3.0
76470,2015-01-25,2155,2151,-4.0
76471,2015-01-25,1325,1318,-7.0
76526,2015-01-25,0910,0914,4.0
76527,2015-01-25,1235,1228,-7.0
76528,2015-01-25,2115,2121,6.0
76529,2015-01-25,2305,2310,5.0
76530,2015-01-25,1705,1736,31.0
76531,2015-01-25,2010,2016,6.0
76532,2015-01-25,1450,1500,10.0
76533,2015-01-25,1045,1045,0.0
76585,2015-01-25,1615,1647,32.0
76586,2015-01-25,1405,1354,-11.0
76587,2015-01-25,1220,1219,-1.0
76588,2015-01-25,2240,2237,-3.0
76589,2015-01-25,2010,2013,3.0
76590,2015-01-25,2200,2206,6.0
76591,2015-01-25,1010,1006,-4.0
76645,2015-01-25,1035,1032,-3.0
76646,2015-01-25,1545,1536,-9.0
