,FL_DATE,CRS_DEP_TIME,DEP_TIME,DEP_DELAY
38441,2015-01-13,0810,0809,-1.0
38443,2015-01-13,1240,1247,7.0
38445,2015-01-13,1720,1718,-2.0
38447,2015-01-13,1732,1725,-7.0
38449,2015-01-13,0815,0806,-9.0
38451,2015-01-13,0810,0802,-8.0
38453,2015-01-13,2125,2122,-3.0
38454,2015-01-13,1725,1719,-6.0
38458,2015-01-13,1310,1346,36.0
38460,2015-01-13,1235,1232,-3.0
38463,2015-01-13,2110,2105,-5.0
38466,2015-01-13,0800,0807,7.0
38593,2015-01-13,1504,1500,-4.0
38616,2015-01-13,1847,1921,34.0
38632,2015-01-13,1114,1207,53.0
38633,2015-01-13,1138,1159,21.0
38636,2015-01-13,1122,1128,6.0
38667,2015-01-13,1845,1856,11.0
38680,2015-01-13,1109,1200,51.0
38856,2015-01-13,1105,1405,180.0
38892,2015-01-13,1845,1936,51.0
38893,2015-01-13,1845,1847,2.0
38897,2015-01-13,1120,1117,-3.0
39001,2015-01-13,1852,1912,20.0
39082,2015-01-13,1110,1252,102.0
39084,2015-01-13,1850,1929,39.0
39111,2015-01-13,0800,0757,-3.0
39163,2015-01-13,1527,1529,2.0
39170,2015-01-13,0815,0807,-8.0
39188,2015-01-13,0805,0810,5.0
39231,2015-01-13,1121,1121,0.0
39252,2015-01-13,1902,1904,2.0
39253,2015-01-13,1435,1442,7.0
39263,2015-01-13,1117,1119,2.0
39264,2015-01-13,1905,1910,5.0
39283,2015-01-13,1747,1808,21.0
39293,2015-01-13,1540,1540,0.0
39294,2015-01-13,1130,1132,2.0
39296,2015-01-13,1905,1920,15.0
39297,2015-01-13,1908,1914,6.0
39298,2015-01-13,1906,1910,4.0
39300,2015-01-13,1900,1911,11.0
39357,2015-01-13,1725,1723,-2.0
39393,2015-01-13,1121,1135,14.0
39410,2015-01-13,1014,1014,0.0
39411,2015-01-13,1524,1532,8.0
39435,2015-01-13,1005,1044,39.0
39464,2015-01-13,1107,1113,6.0
39523,2015-01-13,0800,0810,10.0
39543,2015-01-13,0600,0600,0.0
39878,2015-01-13,1200,1159,-1.0
39879,2015-01-13,1820,1819,-1.0
39880,2015-01-13,0850,0845,-5.0
39881,2015-01-13,1415,1447,32.0
39882,2015-01-13,1050,1050,0.0
39883,2015-01-13,0600,0555,-5.0
39884,2015-01-13,1645,1644,-1.0
39885,2015-01-13,2105,2102,-3.0
39886,2015-01-13,1200,1156,-4.0
39887,2015-01-13,1745,1739,-6.0
39888,2015-01-13,0855,0854,-1.0
39889,2015-01-13,2110,2102,-8.0
39890,2015-01-13,0850,0851,1.0
39891,2015-01-13,2105,2105,0.0
40192,2015-01-13,2115,2110,-5.0
40193,2015-01-13,0850,0855,5.0
40194,2015-01-13,1440,1436,-4.0
40195,2015-01-13,1845,1901,16.0
40196,2015-01-13,1205,1201,-4.0
40197,2015-01-13,1200,1202,2.0
40198,2015-01-13,2110,2107,-3.0
40199,2015-01-13,0840,0835,-5.0
40200,2015-01-13,0700,0723,23.0
40201,2015-01-13,2110,2104,-6.0
40202,2015-01-13,1210,1211,1.0
40203,2015-01-13,2110,2110,0.0
40204,2015-01-13,1735,1745,10.0
40205,2015-01-13,1205,1207,2.0
40206,2015-01-13,0850,0842,-8.0
40207,2015-01-13,1200,1200,0.0
40208,2015-01-13,0855,0903,8.0
40209,2015-01-13,1845,1847,2.0
40210,2015-01-13,2100,2052,-8.0
