,FL_DATE,CRS_DEP_TIME,DEP_TIME,DEP_DELAY
53444,2015-01-18,1750,1808,18.0
53446,2015-01-18,1720,1717,-3.0
53448,2015-01-18,0815,0807,-8.0
53451,2015-01-18,2125,2129,4.0
53452,2015-01-18,2110,2108,-2.0
53454,2015-01-18,1245,1242,-3.0
53456,2015-01-18,1850,1843,-7.0
53458,2015-01-18,0810,0812,2.0
53460,2015-01-18,0800,0756,-4.0
53462,2015-01-18,1310,1331,21.0
53589,2015-01-18,1503,1457,-6.0
53609,2015-01-18,1855,1851,-4.0
53623,2015-01-18,1114,1130,16.0
53624,2015-01-18,1204,1157,-7.0
53627,2015-01-18,1122,1128,6.0
53667,2015-01-18,1845,1841,-4.0
53684,2015-01-18,1109,1127,18.0
53855,2015-01-18,1105,1105,0.0
53896,2015-01-18,1845,1848,3.0
53897,2015-01-18,1845,1849,4.0
53902,2015-01-18,1130,1149,19.0
53997,2015-01-18,1852,1846,-6.0
54078,2015-01-18,1110,1138,28.0
54080,2015-01-18,1850,1846,-4.0
54129,2015-01-18,1515,1515,0.0
54132,2015-01-18,1005,1002,-3.0
54135,2015-01-18,1455,1458,3.0
54146,2015-01-18,0815,0809,-6.0
54163,2015-01-18,1116,1154,38.0
54209,2015-01-18,1121,1129,8.0
54233,2015-01-18,1902,1859,-3.0
54244,2015-01-18,1117,1131,14.0
54245,2015-01-18,1905,1904,-1.0
54251,2015-01-18,1008,1016,8.0
54280,2015-01-18,1906,1908,2.0
54288,2015-01-18,1524,1534,10.0
54307,2015-01-18,1747,1744,-3.0
54339,2015-01-18,1908,1950,42.0
54340,2015-01-18,0805,0801,-4.0
54345,2015-01-18,1110,1121,11.0
54359,2015-01-18,1130,1223,53.0
54360,2015-01-18,1727,1735,8.0
54385,2015-01-18,1900,1912,12.0
54415,2015-01-18,1904,1907,3.0
54427,2015-01-18,1540,1539,-1.0
54452,2015-01-18,0800,0802,2.0
54462,2015-01-18,0600,0557,-3.0
54997,2015-01-18,1200,1202,2.0
54998,2015-01-18,1820,1821,1.0
54999,2015-01-18,1415,1408,-7.0
55000,2015-01-18,1050,1047,-3.0
55001,2015-01-18,1645,1641,-4.0
55002,2015-01-18,2105,2103,-2.0
55003,2015-01-18,1200,1159,-1.0
55004,2015-01-18,1745,1741,-4.0
55005,2015-01-18,2110,2106,-4.0
55006,2015-01-18,2105,2102,-3.0
55007,2015-01-18,2115,2130,15.0
55008,2015-01-18,1440,1446,6.0
55009,2015-01-18,1845,1923,38.0
55010,2015-01-18,1205,1204,-1.0
55011,2015-01-18,2110,2107,-3.0
55012,2015-01-18,1200,1237,37.0
55013,2015-01-18,2110,2112,2.0
55014,2015-01-18,1210,1204,-6.0
55015,2015-01-18,2110,2109,-1.0
55016,2015-01-18,1735,1741,6.0
55017,2015-01-18,1205,1204,-1.0
55018,2015-01-18,1200,1201,1.0
55019,2015-01-18,1845,1852,7.0
55020,2015-01-18,2100,2113,13.0
