,FL_DATE,CRS_DEP_TIME,DEP_TIME,DEP_DELAY
7384,2015-01-03,0810,0759,-11.0
7388,2015-01-03,1755,1749,-6.0
7391,2015-01-03,2110,2132,22.0
7393,2015-01-03,1235,1235,0.0
7395,2015-01-03,0805,0828,23.0
7397,2015-01-03,2125,2155,30.0
7398,2015-01-03,0755,0753,-2.0
7400,2015-01-03,1344,1336,-8.0
7402,2015-01-03,1750,1852,62.0
7504,2015-01-03,0545,0613,28.0
7518,2015-01-03,0759,0757,-2.0
7519,2015-01-03,2201,,
7537,2015-01-03,1845,2115,150.0
7553,2015-01-03,1209,1233,24.0
7588,2015-01-03,1845,2128,163.0
7605,2015-01-03,1125,1139,14.0
7638,2015-01-03,1528,1631,63.0
7826,2015-01-03,1537,1606,29.0
7834,2015-01-03,1125,,
7841,2015-01-03,1847,1911,24.0
7846,2015-01-03,2200,2233,33.0
7866,2015-01-03,1107,1108,1.0
7931,2015-01-03,1955,2114,79.0
7949,2015-01-03,1856,2047,111.0
8047,2015-01-03,1110,1117,7.0
8048,2015-01-03,2200,2303,63.0
8089,2015-01-03,1131,,
8103,2015-01-03,1105,1123,18.0
8118,2015-01-03,0800,0823,23.0
8237,2015-01-03,1908,1939,31.0
8244,2015-01-03,1120,1141,21.0
8253,2015-01-03,0600,0555,-5.0
8288,2015-01-03,1514,1613,59.0
8289,2015-01-03,0804,0801,-3.0
8290,2015-01-03,1500,1803,183.0
8297,2015-01-03,1113,1141,28.0
8298,2015-01-03,1859,1958,59.0
8312,2015-01-03,1000,1038,38.0
8320,2015-01-03,1957,2009,12.0
8333,2015-01-03,2207,2255,48.0
8360,2015-01-03,2206,2247,41.0
8365,2015-01-03,1324,1350,26.0
8432,2015-01-03,1030,1048,18.0
8438,2015-01-03,2200,2255,55.0
8443,2015-01-03,1127,1210,43.0
8495,2015-01-03,1400,1631,151.0
8805,2015-01-03,1850,1926,36.0
8806,2015-01-03,1150,1154,4.0
8807,2015-01-03,2055,2358,183.0
8808,2015-01-03,2200,2306,66.0
8809,2015-01-03,1400,1449,49.0
8810,2015-01-03,0830,0843,13.0
8811,2015-01-03,1750,1945,115.0
8812,2015-01-03,1155,1204,9.0
8813,2015-01-03,0830,0859,29.0
8814,2015-01-03,1710,1716,6.0
8815,2015-01-03,1150,1224,34.0
8816,2015-01-03,2155,2228,33.0
8817,2015-01-03,0835,0833,-2.0
8818,2015-01-03,2155,2205,10.0
8819,2015-01-03,1200,1222,22.0
8820,2015-01-03,0830,0825,-5.0
8821,2015-01-03,1655,2025,210.0
8822,2015-01-03,1355,1456,61.0
8823,2015-01-03,2015,2142,87.0
8824,2015-01-03,0745,0755,10.0
8825,2015-01-03,1150,1209,19.0
8826,2015-01-03,2155,2325,90.0
8827,2015-01-03,1715,1844,89.0
8828,2015-01-03,1550,1636,46.0
8829,2015-01-03,2105,2149,44.0
8830,2015-01-03,1150,1201,11.0
8831,2015-01-03,2200,2227,27.0
8832,2015-01-03,1155,1209,14.0
8833,2015-01-03,0835,0850,15.0
8834,2015-01-03,1835,1845,10.0
8835,2015-01-03,0630,0628,-2.0
8836,2015-01-03,2035,2056,21.0
8837,2015-01-03,1150,1151,1.0
8838,2015-01-03,1615,1648,33.0
9309,2015-01-03,0812,0812,0.0
9315,2015-01-03,1116,1137,21.0
9323,2015-01-03,2155,2300,65.0
9351,2015-01-03,1920,2010,50.0
9360,2015-01-03,1903,2021,78.0
9381,2015-01-03,1122,1217,55.0
9397,2015-01-03,0600,0558,-2.0
