,FL_DATE,CRS_DEP_TIME,DEP_TIME,DEP_DELAY
89962,2015-01-30,1745,1742,-3.0
89964,2015-01-30,1235,1226,-9.0
89966,2015-01-30,0800,0843,43.0
89968,2015-01-30,0810,0801,-9.0
89970,2015-01-30,1808,1808,0.0
89972,2015-01-30,1320,1317,-3.0
89977,2015-01-30,2110,2107,-3.0
89978,2015-01-30,2125,2118,-7.0
89979,2015-01-30,0815,0804,-11.0
89982,2015-01-30,1755,1759,4.0
89984,2015-01-30,1310,1300,-10.0
90111,2015-01-30,1504,1459,-5.0
90134,2015-01-30,1847,1932,45.0
90149,2015-01-30,1114,1110,-4.0
90150,2015-01-30,1138,1131,-7.0
90153,2015-01-30,1122,1320,118.0
90192,2015-01-30,1845,1846,1.0
90207,2015-01-30,1109,1116,7.0
90251,2015-01-30,2156,2149,-7.0
90384,2015-01-30,1120,1121,1.0
90407,2015-01-30,1105,1102,-3.0
90451,2015-01-30,1845,1849,4.0
90452,2015-01-30,1845,1846,1.0
90554,2015-01-30,1852,1845,-7.0
90638,2015-01-30,1110,1112,2.0
90640,2015-01-30,1850,1932,42.0
90668,2015-01-30,2201,2211,10.0
90694,2015-01-30,1121,1125,4.0
90746,2015-01-30,1908,1908,0.0
90791,2015-01-30,0800,0759,-1.0
90825,2015-01-30,1526,1530,4.0
90846,2015-01-30,1110,1130,20.0
90853,2015-01-30,0815,0812,-3.0
90877,2015-01-30,0805,0802,-3.0
90878,2015-01-30,1530,1542,12.0
90934,2015-01-30,1121,1120,-1.0
90960,2015-01-30,1902,1858,-4.0
90966,2015-01-30,1435,1431,-4.0
90975,2015-01-30,1117,1115,-2.0
90977,2015-01-30,1905,1916,11.0
91011,2015-01-30,1725,1800,35.0
91014,2015-01-30,1504,1517,13.0
91016,2015-01-30,1900,1912,12.0
91017,2015-01-30,1906,1916,10.0
91023,2015-01-30,1905,1929,24.0
91031,2015-01-30,1540,1538,-2.0
91033,2015-01-30,1014,1021,7.0
91040,2015-01-30,2213,2211,-2.0
91056,2015-01-30,1130,1151,21.0
91084,2015-01-30,0800,0918,78.0
91101,2015-01-30,1005,1055,50.0
91105,2015-01-30,1524,1536,12.0
91107,2015-01-30,0600,0555,-5.0
92037,2015-01-30,1200,1157,-3.0
92038,2015-01-30,1820,1824,4.0
92039,2015-01-30,0850,0847,-3.0
92040,2015-01-30,1415,1425,10.0
92041,2015-01-30,1050,1048,-2.0
92042,2015-01-30,0600,0600,0.0
92043,2015-01-30,1645,1647,2.0
92044,2015-01-30,2105,2109,4.0
92045,2015-01-30,1200,1208,8.0
92046,2015-01-30,1745,1833,48.0
92047,2015-01-30,0855,0854,-1.0
92048,2015-01-30,2110,2108,-2.0
92049,2015-01-30,0850,0849,-1.0
92050,2015-01-30,2105,2105,0.0
92051,2015-01-30,2115,2121,6.0
92052,2015-01-30,0850,0850,0.0
92053,2015-01-30,1440,1439,-1.0
92054,2015-01-30,1845,1923,38.0
92055,2015-01-30,1205,1216,11.0
92056,2015-01-30,1200,1157,-3.0
92057,2015-01-30,2110,2115,5.0
92058,2015-01-30,0840,0848,8.0
92059,2015-01-30,0700,0655,-5.0
92060,2015-01-30,2110,2113,3.0
92061,2015-01-30,1210,1200,-10.0
92062,2015-01-30,2110,2117,7.0
92063,2015-01-30,1735,1814,39.0
92064,2015-01-30,1205,1204,-1.0
92065,2015-01-30,0850,0846,-4.0
92066,2015-01-30,1200,1203,3.0
92067,2015-01-30,0855,0852,-3.0
92068,2015-01-30,1845,1839,-6.0
92069,2015-01-30,2100,2103,3.0
