,FL_DATE,CRS_DEP_TIME,DEP_TIME,DEP_DELAY
17296,2015-01-06,1235,1232,-3.0
17298,2015-01-06,0810,0827,17.0
17300,2015-01-06,1720,1723,3.0
17302,2015-01-06,1800,1751,-9.0
17304,2015-01-06,1245,1236,-9.0
17306,2015-01-06,1732,1738,6.0
17308,2015-01-06,0815,0814,-1.0
17310,2015-01-06,1415,1413,-2.0
17312,2015-01-06,0800,0800,0.0
17314,2015-01-06,1320,1337,17.0
17317,2015-01-06,0805,0804,-1.0
17320,2015-01-06,2125,2241,76.0
17323,2015-01-06,2110,2147,37.0
17326,2015-01-06,1310,1309,-1.0
17450,2015-01-06,1504,1520,16.0
17472,2015-01-06,1847,2020,93.0
17489,2015-01-06,1114,1113,-1.0
17490,2015-01-06,1138,1138,0.0
17493,2015-01-06,1122,1204,42.0
17529,2015-01-06,1845,1849,4.0
17542,2015-01-06,1109,1116,7.0
17718,2015-01-06,1105,1119,14.0
17755,2015-01-06,1845,1934,49.0
17756,2015-01-06,1845,1845,0.0
17783,2015-01-06,1120,1127,7.0
17843,2015-01-06,1850,1851,1.0
17865,2015-01-06,1852,1903,11.0
17947,2015-01-06,1110,1126,16.0
17974,2015-01-06,0800,0758,-2.0
18012,2015-01-06,0600,0556,-4.0
18032,2015-01-06,0806,0807,1.0
18033,2015-01-06,1121,1222,61.0
18089,2015-01-06,1121,1204,43.0
18117,2015-01-06,1902,1912,10.0
18120,2015-01-06,1435,1447,12.0
18128,2015-01-06,1117,1124,7.0
18129,2015-01-06,1905,2044,99.0
18152,2015-01-06,1747,1931,104.0
18163,2015-01-06,0800,0848,48.0
18166,2015-01-06,1908,1928,20.0
18167,2015-01-06,1130,1134,4.0
18169,2015-01-06,1900,1931,31.0
18170,2015-01-06,1906,2015,69.0
18187,2015-01-06,1036,1225,109.0
18188,2015-01-06,1524,1709,105.0
18208,2015-01-06,1725,1738,13.0
18256,2015-01-06,1107,1145,38.0
18276,2015-01-06,1905,1937,32.0
18363,2015-01-06,1540,1902,202.0
18382,2015-01-06,1005,1018,13.0
18410,2015-01-06,1527,1611,44.0
18432,2015-01-06,0815,0812,-3.0
18695,2015-01-06,1200,1336,96.0
18696,2015-01-06,1820,1830,10.0
18697,2015-01-06,0850,1000,70.0
18698,2015-01-06,1415,1552,97.0
18699,2015-01-06,1050,1104,14.0
18700,2015-01-06,0600,0600,0.0
18701,2015-01-06,1645,2018,213.0
18702,2015-01-06,2105,2238,93.0
18703,2015-01-06,1200,1223,23.0
18704,2015-01-06,1745,1811,26.0
18705,2015-01-06,0855,0855,0.0
18706,2015-01-06,2110,2241,91.0
18707,2015-01-06,0850,0904,14.0
18708,2015-01-06,2105,2337,152.0
18709,2015-01-06,2115,2256,101.0
18710,2015-01-06,0850,0851,1.0
18711,2015-01-06,1440,1522,42.0
18712,2015-01-06,1845,1949,64.0
18713,2015-01-06,1205,1343,98.0
18714,2015-01-06,1200,1234,34.0
18715,2015-01-06,2110,2304,114.0
18716,2015-01-06,0840,0905,25.0
18717,2015-01-06,0700,0655,-5.0
18718,2015-01-06,2110,2110,0.0
18719,2015-01-06,1210,1224,14.0
18720,2015-01-06,2110,2301,111.0
18721,2015-01-06,1735,1732,-3.0
18722,2015-01-06,1205,1235,30.0
18723,2015-01-06,0850,0914,24.0
18724,2015-01-06,1200,1233,33.0
18725,2015-01-06,0855,0852,-3.0
18726,2015-01-06,1845,1929,44.0
18727,2015-01-06,2100,2139,39.0
