,FL_DATE,CRS_DEP_TIME,DEP_TIME,DEP_DELAY
31866,2015-01-11,0635,0634,-1.0
31871,2015-01-11,0733,0757,24.0
31916,2015-01-11,1010,1047,37.0
31919,2015-01-11,1855,1846,-9.0
31922,2015-01-11,1300,1354,54.0
31924,2015-01-11,1625,1648,23.0
31925,2015-01-11,2040,2036,-4.0
31927,2015-01-11,0600,0738,98.0
31929,2015-01-11,1130,1128,-2.0
31936,2015-01-11,1330,1417,47.0
31938,2015-01-11,1905,1901,-4.0
31988,2015-01-11,0640,0635,-5.0
31990,2015-01-11,1755,1913,78.0
31993,2015-01-11,0950,1226,156.0
31994,2015-01-11,1440,1434,-6.0
31996,2015-01-11,1215,1207,-8.0
31998,2015-01-11,1135,1302,87.0
31999,2015-01-11,0650,0643,-7.0
32001,2015-01-11,1530,1655,85.0
32004,2015-01-11,1630,1646,16.0
32006,2015-01-11,1935,1930,-5.0
32116,2015-01-11,0700,0651,-9.0
32375,2015-01-11,1323,1316,-7.0
32628,2015-01-11,1755,1750,-5.0
32656,2015-01-11,1220,1215,-5.0
32658,2015-01-11,0640,0640,0.0
32660,2015-01-11,0635,0624,-11.0
32662,2015-01-11,1700,1652,-8.0
32664,2015-01-11,1225,1215,-10.0
32815,2015-01-11,1036,1032,-4.0
32855,2015-01-11,1603,1611,8.0
33037,2015-01-11,0705,0725,20.0
33341,2015-01-11,1820,1822,2.0
33470,2015-01-11,1333,1338,5.0
33696,2015-01-11,0700,0701,1.0
34010,2015-01-11,1300,1321,21.0
34011,2015-01-11,1835,1908,33.0
34012,2015-01-11,1625,1850,145.0
34013,2015-01-11,1000,0955,-5.0
34014,2015-01-11,1820,2129,189.0
34015,2015-01-11,1355,1354,-1.0
34016,2015-01-11,1155,1157,2.0
34017,2015-01-11,1940,1950,10.0
34018,2015-01-11,1110,1108,-2.0
34019,2015-01-11,1855,1910,15.0
34020,2015-01-11,1305,1303,-2.0
34021,2015-01-11,2045,2044,-1.0
