,FL_DATE,CRS_DEP_TIME,DEP_TIME,DEP_DELAY
47278,2015-01-16,0635,0631,-4.0
47283,2015-01-16,0733,0752,19.0
47328,2015-01-16,1010,1137,87.0
47331,2015-01-16,1855,2015,80.0
47333,2015-01-16,1300,1308,8.0
47335,2015-01-16,1625,1617,-8.0
47336,2015-01-16,2040,2035,-5.0
47338,2015-01-16,0600,0556,-4.0
47340,2015-01-16,1130,1128,-2.0
47347,2015-01-16,1330,1328,-2.0
47349,2015-01-16,1905,1925,20.0
47401,2015-01-16,0640,0633,-7.0
47403,2015-01-16,1755,1750,-5.0
47406,2015-01-16,0950,0951,1.0
47407,2015-01-16,1440,1436,-4.0
47409,2015-01-16,1215,1210,-5.0
47411,2015-01-16,1135,1129,-6.0
47412,2015-01-16,0650,0643,-7.0
47414,2015-01-16,1530,1620,50.0
47417,2015-01-16,1630,1624,-6.0
47419,2015-01-16,1935,1937,2.0
47527,2015-01-16,0700,0654,-6.0
47807,2015-01-16,1323,1319,-4.0
48061,2015-01-16,1755,1746,-9.0
48090,2015-01-16,1220,1219,-1.0
48092,2015-01-16,0640,0635,-5.0
48094,2015-01-16,0635,0628,-7.0
48096,2015-01-16,1700,1746,46.0
48098,2015-01-16,1225,1222,-3.0
48251,2015-01-16,1036,1118,42.0
48291,2015-01-16,1603,1630,27.0
48480,2015-01-16,0525,0523,-2.0
48567,2015-01-16,1339,1432,53.0
48627,2015-01-16,1224,1441,137.0
48697,2015-01-16,0925,1027,62.0
48826,2015-01-16,1820,1824,4.0
48971,2015-01-16,0705,0700,-5.0
49202,2015-01-16,0700,0654,-6.0
49742,2015-01-16,0830,0828,-2.0
49743,2015-01-16,1300,1323,23.0
49744,2015-01-16,1835,2058,143.0
49745,2015-01-16,1130,1133,3.0
49746,2015-01-16,1625,1642,17.0
49747,2015-01-16,1000,0958,-2.0
49748,2015-01-16,1820,1850,30.0
49749,2015-01-16,0705,0702,-3.0
49750,2015-01-16,1355,1350,-5.0
49751,2015-01-16,1155,1153,-2.0
49752,2015-01-16,1940,1941,1.0
49753,2015-01-16,1110,1110,0.0
49754,2015-01-16,1855,1916,21.0
49755,2015-01-16,1305,1319,14.0
49756,2015-01-16,2045,2138,53.0
49757,2015-01-16,0640,0633,-7.0
