,FL_DATE,CRS_DEP_TIME,DEP_TIME,DEP_DELAY
62028,2015-01-21,0733,0723,-10.0
62073,2015-01-21,1010,1002,-8.0
62076,2015-01-21,1855,1852,-3.0
62079,2015-01-21,1300,1256,-4.0
62081,2015-01-21,1625,1612,-13.0
62082,2015-01-21,2040,2033,-7.0
62084,2015-01-21,0600,0550,-10.0
62086,2015-01-21,1130,1121,-9.0
62091,2015-01-21,1330,1326,-4.0
62141,2015-01-21,0640,0633,-7.0
62143,2015-01-21,1755,1749,-6.0
62146,2015-01-21,0950,0951,1.0
62147,2015-01-21,1440,1432,-8.0
62149,2015-01-21,1215,1215,0.0
62151,2015-01-21,0635,0626,-9.0
62153,2015-01-21,1135,1127,-8.0
62154,2015-01-21,0650,0646,-4.0
62156,2015-01-21,1530,1515,-15.0
62159,2015-01-21,1630,1626,-4.0
62161,2015-01-21,1935,1923,-12.0
62223,2015-01-21,0700,0710,10.0
62478,2015-01-21,1323,1319,-4.0
62724,2015-01-21,1755,1750,-5.0
62750,2015-01-21,1220,1225,5.0
62752,2015-01-21,0640,0637,-3.0
62754,2015-01-21,0635,0646,11.0
62756,2015-01-21,1700,1848,108.0
62758,2015-01-21,1225,,
62898,2015-01-21,1036,1210,94.0
62932,2015-01-21,1631,1644,13.0
63124,2015-01-21,0525,0524,-1.0
63267,2015-01-21,1820,1836,16.0
63384,2015-01-21,1334,1345,11.0
63418,2015-01-21,0705,0659,-6.0
63479,2015-01-21,1224,1214,-10.0
63541,2015-01-21,0925,0923,-2.0
63795,2015-01-21,0700,0652,-8.0
64058,2015-01-21,0830,0829,-1.0
64059,2015-01-21,1300,1307,7.0
64060,2015-01-21,1835,1842,7.0
64061,2015-01-21,1130,1251,81.0
64062,2015-01-21,1625,1627,2.0
64063,2015-01-21,1000,1003,3.0
64064,2015-01-21,1820,1823,3.0
64065,2015-01-21,0705,0703,-2.0
64066,2015-01-21,1355,1351,-4.0
64067,2015-01-21,1155,1153,-2.0
64068,2015-01-21,1940,1934,-6.0
64069,2015-01-21,1110,1108,-2.0
64070,2015-01-21,1855,1848,-7.0
64071,2015-01-21,1305,1311,6.0
64072,2015-01-21,2045,2042,-3.0
64073,2015-01-21,0640,0637,-3.0
