,FL_DATE,CRS_DEP_TIME,DEP_TIME,DEP_DELAY
19900,2015-01-07,0725,0715,-10.0
19947,2015-01-07,1010,1007,-3.0
19950,2015-01-07,1855,1921,26.0
19953,2015-01-07,1300,1251,-9.0
19955,2015-01-07,1625,1638,13.0
19956,2015-01-07,2050,2041,-9.0
19958,2015-01-07,0600,0552,-8.0
19960,2015-01-07,1130,1205,35.0
19965,2015-01-07,1330,1317,-13.0
20015,2015-01-07,0640,0632,-8.0
20017,2015-01-07,1755,1754,-1.0
20020,2015-01-07,0950,0939,-11.0
20021,2015-01-07,1440,1437,-3.0
20023,2015-01-07,1215,1210,-5.0
20025,2015-01-07,0635,0629,-6.0
20027,2015-01-07,1135,1121,-14.0
20028,2015-01-07,0650,0638,-12.0
20030,2015-01-07,1530,1524,-6.0
20033,2015-01-07,1630,1629,-1.0
20035,2015-01-07,1935,1927,-8.0
20101,2015-01-07,0700,0651,-9.0
20301,2015-01-07,1323,1322,-1.0
20602,2015-01-07,1755,1757,2.0
20630,2015-01-07,1220,1222,2.0
20632,2015-01-07,0640,0636,-4.0
20634,2015-01-07,0635,0625,-10.0
20636,2015-01-07,1700,1652,-8.0
20638,2015-01-07,1225,1220,-5.0
20773,2015-01-07,1036,1115,39.0
20805,2015-01-07,1631,1625,-6.0
20995,2015-01-07,0525,0523,-2.0
21167,2015-01-07,1224,1213,-11.0
21226,2015-01-07,0925,1024,59.0
21296,2015-01-07,1820,1901,41.0
21358,2015-01-07,0705,0702,-3.0
21365,2015-01-07,1332,1326,-6.0
21660,2015-01-07,0700,0649,-11.0
21913,2015-01-07,0830,0829,-1.0
21914,2015-01-07,1300,1255,-5.0
21915,2015-01-07,1835,1833,-2.0
21916,2015-01-07,1130,1223,53.0
21917,2015-01-07,1625,1636,11.0
21918,2015-01-07,1000,0954,-6.0
21919,2015-01-07,1820,1937,77.0
21920,2015-01-07,0705,0659,-6.0
21921,2015-01-07,1355,1353,-2.0
21922,2015-01-07,1155,1244,49.0
21923,2015-01-07,1940,2016,36.0
21924,2015-01-07,1110,1116,6.0
21925,2015-01-07,1855,1854,-1.0
21926,2015-01-07,1305,1311,6.0
21927,2015-01-07,2045,2208,83.0
21928,2015-01-07,0640,0636,-4.0
