,FL_DATE,CRS_DEP_TIME,DEP_TIME,DEP_DELAY
14,2015-01-01,0755,0841,46.0
19,2015-01-01,1035,,
32,2015-01-01,2100,2103,3.0
36,2015-01-01,1935,2006,31.0
44,2015-01-01,1805,1803,-2.0
61,2015-01-01,2140,2219,39.0
70,2015-01-01,1250,1335,45.0
93,2015-01-01,1025,,
100,2015-01-01,2120,2140,20.0
120,2015-01-01,1150,1155,5.0
122,2015-01-01,1130,1142,12.0
124,2015-01-01,1315,1338,23.0
147,2015-01-01,0755,,
149,2015-01-01,1300,1305,5.0
151,2015-01-01,1230,1231,1.0
155,2015-01-01,1535,1614,39.0
160,2015-01-01,1445,1514,29.0
165,2015-01-01,1950,1950,0.0
179,2015-01-01,1025,,
183,2015-01-01,1015,1109,54.0
186,2015-01-01,1225,1227,2.0
196,2015-01-01,1740,1751,11.0
200,2015-01-01,1635,1848,133.0
204,2015-01-01,0855,0911,16.0
206,2015-01-01,1245,1256,11.0
208,2015-01-01,0740,0736,-4.0
212,2015-01-01,1750,1805,15.0
214,2015-01-01,1135,1130,-5.0
217,2015-01-01,1140,1139,-1.0
228,2015-01-01,1000,0958,-2.0
230,2015-01-01,1740,1840,60.0
231,2015-01-01,2130,2142,12.0
233,2015-01-01,1350,1359,9.0
238,2015-01-01,2110,2124,14.0
239,2015-01-01,1210,1218,8.0
246,2015-01-01,0930,0930,0.0
248,2015-01-01,1745,1829,44.0
251,2015-01-01,1725,1833,68.0
252,2015-01-01,0900,0857,-3.0
259,2015-01-01,1600,1604,4.0
265,2015-01-01,0900,,
269,2015-01-01,1735,1800,25.0
272,2015-01-01,1220,1221,1.0
274,2015-01-01,1305,1321,16.0
277,2015-01-01,1330,1329,-1.0
278,2015-01-01,1400,1403,3.0
280,2015-01-01,1550,1616,26.0
282,2015-01-01,0655,,
284,2015-01-01,1900,1916,16.0
285,2015-01-01,0800,1008,128.0
288,2015-01-01,0925,0942,17.0
292,2015-01-01,1035,1036,1.0
295,2015-01-01,2205,0008,123.0
296,2015-01-01,2135,2134,-1.0
488,2015-01-01,1835,1858,23.0
489,2015-01-01,1435,1442,7.0
490,2015-01-01,2230,2320,50.0
493,2015-01-01,1940,1941,1.0
495,2015-01-01,2050,2058,8.0
496,2015-01-01,2225,0003,98.0
497,2015-01-01,1635,1651,16.0
677,2015-01-01,2040,2041,1.0
682,2015-01-01,2040,2245,125.0
683,2015-01-01,1340,1341,1.0
809,2015-01-01,1545,1551,6.0
885,2015-01-01,0839,0831,-8.0
893,2015-01-01,0600,0600,0.0
908,2015-01-01,0715,0712,-3.0
1004,2015-01-01,1836,1856,20.0
1303,2015-01-01,2015,2059,44.0
1420,2015-01-01,0730,0730,0.0
1627,2015-01-01,1607,1725,78.0
1854,2015-01-01,1622,1714,52.0
