,FL_DATE,CRS_DEP_TIME,DEP_TIME,DEP_DELAY
68005,2015-01-23,1035,1052,17.0
68019,2015-01-23,2100,2058,-2.0
68022,2015-01-23,1935,1928,-7.0
68028,2015-01-23,1805,1814,9.0
68037,2015-01-23,0755,0830,35.0
68042,2015-01-23,2140,2133,-7.0
68050,2015-01-23,1250,1254,4.0
68076,2015-01-23,2115,2112,-3.0
68091,2015-01-23,1025,1022,-3.0
68095,2015-01-23,1150,1239,49.0
68097,2015-01-23,1130,1131,1.0
68099,2015-01-23,1325,1324,-1.0
68120,2015-01-23,0755,0747,-8.0
68122,2015-01-23,1300,1421,81.0
68124,2015-01-23,1225,1221,-4.0
68126,2015-01-23,1000,0954,-6.0
68129,2015-01-23,1535,1534,-1.0
68137,2015-01-23,1950,1948,-2.0
68148,2015-01-23,0740,0735,-5.0
68153,2015-01-23,1020,1014,-6.0
68155,2015-01-23,1010,1121,71.0
68158,2015-01-23,1225,1338,73.0
68169,2015-01-23,1740,1740,0.0
68171,2015-01-23,1440,1522,42.0
68175,2015-01-23,1625,1623,-2.0
68181,2015-01-23,0855,0852,-3.0
68183,2015-01-23,1245,1241,-4.0
68186,2015-01-23,1750,1747,-3.0
68188,2015-01-23,1130,1138,8.0
68190,2015-01-23,1135,1129,-6.0
68201,2015-01-23,1740,1737,-3.0
68202,2015-01-23,2130,2126,-4.0
68204,2015-01-23,1350,1355,5.0
68208,2015-01-23,1345,1340,-5.0
68211,2015-01-23,1205,1203,-2.0
68218,2015-01-23,1745,1822,37.0
68219,2015-01-23,0905,0929,24.0
68223,2015-01-23,1725,1719,-6.0
68224,2015-01-23,0900,0927,27.0
68230,2015-01-23,1600,1600,0.0
68234,2015-01-23,0900,0853,-7.0
68237,2015-01-23,1730,1729,-1.0
68241,2015-01-23,1210,1206,-4.0
68243,2015-01-23,1305,1304,-1.0
68245,2015-01-23,1330,1436,66.0
68246,2015-01-23,1400,1455,55.0
68248,2015-01-23,2100,2100,0.0
68250,2015-01-23,0650,0645,-5.0
68253,2015-01-23,1900,1859,-1.0
68254,2015-01-23,0800,0754,-6.0
68257,2015-01-23,0920,0918,-2.0
68261,2015-01-23,1040,1036,-4.0
68264,2015-01-23,2210,2201,-9.0
68265,2015-01-23,2135,2132,-3.0
68267,2015-01-23,1830,1828,-2.0
68268,2015-01-23,1435,1431,-4.0
68269,2015-01-23,2230,2226,-4.0
68272,2015-01-23,1935,1933,-2.0
68273,2015-01-23,2225,2222,-3.0
68275,2015-01-23,2040,2034,-6.0
68276,2015-01-23,1555,1557,2.0
68277,2015-01-23,1635,1633,-2.0
68552,2015-01-23,2040,2033,-7.0
68558,2015-01-23,2040,2036,-4.0
68575,2015-01-23,1545,1542,-3.0
68881,2015-01-23,0834,1108,154.0
68890,2015-01-23,0605,0602,-3.0
68905,2015-01-23,0715,0710,-5.0
68999,2015-01-23,1815,1823,8.0
69336,2015-01-23,1600,1557,-3.0
69344,2015-01-23,0545,0541,-4.0
69460,2015-01-23,0900,0856,-4.0
69501,2015-01-23,0900,0915,15.0
70039,2015-01-23,1619,1614,-5.0
