,FL_DATE,CRS_ARR_TIME,ARR_TIME,ARR_DELAY
44063,2015-01-15,1931,1915,-16.0
44065,2015-01-15,2242,2240,-2.0
44066,2015-01-15,1953,1943,-10.0
44072,2015-01-15,1213,1217,4.0
44073,2015-01-15,1504,1656,112.0
44077,2015-01-15,1119,1128,9.0
44079,2015-01-15,0900,0849,-11.0
44080,2015-01-15,1748,1746,-2.0
44084,2015-01-15,0854,0842,-12.0
44087,2015-01-15,1400,1353,-7.0
44089,2015-01-15,1204,1237,33.0
44091,2015-01-15,2029,2011,-18.0
44092,2015-01-15,1700,1802,62.0
44095,2015-01-15,2135,2334,119.0
44097,2015-01-15,1500,1509,9.0
44099,2015-01-15,0805,0802,-3.0
44101,2015-01-15,2053,2058,5.0
44103,2015-01-15,1840,1849,9.0
44105,2015-01-15,2040,2036,-4.0
44106,2015-01-15,1119,1119,0.0
44107,2015-01-15,0915,0907,-8.0
44110,2015-01-15,1320,1322,2.0
44126,2015-01-15,1049,1030,-19.0
44128,2015-01-15,1648,1628,-20.0
44135,2015-01-15,0945,0932,-13.0
44139,2015-01-15,1120,1121,1.0
44141,2015-01-15,2125,2124,-1.0
44143,2015-01-15,2022,2017,-5.0
44144,2015-01-15,2352,2340,-12.0
44146,2015-01-15,1534,1536,2.0
44148,2015-01-15,2220,2210,-10.0
44150,2015-01-15,1320,1314,-6.0
44151,2015-01-15,0846,0910,24.0
44152,2015-01-15,1803,1809,6.0
44154,2015-01-15,1253,1253,0.0
44157,2015-01-15,2251,2226,-25.0
44158,2015-01-15,1709,1721,12.0
44160,2015-01-15,1057,1045,-12.0
44163,2015-01-15,0930,0926,-4.0
44165,2015-01-15,1240,1320,40.0
44168,2015-01-15,1837,1828,-9.0
44170,2015-01-15,1500,1519,19.0
44172,2015-01-15,1953,1957,4.0
44174,2015-01-15,1000,0949,-11.0
44176,2015-01-15,1330,1316,-14.0
44178,2015-01-15,2025,2021,-4.0
44179,2015-01-15,1050,1033,-17.0
44181,2015-01-15,0934,0911,-23.0
44182,2015-01-15,2217,2201,-16.0
44185,2015-01-15,1810,1925,75.0
44224,2015-01-15,2145,2147,2.0
44287,2015-01-15,1050,1051,1.0
44312,2015-01-15,1642,1723,41.0
44358,2015-01-15,1052,1048,-4.0
44855,2015-01-15,0812,0804,-8.0
44859,2015-01-15,1340,1356,16.0
44874,2015-01-15,1353,1337,-16.0
44876,2015-01-15,2009,1941,-28.0
44889,2015-01-15,1740,1729,-11.0
44934,2015-01-15,1413,1408,-5.0
45026,2015-01-15,0909,0908,-1.0
45055,2015-01-15,1405,1419,14.0
45057,2015-01-15,1955,1942,-13.0
45059,2015-01-15,1146,1153,7.0
45130,2015-01-15,1130,1136,6.0
45346,2015-01-15,0911,0912,1.0
45358,2015-01-15,1325,1328,3.0
45416,2015-01-15,1616,1734,78.0
45481,2015-01-15,1940,1925,-15.0
45549,2015-01-15,2314,2254,-20.0
45654,2015-01-15,2059,2107,8.0
45671,2015-01-15,0045,0039,-6.0
45676,2015-01-15,1101,1118,17.0
45759,2015-01-15,2149,2210,21.0
45906,2015-01-15,1005,0954,-11.0
45907,2015-01-15,1500,1541,41.0
45908,2015-01-15,1845,1836,-9.0
45909,2015-01-15,2245,2246,1.0
45914,2015-01-15,0935,0928,-7.0
45915,2015-01-15,1545,1526,-19.0
45917,2015-01-15,2015,2103,48.0
46480,2015-01-15,2335,2324,-11.0
46481,2015-01-15,1845,1841,-4.0
46482,2015-01-15,1020,1007,-13.0
46626,2015-01-15,1005,1005,0.0
46627,2015-01-15,2250,2233,-17.0
46698,2015-01-15,2115,2143,28.0
46699,2015-01-15,0955,1050,55.0
46700,2015-01-15,1435,1432,-3.0
46924,2015-01-15,1555,1611,16.0
46925,2015-01-15,1310,1301,-9.0
46926,2015-01-15,1100,1106,6.0
46927,2015-01-15,2100,2059,-1.0
46928,2015-01-15,1825,1843,18.0
