,FL_DATE,CRS_ARR_TIME,ARR_TIME,ARR_DELAY
50460,2015-01-17,1931,2018,47.0
50462,2015-01-17,2242,2235,-7.0
50464,2015-01-17,1953,2013,20.0
50466,2015-01-17,2251,2232,-19.0
50473,2015-01-17,1213,1149,-24.0
50474,2015-01-17,1504,1512,8.0
50477,2015-01-17,1119,1107,-12.0
50479,2015-01-17,0900,0904,4.0
50480,2015-01-17,1748,1736,-12.0
50484,2015-01-17,0854,0854,0.0
50487,2015-01-17,1359,1357,-2.0
50489,2015-01-17,1204,1159,-5.0
50491,2015-01-17,1700,1647,-13.0
50492,2015-01-17,2135,2120,-15.0
50495,2015-01-17,1500,1509,9.0
50497,2015-01-17,0805,0757,-8.0
50499,2015-01-17,2053,2032,-21.0
50501,2015-01-17,1840,1830,-10.0
50503,2015-01-17,1119,1113,-6.0
50504,2015-01-17,0915,0855,-20.0
50507,2015-01-17,1320,1325,5.0
50521,2015-01-17,1049,1057,8.0
50523,2015-01-17,1648,1623,-25.0
50526,2015-01-17,0945,0935,-10.0
50530,2015-01-17,1120,1117,-3.0
50532,2015-01-17,1933,1918,-15.0
50533,2015-01-17,2125,2110,-15.0
50534,2015-01-17,2022,2018,-4.0
50535,2015-01-17,2352,2345,-7.0
50537,2015-01-17,1534,1538,4.0
50539,2015-01-17,2220,2221,1.0
50541,2015-01-17,0846,0832,-14.0
50543,2015-01-17,1358,1344,-14.0
50546,2015-01-17,1709,1736,27.0
50548,2015-01-17,1057,1036,-21.0
50550,2015-01-17,0930,0919,-11.0
50552,2015-01-17,1240,1236,-4.0
50555,2015-01-17,1837,1824,-13.0
50557,2015-01-17,1500,1502,2.0
50559,2015-01-17,1953,1938,-15.0
50561,2015-01-17,1000,0949,-11.0
50563,2015-01-17,1330,1324,-6.0
50565,2015-01-17,2025,2026,1.0
50566,2015-01-17,1050,1034,-16.0
50568,2015-01-17,0934,0936,2.0
50569,2015-01-17,2217,2205,-12.0
50572,2015-01-17,1810,1804,-6.0
50609,2015-01-17,2145,2133,-12.0
50662,2015-01-17,1050,1051,1.0
50679,2015-01-17,1642,1628,-14.0
50734,2015-01-17,1656,1631,-25.0
50859,2015-01-17,2236,2222,-14.0
51073,2015-01-17,1053,1039,-14.0
51102,2015-01-17,0812,0811,-1.0
51106,2015-01-17,1340,1328,-12.0
51116,2015-01-17,1353,1330,-23.0
51124,2015-01-17,2009,1943,-26.0
51136,2015-01-17,1740,,
51162,2015-01-17,1413,1418,5.0
51237,2015-01-17,0909,0918,9.0
51265,2015-01-17,1741,1740,-1.0
51329,2015-01-17,1124,1148,24.0
51374,2015-01-17,2212,2152,-20.0
51566,2015-01-17,1941,1922,-19.0
51600,2015-01-17,1325,1319,-6.0
51681,2015-01-17,1621,1556,-25.0
51727,2015-01-17,0045,0016,-29.0
52010,2015-01-17,1005,0954,-11.0
52011,2015-01-17,1500,1520,20.0
52012,2015-01-17,2245,2230,-15.0
52015,2015-01-17,1545,1543,-2.0
52117,2015-01-17,2000,1952,-8.0
52118,2015-01-17,1115,1116,1.0
52119,2015-01-17,1335,1348,13.0
52246,2015-01-17,1815,1750,-25.0
52247,2015-01-17,1040,1019,-21.0
52581,2015-01-17,1755,1745,-10.0
52624,2015-01-17,1320,1311,-9.0
52625,2015-01-17,1900,1850,-10.0
