,FL_DATE,CRS_ARR_TIME,ARR_TIME,ARR_DELAY
58982,2015-01-20,2242,2321,39.0
58983,2015-01-20,1953,1936,-17.0
58987,2015-01-20,1213,1158,-15.0
58988,2015-01-20,1504,1538,34.0
58992,2015-01-20,1119,1139,20.0
58993,2015-01-20,0900,0929,29.0
58994,2015-01-20,1748,1744,-4.0
58998,2015-01-20,0854,0901,7.0
59001,2015-01-20,1400,1353,-7.0
59003,2015-01-20,1204,1205,1.0
59005,2015-01-20,1700,1711,11.0
59008,2015-01-20,2135,2147,12.0
59010,2015-01-20,1500,1547,47.0
59012,2015-01-20,0805,0826,21.0
59014,2015-01-20,2053,2102,9.0
59016,2015-01-20,1840,1837,-3.0
59018,2015-01-20,2040,2051,11.0
59019,2015-01-20,1119,1118,-1.0
59020,2015-01-20,0915,1041,86.0
59024,2015-01-20,1320,1318,-2.0
59042,2015-01-20,1648,1631,-17.0
59044,2015-01-20,1414,1403,-11.0
59046,2015-01-20,0945,0949,4.0
59050,2015-01-20,1120,1129,9.0
59052,2015-01-20,2125,2123,-2.0
59054,2015-01-20,2022,2021,-1.0
59063,2015-01-20,1534,1542,8.0
59065,2015-01-20,2220,2226,6.0
59067,2015-01-20,1320,1330,10.0
59068,2015-01-20,0846,0902,16.0
59069,2015-01-20,1803,1819,16.0
59071,2015-01-20,1253,1251,-2.0
59074,2015-01-20,2251,2238,-13.0
59075,2015-01-20,1709,1718,9.0
59077,2015-01-20,1057,1104,7.0
59080,2015-01-20,0930,0935,5.0
59082,2015-01-20,1240,1226,-14.0
59085,2015-01-20,1837,1830,-7.0
59087,2015-01-20,1500,1520,20.0
59089,2015-01-20,1953,1942,-11.0
59091,2015-01-20,1000,0946,-14.0
59093,2015-01-20,1330,1326,-4.0
59095,2015-01-20,2025,2029,4.0
59096,2015-01-20,1050,1027,-23.0
59098,2015-01-20,0934,0925,-9.0
59099,2015-01-20,2217,2215,-2.0
59135,2015-01-20,2145,2130,-15.0
59177,2015-01-20,1050,1050,0.0
59201,2015-01-20,1642,1624,-18.0
59247,2015-01-20,1052,1052,0.0
59696,2015-01-20,0812,0801,-11.0
59700,2015-01-20,1340,1334,-6.0
59715,2015-01-20,1353,1331,-22.0
59717,2015-01-20,2009,2205,116.0
59729,2015-01-20,1740,1851,71.0
59767,2015-01-20,1413,1442,29.0
59852,2015-01-20,0909,0905,-4.0
59878,2015-01-20,1405,1441,36.0
59880,2015-01-20,1955,1953,-2.0
59882,2015-01-20,1146,1144,-2.0
59947,2015-01-20,1130,1152,22.0
60145,2015-01-20,1616,1631,15.0
60200,2015-01-20,1940,1930,-10.0
60237,2015-01-20,0045,0048,3.0
60264,2015-01-20,2059,2056,-3.0
60297,2015-01-20,1101,1112,11.0
60339,2015-01-20,2149,2144,-5.0
60518,2015-01-20,0910,0904,-6.0
60532,2015-01-20,1335,1411,36.0
60766,2015-01-20,1005,1005,0.0
60767,2015-01-20,1500,1455,-5.0
60768,2015-01-20,1845,1851,6.0
60769,2015-01-20,2245,2251,6.0
60774,2015-01-20,1545,1546,1.0
60776,2015-01-20,2015,2008,-7.0
60984,2015-01-20,2335,2335,0.0
60985,2015-01-20,1845,1901,16.0
60986,2015-01-20,1020,1008,-12.0
61127,2015-01-20,1005,1005,0.0
61128,2015-01-20,2250,2253,3.0
61199,2015-01-20,2115,2104,-11.0
61200,2015-01-20,0955,1007,12.0
61201,2015-01-20,1435,1436,1.0
61584,2015-01-20,1555,1618,23.0
61585,2015-01-20,1310,1742,272.0
61586,2015-01-20,1100,1109,9.0
61587,2015-01-20,2100,2108,8.0
61588,2015-01-20,1825,1826,1.0
