,FL_DATE,CRS_ARR_TIME,ARR_TIME,ARR_DELAY
76938,2015-01-26,1927,1905,-22.0
76940,2015-01-26,2242,2221,-21.0
76941,2015-01-26,1953,1931,-22.0
76943,2015-01-26,2251,2216,-35.0
76949,2015-01-26,1213,1149,-24.0
76950,2015-01-26,1504,1454,-10.0
76953,2015-01-26,1119,1109,-10.0
76955,2015-01-26,0900,0844,-16.0
76956,2015-01-26,1748,1747,-1.0
76960,2015-01-26,0854,0840,-14.0
76963,2015-01-26,1400,1349,-11.0
76965,2015-01-26,1204,1156,-8.0
76967,2015-01-26,1700,1640,-20.0
76970,2015-01-26,2135,2204,29.0
76972,2015-01-26,1500,1544,44.0
76974,2015-01-26,0805,0801,-4.0
76976,2015-01-26,2053,2036,-17.0
76978,2015-01-26,1840,1824,-16.0
76980,2015-01-26,2040,2029,-11.0
76981,2015-01-26,1119,1106,-13.0
76982,2015-01-26,0915,0856,-19.0
76985,2015-01-26,1320,1302,-18.0
77001,2015-01-26,1049,1013,-36.0
77003,2015-01-26,1648,1608,-40.0
77009,2015-01-26,0945,0925,-20.0
77013,2015-01-26,1120,1105,-15.0
77015,2015-01-26,2125,2102,-23.0
77017,2015-01-26,2022,2002,-20.0
77018,2015-01-26,2352,0144,112.0
77020,2015-01-26,1534,1525,-9.0
77022,2015-01-26,2220,2202,-18.0
77024,2015-01-26,1320,1250,-30.0
77035,2015-01-26,0846,0834,-12.0
77036,2015-01-26,1803,1751,-12.0
77038,2015-01-26,1253,1239,-14.0
77041,2015-01-26,1709,1654,-15.0
77043,2015-01-26,1057,1042,-15.0
77045,2015-01-26,0930,0905,-25.0
77047,2015-01-26,1240,1219,-21.0
77050,2015-01-26,1837,1822,-15.0
77052,2015-01-26,1500,1618,78.0
77054,2015-01-26,1953,2003,10.0
77056,2015-01-26,1000,1002,2.0
77058,2015-01-26,1330,1314,-16.0
77060,2015-01-26,2025,2007,-18.0
77061,2015-01-26,1050,1017,-33.0
77063,2015-01-26,0934,0910,-24.0
77064,2015-01-26,2217,2201,-16.0
77105,2015-01-26,2145,2119,-26.0
77156,2015-01-26,1050,1018,-32.0
77182,2015-01-26,1642,,
77333,2015-01-26,1052,1032,-20.0
77719,2015-01-26,0812,0812,0.0
77723,2015-01-26,1340,1318,-22.0
77731,2015-01-26,1353,1336,-17.0
77742,2015-01-26,2009,1937,-32.0
77755,2015-01-26,1740,1708,-32.0
77801,2015-01-26,1413,1412,-1.0
77895,2015-01-26,0909,0859,-10.0
77924,2015-01-26,1405,1345,-20.0
77926,2015-01-26,1955,1939,-16.0
77928,2015-01-26,1146,1135,-11.0
77998,2015-01-26,1130,1109,-21.0
78217,2015-01-26,0911,0843,-28.0
78229,2015-01-26,1325,1314,-11.0
78289,2015-01-26,1623,1552,-31.0
78354,2015-01-26,1940,1911,-29.0
78392,2015-01-26,0045,0029,-16.0
78536,2015-01-26,2059,2034,-25.0
78547,2015-01-26,1101,1034,-27.0
78627,2015-01-26,2149,2121,-28.0
78797,2015-01-26,0935,0915,-20.0
78798,2015-01-26,1545,1538,-7.0
78800,2015-01-26,2015,1951,-24.0
78930,2015-01-26,1005,0945,-20.0
78931,2015-01-26,1500,1507,7.0
78932,2015-01-26,1845,1822,-23.0
78933,2015-01-26,2245,2229,-16.0
79152,2015-01-26,2335,2326,-9.0
79153,2015-01-26,1845,1815,-30.0
79154,2015-01-26,1020,0940,-40.0
79297,2015-01-26,1005,0951,-14.0
79298,2015-01-26,2250,2230,-20.0
79369,2015-01-26,2115,2052,-23.0
79370,2015-01-26,0955,0939,-16.0
79371,2015-01-26,1435,1436,1.0
79595,2015-01-26,1555,1536,-19.0
79596,2015-01-26,1310,1252,-18.0
79597,2015-01-26,1100,1049,-11.0
79598,2015-01-26,2100,2040,-20.0
79599,2015-01-26,1825,1813,-12.0
