,FL_DATE,CRS_ARR_TIME,ARR_TIME,ARR_DELAY
89430,2015-01-30,1927,1931,4.0
89432,2015-01-30,2242,2308,26.0
89434,2015-01-30,1953,1955,2.0
89436,2015-01-30,2251,2301,10.0
89443,2015-01-30,1213,1208,-5.0
89444,2015-01-30,1504,1606,62.0
89449,2015-01-30,1119,1116,-3.0
89450,2015-01-30,0900,0857,-3.0
89451,2015-01-30,1748,1758,10.0
89455,2015-01-30,0854,0839,-15.0
89458,2015-01-30,1400,1404,4.0
89460,2015-01-30,1204,1208,4.0
89462,2015-01-30,2029,2043,14.0
89463,2015-01-30,1700,1729,29.0
89466,2015-01-30,2135,2219,44.0
89468,2015-01-30,1500,1535,35.0
89470,2015-01-30,0805,0800,-5.0
89472,2015-01-30,2053,2108,15.0
89474,2015-01-30,1840,1848,8.0
89476,2015-01-30,2040,2105,25.0
89477,2015-01-30,1119,1117,-2.0
89478,2015-01-30,0915,0856,-19.0
89481,2015-01-30,1320,1330,10.0
89497,2015-01-30,1049,1025,-24.0
89499,2015-01-30,1648,1747,59.0
89506,2015-01-30,0945,0939,-6.0
89510,2015-01-30,1120,1113,-7.0
89512,2015-01-30,2125,2134,9.0
89514,2015-01-30,2022,2047,25.0
89515,2015-01-30,2352,2400,8.0
89517,2015-01-30,1534,1539,5.0
89519,2015-01-30,2220,2257,37.0
89521,2015-01-30,1320,1354,34.0
89522,2015-01-30,0846,0845,-1.0
89523,2015-01-30,1803,1825,22.0
89525,2015-01-30,1253,1304,11.0
89528,2015-01-30,1709,1730,21.0
89530,2015-01-30,1057,1059,2.0
89532,2015-01-30,0930,0920,-10.0
89534,2015-01-30,1240,1235,-5.0
89537,2015-01-30,1837,1903,26.0
89539,2015-01-30,1500,1521,21.0
89541,2015-01-30,1953,1943,-10.0
89543,2015-01-30,1000,0954,-6.0
89545,2015-01-30,1330,1429,59.0
89547,2015-01-30,2025,2042,17.0
89548,2015-01-30,1050,1040,-10.0
89550,2015-01-30,0934,0926,-8.0
89551,2015-01-30,2217,2229,12.0
89554,2015-01-30,1810,1842,32.0
89591,2015-01-30,2145,2209,24.0
89648,2015-01-30,1050,1038,-12.0
89674,2015-01-30,1642,1633,-9.0
89919,2015-01-30,1052,1031,-21.0
90212,2015-01-30,0812,0812,0.0
90216,2015-01-30,1340,1334,-6.0
90232,2015-01-30,1353,1330,-23.0
90234,2015-01-30,2009,1957,-12.0
90247,2015-01-30,1740,,
90295,2015-01-30,1413,1415,2.0
90387,2015-01-30,0909,0911,2.0
90416,2015-01-30,1405,1357,-8.0
90418,2015-01-30,1955,1959,4.0
90420,2015-01-30,1146,1141,-5.0
90492,2015-01-30,1130,1118,-12.0
90747,2015-01-30,0045,0058,13.0
90754,2015-01-30,1101,1125,24.0
90834,2015-01-30,0911,1214,
90845,2015-01-30,2122,,
90848,2015-01-30,1325,1326,1.0
90908,2015-01-30,1616,1644,28.0
90972,2015-01-30,1940,,
91012,2015-01-30,2314,2302,-12.0
91125,2015-01-30,2149,2149,0.0
91307,2015-01-30,1005,0949,-16.0
91308,2015-01-30,1500,1453,-7.0
91309,2015-01-30,1845,1910,25.0
91310,2015-01-30,2245,2247,2.0
91315,2015-01-30,0935,1000,25.0
91316,2015-01-30,1545,1623,38.0
91318,2015-01-30,2015,2023,8.0
91561,2015-01-30,1555,1613,18.0
91562,2015-01-30,1310,1300,-10.0
91563,2015-01-30,1100,1101,1.0
91564,2015-01-30,2100,2122,22.0
91565,2015-01-30,1825,1852,27.0
91911,2015-01-30,2115,2131,16.0
91912,2015-01-30,0955,0948,-7.0
91913,2015-01-30,1435,1437,2.0
92181,2015-01-30,2335,2321,-14.0
92182,2015-01-30,1845,1936,51.0
92183,2015-01-30,1020,1005,-15.0
92325,2015-01-30,1005,1004,-1.0
92326,2015-01-30,2250,0007,77.0
