,FL_DATE,CRS_ARR_TIME,ARR_TIME,ARR_DELAY
31573,2015-01-11,1729,1723,-6.0
31575,2015-01-11,2106,0040,214.0
31577,2015-01-11,0617,0609,-8.0
31578,2015-01-11,1959,1947,-12.0
31581,2015-01-11,2118,2127,9.0
31582,2015-01-11,0649,0639,-10.0
31584,2015-01-11,2327,2328,1.0
31586,2015-01-11,2347,0049,62.0
31588,2015-01-11,1530,1524,-6.0
31592,2015-01-11,0751,0739,-12.0
31594,2015-01-11,2248,2245,-3.0
31596,2015-01-11,1634,1637,3.0
31598,2015-01-11,1530,1523,-7.0
31619,2015-01-11,1716,1707,-9.0
31632,2015-01-11,1607,1600,-7.0
31651,2015-01-11,1900,1900,0.0
31654,2015-01-11,0108,0433,205.0
31669,2015-01-11,1416,1358,-18.0
31705,2015-01-11,2155,2150,-5.0
32037,2015-01-11,0532,0609,37.0
32039,2015-01-11,1522,1541,19.0
32044,2015-01-11,1616,1641,25.0
32052,2015-01-11,0500,0440,-20.0
32059,2015-01-11,1445,1444,-1.0
32062,2015-01-11,1918,1943,25.0
32071,2015-01-11,2229,2239,10.0
32075,2015-01-11,0552,0559,7.0
32082,2015-01-11,2030,2039,9.0
32087,2015-01-11,2259,2328,29.0
32091,2015-01-11,2102,2113,11.0
32093,2015-01-11,2154,2203,9.0
32095,2015-01-11,2359,2349,-10.0
32101,2015-01-11,0718,0740,22.0
32106,2015-01-11,0507,0506,-1.0
32120,2015-01-11,0546,0541,-5.0
32148,2015-01-11,1740,1748,8.0
32158,2015-01-11,1456,1457,1.0
32160,2015-01-11,1655,1652,-3.0
32172,2015-01-11,2014,2007,-7.0
32184,2015-01-11,2116,2130,14.0
32198,2015-01-11,0600,0618,18.0
32226,2015-01-11,0714,0746,32.0
32287,2015-01-11,1512,1523,11.0
32291,2015-01-11,1454,1506,12.0
32309,2015-01-11,0016,0018,2.0
32313,2015-01-11,0529,0517,-12.0
32317,2015-01-11,2220,2220,0.0
32330,2015-01-11,0016,0004,-12.0
32339,2015-01-11,2210,2206,-4.0
32370,2015-01-11,0810,0755,-15.0
32372,2015-01-11,0541,0742,121.0
32374,2015-01-11,2129,2227,58.0
33084,2015-01-11,0114,0053,-21.0
33134,2015-01-11,0526,0513,-13.0
33136,2015-01-11,2242,2230,-12.0
33146,2015-01-11,1539,1558,19.0
33147,2015-01-11,1927,1957,30.0
33153,2015-01-11,1853,1911,18.0
33163,2015-01-11,0656,0720,24.0
33168,2015-01-11,2128,2146,18.0
33172,2015-01-11,1727,1717,-10.0
33173,2015-01-11,0602,0542,-20.0
33228,2015-01-11,1429,1424,-5.0
33234,2015-01-11,0038,0019,-19.0
33247,2015-01-11,1629,1622,-7.0
33644,2015-01-11,1534,1541,7.0
33669,2015-01-11,1755,1757,2.0
33676,2015-01-11,2225,2219,-6.0
33694,2015-01-11,0750,0747,-3.0
33703,2015-01-11,1545,1547,2.0
33704,2015-01-11,1905,1851,-14.0
33707,2015-01-11,2200,2234,34.0
33710,2015-01-11,2359,0012,13.0
33711,2015-01-11,0725,0734,9.0
