,FL_DATE,CRS_ARR_TIME,ARR_TIME,ARR_DELAY
6530,2015-01-03,1735,1759,24.0
6532,2015-01-03,2050,2146,56.0
6534,2015-01-03,0559,0602,3.0
6535,2015-01-03,1950,2000,10.0
6538,2015-01-03,2115,2155,40.0
6539,2015-01-03,0710,0711,1.0
6541,2015-01-03,2325,2321,-4.0
6543,2015-01-03,2335,2352,17.0
6550,2015-01-03,0750,0743,-7.0
6552,2015-01-03,2240,2303,23.0
6554,2015-01-03,1630,1618,-12.0
6556,2015-01-03,1525,1541,16.0
6583,2015-01-03,1730,1716,-14.0
6596,2015-01-03,1615,1606,-9.0
6618,2015-01-03,1845,1845,0.0
6641,2015-01-03,1410,1418,8.0
6675,2015-01-03,2155,2206,11.0
7013,2015-01-03,0532,0532,0.0
7015,2015-01-03,1517,1528,11.0
7020,2015-01-03,1631,1621,-10.0
7025,2015-01-03,0500,0515,15.0
7031,2015-01-03,1424,1748,204.0
7036,2015-01-03,1918,1924,6.0
7045,2015-01-03,2220,2242,22.0
7048,2015-01-03,0552,0804,132.0
7055,2015-01-03,2030,2030,0.0
7061,2015-01-03,2102,2146,44.0
7063,2015-01-03,1824,1833,9.0
7065,2015-01-03,2354,0004,10.0
7072,2015-01-03,0724,0800,36.0
7077,2015-01-03,0507,0516,9.0
7091,2015-01-03,0600,0604,4.0
7121,2015-01-03,2100,2106,6.0
7148,2015-01-03,0541,0557,16.0
7166,2015-01-03,0741,0753,12.0
7191,2015-01-03,1736,1749,13.0
7200,2015-01-03,1459,1454,-5.0
7204,2015-01-03,1655,1646,-9.0
7207,2015-01-03,1439,1447,8.0
7211,2015-01-03,2126,2151,25.0
7213,2015-01-03,1509,1518,9.0
7271,2015-01-03,0600,0559,-1.0
7277,2015-01-03,2115,2217,62.0
7378,2015-01-03,0759,0819,20.0
7380,2015-01-03,0539,0602,23.0
8279,2015-01-03,2155,2240,45.0
8295,2015-01-03,1925,1933,8.0
8304,2015-01-03,1850,1901,11.0
8313,2015-01-03,0645,0627,-18.0
8321,2015-01-03,2115,2108,-7.0
8322,2015-01-03,1726,1729,3.0
8323,2015-01-03,0559,0558,-1.0
8471,2015-01-03,1630,1634,4.0
8485,2015-01-03,2341,2346,5.0
8640,2015-01-03,1534,1542,8.0
8664,2015-01-03,1759,1759,0.0
8687,2015-01-03,0750,0748,-2.0
8697,2015-01-03,1550,1544,-6.0
8698,2015-01-03,1905,2030,85.0
8702,2015-01-03,2200,2214,14.0
8704,2015-01-03,2305,2306,1.0
8706,2015-01-03,2359,0010,11.0
8707,2015-01-03,0720,0736,16.0
8713,2015-01-03,2250,2234,-16.0
