,FL_DATE,CRS_ARR_TIME,ARR_TIME,ARR_DELAY
68,2015-01-01,1940,1916,-24.0
147,2015-01-01,0915,,
165,2015-01-01,2100,2056,-4.0
183,2015-01-01,1130,1221,51.0
204,2015-01-01,1015,1029,14.0
206,2015-01-01,1400,1353,-7.0
212,2015-01-01,1900,1907,7.0
214,2015-01-01,1250,1237,-13.0
227,2015-01-01,1520,1533,13.0
233,2015-01-01,1500,1503,3.0
238,2015-01-01,2215,2219,4.0
244,2015-01-01,1610,1600,-10.0
258,2015-01-01,2155,2133,-22.0
400,2015-01-01,1504,1456,-8.0
402,2015-01-01,1135,1135,0.0
403,2015-01-01,0850,0845,-5.0
404,2015-01-01,1020,1011,-9.0
407,2015-01-01,2119,2236,77.0
408,2015-01-01,1618,1614,-4.0
410,2015-01-01,1920,1901,-19.0
449,2015-01-01,0909,0859,-10.0
450,2015-01-01,1743,1733,-10.0
658,2015-01-01,1830,1809,-21.0
661,2015-01-01,2106,2034,-32.0
698,2015-01-01,1327,1313,-14.0
699,2015-01-01,1733,1714,-19.0
742,2015-01-01,1225,1205,-20.0
809,2015-01-01,1700,1647,-13.0
834,2015-01-01,1850,1845,-5.0
836,2015-01-01,2229,2235,6.0
846,2015-01-01,0935,0937,2.0
979,2015-01-01,0928,0942,14.0
1014,2015-01-01,1728,1819,51.0
1180,2015-01-01,1748,1731,-17.0
1276,2015-01-01,1110,1104,-6.0
1340,2015-01-01,2038,2037,-1.0
1418,2015-01-01,0938,0933,-5.0
1569,2015-01-01,1511,1508,-3.0
1587,2015-01-01,1614,1556,-18.0
1590,2015-01-01,2108,2050,-18.0
1615,2015-01-01,2048,2027,-21.0
1645,2015-01-01,2135,2147,12.0
1655,2015-01-01,1817,1812,-5.0
1761,2015-01-01,2028,2104,36.0
1770,2015-01-01,2206,2215,9.0
1814,2015-01-01,1924,1921,-3.0
1822,2015-01-01,1102,1100,-2.0
1844,2015-01-01,1543,1452,-51.0
1846,2015-01-01,2230,2249,19.0
2051,2015-01-01,1155,1149,-6.0
2078,2015-01-01,1745,1817,32.0
2079,2015-01-01,1315,1259,-16.0
2139,2015-01-01,0815,0800,-15.0
2140,2015-01-01,1835,1831,-4.0
2141,2015-01-01,1500,1530,30.0
2142,2015-01-01,1255,1242,-13.0
2143,2015-01-01,1055,1041,-14.0
2336,2015-01-01,1350,1344,-6.0
2337,2015-01-01,1705,1753,48.0
2338,2015-01-01,1520,1555,35.0
2339,2015-01-01,2050,2059,9.0
2340,2015-01-01,1210,1219,9.0
2462,2015-01-01,1530,1511,-19.0
2463,2015-01-01,2045,2053,8.0
2464,2015-01-01,1830,1831,1.0
2465,2015-01-01,1335,1333,-2.0
2506,2015-01-01,1150,1147,-3.0
2507,2015-01-01,1910,1909,-1.0
2508,2015-01-01,1430,1458,28.0
2509,2015-01-01,2055,2041,-14.0
2510,2015-01-01,1610,1733,83.0
2511,2015-01-01,1040,1035,-5.0
2555,2015-01-01,1645,1636,-9.0
2556,2015-01-01,2040,2035,-5.0
2557,2015-01-01,1545,1542,-3.0
2604,2015-01-01,1055,1038,-17.0
2628,2015-01-01,1205,1155,-10.0
2629,2015-01-01,1440,1514,34.0
2630,2015-01-01,1715,1743,28.0
2631,2015-01-01,1925,1920,-5.0
2632,2015-01-01,1330,1330,0.0
2674,2015-01-01,1224,1215,-9.0
2676,2015-01-01,1659,,
2681,2015-01-01,1244,1320,36.0
2694,2015-01-01,1402,1344,-18.0
2868,2015-01-01,1030,1018,-12.0
2879,2015-01-01,2230,2253,23.0
2916,2015-01-01,2040,2025,-15.0
2927,2015-01-01,0906,0858,-8.0
2977,2015-01-01,1145,1200,15.0
