,FL_DATE,CRS_ARR_TIME,ARR_TIME,ARR_DELAY
40764,2015-01-14,1943,1930,-13.0
40832,2015-01-14,0914,0914,0.0
40847,2015-01-14,2104,2059,-5.0
40863,2015-01-14,1130,1126,-4.0
40887,2015-01-14,1014,1028,14.0
40889,2015-01-14,1402,1428,26.0
40893,2015-01-14,1902,1906,4.0
40895,2015-01-14,1250,1236,-14.0
40905,2015-01-14,1520,1810,170.0
40909,2015-01-14,1506,1508,2.0
40919,2015-01-14,1608,1638,30.0
40952,2015-01-14,2210,2203,-7.0
41105,2015-01-14,1506,1453,-13.0
41107,2015-01-14,1133,1129,-4.0
41108,2015-01-14,0852,0852,0.0
41110,2015-01-14,1620,1622,2.0
41112,2015-01-14,1922,1915,-7.0
41114,2015-01-14,2218,2227,9.0
41138,2015-01-14,1352,1357,5.0
41139,2015-01-14,0907,0906,-1.0
41141,2015-01-14,1744,1734,-10.0
41271,2015-01-14,1159,1200,1.0
41302,2015-01-14,1215,1152,-23.0
41303,2015-01-14,1630,1609,-21.0
41304,2015-01-14,1954,1924,-30.0
41358,2015-01-14,1840,1833,-7.0
41362,2015-01-14,2141,2130,-11.0
41413,2015-01-14,1704,1649,-15.0
41457,2015-01-14,1233,1220,-13.0
41458,2015-01-14,1554,1548,-6.0
41471,2015-01-14,0935,0907,-28.0
41483,2015-01-14,2229,2213,-16.0
41487,2015-01-14,1850,1828,-22.0
41659,2015-01-14,1212,1208,-4.0
41674,2015-01-14,2147,2133,-14.0
41767,2015-01-14,2030,2027,-3.0
41840,2015-01-14,0946,0946,0.0
41944,2015-01-14,1019,1012,-7.0
42043,2015-01-14,1628,1632,4.0
42079,2015-01-14,0940,0947,7.0
42170,2015-01-14,1032,1024,-8.0
42220,2015-01-14,1957,1943,-14.0
42295,2015-01-14,1146,1146,0.0
42298,2015-01-14,2134,2134,0.0
42308,2015-01-14,1816,1816,0.0
42366,2015-01-14,0907,0847,-20.0
42548,2015-01-14,0950,0914,-36.0
42560,2015-01-14,2126,2037,-49.0
42570,2015-01-14,1245,1226,-19.0
42605,2015-01-14,1044,1010,-34.0
42658,2015-01-14,1704,1708,4.0
42684,2015-01-14,2232,2219,-13.0
42695,2015-01-14,2034,2033,-1.0
42734,2015-01-14,2128,2125,-3.0
42777,2015-01-14,1932,1948,16.0
42799,2015-01-14,1500,1446,-14.0
42837,2015-01-14,1214,1154,-20.0
42965,2015-01-14,1220,1212,-8.0
42995,2015-01-14,1325,1322,-3.0
42996,2015-01-14,1020,1004,-16.0
42997,2015-01-14,2010,2001,-9.0
42998,2015-01-14,2225,2156,-29.0
43011,2015-01-14,1105,1112,7.0
43079,2015-01-14,1940,1934,-6.0
43080,2015-01-14,1530,1528,-2.0
43081,2015-01-14,0800,0745,-15.0
43082,2015-01-14,1135,1133,-2.0
43083,2015-01-14,1345,1339,-6.0
43084,2015-01-14,2035,2023,-12.0
43085,2015-01-14,0905,0850,-15.0
43086,2015-01-14,1805,1805,0.0
43314,2015-01-14,1205,1213,8.0
43315,2015-01-14,1840,1841,1.0
43316,2015-01-14,0735,0729,-6.0
43317,2015-01-14,2210,2211,1.0
43318,2015-01-14,1535,1542,7.0
43319,2015-01-14,2050,2042,-8.0
43320,2015-01-14,0830,0823,-7.0
43321,2015-01-14,1325,1322,-3.0
43421,2015-01-14,1225,1223,-2.0
43422,2015-01-14,1740,1736,-4.0
43423,2015-01-14,2100,2113,13.0
43424,2015-01-14,1420,1415,-5.0
43425,2015-01-14,1540,1543,3.0
43426,2015-01-14,0740,0733,-7.0
43427,2015-01-14,0930,0921,-9.0
43556,2015-01-14,0825,0810,-15.0
43557,2015-01-14,1500,1443,-17.0
43558,2015-01-14,2025,2020,-5.0
43559,2015-01-14,2155,2144,-11.0
43560,2015-01-14,1705,1704,-1.0
43561,2015-01-14,1220,1212,-8.0
43620,2015-01-14,1725,1721,-4.0
43621,2015-01-14,1540,1550,10.0
43622,2015-01-14,1030,1026,-4.0
43623,2015-01-14,2035,2036,1.0
43624,2015-01-14,0750,0737,-13.0
43625,2015-01-14,1920,2005,45.0
43626,2015-01-14,2225,2223,-2.0
43627,2015-01-14,1300,1253,-7.0
43628,2015-01-14,1000,,
43693,2015-01-14,1150,1143,-7.0
43694,2015-01-14,1430,1428,-2.0
43695,2015-01-14,2210,2206,-4.0
43696,2015-01-14,0735,0718,-17.0
43697,2015-01-14,1750,1746,-4.0
43698,2015-01-14,1625,1618,-7.0
43699,2015-01-14,1055,1052,-3.0
