,FL_DATE,CRS_ARR_TIME,ARR_TIME,ARR_DELAY
52726,2015-01-18,1943,1935,-8.0
52794,2015-01-18,0914,0859,-15.0
52810,2015-01-18,2104,2045,-19.0
52825,2015-01-18,1130,1127,-3.0
52849,2015-01-18,1014,0958,-16.0
52851,2015-01-18,1402,1346,-16.0
52854,2015-01-18,1902,1910,8.0
52856,2015-01-18,1250,1231,-19.0
52866,2015-01-18,1520,1542,22.0
52870,2015-01-18,1506,1458,-8.0
52880,2015-01-18,1608,1616,8.0
52914,2015-01-18,2210,2203,-7.0
53050,2015-01-18,1506,1442,-24.0
53052,2015-01-18,1133,1136,3.0
53054,2015-01-18,1620,1623,3.0
53056,2015-01-18,1922,2009,47.0
53058,2015-01-18,2218,2236,18.0
53081,2015-01-18,1352,1342,-10.0
53082,2015-01-18,0907,0901,-6.0
53084,2015-01-18,1744,1744,0.0
53233,2015-01-18,1704,1644,-20.0
53241,2015-01-18,1159,1131,-28.0
53310,2015-01-18,1840,1830,-10.0
53312,2015-01-18,2141,2118,-23.0
53385,2015-01-18,1741,1717,-24.0
53386,2015-01-18,2237,2215,-22.0
53435,2015-01-18,1233,1219,-14.0
53436,2015-01-18,1554,1553,-1.0
53448,2015-01-18,0935,0927,-8.0
53452,2015-01-18,2229,2226,-3.0
53456,2015-01-18,2008,1952,-16.0
53626,2015-01-18,1212,1207,-5.0
53642,2015-01-18,2110,2105,-5.0
53744,2015-01-18,2032,2014,-18.0
53811,2015-01-18,0946,0920,-26.0
53910,2015-01-18,0940,0929,-11.0
54001,2015-01-18,1628,1650,22.0
54116,2015-01-18,1504,1600,56.0
54133,2015-01-18,1704,1636,-28.0
54136,2015-01-18,2127,2139,12.0
54142,2015-01-18,1053,1044,-9.0
54146,2015-01-18,0950,0921,-29.0
54163,2015-01-18,1241,1311,30.0
54197,2015-01-18,1214,1157,-17.0
54204,2015-01-18,2230,2208,-22.0
54249,2015-01-18,1334,1310,-24.0
54280,2015-01-18,2034,2022,-12.0
54284,2015-01-18,2122,2044,-38.0
54362,2015-01-18,1932,1913,-19.0
54443,2015-01-18,1032,1007,-25.0
54488,2015-01-18,1928,1910,-18.0
54541,2015-01-18,0907,0853,-14.0
54589,2015-01-18,1146,1138,-8.0
54593,2015-01-18,2134,2133,-1.0
54604,2015-01-18,1816,1853,37.0
54858,2015-01-18,1155,1136,-19.0
54922,2015-01-18,1940,1930,-10.0
54923,2015-01-18,1530,1527,-3.0
54924,2015-01-18,0935,0926,-9.0
54925,2015-01-18,1135,1133,-2.0
54926,2015-01-18,1345,1355,10.0
54927,2015-01-18,2035,2025,-10.0
54928,2015-01-18,1805,1757,-8.0
54996,2015-01-18,1220,1204,-16.0
55018,2015-01-18,1325,1320,-5.0
55019,2015-01-18,2010,2015,5.0
55020,2015-01-18,2225,2231,6.0
55147,2015-01-18,1125,1112,-13.0
55148,2015-01-18,2210,2206,-4.0
55149,2015-01-18,1535,1543,8.0
55150,2015-01-18,2050,2039,-11.0
55151,2015-01-18,1840,1832,-8.0
55152,2015-01-18,1325,1322,-3.0
55232,2015-01-18,1740,1739,-1.0
55233,2015-01-18,2100,2057,-3.0
55234,2015-01-18,1225,1222,-3.0
55235,2015-01-18,1540,1548,8.0
55236,2015-01-18,1420,1417,-3.0
55237,2015-01-18,1100,1050,-10.0
55238,2015-01-18,0930,0922,-8.0
55366,2015-01-18,2025,2042,17.0
55367,2015-01-18,1500,1639,99.0
55368,2015-01-18,2155,2141,-14.0
55369,2015-01-18,1705,1703,-2.0
55370,2015-01-18,1220,1212,-8.0
55417,2015-01-18,1725,1723,-2.0
55418,2015-01-18,1540,1527,-13.0
55419,2015-01-18,2035,2030,-5.0
55420,2015-01-18,1920,1911,-9.0
55421,2015-01-18,2225,2229,4.0
55422,2015-01-18,1000,0956,-4.0
55423,2015-01-18,1300,1252,-8.0
55476,2015-01-18,1430,1425,-5.0
55477,2015-01-18,2210,2200,-10.0
55478,2015-01-18,1750,1746,-4.0
55479,2015-01-18,1625,1620,-5.0
55480,2015-01-18,1055,1048,-7.0
