,FL_DATE,CRS_ARR_TIME,ARR_TIME,ARR_DELAY
79896,2015-01-27,1943,1942,-1.0
79961,2015-01-27,0914,0849,-25.0
79975,2015-01-27,2104,2045,-19.0
79992,2015-01-27,1130,1109,-21.0
80016,2015-01-27,1014,1107,53.0
80018,2015-01-27,1402,1345,-17.0
80021,2015-01-27,1902,1856,-6.0
80023,2015-01-27,1250,1230,-20.0
80032,2015-01-27,1520,1511,-9.0
80036,2015-01-27,1506,1454,-12.0
80046,2015-01-27,1608,1604,-4.0
80077,2015-01-27,2210,2157,-13.0
80210,2015-01-27,1506,1455,-11.0
80212,2015-01-27,1133,1129,-4.0
80213,2015-01-27,0852,0855,3.0
80215,2015-01-27,1620,1626,6.0
80217,2015-01-27,1922,1913,-9.0
80219,2015-01-27,2218,2213,-5.0
80243,2015-01-27,0907,0901,-6.0
80244,2015-01-27,1744,1742,-2.0
80367,2015-01-27,1704,1647,-17.0
80390,2015-01-27,1159,1134,-25.0
80413,2015-01-27,1233,1223,-10.0
80486,2015-01-27,1840,1821,-19.0
80490,2015-01-27,2141,2122,-19.0
80529,2015-01-27,1215,1148,-27.0
80530,2015-01-27,1630,1609,-21.0
80531,2015-01-27,1954,1926,-28.0
80591,2015-01-27,2229,2217,-12.0
80592,2015-01-27,0935,0917,-18.0
80601,2015-01-27,1850,1840,-10.0
80770,2015-01-27,1212,1216,4.0
80786,2015-01-27,2147,2137,-10.0
80872,2015-01-27,2030,2027,-3.0
80941,2015-01-27,0946,0946,0.0
80960,2015-01-27,1554,1609,15.0
81137,2015-01-27,1628,1617,-11.0
81173,2015-01-27,0940,0939,-1.0
81299,2015-01-27,0950,0924,-26.0
81351,2015-01-27,1044,1022,-22.0
81400,2015-01-27,1704,,
81450,2015-01-27,1505,1457,-8.0
81479,2015-01-27,1214,,
81521,2015-01-27,1032,1005,-27.0
81571,2015-01-27,1953,1934,-19.0
81611,2015-01-27,1059,1049,-10.0
81618,2015-01-27,1816,1806,-10.0
81665,2015-01-27,0907,1026,79.0
81708,2015-01-27,1146,1139,-7.0
81839,2015-01-27,1247,1239,-8.0
81840,2015-01-27,2122,,
81885,2015-01-27,2128,2116,-12.0
81894,2015-01-27,2232,2221,-11.0
81910,2015-01-27,2034,2023,-11.0
81925,2015-01-27,1932,1921,-11.0
82005,2015-01-27,1220,1201,-19.0
82094,2015-01-27,1205,1150,-15.0
82095,2015-01-27,1840,1835,-5.0
82096,2015-01-27,0735,0720,-15.0
82097,2015-01-27,2210,2203,-7.0
82098,2015-01-27,1535,1534,-1.0
82099,2015-01-27,2050,2041,-9.0
82100,2015-01-27,0830,0823,-7.0
82101,2015-01-27,1325,1316,-9.0
82201,2015-01-27,1225,1217,-8.0
82202,2015-01-27,1740,1726,-14.0
82203,2015-01-27,2100,2100,0.0
82204,2015-01-27,1420,1417,-3.0
82205,2015-01-27,1540,1541,1.0
82206,2015-01-27,0740,0741,1.0
82207,2015-01-27,0930,0919,-11.0
82361,2015-01-27,0825,0810,-15.0
82362,2015-01-27,1500,1450,-10.0
82363,2015-01-27,2025,2021,-4.0
82364,2015-01-27,2155,2139,-16.0
82365,2015-01-27,1705,1659,-6.0
82366,2015-01-27,1220,1219,-1.0
82425,2015-01-27,1725,1722,-3.0
82426,2015-01-27,1540,1550,10.0
82427,2015-01-27,1030,1020,-10.0
82428,2015-01-27,2035,2029,-6.0
82429,2015-01-27,0750,0742,-8.0
82430,2015-01-27,1920,1911,-9.0
82431,2015-01-27,2225,2219,-6.0
82432,2015-01-27,1300,1300,0.0
82433,2015-01-27,1000,0956,-4.0
82499,2015-01-27,1150,1139,-11.0
82500,2015-01-27,1430,1429,-1.0
82501,2015-01-27,2210,2206,-4.0
82502,2015-01-27,0735,0723,-12.0
82503,2015-01-27,1750,1746,-4.0
82504,2015-01-27,1625,1621,-4.0
82505,2015-01-27,1055,1055,0.0
82563,2015-01-27,1105,1042,-23.0
82633,2015-01-27,1940,1934,-6.0
82634,2015-01-27,1530,1524,-6.0
82635,2015-01-27,0800,0750,-10.0
82636,2015-01-27,1135,1220,45.0
82637,2015-01-27,1345,1350,5.0
82638,2015-01-27,2035,2020,-15.0
82639,2015-01-27,0905,0858,-7.0
82640,2015-01-27,1805,1758,-7.0
82811,2015-01-27,1325,1313,-12.0
82812,2015-01-27,1020,1010,-10.0
82813,2015-01-27,2010,2013,3.0
82814,2015-01-27,2225,2212,-13.0
