,FL_DATE,CRS_ARR_TIME,ARR_TIME,ARR_DELAY
85972,2015-01-29,1943,1948,5.0
86044,2015-01-29,0914,0903,-11.0
86061,2015-01-29,2104,2046,-18.0
86079,2015-01-29,1130,1123,-7.0
86105,2015-01-29,1014,0956,-18.0
86107,2015-01-29,1402,1355,-7.0
86110,2015-01-29,1902,1954,52.0
86112,2015-01-29,1250,1240,-10.0
86124,2015-01-29,1520,1524,4.0
86128,2015-01-29,1506,1454,-12.0
86138,2015-01-29,1608,1614,6.0
86172,2015-01-29,2210,2206,-4.0
86313,2015-01-29,1506,1444,-22.0
86315,2015-01-29,1133,1130,-3.0
86316,2015-01-29,0852,0846,-6.0
86318,2015-01-29,1620,1620,0.0
86320,2015-01-29,1922,1923,1.0
86322,2015-01-29,2218,2218,0.0
86348,2015-01-29,1352,1629,157.0
86349,2015-01-29,0907,0904,-3.0
86351,2015-01-29,1744,1741,-3.0
86497,2015-01-29,1704,1645,-19.0
86578,2015-01-29,1840,1829,-11.0
86582,2015-01-29,2141,2133,-8.0
86640,2015-01-29,1159,1342,103.0
86673,2015-01-29,1215,1225,10.0
86674,2015-01-29,1630,1616,-14.0
86675,2015-01-29,1954,1943,-11.0
86732,2015-01-29,1233,1223,-10.0
86733,2015-01-29,1554,1554,0.0
86758,2015-01-29,0935,0937,2.0
86762,2015-01-29,2229,2229,0.0
86767,2015-01-29,1850,1832,-18.0
86938,2015-01-29,1212,1233,21.0
86955,2015-01-29,2103,2103,0.0
87054,2015-01-29,2030,2039,9.0
87132,2015-01-29,0946,0945,-1.0
87151,2015-01-29,1745,1742,-3.0
87246,2015-01-29,1059,1053,-6.0
87342,2015-01-29,1628,1631,3.0
87378,2015-01-29,0940,0951,11.0
87493,2015-01-29,1704,1648,-16.0
87532,2015-01-29,2034,2031,-3.0
87535,2015-01-29,2122,2110,-12.0
87570,2015-01-29,1505,1459,-6.0
87609,2015-01-29,1932,1929,-3.0
87616,2015-01-29,1247,1236,-11.0
87661,2015-01-29,1214,1222,8.0
87708,2015-01-29,1032,1028,-4.0
87767,2015-01-29,1953,1943,-10.0
87779,2015-01-29,2128,2124,-4.0
87795,2015-01-29,2230,2204,-26.0
87800,2015-01-29,1334,1319,-15.0
87827,2015-01-29,0950,0929,-21.0
87850,2015-01-29,1659,1640,-19.0
87852,2015-01-29,2232,2216,-16.0
87896,2015-01-29,1044,1141,57.0
87999,2015-01-29,1146,1158,12.0
88002,2015-01-29,2134,2209,35.0
88012,2015-01-29,1816,1812,-4.0
88071,2015-01-29,0907,0901,-6.0
88234,2015-01-29,1220,1207,-13.0
88264,2015-01-29,1325,1325,0.0
88265,2015-01-29,1020,1010,-10.0
88266,2015-01-29,2010,2033,23.0
88267,2015-01-29,2225,2226,1.0
88281,2015-01-29,1105,1049,-16.0
88351,2015-01-29,1940,1934,-6.0
88352,2015-01-29,1530,1527,-3.0
88353,2015-01-29,0800,0746,-14.0
88354,2015-01-29,1135,1131,-4.0
88355,2015-01-29,1345,1343,-2.0
88356,2015-01-29,2035,2022,-13.0
88357,2015-01-29,0905,0857,-8.0
88358,2015-01-29,1805,1802,-3.0
88588,2015-01-29,1205,1202,-3.0
88589,2015-01-29,1840,1904,24.0
88590,2015-01-29,0735,0738,3.0
88591,2015-01-29,2210,2215,5.0
88592,2015-01-29,1535,1528,-7.0
88593,2015-01-29,2050,2048,-2.0
88594,2015-01-29,0830,0826,-4.0
88595,2015-01-29,1325,1323,-2.0
88723,2015-01-29,1225,1213,-12.0
88724,2015-01-29,1740,1816,36.0
88725,2015-01-29,2100,2154,54.0
88726,2015-01-29,1420,1429,9.0
88727,2015-01-29,1540,1604,24.0
88728,2015-01-29,0740,0732,-8.0
88729,2015-01-29,0930,0922,-8.0
88883,2015-01-29,0825,0815,-10.0
88884,2015-01-29,1500,1457,-3.0
88885,2015-01-29,2025,2018,-7.0
88886,2015-01-29,2155,2139,-16.0
88887,2015-01-29,1705,1700,-5.0
88888,2015-01-29,1220,1217,-3.0
88947,2015-01-29,1725,1722,-3.0
88948,2015-01-29,1540,1539,-1.0
88949,2015-01-29,1030,1220,110.0
88950,2015-01-29,2035,2034,-1.0
88951,2015-01-29,0750,0849,59.0
88952,2015-01-29,1920,1916,-4.0
88953,2015-01-29,2225,2246,21.0
88954,2015-01-29,1300,1306,6.0
88955,2015-01-29,1000,,
89021,2015-01-29,1150,1144,-6.0
89022,2015-01-29,1430,1425,-5.0
89023,2015-01-29,2210,2210,0.0
89024,2015-01-29,0735,0744,9.0
89025,2015-01-29,1750,1746,-4.0
89026,2015-01-29,1625,1631,6.0
89027,2015-01-29,1055,1104,9.0
