,FL_DATE,CRS_ARR_TIME,ARR_TIME,ARR_DELAY
13273,2015-01-05,0915,1005,50.0
13294,2015-01-05,2100,2112,12.0
13302,2015-01-05,1045,1154,69.0
13314,2015-01-05,1130,1128,-2.0
13339,2015-01-05,1015,1016,1.0
13343,2015-01-05,1400,1401,1.0
13349,2015-01-05,1900,1853,-7.0
13351,2015-01-05,1250,1310,20.0
13365,2015-01-05,1520,1515,-5.0
13371,2015-01-05,1500,1450,-10.0
13376,2015-01-05,2215,2224,9.0
13382,2015-01-05,1610,1557,-13.0
13540,2015-01-05,1504,1451,-13.0
13542,2015-01-05,1135,1127,-8.0
13543,2015-01-05,0850,0840,-10.0
13545,2015-01-05,1618,1614,-4.0
13547,2015-01-05,1920,2022,62.0
13549,2015-01-05,2219,2229,10.0
13577,2015-01-05,1353,1348,-5.0
13578,2015-01-05,0909,0858,-11.0
13580,2015-01-05,1743,1758,15.0
13801,2015-01-05,1233,1211,-22.0
13802,2015-01-05,1554,1545,-9.0
13843,2015-01-05,1159,1135,-24.0
13876,2015-01-05,1215,1145,-30.0
13877,2015-01-05,1630,1623,-7.0
13878,2015-01-05,1954,1955,1.0
13930,2015-01-05,1840,1800,-40.0
13934,2015-01-05,2141,2059,-42.0
13959,2015-01-05,2155,2204,9.0
13962,2015-01-05,1700,1642,-18.0
13982,2015-01-05,1850,1912,22.0
13984,2015-01-05,0900,0840,-20.0
13991,2015-01-05,2229,2221,-8.0
14124,2015-01-05,0928,0955,27.0
14151,2015-01-05,2038,2038,0.0
14183,2015-01-05,2103,2050,-13.0
14339,2015-01-05,0946,0925,-21.0
14359,2015-01-05,1745,1753,8.0
14449,2015-01-05,1728,,
14470,2015-01-05,1057,1047,-10.0
14536,2015-01-05,1212,1348,96.0
14618,2015-01-05,0938,0954,16.0
14791,2015-01-05,1511,1503,-8.0
14816,2015-01-05,1614,1556,-18.0
14922,2015-01-05,1102,1040,-22.0
14945,2015-01-05,2206,2156,-10.0
14955,2015-01-05,2108,2111,3.0
15004,2015-01-05,1924,1908,-16.0
15037,2015-01-05,2230,2211,-19.0
15051,2015-01-05,1224,1222,-2.0
15074,2015-01-05,1428,1730,182.0
15078,2015-01-05,2031,2034,3.0
15127,2015-01-05,1659,1647,-12.0
15181,2015-01-05,1252,1314,22.0
15183,2015-01-05,2040,2043,3.0
15219,2015-01-05,1543,1530,-13.0
15275,2015-01-05,1030,1024,-6.0
15291,2015-01-05,2052,2109,17.0
15292,2015-01-05,2230,,
15346,2015-01-05,0906,0916,10.0
15397,2015-01-05,1145,1138,-7.0
15400,2015-01-05,2135,2127,-8.0
15408,2015-01-05,1817,1807,-10.0
15644,2015-01-05,1030,1006,-24.0
15716,2015-01-05,1835,1833,-2.0
15717,2015-01-05,1500,1455,-5.0
15718,2015-01-05,0950,0942,-8.0
15719,2015-01-05,2225,2213,-12.0
15720,2015-01-05,1255,1300,5.0
15721,2015-01-05,0805,0752,-13.0
15942,2015-01-05,1715,1722,7.0
15943,2015-01-05,1205,1201,-4.0
15944,2015-01-05,1440,1444,4.0
15945,2015-01-05,2210,2226,16.0
15946,2015-01-05,1925,1937,12.0
15947,2015-01-05,0745,0741,-4.0
15948,2015-01-05,0950,0944,-6.0
15949,2015-01-05,1330,1331,1.0
16013,2015-01-05,1155,1143,-12.0
16044,2015-01-05,0755,0755,0.0
16045,2015-01-05,1315,1255,-20.0
16046,2015-01-05,1740,1754,14.0
16047,2015-01-05,2155,2227,32.0
16148,2015-01-05,1705,1717,12.0
16149,2015-01-05,2050,2055,5.0
16150,2015-01-05,0735,0724,-11.0
16151,2015-01-05,1220,1215,-5.0
16152,2015-01-05,1520,1521,1.0
16153,2015-01-05,1350,1341,-9.0
16154,2015-01-05,0940,0928,-12.0
16343,2015-01-05,2045,2032,-13.0
16344,2015-01-05,1530,1520,-10.0
16345,2015-01-05,1830,1822,-8.0
16346,2015-01-05,1350,1350,0.0
16347,2015-01-05,1040,1036,-4.0
16348,2015-01-05,0745,0750,5.0
16409,2015-01-05,1150,1145,-5.0
16410,2015-01-05,0825,0830,5.0
16411,2015-01-05,1910,1914,4.0
16412,2015-01-05,1430,1445,15.0
16413,2015-01-05,2225,2223,-2.0
16414,2015-01-05,0910,0904,-6.0
16415,2015-01-05,2055,2101,6.0
16416,2015-01-05,1610,1600,-10.0
16417,2015-01-05,1050,1043,-7.0
16485,2015-01-05,1210,1203,-7.0
16486,2015-01-05,1700,1707,7.0
16487,2015-01-05,1020,1003,-17.0
16488,2015-01-05,0815,0818,3.0
16489,2015-01-05,2035,2038,3.0
16490,2015-01-05,1545,1540,-5.0
16491,2015-01-05,2225,2219,-6.0
