,FL_DATE,CRS_DEP_TIME,DEP_TIME,DEP_DELAY
37734,2015-01-13,1413,1421,8.0
37735,2015-01-13,2125,2125,0.0
37751,2015-01-13,1720,1717,-3.0
37755,2015-01-13,1720,1718,-2.0
37758,2015-01-13,1355,1404,9.0
37810,2015-01-13,1610,1627,17.0
37826,2015-01-13,2025,2042,17.0
37830,2015-01-13,1635,1634,-1.0
37839,2015-01-13,0800,0801,1.0
37873,2015-01-13,0955,1014,19.0
37888,2015-01-13,1130,1136,6.0
37894,2015-01-13,1915,1915,0.0
37905,2015-01-13,1345,1548,123.0
37908,2015-01-13,1255,1251,-4.0
37921,2015-01-13,1740,1739,-1.0
37959,2015-01-13,0950,1005,15.0
38208,2015-01-13,0840,0851,11.0
38211,2015-01-13,1815,1811,-4.0
38215,2015-01-13,0900,0907,7.0
38497,2015-01-13,1550,1741,111.0
38516,2015-01-13,0725,0722,-3.0
38522,2015-01-13,1103,1134,31.0
39148,2015-01-13,0946,1013,27.0
39209,2015-01-13,1700,1706,6.0
39219,2015-01-13,0815,0819,4.0
39241,2015-01-13,1522,1545,23.0
39242,2015-01-13,1803,1836,33.0
39262,2015-01-13,0701,0702,1.0
39274,2015-01-13,0901,0859,-2.0
39308,2015-01-13,1305,1336,31.0
39312,2015-01-13,0715,0714,-1.0
39314,2015-01-13,1256,1303,7.0
39316,2015-01-13,2016,2016,0.0
39320,2015-01-13,1700,1737,37.0
39328,2015-01-13,0848,0854,6.0
39329,2015-01-13,1014,1027,13.0
39398,2015-01-13,0805,0806,1.0
39400,2015-01-13,1714,1726,12.0
39418,2015-01-13,1206,1210,4.0
39424,2015-01-13,2020,2332,192.0
39434,2015-01-13,1205,1215,10.0
39519,2015-01-13,1506,1514,8.0
39536,2015-01-13,0815,0813,-2.0
39550,2015-01-13,1039,1125,46.0
39568,2015-01-13,1720,1717,-3.0
39571,2015-01-13,1526,1531,5.0
39694,2015-01-13,1620,1654,34.0
39704,2015-01-13,1735,1749,14.0
