,FL_DATE,CRS_DEP_TIME,DEP_TIME,DEP_DELAY
40744,2015-01-14,1413,1431,18.0
40745,2015-01-14,2125,2125,0.0
40760,2015-01-14,1720,1723,3.0
40764,2015-01-14,1720,1717,-3.0
40768,2015-01-14,1355,1349,-6.0
40822,2015-01-14,1610,1723,73.0
40838,2015-01-14,2025,2032,7.0
40842,2015-01-14,1635,1634,-1.0
40852,2015-01-14,0800,0800,0.0
40886,2015-01-14,0955,0952,-3.0
40901,2015-01-14,1130,1126,-4.0
40908,2015-01-14,1915,1913,-2.0
40919,2015-01-14,1345,1426,41.0
40922,2015-01-14,1255,1253,-2.0
40936,2015-01-14,1740,1750,10.0
40974,2015-01-14,0950,0944,-6.0
41227,2015-01-14,0840,0836,-4.0
41230,2015-01-14,1815,1833,18.0
41234,2015-01-14,0900,0854,-6.0
41523,2015-01-14,1550,1546,-4.0
41543,2015-01-14,0725,0712,-13.0
41548,2015-01-14,1103,1107,4.0
42158,2015-01-14,0946,0957,11.0
42163,2015-01-14,1700,1703,3.0
42186,2015-01-14,0701,0723,22.0
42220,2015-01-14,1724,1726,2.0
42223,2015-01-14,1526,1536,10.0
42476,2015-01-14,1620,1625,5.0
42485,2015-01-14,1735,1738,3.0
42594,2015-01-14,1700,1819,79.0
42605,2015-01-14,0815,0813,-2.0
42610,2015-01-14,1803,1756,-7.0
42630,2015-01-14,1522,1629,67.0
42666,2015-01-14,0901,0959,58.0
42689,2015-01-14,1014,1011,-3.0
42692,2015-01-14,1506,1507,1.0
42694,2015-01-14,1714,1714,0.0
42700,2015-01-14,1039,1041,2.0
42702,2015-01-14,0805,0800,-5.0
42715,2015-01-14,1256,1253,-3.0
42716,2015-01-14,2016,2033,17.0
42717,2015-01-14,2020,2037,17.0
42718,2015-01-14,0810,0821,11.0
42725,2015-01-14,0848,0858,10.0
42728,2015-01-14,1159,1156,-3.0
42784,2015-01-14,1305,1410,65.0
42795,2015-01-14,1824,1838,14.0
42809,2015-01-14,1206,1206,0.0
42841,2015-01-14,0715,0715,0.0
