,FL_DATE,CRS_DEP_TIME,DEP_TIME,DEP_DELAY
73735,2015-01-25,1413,1419,6.0
73736,2015-01-25,2125,2122,-3.0
73751,2015-01-25,1720,1716,-4.0
73755,2015-01-25,1720,1739,19.0
73759,2015-01-25,1355,1400,5.0
73816,2015-01-25,1610,1638,28.0
73834,2015-01-25,2025,2048,23.0
73838,2015-01-25,1635,1633,-2.0
73847,2015-01-25,0800,0814,14.0
73882,2015-01-25,0955,1011,16.0
73897,2015-01-25,1130,1130,0.0
73903,2015-01-25,1915,2053,98.0
73914,2015-01-25,1345,1349,4.0
73917,2015-01-25,1255,1304,9.0
73931,2015-01-25,1740,1805,25.0
73969,2015-01-25,0950,0956,6.0
74250,2015-01-25,0840,0850,10.0
74253,2015-01-25,1815,2031,136.0
74257,2015-01-25,0900,0910,10.0
74560,2015-01-25,1550,1550,0.0
74580,2015-01-25,0725,0722,-3.0
74585,2015-01-25,1103,1158,55.0
75198,2015-01-25,1522,1606,44.0
75208,2015-01-25,0945,0952,7.0
75215,2015-01-25,1529,1530,1.0
75244,2015-01-25,1803,1829,26.0
75263,2015-01-25,1001,1025,24.0
75299,2015-01-25,1700,1717,17.0
75309,2015-01-25,1206,1249,43.0
75320,2015-01-25,0945,1001,16.0
75334,2015-01-25,0841,0852,11.0
75336,2015-01-25,1506,1525,19.0
75345,2015-01-25,2020,2043,23.0
75391,2015-01-25,1305,1306,1.0
75401,2015-01-25,1838,1840,2.0
75436,2015-01-25,2001,2024,23.0
75457,2015-01-25,2016,2120,64.0
75462,2015-01-25,1010,1017,7.0
75493,2015-01-25,1358,1519,81.0
75521,2015-01-25,1655,1702,7.0
75529,2015-01-25,1700,1852,112.0
75535,2015-01-25,1205,1205,0.0
75602,2015-01-25,0840,0842,2.0
75607,2015-01-25,1700,1705,5.0
75794,2015-01-25,1620,1657,37.0
75803,2015-01-25,1735,1805,30.0
