,FL_DATE,CRS_DEP_TIME,DEP_TIME,DEP_DELAY
13156,2015-01-05,1915,1926,11.0
13168,2015-01-05,1430,1442,12.0
13171,2015-01-05,1235,1250,15.0
13188,2015-01-05,1720,1734,14.0
13198,2015-01-05,1355,1357,2.0
13261,2015-01-05,1610,1647,37.0
13279,2015-01-05,0705,0701,-4.0
13281,2015-01-05,2030,2058,28.0
13287,2015-01-05,0700,0658,-2.0
13299,2015-01-05,0830,0852,22.0
13302,2015-01-05,0820,0952,92.0
13337,2015-01-05,1005,1135,90.0
13347,2015-01-05,1045,1056,11.0
13353,2015-01-05,1530,1625,55.0
13361,2015-01-05,1140,1200,20.0
13370,2015-01-05,1935,,
13382,2015-01-05,1350,1352,2.0
13397,2015-01-05,1310,1319,9.0
13399,2015-01-05,1740,1759,19.0
13403,2015-01-05,1035,1727,412.0
13415,2015-01-05,2010,2125,75.0
13417,2015-01-05,2125,2207,42.0
13439,2015-01-05,0950,0947,-3.0
13718,2015-01-05,0845,0934,49.0
13723,2015-01-05,1825,1902,37.0
13727,2015-01-05,0910,0908,-2.0
13959,2015-01-05,1935,1935,0.0
14032,2015-01-05,1550,1606,16.0
14053,2015-01-05,0725,1119,234.0
14055,2015-01-05,1103,1352,169.0
14778,2015-01-05,2015,0056,281.0
14785,2015-01-05,1129,1139,10.0
14900,2015-01-05,1100,1100,0.0
14922,2015-01-05,0829,0835,6.0
14933,2015-01-05,2019,,
14948,2015-01-05,1805,1828,23.0
14961,2015-01-05,0720,0738,18.0
14969,2015-01-05,1845,1906,21.0
14977,2015-01-05,0810,0850,40.0
14992,2015-01-05,1917,0042,325.0
15000,2015-01-05,0705,0725,20.0
15008,2015-01-05,1223,1313,50.0
15052,2015-01-05,0810,0831,21.0
15054,2015-01-05,1000,1037,37.0
15059,2015-01-05,1724,1743,19.0
15064,2015-01-05,1538,1859,201.0
15067,2015-01-05,1232,1244,12.0
15079,2015-01-05,1310,1403,53.0
15082,2015-01-05,1515,1536,21.0
15091,2015-01-05,1314,1326,12.0
15092,2015-01-05,1005,1019,14.0
15107,2015-01-05,2015,0105,290.0
15152,2015-01-05,1708,1715,7.0
15167,2015-01-05,0600,0833,153.0
15171,2015-01-05,1819,1835,16.0
15184,2015-01-05,0905,0938,33.0
15251,2015-01-05,2058,2310,132.0
15258,2015-01-05,1020,1050,30.0
15282,2015-01-05,0813,,
15291,2015-01-05,1821,1904,43.0
15292,2015-01-05,2005,2128,83.0
15312,2015-01-05,0605,0718,73.0
15315,2015-01-05,1205,1217,12.0
15338,2015-01-05,1939,0130,351.0
15490,2015-01-05,0800,0810,10.0
15493,2015-01-05,1430,1427,-3.0
15495,2015-01-05,1835,1857,22.0
15501,2015-01-05,0925,1021,56.0
15504,2015-01-05,1705,1719,14.0
