,FL_DATE,CRS_ARR_TIME,ARR_TIME,ARR_DELAY
47030,2015-01-16,2331,2327,-4.0
47112,2015-01-16,1418,1400,-18.0
47207,2015-01-16,1057,1048,-9.0
47211,2015-01-16,1918,1907,-11.0
47320,2015-01-16,1607,1615,8.0
47324,2015-01-16,2117,2113,-4.0
47325,2015-01-16,1046,1049,3.0
47433,2015-01-16,0838,0822,-16.0
47437,2015-01-16,1858,1826,-32.0
47477,2015-01-16,1902,1855,-7.0
47489,2015-01-16,0815,0816,1.0
47591,2015-01-16,2143,2201,18.0
47665,2015-01-16,1201,1141,-20.0
47712,2015-01-16,2213,2158,-15.0
47725,2015-01-16,2258,2302,4.0
47742,2015-01-16,1210,1206,-4.0
47801,2015-01-16,2308,2333,25.0
47855,2015-01-16,2210,2129,-41.0
47903,2015-01-16,1814,1806,-8.0
47935,2015-01-16,1520,1527,7.0
47951,2015-01-16,0852,0856,4.0
47953,2015-01-16,2202,2214,12.0
48009,2015-01-16,1127,1149,22.0
48108,2015-01-16,1155,1155,0.0
48192,2015-01-16,1558,1553,-5.0
48208,2015-01-16,0938,0945,7.0
48209,2015-01-16,1503,1505,2.0
48211,2015-01-16,1738,1730,-8.0
48282,2015-01-16,1541,1619,38.0
48286,2015-01-16,2344,,
48287,2015-01-16,1632,1620,-12.0
48366,2015-01-16,0926,1024,58.0
48376,2015-01-16,0934,0923,-11.0
48457,2015-01-16,2155,2209,14.0
48468,2015-01-16,0840,0949,69.0
48513,2015-01-16,1712,1713,1.0
48549,2015-01-16,2042,2111,29.0
48592,2015-01-16,1701,1654,-7.0
48612,2015-01-16,1253,1243,-10.0
48769,2015-01-16,1957,2009,12.0
48948,2015-01-16,1130,1123,-7.0
48983,2015-01-16,1801,1837,36.0
48987,2015-01-16,2020,2012,-8.0
49019,2015-01-16,0933,0932,-1.0
49032,2015-01-16,0918,0913,-5.0
49039,2015-01-16,1153,1202,9.0
49053,2015-01-16,1536,1521,-15.0
49054,2015-01-16,2207,2220,13.0
49056,2015-01-16,1835,1842,7.0
49358,2015-01-16,1510,1508,-2.0
49359,2015-01-16,1025,1023,-2.0
49360,2015-01-16,2040,2034,-6.0
49361,2015-01-16,0835,0826,-9.0
49362,2015-01-16,1830,1829,-1.0
49363,2015-01-16,1235,1239,4.0
49364,2015-01-16,2225,2354,89.0
49378,2015-01-16,1030,1021,-9.0
49458,2015-01-16,1335,1331,-4.0
49459,2015-01-16,0950,0954,4.0
49460,2015-01-16,1110,1101,-9.0
49461,2015-01-16,0830,0824,-6.0
49462,2015-01-16,1630,1640,10.0
49463,2015-01-16,2000,1955,-5.0
49464,2015-01-16,2100,2052,-8.0
49465,2015-01-16,2135,2132,-3.0
49575,2015-01-16,0725,0727,2.0
49576,2015-01-16,2005,2001,-4.0
49577,2015-01-16,2135,2137,2.0
49578,2015-01-16,1635,1645,10.0
49579,2015-01-16,0815,0843,28.0
49580,2015-01-16,1750,1757,7.0
49581,2015-01-16,1435,1447,12.0
49582,2015-01-16,1240,1235,-5.0
49583,2015-01-16,1040,1119,39.0
49607,2015-01-16,1135,1127,-8.0
49735,2015-01-16,1205,1200,-5.0
49736,2015-01-16,2115,2144,29.0
49737,2015-01-16,1710,1705,-5.0
49738,2015-01-16,2225,2220,-5.0
49739,2015-01-16,0725,0721,-4.0
49740,2015-01-16,0910,0908,-2.0
49741,2015-01-16,1350,1402,12.0
49753,2015-01-16,1235,1227,-8.0
49754,2015-01-16,2020,2037,17.0
49755,2015-01-16,1430,1433,3.0
49756,2015-01-16,2210,2303,53.0
49757,2015-01-16,0810,0757,-13.0
49805,2015-01-16,1645,1649,4.0
49806,2015-01-16,2150,2202,12.0
49807,2015-01-16,0920,0902,-18.0
49808,2015-01-16,1300,1306,6.0
49809,2015-01-16,2040,2049,9.0
49904,2015-01-16,1045,1115,30.0
49905,2015-01-16,1930,1922,-8.0
49906,2015-01-16,0800,0756,-4.0
49907,2015-01-16,1810,1802,-8.0
49908,2015-01-16,1545,1551,6.0
49909,2015-01-16,2230,2236,6.0
49910,2015-01-16,1850,1852,2.0
49911,2015-01-16,1215,1228,13.0
49912,2015-01-16,1420,1429,9.0
49930,2015-01-16,2145,2203,18.0
49931,2015-01-16,0845,0841,-4.0
49932,2015-01-16,1500,1502,2.0
50021,2015-01-16,2250,2247,-3.0
50022,2015-01-16,1910,1941,31.0
50023,2015-01-16,1345,1334,-11.0
50187,2015-01-16,1950,1949,-1.0
50188,2015-01-16,1905,2101,116.0
50189,2015-01-16,1615,1610,-5.0
50190,2015-01-16,1455,1513,18.0
50191,2015-01-16,1155,1159,4.0
50192,2015-01-16,0900,0858,-2.0
50193,2015-01-16,2120,2117,-3.0
