,FL_DATE,CRS_ARR_TIME,ARR_TIME,ARR_DELAY
50323,2015-01-17,1418,1409,-9.0
50398,2015-01-17,1057,1114,17.0
50401,2015-01-17,1918,1914,-4.0
50502,2015-01-17,1607,1604,-3.0
50505,2015-01-17,2117,2122,5.0
50506,2015-01-17,1046,1051,5.0
50606,2015-01-17,0838,0838,0.0
50610,2015-01-17,1858,1827,-31.0
50659,2015-01-17,0815,0813,-2.0
50767,2015-01-17,1201,1156,-5.0
50848,2015-01-17,2057,2034,-23.0
50920,2015-01-17,2210,2134,-36.0
50971,2015-01-17,1814,1812,-2.0
50999,2015-01-17,1520,1514,-6.0
51014,2015-01-17,0852,0847,-5.0
51016,2015-01-17,2202,2201,-1.0
51060,2015-01-17,1127,1223,56.0
51155,2015-01-17,1216,1213,-3.0
51177,2015-01-17,2254,2248,-6.0
51190,2015-01-17,2020,2021,1.0
51209,2015-01-17,1557,1548,-9.0
51220,2015-01-17,0937,0944,7.0
51280,2015-01-17,1541,1608,27.0
51284,2015-01-17,2344,2338,-6.0
51285,2015-01-17,1632,1634,2.0
51356,2015-01-17,0919,0908,-11.0
51435,2015-01-17,2155,2149,-6.0
51442,2015-01-17,0840,0833,-7.0
51508,2015-01-17,2036,2050,14.0
51541,2015-01-17,1130,1113,-17.0
51570,2015-01-17,1801,1807,6.0
51705,2015-01-17,1957,2007,10.0
51861,2015-01-17,1153,1145,-8.0
51872,2015-01-17,1536,1524,-12.0
51873,2015-01-17,2207,2242,35.0
51877,2015-01-17,1835,1822,-13.0
52060,2015-01-17,1910,1847,-23.0
52146,2015-01-17,1910,1902,-8.0
52147,2015-01-17,1410,1411,1.0
52148,2015-01-17,1105,1057,-8.0
52156,2015-01-17,0820,0817,-3.0
52157,2015-01-17,1555,1553,-2.0
52189,2015-01-17,2050,2102,12.0
52190,2015-01-17,1615,1659,44.0
52191,2015-01-17,1255,1247,-8.0
52258,2015-01-17,1200,1200,0.0
52259,2015-01-17,1855,2007,72.0
52260,2015-01-17,2105,2128,23.0
52261,2015-01-17,0815,0809,-6.0
52262,2015-01-17,1635,1639,4.0
52272,2015-01-17,1735,1740,5.0
52273,2015-01-17,0910,0915,5.0
52329,2015-01-17,0830,0822,-8.0
52330,2015-01-17,1245,1245,0.0
52331,2015-01-17,1755,1751,-4.0
52332,2015-01-17,1935,2002,27.0
52362,2015-01-17,1030,1024,-6.0
52363,2015-01-17,1330,1326,-4.0
52364,2015-01-17,2140,2126,-14.0
52426,2015-01-17,1210,1203,-7.0
52427,2015-01-17,1030,1027,-3.0
52428,2015-01-17,1720,1703,-17.0
52429,2015-01-17,1555,1551,-4.0
52430,2015-01-17,2015,2058,43.0
52431,2015-01-17,1355,,
52511,2015-01-17,1800,1815,15.0
52512,2015-01-17,2030,2021,-9.0
52513,2015-01-17,1215,1225,10.0
52514,2015-01-17,1520,1530,10.0
52515,2015-01-17,0910,0907,-3.0
52658,2015-01-17,1055,1054,-1.0
52659,2015-01-17,1945,1939,-6.0
52660,2015-01-17,0900,0900,0.0
52661,2015-01-17,1555,1556,1.0
