,FL_DATE,CRS_ARR_TIME,ARR_TIME,ARR_DELAY
38462,2015-01-13,1145,1119,-26.0
38498,2015-01-13,2302,2248,-14.0
38523,2015-01-13,1259,1237,-22.0
38793,2015-01-13,1805,1827,22.0
39058,2015-01-13,1205,1202,-3.0
39059,2015-01-13,1705,1702,-3.0
39123,2015-01-13,1958,1936,-22.0
39133,2015-01-13,1756,1814,18.0
39144,2015-01-13,1640,1606,-34.0
39172,2015-01-13,1209,1145,-24.0
39187,2015-01-13,1206,1153,-13.0
39210,2015-01-13,2013,1945,-28.0
39273,2015-01-13,2009,2029,20.0
39291,2015-01-13,1432,1422,-10.0
39313,2015-01-13,1806,1805,-1.0
39326,2015-01-13,2147,2151,4.0
39327,2015-01-13,1803,1800,-3.0
39330,2015-01-13,1357,1340,-17.0
39341,2015-01-13,1147,1140,-7.0
39351,2015-01-13,1430,1434,4.0
39364,2015-01-13,0553,0604,11.0
39367,2015-01-13,1800,1740,-20.0
39377,2015-01-13,1800,1800,0.0
39382,2015-01-13,1640,1633,-7.0
39414,2015-01-13,1326,1307,-19.0
39416,2015-01-13,1156,1134,-22.0
39429,2015-01-13,1849,1832,-17.0
39444,2015-01-13,1641,1620,-21.0
39450,2015-01-13,0617,0607,-10.0
39477,2015-01-13,1207,1157,-10.0
39479,2015-01-13,1817,1818,1.0
39496,2015-01-13,1210,1146,-24.0
39522,2015-01-13,2200,2152,-8.0
39556,2015-01-13,1817,1802,-15.0
