,FL_DATE,CRS_ARR_TIME,ARR_TIME,ARR_DELAY
44613,2015-01-15,1145,1124,-21.0
44655,2015-01-15,2302,,
44679,2015-01-15,1259,1239,-20.0
44975,2015-01-15,1805,1759,-6.0
45254,2015-01-15,1205,1156,-9.0
45255,2015-01-15,1705,1654,-11.0
45318,2015-01-15,1958,1947,-11.0
45347,2015-01-15,1206,1159,-7.0
45362,2015-01-15,1640,1625,-15.0
45365,2015-01-15,1209,1203,-6.0
45369,2015-01-15,2004,1941,-23.0
45497,2015-01-15,2009,1947,-22.0
45514,2015-01-15,1432,1503,31.0
45527,2015-01-15,1346,1333,-13.0
45528,2015-01-15,2014,2007,-7.0
45544,2015-01-15,1326,1327,1.0
45547,2015-01-15,1156,1143,-13.0
45559,2015-01-15,1800,1752,-8.0
45580,2015-01-15,0617,0613,-4.0
45603,2015-01-15,1207,1202,-5.0
45605,2015-01-15,1817,1822,5.0
45614,2015-01-15,1849,1837,-12.0
45620,2015-01-15,1806,1825,19.0
45630,2015-01-15,2147,2144,-3.0
45631,2015-01-15,1357,1352,-5.0
45649,2015-01-15,1147,1129,-18.0
45663,2015-01-15,1430,1430,0.0
45664,2015-01-15,0553,0531,-22.0
45678,2015-01-15,1800,1817,17.0
45681,2015-01-15,1641,1645,4.0
45688,2015-01-15,1804,1801,-3.0
45694,2015-01-15,1743,1751,8.0
45716,2015-01-15,2200,2353,113.0
45753,2015-01-15,1643,1651,8.0
45754,2015-01-15,1817,1755,-22.0
45784,2015-01-15,1210,1148,-22.0
