,FL_DATE,CRS_ARR_TIME,ARR_TIME,ARR_DELAY
56361,2015-01-19,1145,1205,20.0
56408,2015-01-19,2302,2243,-19.0
56433,2015-01-19,1259,1239,-20.0
56729,2015-01-19,1805,1815,10.0
57005,2015-01-19,1205,,
57006,2015-01-19,1705,1651,-14.0
57083,2015-01-19,1640,1631,-9.0
57084,2015-01-19,1430,1411,-19.0
57088,2015-01-19,1958,2008,10.0
57106,2015-01-19,1356,1340,-16.0
57107,2015-01-19,1209,1145,-24.0
57108,2015-01-19,2004,2022,18.0
57124,2015-01-19,1206,,
57166,2015-01-19,2009,1957,-12.0
57199,2015-01-19,1641,1627,-14.0
57210,2015-01-19,1800,1751,-9.0
57217,2015-01-19,1743,1753,10.0
57270,2015-01-19,1643,1649,6.0
57271,2015-01-19,1817,1808,-9.0
57363,2015-01-19,1346,1327,-19.0
57364,2015-01-19,2014,1959,-15.0
57370,2015-01-19,1806,1735,-31.0
57383,2015-01-19,1326,1311,-15.0
57399,2015-01-19,1800,1818,18.0
57414,2015-01-19,0617,0607,-10.0
57437,2015-01-19,1207,1152,-15.0
57438,2015-01-19,1817,1821,4.0
57450,2015-01-19,1849,1848,-1.0
57462,2015-01-19,2202,2154,-8.0
57468,2015-01-19,2209,2236,27.0
57469,2015-01-19,1156,1139,-17.0
57476,2015-01-19,1800,1800,0.0
57486,2015-01-19,1147,1136,-11.0
57495,2015-01-19,1430,1429,-1.0
57496,2015-01-19,0553,0535,-18.0
57512,2015-01-19,1210,1141,-29.0
