,FL_DATE,CRS_ARR_TIME,ARR_TIME,ARR_DELAY
74542,2015-01-25,1145,1132,-13.0
74561,2015-01-25,2302,2303,1.0
74586,2015-01-25,1259,1257,-2.0
74877,2015-01-25,1805,1759,-6.0
75146,2015-01-25,1205,1909,424.0
75147,2015-01-25,1705,1915,130.0
75209,2015-01-25,2004,1958,-6.0
75216,2015-01-25,2009,2033,24.0
75218,2015-01-25,1808,1819,11.0
75293,2015-01-25,0553,0539,-14.0
75314,2015-01-25,1346,1345,-1.0
75315,2015-01-25,2014,2024,10.0
75333,2015-01-25,1800,1815,15.0
75341,2015-01-25,2202,2218,16.0
75352,2015-01-25,2003,2012,9.0
75365,2015-01-25,0617,0606,-11.0
75381,2015-01-25,1207,1206,-1.0
75392,2015-01-25,1849,1927,38.0
75407,2015-01-25,2147,2153,6.0
75408,2015-01-25,1156,1136,-20.0
75423,2015-01-25,1147,1155,8.0
75425,2015-01-25,1817,1835,18.0
75430,2015-01-25,1430,1423,-7.0
75445,2015-01-25,1800,1802,2.0
75456,2015-01-25,1800,1833,33.0
75467,2015-01-25,1641,1657,16.0
75499,2015-01-25,1746,1756,10.0
75509,2015-01-25,1646,1703,17.0
75537,2015-01-25,1804,1814,10.0
75553,2015-01-25,1325,1318,-7.0
75556,2015-01-25,1836,1845,9.0
75563,2015-01-25,1352,1336,-16.0
75566,2015-01-25,1206,1158,-8.0
75567,2015-01-25,1649,1910,141.0
75570,2015-01-25,1430,1437,7.0
75624,2015-01-25,1210,1214,4.0
