,FL_DATE,CRS_ARR_TIME,ARR_TIME,ARR_DELAY
83626,2015-01-28,1145,1124,-21.0
83662,2015-01-28,2302,2248,-14.0
83688,2015-01-28,1259,1245,-14.0
83963,2015-01-28,1805,1808,3.0
84235,2015-01-28,1205,1135,-30.0
84236,2015-01-28,1705,2109,244.0
84317,2015-01-28,1209,1204,-5.0
84328,2015-01-28,1640,1618,-22.0
84361,2015-01-28,1206,1204,-2.0
84372,2015-01-28,2009,1946,-23.0
84423,2015-01-28,2013,2001,-12.0
84452,2015-01-28,1432,,
84484,2015-01-28,1326,,
84492,2015-01-28,2003,1950,-13.0
84493,2015-01-28,1849,1838,-11.0
84511,2015-01-28,1641,1654,13.0
84513,2015-01-28,0617,0555,-22.0
84536,2015-01-28,1207,1151,-16.0
84538,2015-01-28,1817,1810,-7.0
84558,2015-01-28,1806,1802,-4.0
84575,2015-01-28,2147,2131,-16.0
84576,2015-01-28,0553,0535,-18.0
84577,2015-01-28,1156,1140,-16.0
84587,2015-01-28,1743,1741,-2.0
84634,2015-01-28,1817,1752,-25.0
84667,2015-01-28,1429,1434,5.0
84678,2015-01-28,1147,1145,-2.0
84690,2015-01-28,1800,1808,8.0
84694,2015-01-28,1643,1636,-7.0
84695,2015-01-28,2208,2157,-11.0
84704,2015-01-28,1800,1748,-12.0
84707,2015-01-28,1357,1344,-13.0
84715,2015-01-28,1800,1812,12.0
84726,2015-01-28,1210,1153,-17.0
