,FL_DATE,CRS_ARR_TIME,ARR_TIME,ARR_DELAY
17319,2015-01-06,1145,1157,12.0
17357,2015-01-06,2302,2328,26.0
17380,2015-01-06,1259,1311,12.0
17649,2015-01-06,1805,1810,5.0
17922,2015-01-06,1205,1212,7.0
17923,2015-01-06,1705,1711,6.0
17990,2015-01-06,1210,1218,8.0
18031,2015-01-06,1206,1223,17.0
18058,2015-01-06,2013,2020,7.0
18138,2015-01-06,2009,2035,26.0
18140,2015-01-06,2202,2209,7.0
18156,2015-01-06,1100,1104,4.0
18160,2015-01-06,1432,1431,-1.0
18191,2015-01-06,1327,1342,15.0
18203,2015-01-06,1849,1903,14.0
18218,2015-01-06,1641,1710,29.0
18238,2015-01-06,1207,1203,-4.0
18240,2015-01-06,1817,1852,35.0
18268,2015-01-06,1156,1159,3.0
18288,2015-01-06,1147,1136,-11.0
18292,2015-01-06,1640,1706,26.0
18299,2015-01-06,1430,1433,3.0
18301,2015-01-06,1756,1836,40.0
18311,2015-01-06,0553,0617,24.0
18328,2015-01-06,1800,1813,13.0
18336,2015-01-06,1803,1804,1.0
18343,2015-01-06,1817,1820,3.0
18394,2015-01-06,1958,2014,16.0
18415,2015-01-06,1356,1353,-3.0
18435,2015-01-06,1209,1206,-3.0
18438,2015-01-06,1824,1835,11.0
18446,2015-01-06,1640,1642,2.0
