,FL_DATE,CRS_ARR_TIME,ARR_TIME,ARR_DELAY
31712,2015-01-11,1107,1148,41.0
31791,2015-01-11,1313,1312,-1.0
31798,2015-01-11,1850,1844,-6.0
31850,2015-01-11,1207,1153,-14.0
31879,2015-01-11,1612,1803,111.0
31920,2015-01-11,2259,2256,-3.0
31984,2015-01-11,1049,1050,1.0
31985,2015-01-11,1439,1503,24.0
32004,2015-01-11,1843,1856,13.0
32299,2015-01-11,1055,1036,-19.0
32524,2015-01-11,1624,1621,-3.0
32530,2015-01-11,2059,2140,41.0
32564,2015-01-11,1149,1138,-11.0
32573,2015-01-11,2229,2218,-11.0
32625,2015-01-11,1227,1347,80.0
32670,2015-01-11,2321,2345,24.0
32676,2015-01-11,1740,1737,-3.0
32680,2015-01-11,1951,1954,3.0
32702,2015-01-11,1441,1612,91.0
32708,2015-01-11,1340,1333,-7.0
32710,2015-01-11,1055,1124,29.0
32754,2015-01-11,1057,1109,12.0
32798,2015-01-11,1806,1851,45.0
32819,2015-01-11,1230,1243,13.0
32865,2015-01-11,2005,2017,12.0
32886,2015-01-11,1012,1034,22.0
32900,2015-01-11,2221,2237,16.0
32959,2015-01-11,2357,2340,-17.0
32971,2015-01-11,1023,1031,8.0
32972,2015-01-11,1437,1457,20.0
32975,2015-01-11,1831,1828,-3.0
32976,2015-01-11,1706,1702,-4.0
32977,2015-01-11,2319,2317,-2.0
33059,2015-01-11,1507,1525,18.0
33718,2015-01-11,1820,1819,-1.0
