,FL_DATE,CRS_ARR_TIME,ARR_TIME,ARR_DELAY
76783,2015-01-26,1107,1047,-20.0
76868,2015-01-26,1313,1321,8.0
76875,2015-01-26,1850,1901,11.0
76926,2015-01-26,1207,1228,21.0
76951,2015-01-26,1612,1737,85.0
76989,2015-01-26,2259,2304,5.0
77065,2015-01-26,1049,1117,28.0
77085,2015-01-26,1843,1853,10.0
77373,2015-01-26,1055,1028,-27.0
77616,2015-01-26,1629,1623,-6.0
77622,2015-01-26,2059,,
77656,2015-01-26,1149,1142,-7.0
77667,2015-01-26,2229,2226,-3.0
77715,2015-01-26,1227,1241,14.0
77759,2015-01-26,2321,,
77766,2015-01-26,1740,1732,-8.0
77770,2015-01-26,1951,1944,-7.0
77794,2015-01-26,1441,1433,-8.0
77800,2015-01-26,1340,1337,-3.0
77802,2015-01-26,1055,1115,20.0
77845,2015-01-26,1057,1030,-27.0
77913,2015-01-26,1228,1238,10.0
77978,2015-01-26,1007,1003,-4.0
77994,2015-01-26,2221,2248,27.0
78040,2015-01-26,1806,1852,46.0
78051,2015-01-26,2357,0002,5.0
78065,2015-01-26,1059,1105,6.0
78066,2015-01-26,1411,1421,10.0
78069,2015-01-26,1831,1825,-6.0
78070,2015-01-26,1701,1714,13.0
78071,2015-01-26,2319,2313,-6.0
78119,2015-01-26,2005,1948,-17.0
78162,2015-01-26,1507,1539,32.0
78921,2015-01-26,1820,1818,-2.0
