,FL_DATE,CRS_ARR_TIME,ARR_TIME,ARR_DELAY
16683,2015-01-06,1107,1047,-20.0
16761,2015-01-06,1313,1247,-26.0
16768,2015-01-06,1850,1836,-14.0
16818,2015-01-06,1207,1224,17.0
16835,2015-01-06,1614,1605,-9.0
16876,2015-01-06,2259,2258,-1.0
16940,2015-01-06,1044,1048,4.0
16958,2015-01-06,1842,1846,4.0
17221,2015-01-06,1055,1016,-39.0
17310,2015-01-06,1524,1514,-10.0
17450,2015-01-06,1629,1622,-7.0
17484,2015-01-06,1340,1334,-6.0
17488,2015-01-06,1149,1136,-13.0
17498,2015-01-06,2148,2135,-13.0
17542,2015-01-06,1227,1217,-10.0
17586,2015-01-06,1740,1748,8.0
17589,2015-01-06,1951,1941,-10.0
17610,2015-01-06,1441,1540,59.0
17614,2015-01-06,1055,1318,143.0
17650,2015-01-06,1057,1011,-46.0
17695,2015-01-06,1806,1927,81.0
17755,2015-01-06,2005,2036,31.0
17776,2015-01-06,1007,1108,61.0
17790,2015-01-06,2221,2252,31.0
17853,2015-01-06,2357,0014,17.0
17866,2015-01-06,1059,1131,32.0
17867,2015-01-06,1411,1401,-10.0
17870,2015-01-06,1831,1821,-10.0
17871,2015-01-06,1701,1655,-6.0
17872,2015-01-06,2319,2313,-6.0
17960,2015-01-06,1507,1504,-3.0
18003,2015-01-06,1228,1232,4.0
