G: [330, 450) [570, 690) [985, 1105) [1318, 1363)
G: [608, 653) [1029, 1074)

G: [330, 450) [608, 653) [985, 1105)
G: [570, 690) [1029, 1074) [1318, 1363)

G: [608, 653) [1029, 1074)
G: [570, 690) [1318, 1363)
G: [330, 450) [985, 1105)
