,FL_DATE,CRS_ARR_TIME,ARR_TIME,ARR_DELAY
50465,2015-01-17,2206,2155,-11.0
50470,2015-01-17,2040,2025,-15.0
50509,2015-01-17,1433,1612,99.0
50510,2015-01-17,1039,1028,-11.0
50513,2015-01-17,1840,1830,-10.0
50516,2015-01-17,0841,0845,4.0
50518,2015-01-17,1042,1036,-6.0
50520,2015-01-17,1539,1528,-11.0
50573,2015-01-17,1540,1557,17.0
50575,2015-01-17,2000,1949,-11.0
50577,2015-01-17,1121,1116,-5.0
50578,2015-01-17,2211,2200,-11.0
50581,2015-01-17,1752,1748,-4.0
50583,2015-01-17,0910,0906,-4.0
50586,2015-01-17,2053,2104,11.0
50587,2015-01-17,1202,1154,-8.0
50590,2015-01-17,1400,1347,-13.0
50591,2015-01-17,1700,1657,-3.0
50696,2015-01-17,2024,2009,-15.0
50883,2015-01-17,1230,1227,-3.0
51105,2015-01-17,1935,1921,-14.0
51127,2015-01-17,1712,,
51129,2015-01-17,1137,1130,-7.0
51131,2015-01-17,0824,0815,-9.0
51133,2015-01-17,1143,1134,-9.0
51248,2015-01-17,0038,0019,-19.0
51318,2015-01-17,2007,1956,-11.0
51622,2015-01-17,0947,0945,-2.0
51656,2015-01-17,1611,1600,-11.0
51758,2015-01-17,1247,1319,32.0
52018,2015-01-17,2225,2207,-18.0
52102,2015-01-17,1055,1051,-4.0
52103,2015-01-17,1940,1946,6.0
52104,2015-01-17,1515,1513,-2.0
52234,2015-01-17,2020,1957,-23.0
52235,2015-01-17,1350,1333,-17.0
52571,2015-01-17,1230,1221,-9.0
52572,2015-01-17,2000,1945,-15.0
52614,2015-01-17,1730,1736,6.0
52615,2015-01-17,1135,1120,-15.0
