,FL_DATE,CRS_ARR_TIME,ARR_TIME,ARR_DELAY
59025,2015-01-20,2206,2200,-6.0
59027,2015-01-20,1433,1537,64.0
59028,2015-01-20,1039,1045,6.0
59031,2015-01-20,1840,1835,-5.0
59033,2015-01-20,2037,2039,2.0
59036,2015-01-20,0841,0838,-3.0
59038,2015-01-20,1042,1038,-4.0
59040,2015-01-20,1539,1524,-15.0
59101,2015-01-20,1540,1556,16.0
59103,2015-01-20,2000,2009,9.0
59105,2015-01-20,1121,1129,8.0
59106,2015-01-20,2215,2206,-9.0
59109,2015-01-20,1752,1751,-1.0
59111,2015-01-20,0910,0907,-3.0
59113,2015-01-20,2040,2030,-10.0
59116,2015-01-20,2053,2101,8.0
59117,2015-01-20,1202,1149,-13.0
59119,2015-01-20,1400,1404,4.0
59216,2015-01-20,2024,2024,0.0
59451,2015-01-20,1230,1233,3.0
59657,2015-01-20,1912,2003,51.0
59699,2015-01-20,1935,1929,-6.0
59720,2015-01-20,1712,1705,-7.0
59722,2015-01-20,1137,1324,107.0
59724,2015-01-20,0824,0821,-3.0
59726,2015-01-20,1143,1132,-11.0
59865,2015-01-20,0945,0939,-6.0
60035,2015-01-20,1528,1540,12.0
60171,2015-01-20,2007,1955,-12.0
60271,2015-01-20,2230,2226,-4.0
60274,2015-01-20,1247,1259,12.0
60294,2015-01-20,1032,1034,2.0
60342,2015-01-20,0037,0029,-8.0
60778,2015-01-20,2225,2238,13.0
60967,2015-01-20,1040,1034,-6.0
60968,2015-01-20,2335,2320,-15.0
61109,2015-01-20,2125,2126,1.0
61110,2015-01-20,1735,1732,-3.0
61111,2015-01-20,1210,1209,-1.0
61112,2015-01-20,0930,0925,-5.0
61181,2015-01-20,1320,1315,-5.0
61182,2015-01-20,1910,1911,1.0
61183,2015-01-20,2240,2239,-1.0
61184,2015-01-20,1550,1553,3.0
61185,2015-01-20,0805,0807,2.0
61562,2015-01-20,1230,1235,5.0
61563,2015-01-20,1820,1813,-7.0
61564,2015-01-20,1520,1514,-6.0
61565,2015-01-20,1040,1041,1.0
61566,2015-01-20,2040,2058,18.0
