,FL_DATE,CRS_ARR_TIME,ARR_TIME,ARR_DELAY
73988,2015-01-25,2206,2222,16.0
73993,2015-01-25,2040,2022,-18.0
74034,2015-01-25,1433,1427,-6.0
74035,2015-01-25,1039,1038,-1.0
74038,2015-01-25,1840,1939,59.0
74040,2015-01-25,2037,2030,-7.0
74043,2015-01-25,0841,0844,3.0
74045,2015-01-25,1042,1025,-17.0
74047,2015-01-25,1539,1531,-8.0
74052,2015-01-25,1245,1238,-7.0
74054,2015-01-25,1720,1716,-4.0
74104,2015-01-25,1540,1530,-10.0
74106,2015-01-25,2000,1956,-4.0
74108,2015-01-25,1121,1101,-20.0
74109,2015-01-25,2215,2150,-25.0
74112,2015-01-25,1752,1752,0.0
74114,2015-01-25,0910,0845,-25.0
74117,2015-01-25,1707,1653,-14.0
74119,2015-01-25,2053,2042,-11.0
74120,2015-01-25,1202,1147,-15.0
74122,2015-01-25,1400,1348,-12.0
74245,2015-01-25,2024,2110,46.0
74277,2015-01-25,1230,1211,-19.0
74759,2015-01-25,1935,1924,-11.0
74781,2015-01-25,2255,2240,-15.0
74783,2015-01-25,1712,1717,5.0
74785,2015-01-25,1137,1124,-13.0
74787,2015-01-25,0824,0809,-15.0
74789,2015-01-25,1143,1120,-23.0
75108,2015-01-25,1531,1545,14.0
75232,2015-01-25,2007,2005,-2.0
75304,2015-01-25,1247,1254,7.0
75329,2015-01-25,0032,0018,-14.0
75382,2015-01-25,2235,2235,0.0
75639,2015-01-25,1912,2106,114.0
75867,2015-01-25,2225,2213,-12.0
76262,2015-01-25,1820,1806,-14.0
76263,2015-01-25,1230,1228,-2.0
76264,2015-01-25,1520,1527,7.0
76265,2015-01-25,2040,2037,-3.0
76420,2015-01-25,1155,1129,-26.0
76421,2015-01-25,2335,2308,-27.0
76520,2015-01-25,2125,2108,-17.0
76521,2015-01-25,1735,1724,-11.0
76576,2015-01-25,1910,1911,1.0
76577,2015-01-25,2240,2238,-2.0
76578,2015-01-25,1310,1256,-14.0
76579,2015-01-25,1550,1540,-10.0
