,FL_DATE,CRS_ARR_TIME,ARR_TIME,ARR_DELAY
19946,2015-01-07,2209,2157,-12.0
19948,2015-01-07,1433,1429,-4.0
19949,2015-01-07,1041,1035,-6.0
19952,2015-01-07,1840,1826,-14.0
19954,2015-01-07,2034,2032,-2.0
19957,2015-01-07,0845,0823,-22.0
19959,2015-01-07,1045,1021,-24.0
19961,2015-01-07,1540,1521,-19.0
19964,2015-01-07,1245,1234,-11.0
20014,2015-01-07,1538,1526,-12.0
20016,2015-01-07,1957,1942,-15.0
20018,2015-01-07,1125,1119,-6.0
20019,2015-01-07,2214,2201,-13.0
20022,2015-01-07,1758,1740,-18.0
20024,2015-01-07,0913,0846,-27.0
20026,2015-01-07,2045,2022,-23.0
20029,2015-01-07,1700,1638,-22.0
20031,2015-01-07,2055,2037,-18.0
20032,2015-01-07,1203,1145,-18.0
20034,2015-01-07,1400,1409,9.0
20111,2015-01-07,2024,2005,-19.0
20302,2015-01-07,1230,1208,-22.0
20545,2015-01-07,0945,1002,17.0
20560,2015-01-07,1912,2120,128.0
20606,2015-01-07,1935,2014,39.0
20629,2015-01-07,2253,2235,-18.0
20631,2015-01-07,1717,1713,-4.0
20633,2015-01-07,1141,1117,-24.0
20635,2015-01-07,0827,0806,-21.0
20637,2015-01-07,1145,1146,1.0
20943,2015-01-07,1556,1542,-14.0
21090,2015-01-07,1247,1237,-10.0
21232,2015-01-07,2008,2024,16.0
21287,2015-01-07,0037,0055,18.0
21327,2015-01-07,1032,1016,-16.0
21369,2015-01-07,2230,2235,5.0
21702,2015-01-07,2225,2221,-4.0
21843,2015-01-07,1230,1215,-15.0
21844,2015-01-07,1820,1808,-12.0
21845,2015-01-07,1520,1510,-10.0
21846,2015-01-07,1040,1026,-14.0
21847,2015-01-07,2040,2049,9.0
22401,2015-01-07,1040,1018,-22.0
22402,2015-01-07,2335,2328,-7.0
22548,2015-01-07,2125,2113,-12.0
22549,2015-01-07,1735,1726,-9.0
22550,2015-01-07,1210,1158,-12.0
22551,2015-01-07,0930,0916,-14.0
22620,2015-01-07,1320,1310,-10.0
22621,2015-01-07,1910,1948,38.0
22622,2015-01-07,2240,2312,32.0
22623,2015-01-07,1550,1602,12.0
22624,2015-01-07,0805,0759,-6.0
