,FL_DATE,CRS_ARR_TIME,ARR_TIME,ARR_DELAY
22956,2015-01-08,2209,2152,-17.0
23005,2015-01-08,1433,1431,-2.0
23006,2015-01-08,1041,1041,0.0
23009,2015-01-08,1840,1839,-1.0
23011,2015-01-08,2034,2025,-9.0
23014,2015-01-08,0845,0903,18.0
23016,2015-01-08,1045,1127,42.0
23018,2015-01-08,1540,1530,-10.0
23023,2015-01-08,1245,1232,-13.0
23025,2015-01-08,1720,,
23079,2015-01-08,1538,1535,-3.0
23081,2015-01-08,1957,1948,-9.0
23083,2015-01-08,1125,1114,-11.0
23084,2015-01-08,2214,2156,-18.0
23087,2015-01-08,1758,1747,-11.0
23089,2015-01-08,0913,0907,-6.0
23091,2015-01-08,2045,2010,-35.0
23094,2015-01-08,1700,1715,15.0
23096,2015-01-08,2055,2035,-20.0
23097,2015-01-08,1203,1155,-8.0
23099,2015-01-08,1400,1448,48.0
23223,2015-01-08,2024,2008,-16.0
23477,2015-01-08,1230,1217,-13.0
23735,2015-01-08,1935,1949,14.0
23756,2015-01-08,2253,2235,-18.0
23758,2015-01-08,1717,1641,-36.0
23760,2015-01-08,1141,1136,-5.0
23762,2015-01-08,0827,0823,-4.0
23764,2015-01-08,1145,1126,-19.0
23895,2015-01-08,1912,1914,2.0
23912,2015-01-08,0945,0938,-7.0
24091,2015-01-08,1528,1534,6.0
24361,2015-01-08,2007,1942,-25.0
24422,2015-01-08,2229,2221,-8.0
24468,2015-01-08,0042,0033,-9.0
24589,2015-01-08,1247,1246,-1.0
24614,2015-01-08,1032,1038,6.0
24905,2015-01-08,2225,2214,-11.0
25317,2015-01-08,1040,1011,-29.0
25318,2015-01-08,2335,0022,47.0
25464,2015-01-08,2125,2116,-9.0
25465,2015-01-08,1735,1738,3.0
25466,2015-01-08,1210,1151,-19.0
25467,2015-01-08,0930,0920,-10.0
25536,2015-01-08,1320,1307,-13.0
25537,2015-01-08,1910,1858,-12.0
25538,2015-01-08,2240,2235,-5.0
25539,2015-01-08,1550,1602,12.0
25540,2015-01-08,0805,0818,13.0
25708,2015-01-08,1230,1219,-11.0
25709,2015-01-08,1820,1819,-1.0
25710,2015-01-08,1520,1504,-16.0
25711,2015-01-08,1040,1025,-15.0
25712,2015-01-08,2040,2027,-13.0
