,FL_DATE,CRS_DEP_TIME,DEP_TIME,DEP_DELAY
46984,2015-01-16,1250,1321,31.0
46986,2015-01-16,1505,1500,-5.0
46989,2015-01-16,1053,1059,6.0
46990,2015-01-16,0700,0656,-4.0
47012,2015-01-16,0700,0654,-6.0
47021,2015-01-16,0845,0841,-4.0
47042,2015-01-16,1731,1800,29.0
47067,2015-01-16,2350,0013,23.0
47078,2015-01-16,1830,1857,27.0
47080,2015-01-16,1320,1326,6.0
47082,2015-01-16,2052,2044,-8.0
47084,2015-01-16,1440,1533,53.0
47088,2015-01-16,1615,1626,11.0
47091,2015-01-16,0903,1840,577.0
47099,2015-01-16,0821,0822,1.0
47126,2015-01-16,0030,0039,9.0
47127,2015-01-16,0600,0554,-6.0
47140,2015-01-16,0705,0713,8.0
47158,2015-01-16,0715,0712,-3.0
47160,2015-01-16,1725,1737,12.0
47165,2015-01-16,1442,1459,17.0
47182,2015-01-16,0926,0925,-1.0
47201,2015-01-16,2330,2328,-2.0
47213,2015-01-16,1159,1156,-3.0
47215,2015-01-16,1255,1338,43.0
47277,2015-01-16,2045,2110,25.0
47280,2015-01-16,2030,2025,-5.0
47288,2015-01-16,1010,1008,-2.0
47289,2015-01-16,1300,1403,63.0
47290,2015-01-16,1450,1532,42.0
47294,2015-01-16,0915,0908,-7.0
47295,2015-01-16,0700,0654,-6.0
47296,2015-01-16,1545,1534,-11.0
47307,2015-01-16,1825,1912,47.0
47311,2015-01-16,1935,2055,80.0
47327,2015-01-16,1255,1401,66.0
47329,2015-01-16,0900,0851,-9.0
47330,2015-01-16,2140,2237,57.0
47332,2015-01-16,1700,1705,5.0
47427,2015-01-16,2055,2200,65.0
47450,2015-01-16,0700,0712,12.0
47460,2015-01-16,1245,1240,-5.0
47479,2015-01-16,2259,0015,76.0
47483,2015-01-16,0800,0753,-7.0
47493,2015-01-16,1200,1258,58.0
47495,2015-01-16,1522,1625,63.0
47498,2015-01-16,1435,1433,-2.0
47508,2015-01-16,1028,1026,-2.0
47519,2015-01-16,0600,0556,-4.0
47525,2015-01-16,2315,2311,-4.0
47529,2015-01-16,0925,0923,-2.0
47531,2015-01-16,2125,2137,12.0
47534,2015-01-16,1310,1309,-1.0
47543,2015-01-16,0806,0804,-2.0
47545,2015-01-16,1225,1316,51.0
47550,2015-01-16,1210,1205,-5.0
47557,2015-01-16,2128,2123,-5.0
47570,2015-01-16,1133,1130,-3.0
47621,2015-01-16,0630,0630,0.0
47623,2015-01-16,0625,0622,-3.0
47626,2015-01-16,2255,2256,1.0
47628,2015-01-16,2200,2150,-10.0
47635,2015-01-16,1209,1209,0.0
47641,2015-01-16,0740,0741,1.0
47646,2015-01-16,0830,0830,0.0
47659,2015-01-16,1145,1136,-9.0
47667,2015-01-16,0020,0017,-3.0
47671,2015-01-16,0700,0657,-3.0
47685,2015-01-16,0825,0825,0.0
47700,2015-01-16,1415,1418,3.0
47732,2015-01-16,2115,2147,32.0
47747,2015-01-16,1230,1239,9.0
47754,2015-01-16,1320,1355,35.0
47764,2015-01-16,1345,1355,10.0
47774,2015-01-16,0624,0622,-2.0
47778,2015-01-16,0900,0902,2.0
47784,2015-01-16,2350,0007,17.0
47788,2015-01-16,1600,1605,5.0
47798,2015-01-16,1500,1459,-1.0
47809,2015-01-16,1921,1924,3.0
47817,2015-01-16,0600,0548,-12.0
47819,2015-01-16,0950,0947,-3.0
47830,2015-01-16,1020,1039,19.0
47839,2015-01-16,1920,1916,-4.0
47841,2015-01-16,0900,0854,-6.0
47843,2015-01-16,1525,1559,34.0
47850,2015-01-16,0845,0846,1.0
47895,2015-01-16,1040,1038,-2.0
47899,2015-01-16,1623,1734,71.0
47923,2015-01-16,1301,1319,18.0
47957,2015-01-16,1051,1055,4.0
47961,2015-01-16,1930,1954,24.0
47973,2015-01-16,1235,1304,29.0
47980,2015-01-16,1600,1608,8.0
47981,2015-01-16,1040,1139,59.0
47982,2015-01-16,1945,2112,87.0
47983,2015-01-16,2233,2254,21.0
47987,2015-01-16,2235,2230,-5.0
48003,2015-01-16,1042,1036,-6.0
48009,2015-01-16,1040,1055,15.0
48013,2015-01-16,1537,1615,38.0
48014,2015-01-16,1909,2039,90.0
48017,2015-01-16,1950,2055,65.0
48018,2015-01-16,2030,2026,-4.0
48022,2015-01-16,1153,1152,-1.0
48023,2015-01-16,1040,1109,29.0
48024,2015-01-16,1635,1641,6.0
48027,2015-01-16,1234,1232,-2.0
48029,2015-01-16,2230,2224,-6.0
48030,2015-01-16,1045,1057,12.0
48041,2015-01-16,1810,1805,-5.0
48043,2015-01-16,1255,1330,35.0
48051,2015-01-16,1108,1136,28.0
48121,2015-01-16,1610,,
48122,2015-01-16,1435,1432,-3.0
48124,2015-01-16,1350,1415,25.0
48125,2015-01-16,1901,1926,25.0
48153,2015-01-16,1730,2024,174.0
48154,2015-01-16,1200,1613,253.0
48156,2015-01-16,1610,1619,9.0
48161,2015-01-16,1023,1038,15.0
48172,2015-01-16,1835,1833,-2.0
48176,2015-01-16,1215,1221,6.0
48187,2015-01-16,1155,1151,-4.0
48214,2015-01-16,1610,1717,67.0
48232,2015-01-16,1725,1814,49.0
48241,2015-01-16,0937,0935,-2.0
48250,2015-01-16,0758,0752,-6.0
48252,2015-01-16,1131,1136,5.0
48255,2015-01-16,1055,1124,29.0
48258,2015-01-16,1546,1634,48.0
48259,2015-01-16,2202,2159,-3.0
48261,2015-01-16,0830,0842,12.0
48276,2015-01-16,1517,1529,12.0
48277,2015-01-16,1536,1727,111.0
48280,2015-01-16,1241,1323,42.0
48282,2015-01-16,1454,1533,39.0
48286,2015-01-16,2300,,
48287,2015-01-16,1545,1539,-6.0
48289,2015-01-16,1040,1100,20.0
48295,2015-01-16,0815,0808,-7.0
48299,2015-01-16,1841,1845,4.0
48303,2015-01-16,2230,2237,7.0
48305,2015-01-16,1848,1853,5.0
48309,2015-01-16,0831,0823,-8.0
48312,2015-01-16,1402,1438,36.0
48316,2015-01-16,0929,0928,-1.0
48319,2015-01-16,1744,1736,-8.0
48322,2015-01-16,0841,0838,-3.0
48328,2015-01-16,0843,0938,55.0
48336,2015-01-16,2235,2228,-7.0
48337,2015-01-16,2055,2209,74.0
48355,2015-01-16,2016,2103,47.0
48362,2015-01-16,2235,2321,46.0
48365,2015-01-16,1904,2021,77.0
48366,2015-01-16,0839,0922,43.0
48371,2015-01-16,0718,0710,-8.0
48375,2015-01-16,1613,1622,9.0
48377,2015-01-16,1153,1249,56.0
48378,2015-01-16,1045,1058,13.0
48381,2015-01-16,0830,0827,-3.0
48383,2015-01-16,1640,1659,19.0
48386,2015-01-16,2226,2223,-3.0
48390,2015-01-16,0845,0858,13.0
48391,2015-01-16,2233,2229,-4.0
48392,2015-01-16,1119,1118,-1.0
48393,2015-01-16,0653,0644,-9.0
48394,2015-01-16,1725,1746,21.0
48395,2015-01-16,2230,2245,15.0
48398,2015-01-16,1941,,
48402,2015-01-16,1732,1727,-5.0
48410,2015-01-16,1457,1457,0.0
48422,2015-01-16,1610,1630,20.0
48425,2015-01-16,1310,1407,57.0
48426,2015-01-16,1341,1419,38.0
48428,2015-01-16,1928,2225,177.0
48430,2015-01-16,1052,1046,-6.0
48431,2015-01-16,1539,1618,39.0
48433,2015-01-16,1229,1412,103.0
48438,2015-01-16,0810,0809,-1.0
48442,2015-01-16,1605,1730,85.0
48445,2015-01-16,0810,0807,-3.0
48449,2015-01-16,1504,1616,72.0
48451,2015-01-16,1925,2141,136.0
48452,2015-01-16,2036,2031,-5.0
48455,2015-01-16,1035,1032,-3.0
48466,2015-01-16,1300,1710,250.0
48468,2015-01-16,0753,0856,63.0
48481,2015-01-16,1015,1107,52.0
48482,2015-01-16,2000,2131,91.0
48494,2015-01-16,1610,1746,96.0
48496,2015-01-16,1450,1504,14.0
48498,2015-01-16,0829,0827,-2.0
48500,2015-01-16,1043,1047,4.0
48504,2015-01-16,1339,1338,-1.0
48505,2015-01-16,2011,2007,-4.0
48509,2015-01-16,1043,1151,68.0
48511,2015-01-16,1940,2023,43.0
48532,2015-01-16,1335,1600,145.0
48534,2015-01-16,0620,0616,-4.0
48537,2015-01-16,1442,1448,6.0
48541,2015-01-16,1300,1313,13.0
48542,2015-01-16,0045,0109,24.0
48560,2015-01-16,0830,0853,23.0
48566,2015-01-16,1637,1738,61.0
48568,2015-01-16,1610,1617,7.0
48570,2015-01-16,2045,2052,7.0
48577,2015-01-16,2245,2250,5.0
48579,2015-01-16,1045,1233,108.0
48593,2015-01-16,1040,1036,-4.0
48594,2015-01-16,1250,1450,120.0
48599,2015-01-16,1200,1158,-2.0
48601,2015-01-16,0700,0653,-7.0
48603,2015-01-16,1820,1819,-1.0
48607,2015-01-16,1125,1135,10.0
48613,2015-01-16,1424,1547,83.0
48614,2015-01-16,1115,1110,-5.0
48623,2015-01-16,1210,1437,147.0
48624,2015-01-16,0850,0847,-3.0
48629,2015-01-16,1040,1104,24.0
48631,2015-01-16,0901,0853,-8.0
48634,2015-01-16,0845,0842,-3.0
48641,2015-01-16,0905,0905,0.0
48645,2015-01-16,1557,1651,54.0
48647,2015-01-16,2030,2028,-2.0
48660,2015-01-16,2235,2230,-5.0
48662,2015-01-16,1310,1305,-5.0
48664,2015-01-16,0905,0859,-6.0
48666,2015-01-16,0945,0944,-1.0
48667,2015-01-16,0730,0725,-5.0
48668,2015-01-16,0940,0937,-3.0
48669,2015-01-16,1235,1247,12.0
48670,2015-01-16,0800,0756,-4.0
48671,2015-01-16,1535,1552,17.0
48672,2015-01-16,1404,1423,19.0
48675,2015-01-16,1635,1722,47.0
48677,2015-01-16,1331,1334,3.0
48678,2015-01-16,1646,1645,-1.0
48685,2015-01-16,1732,1736,4.0
48690,2015-01-16,1145,1138,-7.0
48692,2015-01-16,0600,0554,-6.0
48698,2015-01-16,1311,1309,-2.0
48705,2015-01-16,1817,1813,-4.0
48708,2015-01-16,1507,1628,81.0
48712,2015-01-16,1050,1128,38.0
48714,2015-01-16,0905,0920,15.0
48716,2015-01-16,1305,1306,1.0
48718,2015-01-16,0804,0802,-2.0
48722,2015-01-16,2100,2056,-4.0
48724,2015-01-16,0806,0802,-4.0
48725,2015-01-16,1408,1412,4.0
48726,2015-01-16,1803,1758,-5.0
48729,2015-01-16,2236,2243,7.0
48731,2015-01-16,1005,1006,1.0
48733,2015-01-16,0600,0557,-3.0
48736,2015-01-16,1440,1437,-3.0
48737,2015-01-16,0700,0647,-13.0
48738,2015-01-16,1730,1728,-2.0
48739,2015-01-16,1050,1049,-1.0
48746,2015-01-16,1433,1433,0.0
48748,2015-01-16,1120,1118,-2.0
48751,2015-01-16,1053,1051,-2.0
48755,2015-01-16,1424,1423,-1.0
48756,2015-01-16,1250,1248,-2.0
48759,2015-01-16,2230,2236,6.0
48764,2015-01-16,0850,0850,0.0
48768,2015-01-16,1659,1707,8.0
48772,2015-01-16,0842,0842,0.0
48776,2015-01-16,1742,1744,2.0
48780,2015-01-16,2104,2136,32.0
48784,2015-01-16,1354,1456,62.0
48790,2015-01-16,1127,1136,9.0
48793,2015-01-16,2003,2005,2.0
48798,2015-01-16,2230,2230,0.0
48802,2015-01-16,0805,0811,6.0
48813,2015-01-16,0800,0802,2.0
48817,2015-01-16,1210,1234,24.0
48819,2015-01-16,1634,1717,43.0
48821,2015-01-16,1100,1126,26.0
48827,2015-01-16,2232,2226,-6.0
48832,2015-01-16,2230,2241,11.0
48834,2015-01-16,1300,1343,43.0
48836,2015-01-16,1047,1104,17.0
48840,2015-01-16,2315,2318,3.0
48841,2015-01-16,1315,1318,3.0
48842,2015-01-16,2250,2247,-3.0
48844,2015-01-16,1250,1253,3.0
48848,2015-01-16,0843,0841,-2.0
48851,2015-01-16,2312,2321,9.0
48852,2015-01-16,1040,1056,16.0
48856,2015-01-16,1945,2045,60.0
48864,2015-01-16,0604,0601,-3.0
48869,2015-01-16,0602,0603,1.0
48871,2015-01-16,1240,1303,23.0
48876,2015-01-16,0855,0902,7.0
48879,2015-01-16,1919,1920,1.0
48884,2015-01-16,2235,2245,10.0
48889,2015-01-16,0544,0544,0.0
48890,2015-01-16,1534,1530,-4.0
48893,2015-01-16,1835,1832,-3.0
48894,2015-01-16,1305,1512,127.0
48896,2015-01-16,0730,0735,5.0
48898,2015-01-16,1620,1645,25.0
48903,2015-01-16,0905,0912,7.0
48907,2015-01-16,1200,1156,-4.0
48908,2015-01-16,1649,1751,62.0
48910,2015-01-16,0833,0832,-1.0
48913,2015-01-16,2231,2256,25.0
48915,2015-01-16,1300,1302,2.0
48925,2015-01-16,2230,2255,25.0
48928,2015-01-16,1205,1324,79.0
48929,2015-01-16,1622,1624,2.0
48931,2015-01-16,1055,1122,27.0
48933,2015-01-16,1401,1532,91.0
48937,2015-01-16,1845,1845,0.0
48940,2015-01-16,2008,2025,17.0
48953,2015-01-16,0905,0920,15.0
48955,2015-01-16,1722,1732,10.0
48958,2015-01-16,1935,2036,61.0
48961,2015-01-16,1615,1704,49.0
48963,2015-01-16,1005,1056,51.0
48964,2015-01-16,1421,1512,51.0
48968,2015-01-16,0810,0811,1.0
48969,2015-01-16,1057,1114,17.0
48972,2015-01-16,1115,1122,7.0
48976,2015-01-16,1040,1049,9.0
48978,2015-01-16,2339,2338,-1.0
48982,2015-01-16,0919,0922,3.0
48987,2015-01-16,1933,1929,-4.0
49004,2015-01-16,0815,0815,0.0
49006,2015-01-16,1210,1255,45.0
49016,2015-01-16,1331,1328,-3.0
49024,2015-01-16,1100,1056,-4.0
49031,2015-01-16,2200,2157,-3.0
49034,2015-01-16,1705,1702,-3.0
49038,2015-01-16,1550,1551,1.0
49050,2015-01-16,1159,1159,0.0
49074,2015-01-16,0600,0558,-2.0
49084,2015-01-16,1115,1108,-7.0
49116,2015-01-16,0825,0822,-3.0
49125,2015-01-16,0720,0717,-3.0
49130,2015-01-16,0915,0914,-1.0
49137,2015-01-16,2230,2229,-1.0
49140,2015-01-16,1340,1409,29.0
49141,2015-01-16,0855,0851,-4.0
49144,2015-01-16,1320,1403,43.0
49151,2015-01-16,1400,1515,75.0
49153,2015-01-16,0705,0707,2.0
49160,2015-01-16,0815,0814,-1.0
49164,2015-01-16,2055,2056,1.0
49167,2015-01-16,0810,0803,-7.0
49168,2015-01-16,0915,0912,-3.0
49171,2015-01-16,1035,1100,25.0
49174,2015-01-16,1610,1632,22.0
49175,2015-01-16,0920,0920,0.0
49181,2015-01-16,1950,2036,46.0
49182,2015-01-16,1355,1409,14.0
49191,2015-01-16,1110,1110,0.0
49193,2015-01-16,0805,0802,-3.0
49196,2015-01-16,0820,0823,3.0
49198,2015-01-16,2310,2338,28.0
49200,2015-01-16,2320,2334,14.0
49203,2015-01-16,0930,0928,-2.0
49205,2015-01-16,2305,2304,-1.0
49228,2015-01-16,1700,1802,62.0
49231,2015-01-16,0720,0714,-6.0
49233,2015-01-16,1140,1152,12.0
49236,2015-01-16,1710,1708,-2.0
49237,2015-01-16,0800,0758,-2.0
49238,2015-01-16,1300,1256,-4.0
49239,2015-01-16,1645,1738,53.0
49240,2015-01-16,2045,2133,48.0
49250,2015-01-16,2045,2146,61.0
49252,2015-01-16,0930,0924,-6.0
49261,2015-01-16,0915,0911,-4.0
49263,2015-01-16,1340,1337,-3.0
49264,2015-01-16,1450,1509,19.0
49266,2015-01-16,1405,1419,14.0
49267,2015-01-16,1225,1224,-1.0
49270,2015-01-16,1800,1901,61.0
49272,2015-01-16,0645,0652,7.0
49276,2015-01-16,1325,1322,-3.0
49278,2015-01-16,1530,1645,75.0
49281,2015-01-16,1610,1636,26.0
49282,2015-01-16,1730,1817,47.0
49284,2015-01-16,1845,1928,43.0
49286,2015-01-16,2050,2048,-2.0
49287,2015-01-16,0800,0755,-5.0
49289,2015-01-16,1145,1143,-2.0
49290,2015-01-16,1505,1500,-5.0
49291,2015-01-16,1725,1805,40.0
49294,2015-01-16,2050,2050,0.0
49933,2015-01-16,1205,1206,1.0
49934,2015-01-16,0840,0849,9.0
49935,2015-01-16,1425,1514,49.0
49936,2015-01-16,1350,1433,43.0
49937,2015-01-16,1120,1121,1.0
49938,2015-01-16,0600,0638,38.0
49939,2015-01-16,1800,1819,19.0
49940,2015-01-16,1000,0953,-7.0
49941,2015-01-16,1215,1209,-6.0
49942,2015-01-16,2130,2131,1.0
49943,2015-01-16,1355,1350,-5.0
49944,2015-01-16,0645,0644,-1.0
49945,2015-01-16,1010,1029,19.0
49946,2015-01-16,1300,1333,33.0
49947,2015-01-16,0900,0903,3.0
49948,2015-01-16,0750,,
49949,2015-01-16,0605,0602,-3.0
49950,2015-01-16,1150,,
49951,2015-01-16,1540,1623,43.0
49952,2015-01-16,1815,2053,158.0
49953,2015-01-16,1645,1710,25.0
49954,2015-01-16,2035,2114,39.0
49955,2015-01-16,0620,0627,7.0
49956,2015-01-16,1355,1405,10.0
49957,2015-01-16,1110,1145,35.0
49958,2015-01-16,0635,0630,-5.0
49959,2015-01-16,1155,1153,-2.0
49960,2015-01-16,2155,2151,-4.0
49961,2015-01-16,1605,1609,4.0
49962,2015-01-16,0950,0951,1.0
49963,2015-01-16,1405,1404,-1.0
49964,2015-01-16,1800,1851,51.0
49965,2015-01-16,0600,0555,-5.0
49966,2015-01-16,0725,0724,-1.0
49967,2015-01-16,1120,1147,27.0
49968,2015-01-16,1530,1604,34.0
49969,2015-01-16,1935,2009,34.0
49970,2015-01-16,0700,0657,-3.0
49971,2015-01-16,1335,1520,105.0
49972,2015-01-16,1905,1906,1.0
49973,2015-01-16,2030,2037,7.0
49974,2015-01-16,1545,1750,125.0
49975,2015-01-16,1050,1049,-1.0
49976,2015-01-16,1315,1313,-2.0
