,FL_DATE,CRS_DEP_TIME,DEP_TIME,DEP_DELAY
55537,2015-01-19,1250,1308,18.0
55538,2015-01-19,2225,2229,4.0
55540,2015-01-19,1505,1543,38.0
55543,2015-01-19,1053,1050,-3.0
55544,2015-01-19,0700,0651,-9.0
55566,2015-01-19,0700,0824,84.0
55575,2015-01-19,0845,0837,-8.0
55595,2015-01-19,1731,1732,1.0
55620,2015-01-19,2350,2350,0.0
55629,2015-01-19,1830,1859,29.0
55631,2015-01-19,1320,1335,15.0
55633,2015-01-19,2052,2042,-10.0
55635,2015-01-19,1440,1454,14.0
55639,2015-01-19,1615,1627,12.0
55642,2015-01-19,0903,0854,-9.0
55650,2015-01-19,0821,0821,0.0
55677,2015-01-19,0030,0029,-1.0
55678,2015-01-19,0600,0556,-4.0
55691,2015-01-19,0705,1355,410.0
55709,2015-01-19,0715,0722,7.0
55711,2015-01-19,1725,1732,7.0
55716,2015-01-19,1442,1457,15.0
55733,2015-01-19,0926,0926,0.0
55752,2015-01-19,2330,0013,43.0
55764,2015-01-19,1159,1307,68.0
55766,2015-01-19,1255,1401,66.0
55826,2015-01-19,1255,1449,114.0
55827,2015-01-19,0900,0922,22.0
55829,2015-01-19,2140,2137,-3.0
55830,2015-01-19,1700,1650,-10.0
55924,2015-01-19,2055,2053,-2.0
55953,2015-01-19,2045,2043,-2.0
55955,2015-01-19,2030,2025,-5.0
55962,2015-01-19,1010,1000,-10.0
55963,2015-01-19,1300,1446,106.0
55965,2015-01-19,1450,1550,60.0
55966,2015-01-19,0915,0912,-3.0
55968,2015-01-19,0700,0646,-14.0
55969,2015-01-19,1545,1537,-8.0
55982,2015-01-19,1935,2007,32.0
55993,2015-01-19,0700,0756,56.0
56003,2015-01-19,1245,1307,22.0
56021,2015-01-19,2259,2316,17.0
56025,2015-01-19,0800,0755,-5.0
56035,2015-01-19,1200,1157,-3.0
56037,2015-01-19,1522,1522,0.0
56040,2015-01-19,1435,,
56051,2015-01-19,1028,1134,66.0
56062,2015-01-19,0600,0558,-2.0
56068,2015-01-19,2236,2235,-1.0
56072,2015-01-19,0925,0921,-4.0
56074,2015-01-19,2125,2147,22.0
56077,2015-01-19,1310,1320,10.0
56086,2015-01-19,0806,0808,2.0
56088,2015-01-19,1225,1346,81.0
56093,2015-01-19,1210,1216,6.0
56116,2015-01-19,0624,0621,-3.0
56119,2015-01-19,0900,0858,-2.0
56129,2015-01-19,0020,0039,19.0
56133,2015-01-19,0700,0656,-4.0
56148,2015-01-19,0825,0822,-3.0
56163,2015-01-19,1415,1411,-4.0
56187,2015-01-19,1133,1128,-5.0
56238,2015-01-19,0630,0624,-6.0
56240,2015-01-19,0625,0623,-2.0
56243,2015-01-19,2255,2254,-1.0
56245,2015-01-19,2200,2153,-7.0
56253,2015-01-19,2315,2308,-7.0
56257,2015-01-19,1600,1607,7.0
56266,2015-01-19,1500,1523,23.0
56281,2015-01-19,2115,2115,0.0
56296,2015-01-19,1230,1329,59.0
56303,2015-01-19,1320,1323,3.0
56319,2015-01-19,1345,1343,-2.0
56322,2015-01-19,1921,1918,-3.0
56325,2015-01-19,1209,1218,9.0
56332,2015-01-19,0740,0739,-1.0
56337,2015-01-19,0830,0826,-4.0
56349,2015-01-19,1145,1141,-4.0
56358,2015-01-19,0900,0856,-4.0
56360,2015-01-19,1525,1536,11.0
56361,2015-01-19,0600,0635,35.0
56376,2015-01-19,1020,1054,34.0
56378,2015-01-19,1920,1912,-8.0
56379,2015-01-19,0950,0934,-16.0
56393,2015-01-19,0845,0837,-8.0
56439,2015-01-19,1040,1103,23.0
56444,2015-01-19,1623,1622,-1.0
56467,2015-01-19,1301,1439,98.0
56500,2015-01-19,1051,1132,41.0
56505,2015-01-19,1930,1928,-2.0
56515,2015-01-19,1235,1236,1.0
56522,2015-01-19,1600,1559,-1.0
56523,2015-01-19,1040,1120,40.0
56524,2015-01-19,1945,1935,-10.0
56525,2015-01-19,2233,,
56528,2015-01-19,1928,1921,-7.0
56531,2015-01-19,2235,2233,-2.0
56546,2015-01-19,1042,1040,-2.0
56553,2015-01-19,1040,1223,103.0
56557,2015-01-19,1537,1537,0.0
56558,2015-01-19,1909,1938,29.0
56562,2015-01-19,1950,1942,-8.0
56563,2015-01-19,2030,2025,-5.0
56567,2015-01-19,1040,1122,42.0
56568,2015-01-19,1635,1649,14.0
56571,2015-01-19,1234,1247,13.0
56573,2015-01-19,2230,2242,12.0
56574,2015-01-19,1040,1212,92.0
56585,2015-01-19,1810,1841,31.0
56587,2015-01-19,1255,1349,54.0
56595,2015-01-19,1108,1153,45.0
56600,2015-01-19,1153,1151,-2.0
56665,2015-01-19,1435,1518,43.0
56667,2015-01-19,1400,1450,50.0
56668,2015-01-19,1901,1855,-6.0
56696,2015-01-19,1730,1723,-7.0
56697,2015-01-19,1200,1236,36.0
56699,2015-01-19,1610,1607,-3.0
56704,2015-01-19,1023,1124,61.0
56715,2015-01-19,1835,1834,-1.0
56719,2015-01-19,1215,1215,0.0
56732,2015-01-19,1155,1435,160.0
56758,2015-01-19,1610,1610,0.0
56775,2015-01-19,1725,1720,-5.0
56785,2015-01-19,0937,0935,-2.0
56794,2015-01-19,0758,0752,-6.0
56796,2015-01-19,1131,1342,131.0
56799,2015-01-19,1055,1109,14.0
56802,2015-01-19,1546,1542,-4.0
56803,2015-01-19,2202,2156,-6.0
56805,2015-01-19,0830,0823,-7.0
56819,2015-01-19,1536,1552,16.0
56821,2015-01-19,1300,1418,78.0
56824,2015-01-19,1241,1249,8.0
56826,2015-01-19,1454,1506,12.0
56830,2015-01-19,2300,2255,-5.0
56831,2015-01-19,1545,1543,-2.0
56833,2015-01-19,1040,,
56838,2015-01-19,0815,0827,12.0
56841,2015-01-19,1841,1844,3.0
56844,2015-01-19,2230,2230,0.0
56848,2015-01-19,0841,0838,-3.0
56851,2015-01-19,1402,1446,44.0
56855,2015-01-19,0929,0922,-7.0
56858,2015-01-19,1744,1741,-3.0
56860,2015-01-19,1613,1611,-2.0
56862,2015-01-19,0836,0829,-7.0
56868,2015-01-19,0843,0837,-6.0
56876,2015-01-19,2235,2229,-6.0
56877,2015-01-19,2055,2049,-6.0
56896,2015-01-19,2016,2011,-5.0
56903,2015-01-19,2235,2224,-11.0
56906,2015-01-19,1904,1900,-4.0
56907,2015-01-19,0839,,
56912,2015-01-19,0718,0756,38.0
56918,2015-01-19,1153,1148,-5.0
56919,2015-01-19,1045,1214,89.0
56922,2015-01-19,0830,,
56924,2015-01-19,1640,1634,-6.0
56926,2015-01-19,2226,2218,-8.0
56929,2015-01-19,0845,1015,90.0
56930,2015-01-19,2233,2229,-4.0
56931,2015-01-19,1119,1118,-1.0
56932,2015-01-19,0653,0651,-2.0
56933,2015-01-19,1725,1804,39.0
56934,2015-01-19,2230,2220,-10.0
56937,2015-01-19,1941,1937,-4.0
56940,2015-01-19,1450,1501,11.0
56942,2015-01-19,1732,1726,-6.0
56950,2015-01-19,1457,1501,4.0
56963,2015-01-19,1610,1623,13.0
56966,2015-01-19,1310,1503,113.0
56967,2015-01-19,1341,1353,12.0
56969,2015-01-19,1517,1513,-4.0
56971,2015-01-19,1052,1047,-5.0
56972,2015-01-19,1539,1533,-6.0
56974,2015-01-19,1229,1223,-6.0
56979,2015-01-19,0810,0802,-8.0
56983,2015-01-19,1605,1604,-1.0
56986,2015-01-19,0810,0827,17.0
56990,2015-01-19,1504,1836,212.0
56992,2015-01-19,1925,1924,-1.0
56993,2015-01-19,2036,2031,-5.0
56995,2015-01-19,1035,1123,48.0
57007,2015-01-19,0753,,
57020,2015-01-19,1015,1012,-3.0
57021,2015-01-19,2000,2005,5.0
57033,2015-01-19,1610,1611,1.0
57037,2015-01-19,0829,0831,2.0
57039,2015-01-19,1043,1034,-9.0
57042,2015-01-19,1339,1400,21.0
57043,2015-01-19,2011,2002,-9.0
57047,2015-01-19,1043,1154,71.0
57049,2015-01-19,1940,1931,-9.0
57065,2015-01-19,1700,1655,-5.0
57067,2015-01-19,1610,0113,543.0
57071,2015-01-19,1040,1037,-3.0
57075,2015-01-19,1045,1053,8.0
57082,2015-01-19,1925,1923,-2.0
57084,2015-01-19,0842,0838,-4.0
57089,2015-01-19,0730,0725,-5.0
57090,2015-01-19,1250,1247,-3.0
57093,2015-01-19,0700,0657,-3.0
57095,2015-01-19,0602,0559,-3.0
57096,2015-01-19,1820,1809,-11.0
57099,2015-01-19,1125,1134,9.0
57102,2015-01-19,1457,1452,-5.0
57110,2015-01-19,1210,1304,54.0
57111,2015-01-19,0850,0856,6.0
57114,2015-01-19,1040,1036,-4.0
57116,2015-01-19,0901,0858,-3.0
57119,2015-01-19,0845,0840,-5.0
57122,2015-01-19,0800,0752,-8.0
57128,2015-01-19,1557,1553,-4.0
57131,2015-01-19,2030,2022,-8.0
57134,2015-01-19,2310,0007,57.0
57148,2015-01-19,1310,1606,176.0
57149,2015-01-19,0705,0704,-1.0
57152,2015-01-19,0945,0933,-12.0
57153,2015-01-19,0830,0828,-2.0
57154,2015-01-19,1659,1758,59.0
57155,2015-01-19,1535,1530,-5.0
57156,2015-01-19,1404,1418,14.0
57159,2015-01-19,1331,1442,71.0
57160,2015-01-19,1646,1816,90.0
57166,2015-01-19,1424,1432,8.0
57169,2015-01-19,0940,0939,-1.0
57173,2015-01-19,1145,1140,-5.0
57182,2015-01-19,1817,1810,-7.0
57187,2015-01-19,2235,2229,-6.0
57190,2015-01-19,1742,1815,33.0
57195,2015-01-19,0544,0539,-5.0
57198,2015-01-19,1732,1734,2.0
57202,2015-01-19,1305,1327,22.0
57204,2015-01-19,0730,0734,4.0
57206,2015-01-19,1620,1636,16.0
57213,2015-01-19,0905,0902,-3.0
57217,2015-01-19,1200,1219,19.0
57219,2015-01-19,1115,1117,2.0
57221,2015-01-19,0617,0610,-7.0
57223,2015-01-19,0805,0803,-2.0
57224,2015-01-19,0836,0840,4.0
57230,2015-01-19,1050,1109,19.0
57236,2015-01-19,1205,1205,0.0
57238,2015-01-19,2104,2102,-2.0
57240,2015-01-19,1401,1410,9.0
57242,2015-01-19,1945,1941,-4.0
57248,2015-01-19,2008,2011,3.0
57251,2015-01-19,2003,1955,-8.0
57255,2015-01-19,1055,1052,-3.0
57256,2015-01-19,0800,0800,0.0
57262,2015-01-19,0905,0908,3.0
57264,2015-01-19,1722,1722,0.0
57268,2015-01-19,1615,1627,12.0
57269,2015-01-19,1534,1531,-3.0
57270,2015-01-19,1053,1105,12.0
57272,2015-01-19,0810,0816,6.0
57274,2015-01-19,2230,2223,-7.0
57278,2015-01-19,1100,1105,5.0
57280,2015-01-19,2237,2333,56.0
57284,2015-01-19,1300,1307,7.0
57293,2015-01-19,0905,0907,2.0
57295,2015-01-19,1305,1422,77.0
57297,2015-01-19,0804,0756,-8.0
57301,2015-01-19,1311,1307,-4.0
57305,2015-01-19,1649,1641,-8.0
57306,2015-01-19,0806,0805,-1.0
57307,2015-01-19,1408,1611,123.0
57308,2015-01-19,1803,1753,-10.0
57309,2015-01-19,1235,1227,-8.0
57313,2015-01-19,2339,2336,-3.0
57315,2015-01-19,0600,0546,-14.0
57319,2015-01-19,1440,1510,30.0
57320,2015-01-19,0700,0655,-5.0
57321,2015-01-19,1730,1802,32.0
57322,2015-01-19,1050,1351,181.0
57328,2015-01-19,1635,1626,-9.0
57330,2015-01-19,1120,1110,-10.0
57336,2015-01-19,0905,1233,208.0
57339,2015-01-19,1250,1326,36.0
57342,2015-01-19,2230,2314,44.0
57348,2015-01-19,0850,0846,-4.0
57361,2015-01-19,1354,1352,-2.0
57367,2015-01-19,1127,1125,-2.0
57369,2015-01-19,1115,1110,-5.0
57374,2015-01-19,1421,1434,13.0
57377,2015-01-19,2240,2238,-2.0
57382,2015-01-19,2232,2231,-1.0
57385,2015-01-19,2230,2237,7.0
57387,2015-01-19,2235,2238,3.0
57394,2015-01-19,1935,1927,-8.0
57396,2015-01-19,1210,1230,20.0
57406,2015-01-19,1335,1351,16.0
57410,2015-01-19,1442,1454,12.0
57413,2015-01-19,1300,1302,2.0
57414,2015-01-19,0045,0045,0.0
57418,2015-01-19,2240,2247,7.0
57421,2015-01-19,1634,1851,137.0
57438,2015-01-19,1240,1244,4.0
57443,2015-01-19,2045,2043,-2.0
57446,2015-01-19,1845,1847,2.0
57448,2015-01-19,1040,1037,-3.0
57452,2015-01-19,2230,2238,8.0
57459,2015-01-19,1047,1051,4.0
57461,2015-01-19,0927,0931,4.0
57462,2015-01-19,1624,1638,14.0
57464,2015-01-19,1315,1318,3.0
57466,2015-01-19,1250,1251,1.0
57471,2015-01-19,2312,2310,-2.0
57482,2015-01-19,1300,1300,0.0
57483,2015-01-19,0843,0840,-3.0
57486,2015-01-19,0604,0607,3.0
57488,2015-01-19,1057,1057,0.0
57494,2015-01-19,2231,2247,16.0
57497,2015-01-19,0905,0900,-5.0
57500,2015-01-19,1933,1923,-10.0
57516,2015-01-19,0815,0806,-9.0
57518,2015-01-19,1210,1229,19.0
57526,2015-01-19,1610,1630,20.0
57529,2015-01-19,1331,1422,51.0
57540,2015-01-19,1115,1109,-6.0
57546,2015-01-19,1100,1105,5.0
57554,2015-01-19,2200,2159,-1.0
57557,2015-01-19,1705,1656,-9.0
57561,2015-01-19,1550,1542,-8.0
57573,2015-01-19,1159,1157,-2.0
57594,2015-01-19,0600,0551,-9.0
57626,2015-01-19,0825,0823,-2.0
57635,2015-01-19,0720,0718,-2.0
57640,2015-01-19,0915,0901,-14.0
57647,2015-01-19,2230,2229,-1.0
57650,2015-01-19,1340,1527,107.0
57651,2015-01-19,0855,0853,-2.0
57660,2015-01-19,1400,1409,9.0
57662,2015-01-19,0705,0708,3.0
57668,2015-01-19,0815,0815,0.0
57673,2015-01-19,0810,0809,-1.0
57674,2015-01-19,0915,0913,-2.0
57677,2015-01-19,1035,1136,61.0
57680,2015-01-19,1610,1608,-2.0
57681,2015-01-19,0920,0933,13.0
57687,2015-01-19,1950,1957,7.0
57688,2015-01-19,1355,1353,-2.0
57697,2015-01-19,1110,1108,-2.0
57699,2015-01-19,0805,0800,-5.0
57701,2015-01-19,0820,0816,-4.0
57704,2015-01-19,2320,2310,-10.0
57707,2015-01-19,0930,0923,-7.0
57709,2015-01-19,2305,2302,-3.0
57730,2015-01-19,1700,1652,-8.0
57733,2015-01-19,0720,0720,0.0
57735,2015-01-19,1140,1225,45.0
57738,2015-01-19,1710,1718,8.0
57739,2015-01-19,0800,0755,-5.0
57740,2015-01-19,1300,1256,-4.0
57741,2015-01-19,1645,1650,5.0
57742,2015-01-19,2045,2040,-5.0
57752,2015-01-19,2045,2039,-6.0
57754,2015-01-19,0930,0928,-2.0
57763,2015-01-19,0915,0918,3.0
57765,2015-01-19,1340,1336,-4.0
57766,2015-01-19,1450,1445,-5.0
57768,2015-01-19,1405,1401,-4.0
57769,2015-01-19,1225,1224,-1.0
57772,2015-01-19,1800,1817,17.0
57774,2015-01-19,0645,0639,-6.0
57778,2015-01-19,1325,1323,-2.0
57780,2015-01-19,1530,1543,13.0
57783,2015-01-19,1610,1607,-3.0
57784,2015-01-19,1730,1723,-7.0
57786,2015-01-19,1845,1840,-5.0
57788,2015-01-19,2050,2048,-2.0
57789,2015-01-19,0800,0753,-7.0
57791,2015-01-19,1145,1143,-2.0
57792,2015-01-19,1505,1513,8.0
57793,2015-01-19,1725,1723,-2.0
57796,2015-01-19,2050,2049,-1.0
58393,2015-01-19,1205,1248,43.0
58394,2015-01-19,0840,0839,-1.0
58395,2015-01-19,1425,1437,12.0
58396,2015-01-19,1350,1352,2.0
58397,2015-01-19,1120,1304,104.0
58398,2015-01-19,0600,0559,-1.0
58399,2015-01-19,1800,1759,-1.0
58400,2015-01-19,1000,0955,-5.0
58401,2015-01-19,1215,1257,42.0
58402,2015-01-19,2130,2127,-3.0
58403,2015-01-19,1355,1359,4.0
58404,2015-01-19,0645,0643,-2.0
58405,2015-01-19,1010,1006,-4.0
58406,2015-01-19,1300,1310,10.0
58407,2015-01-19,0900,0857,-3.0
58408,2015-01-19,0750,0749,-1.0
58409,2015-01-19,0605,0559,-6.0
58410,2015-01-19,1150,1158,8.0
58411,2015-01-19,1540,1558,18.0
58412,2015-01-19,1815,1815,0.0
58413,2015-01-19,1645,1646,1.0
58414,2015-01-19,2035,2055,20.0
58415,2015-01-19,0620,0620,0.0
58416,2015-01-19,1355,1408,13.0
58417,2015-01-19,1110,1205,55.0
58418,2015-01-19,0635,0629,-6.0
58419,2015-01-19,1155,1159,4.0
58420,2015-01-19,2155,2215,20.0
58421,2015-01-19,1605,1600,-5.0
58422,2015-01-19,0950,0949,-1.0
58423,2015-01-19,1405,1424,19.0
58424,2015-01-19,1800,1830,30.0
58425,2015-01-19,0600,0554,-6.0
58426,2015-01-19,0725,0721,-4.0
58427,2015-01-19,1120,1153,33.0
58428,2015-01-19,1530,1558,28.0
58429,2015-01-19,1935,2056,81.0
58430,2015-01-19,0700,0655,-5.0
58431,2015-01-19,1335,1347,12.0
58432,2015-01-19,1905,1901,-4.0
58433,2015-01-19,2030,2024,-6.0
58434,2015-01-19,1545,1543,-2.0
58435,2015-01-19,1050,1128,38.0
58436,2015-01-19,1315,1401,46.0
