,FL_DATE,CRS_DEP_TIME,DEP_TIME,DEP_DELAY
73701,2015-01-25,1250,1245,-5.0
73702,2015-01-25,2225,2219,-6.0
73704,2015-01-25,1505,1455,-10.0
73707,2015-01-25,1053,1048,-5.0
73708,2015-01-25,0700,0653,-7.0
73730,2015-01-25,0700,0656,-4.0
73740,2015-01-25,0845,0855,10.0
73760,2015-01-25,1731,1732,1.0
73787,2015-01-25,2350,2348,-2.0
73796,2015-01-25,1830,1836,6.0
73798,2015-01-25,1320,1323,3.0
73800,2015-01-25,2052,2050,-2.0
73804,2015-01-25,1615,1614,-1.0
73807,2015-01-25,0903,0900,-3.0
73810,2015-01-25,1440,1433,-7.0
73817,2015-01-25,0821,0816,-5.0
73844,2015-01-25,0030,0024,-6.0
73856,2015-01-25,0705,0707,2.0
73872,2015-01-25,0715,0712,-3.0
73874,2015-01-25,1725,1717,-8.0
73879,2015-01-25,1442,1440,-2.0
73913,2015-01-25,2330,2327,-3.0
73924,2015-01-25,1159,1152,-7.0
73926,2015-01-25,1255,1248,-7.0
73985,2015-01-25,2045,2045,0.0
73988,2015-01-25,2030,2043,13.0
73996,2015-01-25,1010,1002,-8.0
73997,2015-01-25,1300,1247,-13.0
73999,2015-01-25,1450,1450,0.0
74002,2015-01-25,0915,0906,-9.0
74003,2015-01-25,0700,0657,-3.0
74004,2015-01-25,1545,1536,-9.0
74013,2015-01-25,1825,1825,0.0
74017,2015-01-25,1935,1928,-7.0
74034,2015-01-25,1255,1243,-12.0
74035,2015-01-25,0900,0851,-9.0
74037,2015-01-25,2140,2127,-13.0
74038,2015-01-25,1700,1807,67.0
74131,2015-01-25,2055,2102,7.0
74156,2015-01-25,0700,0700,0.0
74166,2015-01-25,1245,1241,-4.0
74184,2015-01-25,2259,2254,-5.0
74188,2015-01-25,0800,0754,-6.0
74198,2015-01-25,1200,1158,-2.0
74200,2015-01-25,1522,1541,19.0
74203,2015-01-25,1435,1435,0.0
74214,2015-01-25,1028,1024,-4.0
74225,2015-01-25,0600,0557,-3.0
74231,2015-01-25,2236,2239,3.0
74235,2015-01-25,0925,0921,-4.0
74237,2015-01-25,2125,2124,-1.0
74240,2015-01-25,1310,1309,-1.0
74249,2015-01-25,0806,0805,-1.0
74251,2015-01-25,1225,1220,-5.0
74256,2015-01-25,1210,1506,176.0
74278,2015-01-25,1921,1919,-2.0
74279,2015-01-25,0825,0823,-2.0
74293,2015-01-25,1415,1419,4.0
74310,2015-01-25,1209,1216,7.0
74316,2015-01-25,0740,0735,-5.0
74320,2015-01-25,0830,0828,-2.0
74331,2015-01-25,1145,1139,-6.0
74348,2015-01-25,1133,1133,0.0
74386,2015-01-25,0600,0556,-4.0
74399,2015-01-25,0630,0623,-7.0
74401,2015-01-25,0625,0623,-2.0
74404,2015-01-25,2255,2256,1.0
74406,2015-01-25,2200,2156,-4.0
74416,2015-01-25,0700,0652,-8.0
74430,2015-01-25,2315,2310,-5.0
74433,2015-01-25,1600,1549,-11.0
74443,2015-01-25,1500,1453,-7.0
74459,2015-01-25,2115,2110,-5.0
74473,2015-01-25,1230,1404,94.0
74480,2015-01-25,1320,1308,-12.0
74488,2015-01-25,1345,1339,-6.0
74498,2015-01-25,0624,0921,177.0
74502,2015-01-25,0900,0857,-3.0
74506,2015-01-25,0950,0941,-9.0
74520,2015-01-25,0845,0833,-12.0
74539,2015-01-25,1525,1512,-13.0
74542,2015-01-25,0600,0546,-14.0
74546,2015-01-25,0900,0853,-7.0
74548,2015-01-25,1920,1906,-14.0
74555,2015-01-25,1020,1016,-4.0
74590,2015-01-25,1040,1030,-10.0
74593,2015-01-25,1623,1638,15.0
74615,2015-01-25,1301,1250,-11.0
74619,2015-01-25,1950,2011,21.0
74650,2015-01-25,1040,1111,31.0
74664,2015-01-25,1235,1230,-5.0
74671,2015-01-25,1600,1828,148.0
74672,2015-01-25,1040,1051,11.0
74673,2015-01-25,1945,1940,-5.0
74674,2015-01-25,2233,2228,-5.0
74676,2015-01-25,1732,1731,-1.0
74679,2015-01-25,2235,2235,0.0
74683,2015-01-25,1930,1920,-10.0
74693,2015-01-25,1042,1044,2.0
74700,2015-01-25,1040,1122,42.0
74704,2015-01-25,1909,1915,6.0
74709,2015-01-25,2030,2025,-5.0
74714,2015-01-25,1153,1234,41.0
74715,2015-01-25,1040,1034,-6.0
74718,2015-01-25,1304,1259,-5.0
74719,2015-01-25,1635,1628,-7.0
74721,2015-01-25,2230,2217,-13.0
74722,2015-01-25,1045,1043,-2.0
74733,2015-01-25,1810,1856,46.0
74735,2015-01-25,1255,1306,11.0
74741,2015-01-25,1108,1202,54.0
74811,2015-01-25,1610,1600,-10.0
74813,2015-01-25,1530,1529,-1.0
74815,2015-01-25,1338,1513,95.0
74816,2015-01-25,1903,1856,-7.0
74845,2015-01-25,1730,1718,-12.0
74846,2015-01-25,1200,1152,-8.0
74849,2015-01-25,1615,1613,-2.0
74854,2015-01-25,1023,1016,-7.0
74865,2015-01-25,1835,1832,-3.0
74869,2015-01-25,1215,1205,-10.0
74880,2015-01-25,1155,1204,9.0
74906,2015-01-25,1610,1600,-10.0
74922,2015-01-25,1640,1630,-10.0
74930,2015-01-25,0920,0905,-15.0
74939,2015-01-25,1131,1126,-5.0
74942,2015-01-25,1057,1048,-9.0
74943,2015-01-25,0845,0837,-8.0
74946,2015-01-25,1546,1607,21.0
74947,2015-01-25,2202,2155,-7.0
74949,2015-01-25,0830,0819,-11.0
74965,2015-01-25,1241,1308,27.0
74967,2015-01-25,1454,1451,-3.0
74971,2015-01-25,2300,2252,-8.0
74972,2015-01-25,1545,1617,32.0
74976,2015-01-25,1040,1035,-5.0
74985,2015-01-25,1841,1944,63.0
74989,2015-01-25,2230,2225,-5.0
74991,2015-01-25,1848,1851,3.0
74997,2015-01-25,1402,1354,-8.0
75001,2015-01-25,0810,0801,-9.0
75004,2015-01-25,1744,1804,20.0
75007,2015-01-25,0841,0834,-7.0
75011,2015-01-25,1537,1549,12.0
75018,2015-01-25,0803,0757,-6.0
75020,2015-01-25,2235,2227,-8.0
75021,2015-01-25,2055,2046,-9.0
75024,2015-01-25,1536,1526,-10.0
75031,2015-01-25,0850,0908,18.0
75043,2015-01-25,2016,2027,11.0
75050,2015-01-25,2235,2227,-8.0
75053,2015-01-25,1904,1904,0.0
75054,2015-01-25,0832,,
75059,2015-01-25,0718,0715,-3.0
75062,2015-01-25,1613,1640,27.0
75064,2015-01-25,1112,1316,124.0
75065,2015-01-25,0800,0746,-14.0
75068,2015-01-25,0830,1000,90.0
75070,2015-01-25,0726,,
75072,2015-01-25,2226,2231,5.0
75075,2015-01-25,2233,2247,14.0
75076,2015-01-25,1115,1108,-7.0
75077,2015-01-25,0653,0646,-7.0
75078,2015-01-25,1725,1757,32.0
75079,2015-01-25,2230,2213,-17.0
75082,2015-01-25,1941,,
75093,2015-01-25,1457,1545,48.0
75106,2015-01-25,1600,1650,50.0
75107,2015-01-25,1310,1304,-6.0
75108,2015-01-25,1341,1345,4.0
75110,2015-01-25,1928,1922,-6.0
75112,2015-01-25,1052,1052,0.0
75113,2015-01-25,1543,1604,21.0
75116,2015-01-25,1517,1536,19.0
75122,2015-01-25,0810,0804,-6.0
75125,2015-01-25,1605,1626,21.0
75131,2015-01-25,1300,1443,103.0
75133,2015-01-25,1925,1951,26.0
75134,2015-01-25,2036,2035,-1.0
75137,2015-01-25,1035,1121,46.0
75148,2015-01-25,1412,1536,84.0
75149,2015-01-25,0753,,
75160,2015-01-25,1015,1018,3.0
75161,2015-01-25,2000,2015,15.0
75171,2015-01-25,1550,1627,37.0
75174,2015-01-25,1450,,
75176,2015-01-25,0829,1044,135.0
75178,2015-01-25,1040,1042,2.0
75182,2015-01-25,1339,1332,-7.0
75183,2015-01-25,2011,2145,94.0
75187,2015-01-25,1043,1050,7.0
75188,2015-01-25,1940,1956,16.0
75199,2015-01-25,1646,1646,0.0
75205,2015-01-25,1745,1741,-4.0
75212,2015-01-25,1140,1143,3.0
75216,2015-01-25,1424,1442,18.0
75217,2015-01-25,0923,0917,-6.0
75220,2015-01-25,1154,1216,22.0
75221,2015-01-25,1600,1551,-9.0
75232,2015-01-25,1817,1820,3.0
75234,2015-01-25,0700,0655,-5.0
75235,2015-01-25,1205,1205,0.0
75237,2015-01-25,0602,0557,-5.0
75241,2015-01-25,1050,1057,7.0
75243,2015-01-25,0905,0905,0.0
75245,2015-01-25,0804,0801,-3.0
75249,2015-01-25,2100,2056,-4.0
75250,2015-01-25,0904,0854,-10.0
75251,2015-01-25,1408,1401,-7.0
75252,2015-01-25,1803,1756,-7.0
75258,2015-01-25,1440,1436,-4.0
75259,2015-01-25,0700,0656,-4.0
75260,2015-01-25,1050,1054,4.0
75264,2015-01-25,1635,1638,3.0
75275,2015-01-25,1235,1233,-2.0
75278,2015-01-25,2230,2226,-4.0
75286,2015-01-25,0850,0854,4.0
75290,2015-01-25,2230,2225,-5.0
75298,2015-01-25,1600,1557,-3.0
75301,2015-01-25,1742,1739,-3.0
75304,2015-01-25,1055,1054,-1.0
75307,2015-01-25,1935,1933,-2.0
75310,2015-01-25,1055,1056,1.0
75322,2015-01-25,2231,2236,5.0
75329,2015-01-25,2240,2238,-2.0
75332,2015-01-25,1538,1534,-4.0
75335,2015-01-25,2237,2249,12.0
75340,2015-01-25,1100,1111,11.0
75341,2015-01-25,1624,1630,6.0
75344,2015-01-25,1404,1403,-1.0
75346,2015-01-25,1213,1218,5.0
75348,2015-01-25,2310,2308,-2.0
75357,2015-01-25,1823,1839,16.0
75363,2015-01-25,1300,1259,-1.0
75364,2015-01-25,1043,1044,1.0
75365,2015-01-25,0045,0035,-10.0
75373,2015-01-25,0601,0601,0.0
75376,2015-01-25,1057,1057,0.0
75382,2015-01-25,2050,2054,4.0
75383,2015-01-25,1620,1626,6.0
75384,2015-01-25,1925,1915,-10.0
75387,2015-01-25,1945,1945,0.0
75394,2015-01-25,2230,2228,-2.0
75398,2015-01-25,1047,1111,24.0
75400,2015-01-25,0831,0827,-4.0
75402,2015-01-25,0606,0603,-3.0
75403,2015-01-25,1315,1318,3.0
75406,2015-01-25,0754,0755,1.0
75409,2015-01-25,1507,1509,2.0
75419,2015-01-25,2339,2338,-1.0
75423,2015-01-25,0604,0601,-3.0
75425,2015-01-25,1240,1242,2.0
75427,2015-01-25,1305,1309,4.0
75439,2015-01-25,1057,1057,0.0
75440,2015-01-25,0806,0805,-1.0
75444,2015-01-25,0544,0542,-2.0
75448,2015-01-25,1305,1306,1.0
75452,2015-01-25,2232,2230,-2.0
75454,2015-01-25,2235,2230,-5.0
75455,2015-01-25,0659,0700,1.0
75459,2015-01-25,0905,0903,-2.0
75469,2015-01-25,0730,0732,2.0
75477,2015-01-25,1649,1651,2.0
75480,2015-01-25,1421,1417,-4.0
75489,2015-01-25,1845,1846,1.0
75496,2015-01-25,1305,1324,19.0
75498,2015-01-25,0908,0906,-2.0
75499,2015-01-25,1200,1204,4.0
75501,2015-01-25,1722,1720,-2.0
75503,2015-01-25,1127,1130,3.0
75506,2015-01-25,1615,1613,-2.0
75507,2015-01-25,1532,1527,-5.0
75509,2015-01-25,1056,1055,-1.0
75510,2015-01-25,0805,0805,0.0
75511,2015-01-25,2230,2228,-2.0
75515,2015-01-25,1040,1041,1.0
75517,2015-01-25,2030,2037,7.0
75520,2015-01-25,2240,2237,-3.0
75523,2015-01-25,1311,1304,-7.0
75525,2015-01-25,1300,1308,8.0
75527,2015-01-25,1637,1643,6.0
75534,2015-01-25,1335,1331,-4.0
75540,2015-01-25,1730,1725,-5.0
75541,2015-01-25,1331,1342,11.0
75545,2015-01-25,0855,0847,-8.0
75546,2015-01-25,1250,1245,-5.0
75547,2015-01-25,1115,1108,-7.0
75552,2015-01-25,2003,1957,-6.0
75556,2015-01-25,1250,1244,-6.0
75558,2015-01-25,1250,1305,15.0
75561,2015-01-25,1400,1353,-7.0
75562,2015-01-25,1100,1057,-3.0
75568,2015-01-25,1210,1205,-5.0
75569,2015-01-25,1050,1049,-1.0
75570,2015-01-25,0842,0834,-8.0
75574,2015-01-25,0901,0856,-5.0
75577,2015-01-25,0845,0840,-5.0
75579,2015-01-25,1433,1428,-5.0
75581,2015-01-25,0915,0905,-10.0
75592,2015-01-25,1250,1242,-8.0
75599,2015-01-25,2235,2223,-12.0
75601,2015-01-25,1005,0958,-7.0
75603,2015-01-25,1250,1243,-7.0
75604,2015-01-25,0924,0919,-5.0
75605,2015-01-25,1659,1653,-6.0
75606,2015-01-25,1401,1358,-3.0
75611,2015-01-25,1933,1930,-3.0
75630,2015-01-25,0815,0805,-10.0
75632,2015-01-25,1210,1204,-6.0
75638,2015-01-25,1331,1327,-4.0
75639,2015-01-25,1725,1925,120.0
75647,2015-01-25,1245,1519,154.0
75651,2015-01-25,0825,0831,6.0
75660,2015-01-25,0720,0742,22.0
75665,2015-01-25,0915,0931,16.0
75672,2015-01-25,2230,2229,-1.0
75675,2015-01-25,1340,1347,7.0
75679,2015-01-25,1320,1315,-5.0
75682,2015-01-25,1115,1109,-6.0
75685,2015-01-25,0855,0853,-2.0
75693,2015-01-25,1100,1103,3.0
75699,2015-01-25,2200,2155,-5.0
75704,2015-01-25,1705,1739,34.0
75735,2015-01-25,0600,1018,258.0
75745,2015-01-25,1550,1543,-7.0
75753,2015-01-25,1159,1152,-7.0
75771,2015-01-25,1400,1357,-3.0
75773,2015-01-25,0705,0700,-5.0
75781,2015-01-25,0815,0808,-7.0
75782,2015-01-25,2130,2124,-6.0
75785,2015-01-25,1100,1057,-3.0
75787,2015-01-25,2055,2050,-5.0
75788,2015-01-25,1430,1425,-5.0
75791,2015-01-25,2120,2118,-2.0
75792,2015-01-25,0810,0805,-5.0
75793,2015-01-25,0915,0920,5.0
75795,2015-01-25,1035,1030,-5.0
75798,2015-01-25,1610,1610,0.0
75799,2015-01-25,0920,0918,-2.0
75805,2015-01-25,1950,1949,-1.0
75806,2015-01-25,1355,1354,-1.0
75815,2015-01-25,1110,1110,0.0
75817,2015-01-25,0805,0759,-6.0
75820,2015-01-25,0820,0822,2.0
75822,2015-01-25,2310,2306,-4.0
75824,2015-01-25,2320,2317,-3.0
75827,2015-01-25,0930,0929,-1.0
75829,2015-01-25,2305,2305,0.0
75848,2015-01-25,1700,1653,-7.0
75852,2015-01-25,1140,1135,-5.0
75855,2015-01-25,1710,1704,-6.0
75856,2015-01-25,1425,1422,-3.0
75857,2015-01-25,1645,1639,-6.0
75858,2015-01-25,2045,2048,3.0
75867,2015-01-25,2045,2040,-5.0
75868,2015-01-25,0930,0929,-1.0
75874,2015-01-25,0915,0911,-4.0
75876,2015-01-25,1340,1335,-5.0
75877,2015-01-25,1505,1459,-6.0
75879,2015-01-25,1405,1407,2.0
75880,2015-01-25,1225,1220,-5.0
75883,2015-01-25,1800,1752,-8.0
75886,2015-01-25,1000,0959,-1.0
75889,2015-01-25,1325,1325,0.0
75891,2015-01-25,1530,1524,-6.0
75894,2015-01-25,1610,1606,-4.0
75895,2015-01-25,1730,1725,-5.0
75898,2015-01-25,1845,2211,206.0
75900,2015-01-25,2050,2048,-2.0
75902,2015-01-25,1145,1144,-1.0
75903,2015-01-25,1505,1505,0.0
75904,2015-01-25,1730,1727,-3.0
75907,2015-01-25,2050,2048,-2.0
75983,2015-01-25,0620,0615,-5.0
75984,2015-01-25,1355,1359,4.0
75985,2015-01-25,1110,1150,40.0
75986,2015-01-25,2155,2201,6.0
75987,2015-01-25,1605,1600,-5.0
75988,2015-01-25,1155,1151,-4.0
75989,2015-01-25,0950,0946,-4.0
75990,2015-01-25,1405,1402,-3.0
75991,2015-01-25,1800,1811,11.0
75992,2015-01-25,1120,1114,-6.0
75993,2015-01-25,1530,1525,-5.0
75994,2015-01-25,1935,2034,59.0
75995,2015-01-25,1905,1906,1.0
75996,2015-01-25,1335,1335,0.0
75997,2015-01-25,2030,2027,-3.0
75998,2015-01-25,1545,1542,-3.0
75999,2015-01-25,1050,1045,-5.0
76000,2015-01-25,1315,1313,-2.0
76476,2015-01-25,0840,0837,-3.0
76477,2015-01-25,1205,1205,0.0
76478,2015-01-25,1425,1439,14.0
76479,2015-01-25,1350,1349,-1.0
76480,2015-01-25,1005,0958,-7.0
76481,2015-01-25,1800,1812,12.0
76482,2015-01-25,1215,1214,-1.0
76483,2015-01-25,0945,0941,-4.0
76484,2015-01-25,2130,2129,-1.0
76485,2015-01-25,1355,1351,-4.0
76486,2015-01-25,1010,1007,-3.0
76487,2015-01-25,1300,1301,1.0
76488,2015-01-25,1150,1150,0.0
76489,2015-01-25,1540,1540,0.0
76490,2015-01-25,1815,1815,0.0
76491,2015-01-25,1645,1642,-3.0
76492,2015-01-25,2035,2040,5.0
