,FL_DATE,CRS_DEP_TIME,DEP_TIME,DEP_DELAY
89137,2015-01-30,1250,1305,15.0
89139,2015-01-30,1505,1555,50.0
89142,2015-01-30,1053,1054,1.0
89143,2015-01-30,0700,0714,14.0
89166,2015-01-30,0700,0656,-4.0
89175,2015-01-30,0845,0835,-10.0
89194,2015-01-30,1731,1746,15.0
89221,2015-01-30,2350,0224,154.0
89231,2015-01-30,1830,1823,-7.0
89233,2015-01-30,1320,1339,19.0
89235,2015-01-30,2052,2045,-7.0
89240,2015-01-30,1615,1608,-7.0
89243,2015-01-30,0903,0857,-6.0
89246,2015-01-30,1440,1455,15.0
89252,2015-01-30,0821,0814,-7.0
89279,2015-01-30,0030,0026,-4.0
89280,2015-01-30,0600,0554,-6.0
89293,2015-01-30,0705,0700,-5.0
89311,2015-01-30,0715,0715,0.0
89313,2015-01-30,1725,1720,-5.0
89318,2015-01-30,1442,1435,-7.0
89335,2015-01-30,0926,0921,-5.0
89354,2015-01-30,2330,2356,26.0
89366,2015-01-30,1159,1234,35.0
89368,2015-01-30,1255,1428,93.0
89422,2015-01-30,0700,0654,-6.0
89432,2015-01-30,2045,2046,1.0
89435,2015-01-30,2030,2025,-5.0
89443,2015-01-30,1010,1002,-8.0
89444,2015-01-30,1300,1355,55.0
89446,2015-01-30,1450,1513,23.0
89449,2015-01-30,0915,0905,-10.0
89450,2015-01-30,0700,0654,-6.0
89451,2015-01-30,1545,1557,12.0
89462,2015-01-30,1825,1820,-5.0
89466,2015-01-30,1935,1944,9.0
89482,2015-01-30,1255,1413,78.0
89484,2015-01-30,0900,0849,-11.0
89485,2015-01-30,2140,2133,-7.0
89487,2015-01-30,1700,1656,-4.0
89582,2015-01-30,2055,2109,14.0
89613,2015-01-30,1245,1252,7.0
89631,2015-01-30,2259,2257,-2.0
89635,2015-01-30,0800,0753,-7.0
89645,2015-01-30,1200,1154,-6.0
89647,2015-01-30,1522,1521,-1.0
89650,2015-01-30,1435,1439,4.0
89661,2015-01-30,1028,1021,-7.0
89672,2015-01-30,0600,0553,-7.0
89678,2015-01-30,2315,2303,-12.0
89682,2015-01-30,0925,0918,-7.0
89684,2015-01-30,2125,2123,-2.0
89687,2015-01-30,1310,1336,26.0
89696,2015-01-30,0806,0759,-7.0
89698,2015-01-30,1225,1225,0.0
89703,2015-01-30,1210,1203,-7.0
89710,2015-01-30,2128,2126,-2.0
89726,2015-01-30,1921,1915,-6.0
89728,2015-01-30,0825,0819,-6.0
89743,2015-01-30,2350,2343,-7.0
89747,2015-01-30,1600,1559,-1.0
89757,2015-01-30,1500,1451,-9.0
89774,2015-01-30,2115,2113,-2.0
89789,2015-01-30,1230,1428,118.0
89796,2015-01-30,1320,1322,2.0
89806,2015-01-30,1345,1449,64.0
89816,2015-01-30,0624,0624,0.0
89820,2015-01-30,0900,0856,-4.0
89827,2015-01-30,1415,1412,-3.0
89851,2015-01-30,1133,1127,-6.0
89902,2015-01-30,0630,1244,374.0
89904,2015-01-30,0625,0621,-4.0
89907,2015-01-30,2255,2243,-12.0
89909,2015-01-30,2200,2152,-8.0
89914,2015-01-30,1209,1239,30.0
89920,2015-01-30,0740,0738,-2.0
89925,2015-01-30,0830,0836,6.0
89937,2015-01-30,1145,1138,-7.0
89945,2015-01-30,0020,0024,4.0
89949,2015-01-30,0700,0657,-3.0
89967,2015-01-30,1020,1153,93.0
89974,2015-01-30,0600,0551,-9.0
89976,2015-01-30,0900,0853,-7.0
89985,2015-01-30,1525,1512,-13.0
89987,2015-01-30,1920,2208,168.0
89988,2015-01-30,0950,,
90002,2015-01-30,0845,0842,-3.0
90049,2015-01-30,1040,1358,198.0
90051,2015-01-30,1623,1713,50.0
90076,2015-01-30,1301,1301,0.0
90081,2015-01-30,1950,2000,10.0
90109,2015-01-30,1051,1047,-4.0
90113,2015-01-30,1930,1927,-3.0
90123,2015-01-30,1235,1446,131.0
90130,2015-01-30,1600,1717,77.0
90131,2015-01-30,1040,1215,95.0
90132,2015-01-30,1945,2002,17.0
90133,2015-01-30,2233,2259,26.0
90137,2015-01-30,2235,2234,-1.0
90152,2015-01-30,1042,1040,-2.0
90158,2015-01-30,1040,1153,73.0
90162,2015-01-30,1537,1706,89.0
90163,2015-01-30,1909,1952,43.0
90167,2015-01-30,2030,2028,-2.0
90172,2015-01-30,1040,1102,22.0
90173,2015-01-30,1635,1645,10.0
90175,2015-01-30,1234,1404,90.0
90177,2015-01-30,2230,2220,-10.0
90178,2015-01-30,1045,1259,134.0
90189,2015-01-30,1810,1847,37.0
90191,2015-01-30,1255,1255,0.0
90200,2015-01-30,1108,1151,43.0
90205,2015-01-30,1153,1440,167.0
90268,2015-01-30,1435,1545,70.0
90270,2015-01-30,1350,1532,102.0
90271,2015-01-30,1901,1857,-4.0
90302,2015-01-30,1730,1853,83.0
90303,2015-01-30,1200,1453,173.0
90305,2015-01-30,1610,1624,14.0
90310,2015-01-30,1023,1057,34.0
90323,2015-01-30,1835,2009,94.0
90327,2015-01-30,1215,1504,169.0
90338,2015-01-30,1155,1250,55.0
90365,2015-01-30,1610,1608,-2.0
90383,2015-01-30,1725,1716,-9.0
90391,2015-01-30,0937,0934,-3.0
90400,2015-01-30,0758,0752,-6.0
90402,2015-01-30,1131,1230,59.0
90405,2015-01-30,1055,1238,103.0
90408,2015-01-30,1546,1705,79.0
90409,2015-01-30,2202,2157,-5.0
90411,2015-01-30,0830,0822,-8.0
90426,2015-01-30,1517,1627,70.0
90427,2015-01-30,1536,1616,40.0
90431,2015-01-30,1241,1446,125.0
90433,2015-01-30,1454,1634,100.0
90437,2015-01-30,2300,2254,-6.0
90438,2015-01-30,1545,1808,143.0
90440,2015-01-30,1040,1037,-3.0
90445,2015-01-30,0815,0809,-6.0
90449,2015-01-30,1841,1830,-11.0
90453,2015-01-30,2230,2217,-13.0
90455,2015-01-30,1848,1845,-3.0
90458,2015-01-30,0831,0821,-10.0
90461,2015-01-30,1402,1551,109.0
90465,2015-01-30,0929,0923,-6.0
90468,2015-01-30,1744,1745,1.0
90470,2015-01-30,1613,1610,-3.0
90472,2015-01-30,0841,0834,-7.0
90478,2015-01-30,0843,1035,112.0
90487,2015-01-30,2235,2233,-2.0
90488,2015-01-30,2055,2053,-2.0
90506,2015-01-30,2016,2054,38.0
90513,2015-01-30,2235,2245,10.0
90516,2015-01-30,1904,2021,77.0
90517,2015-01-30,0839,0834,-5.0
90522,2015-01-30,0718,0738,20.0
90527,2015-01-30,1153,1406,133.0
90528,2015-01-30,1045,1320,155.0
90531,2015-01-30,0830,0824,-6.0
90533,2015-01-30,1640,1641,1.0
90535,2015-01-30,2226,,
90538,2015-01-30,0845,0840,-5.0
90539,2015-01-30,2233,2307,34.0
90540,2015-01-30,1119,1242,83.0
90541,2015-01-30,0653,0652,-1.0
90542,2015-01-30,1725,1740,15.0
90543,2015-01-30,2230,2247,17.0
90546,2015-01-30,1941,1941,0.0
90550,2015-01-30,1732,1906,94.0
90558,2015-01-30,1457,1500,3.0
90570,2015-01-30,1610,1728,78.0
90573,2015-01-30,1310,1358,48.0
90574,2015-01-30,1341,1418,37.0
90576,2015-01-30,1928,1918,-10.0
90578,2015-01-30,1052,1046,-6.0
90579,2015-01-30,1539,1738,119.0
90581,2015-01-30,1229,1252,23.0
90586,2015-01-30,0810,0759,-11.0
90590,2015-01-30,1605,1658,53.0
90593,2015-01-30,0810,0804,-6.0
90597,2015-01-30,1504,1502,-2.0
90599,2015-01-30,1925,1919,-6.0
90600,2015-01-30,2036,2034,-2.0
90603,2015-01-30,1035,1352,197.0
90614,2015-01-30,1300,1310,10.0
90616,2015-01-30,1933,2000,27.0
90617,2015-01-30,0753,0823,30.0
90630,2015-01-30,1015,1158,103.0
90631,2015-01-30,2000,1955,-5.0
90642,2015-01-30,1610,1613,3.0
90646,2015-01-30,1335,1447,72.0
90648,2015-01-30,2003,1957,-6.0
90650,2015-01-30,2230,2229,-1.0
90652,2015-01-30,1442,1448,6.0
90655,2015-01-30,2250,2346,56.0
90658,2015-01-30,1300,1318,18.0
90659,2015-01-30,0045,0041,-4.0
90666,2015-01-30,1115,1116,1.0
90677,2015-01-30,0800,0759,-1.0
90681,2015-01-30,0830,0825,-5.0
90685,2015-01-30,0600,0556,-4.0
90687,2015-01-30,1005,1006,1.0
90696,2015-01-30,2230,2300,30.0
90698,2015-01-30,1300,1331,31.0
90700,2015-01-30,1047,1044,-3.0
90704,2015-01-30,1315,1331,16.0
90706,2015-01-30,2045,2046,1.0
90708,2015-01-30,1250,1257,7.0
90711,2015-01-30,0843,0845,2.0
90714,2015-01-30,2312,2320,8.0
90715,2015-01-30,1053,1202,69.0
90719,2015-01-30,1945,1947,2.0
90726,2015-01-30,0620,0618,-2.0
90730,2015-01-30,0604,0605,1.0
90738,2015-01-30,2231,2246,15.0
90741,2015-01-30,1919,1921,2.0
90743,2015-01-30,1040,1100,20.0
90747,2015-01-30,2235,2253,18.0
90750,2015-01-30,2315,2314,-1.0
90753,2015-01-30,1534,1540,6.0
90754,2015-01-30,0855,0913,18.0
90755,2015-01-30,0544,0536,-8.0
90758,2015-01-30,1835,1831,-4.0
90759,2015-01-30,1305,1411,66.0
90761,2015-01-30,0730,0837,67.0
90763,2015-01-30,1620,1620,0.0
90769,2015-01-30,1450,1505,15.0
90771,2015-01-30,0829,1012,103.0
90773,2015-01-30,1043,1119,36.0
90776,2015-01-30,1339,1359,20.0
90777,2015-01-30,2011,2205,114.0
90781,2015-01-30,1043,1147,64.0
90783,2015-01-30,1940,1936,-4.0
90797,2015-01-30,1300,1303,3.0
90799,2015-01-30,1637,1632,-5.0
90801,2015-01-30,1610,1628,18.0
90809,2015-01-30,2245,2249,4.0
90811,2015-01-30,1045,1044,-1.0
90826,2015-01-30,1040,1036,-4.0
90827,2015-01-30,1250,1344,54.0
90832,2015-01-30,1200,1154,-6.0
90834,2015-01-30,0700,0654,-6.0
90836,2015-01-30,0602,0555,-7.0
90838,2015-01-30,1820,2017,117.0
90841,2015-01-30,1125,1143,18.0
90847,2015-01-30,1424,1510,46.0
90848,2015-01-30,1115,1107,-8.0
90857,2015-01-30,1210,1207,-3.0
90858,2015-01-30,0850,0842,-8.0
90862,2015-01-30,1235,1340,65.0
90864,2015-01-30,1040,1048,8.0
90866,2015-01-30,0901,0906,5.0
90869,2015-01-30,0845,0849,4.0
90875,2015-01-30,1311,1434,83.0
90879,2015-01-30,1557,1552,-5.0
90882,2015-01-30,2030,2113,43.0
90896,2015-01-30,2235,2231,-4.0
90898,2015-01-30,1310,1308,-2.0
90899,2015-01-30,1730,1921,111.0
90901,2015-01-30,0905,0901,-4.0
90903,2015-01-30,0945,1012,27.0
90904,2015-01-30,0730,0720,-10.0
90905,2015-01-30,0940,0936,-4.0
90906,2015-01-30,0905,0857,-8.0
90907,2015-01-30,1535,1606,31.0
90908,2015-01-30,1404,1432,28.0
90911,2015-01-30,1635,1630,-5.0
90913,2015-01-30,1330,1356,26.0
90914,2015-01-30,1646,1649,3.0
90921,2015-01-30,1732,1726,-6.0
90926,2015-01-30,1145,1143,-2.0
90936,2015-01-30,1817,1810,-7.0
90939,2015-01-30,0800,0756,-4.0
90940,2015-01-30,1507,1519,12.0
90941,2015-01-30,0705,0656,-9.0
90945,2015-01-30,1050,1044,-6.0
90947,2015-01-30,0905,0904,-1.0
90948,2015-01-30,1305,1339,34.0
90951,2015-01-30,0804,0802,-2.0
90955,2015-01-30,2100,2056,-4.0
90957,2015-01-30,0806,0803,-3.0
90958,2015-01-30,1408,1407,-1.0
90959,2015-01-30,1803,2107,184.0
90962,2015-01-30,2339,2340,1.0
90965,2015-01-30,1005,1001,-4.0
90967,2015-01-30,0600,0553,-7.0
90970,2015-01-30,1440,1608,88.0
90971,2015-01-30,0700,0711,11.0
90972,2015-01-30,1730,1724,-6.0
90973,2015-01-30,1050,1047,-3.0
90980,2015-01-30,1433,1432,-1.0
90982,2015-01-30,1120,1117,-3.0
90988,2015-01-30,1424,1420,-4.0
90989,2015-01-30,1250,1247,-3.0
90992,2015-01-30,2230,2230,0.0
90998,2015-01-30,0850,0843,-7.0
91002,2015-01-30,1659,1702,3.0
91006,2015-01-30,0842,0839,-3.0
91009,2015-01-30,1742,1741,-1.0
91012,2015-01-30,2104,2058,-6.0
91015,2015-01-30,1354,1413,19.0
91022,2015-01-30,1110,1129,19.0
91044,2015-01-30,1210,1203,-7.0
91046,2015-01-30,1634,1632,-2.0
91048,2015-01-30,1100,1105,5.0
91058,2015-01-30,0905,0914,9.0
91062,2015-01-30,1200,1154,-6.0
91063,2015-01-30,1649,1650,1.0
91066,2015-01-30,0805,0805,0.0
91067,2015-01-30,0833,0850,17.0
91079,2015-01-30,2230,2228,-2.0
91082,2015-01-30,1205,1204,-1.0
91083,2015-01-30,1622,1631,9.0
91085,2015-01-30,1055,1152,57.0
91087,2015-01-30,1401,1459,58.0
91091,2015-01-30,1845,1845,0.0
91095,2015-01-30,2008,2003,-5.0
91097,2015-01-30,1240,1244,4.0
91099,2015-01-30,2232,2230,-2.0
91108,2015-01-30,0905,0915,10.0
91110,2015-01-30,1722,1717,-5.0
91115,2015-01-30,1615,1616,1.0
91117,2015-01-30,1421,1425,4.0
91121,2015-01-30,0810,0810,0.0
91122,2015-01-30,1057,1128,31.0
91125,2015-01-30,1935,1928,-7.0
91129,2015-01-30,1040,1047,7.0
91131,2015-01-30,2236,2240,4.0
91135,2015-01-30,0919,0925,6.0
91155,2015-01-30,0815,0811,-4.0
91157,2015-01-30,1210,1326,76.0
91165,2015-01-30,1610,1809,119.0
91168,2015-01-30,1331,1442,71.0
91180,2015-01-30,1100,1103,3.0
91187,2015-01-30,2200,2158,-2.0
91190,2015-01-30,1705,1819,74.0
91194,2015-01-30,1550,1619,29.0
91206,2015-01-30,1159,1230,31.0
91213,2015-01-30,1115,1106,-9.0
91221,2015-01-30,1400,1429,29.0
91223,2015-01-30,0705,0658,-7.0
91230,2015-01-30,0815,0822,7.0
91234,2015-01-30,2055,2055,0.0
91237,2015-01-30,0810,0807,-3.0
91238,2015-01-30,0915,0910,-5.0
91241,2015-01-30,1035,1126,51.0
91244,2015-01-30,1610,1605,-5.0
91245,2015-01-30,0920,0917,-3.0
91251,2015-01-30,1950,1947,-3.0
91252,2015-01-30,1355,1403,8.0
91261,2015-01-30,1110,1109,-1.0
91263,2015-01-30,0805,0802,-3.0
91266,2015-01-30,0820,0817,-3.0
91268,2015-01-30,2310,2305,-5.0
91270,2015-01-30,2320,2312,-8.0
91273,2015-01-30,0930,0930,0.0
91275,2015-01-30,2305,2259,-6.0
91298,2015-01-30,1700,1709,9.0
91301,2015-01-30,0720,0715,-5.0
91303,2015-01-30,1140,1132,-8.0
91306,2015-01-30,1710,1714,4.0
91307,2015-01-30,0800,0753,-7.0
91308,2015-01-30,1300,1257,-3.0
91309,2015-01-30,1645,1706,21.0
91310,2015-01-30,2045,2036,-9.0
91320,2015-01-30,2045,2039,-6.0
91322,2015-01-30,0930,0930,0.0
91331,2015-01-30,0915,0914,-1.0
91333,2015-01-30,1340,1449,69.0
91334,2015-01-30,1450,1503,13.0
91336,2015-01-30,1405,1456,51.0
91337,2015-01-30,1225,1221,-4.0
91340,2015-01-30,1800,1858,58.0
91342,2015-01-30,0645,0641,-4.0
91346,2015-01-30,1325,1323,-2.0
91348,2015-01-30,1530,1539,9.0
91351,2015-01-30,1610,1620,10.0
91352,2015-01-30,1730,1725,-5.0
91354,2015-01-30,1845,1842,-3.0
91356,2015-01-30,2050,2050,0.0
91357,2015-01-30,0800,0755,-5.0
91359,2015-01-30,1145,1504,199.0
91360,2015-01-30,1505,1510,5.0
91361,2015-01-30,1730,1734,4.0
91364,2015-01-30,2050,2044,-6.0
91384,2015-01-30,0600,0553,-7.0
91416,2015-01-30,0825,0824,-1.0
91425,2015-01-30,0720,0719,-1.0
91430,2015-01-30,0915,0915,0.0
91437,2015-01-30,2230,2225,-5.0
91440,2015-01-30,1340,1339,-1.0
91441,2015-01-30,0855,0850,-5.0
91444,2015-01-30,1320,1336,16.0
92228,2015-01-30,1205,1243,38.0
92229,2015-01-30,0840,0839,-1.0
92230,2015-01-30,1425,1421,-4.0
92231,2015-01-30,1350,1453,63.0
92232,2015-01-30,1120,1120,0.0
92233,2015-01-30,0600,0557,-3.0
92234,2015-01-30,1800,1817,17.0
92235,2015-01-30,1000,0959,-1.0
92236,2015-01-30,1215,1246,31.0
92237,2015-01-30,2130,2139,9.0
92238,2015-01-30,1355,1504,69.0
92239,2015-01-30,0645,0811,86.0
92240,2015-01-30,1010,1005,-5.0
92241,2015-01-30,1300,1437,97.0
92242,2015-01-30,0900,0853,-7.0
92243,2015-01-30,0750,,
92244,2015-01-30,0605,0600,-5.0
92245,2015-01-30,1150,1144,-6.0
92246,2015-01-30,1540,1550,10.0
92247,2015-01-30,1815,1904,49.0
92248,2015-01-30,1645,1846,121.0
92249,2015-01-30,2035,2107,32.0
92250,2015-01-30,0620,0619,-1.0
92251,2015-01-30,1355,1508,73.0
92252,2015-01-30,1110,1107,-3.0
92253,2015-01-30,0635,0633,-2.0
92254,2015-01-30,1155,1230,35.0
92255,2015-01-30,1605,1629,24.0
92256,2015-01-30,0950,,
92257,2015-01-30,1405,1451,46.0
92258,2015-01-30,1800,1911,71.0
92259,2015-01-30,0725,0725,0.0
92260,2015-01-30,1120,1325,125.0
92261,2015-01-30,1530,1804,154.0
92262,2015-01-30,1935,2145,130.0
92263,2015-01-30,0700,,
92264,2015-01-30,1335,1410,35.0
92265,2015-01-30,1905,1925,20.0
92266,2015-01-30,2030,2026,-4.0
92267,2015-01-30,1545,1543,-2.0
92268,2015-01-30,1050,1151,61.0
92269,2015-01-30,1315,1321,6.0
