,FL_DATE,CRS_DEP_TIME,DEP_TIME,DEP_DELAY
79864,2015-01-27,0939,0936,-3.0
79867,2015-01-27,0823,0822,-1.0
79873,2015-01-27,0703,0701,-2.0
79891,2015-01-27,0858,0850,-8.0
79893,2015-01-27,0745,,
79938,2015-01-27,1327,1318,-9.0
79969,2015-01-27,1736,1720,-16.0
79972,2015-01-27,2215,2203,-12.0
79996,2015-01-27,1421,1414,-7.0
79998,2015-01-27,0622,0616,-6.0
80000,2015-01-27,0644,0636,-8.0
80041,2015-01-27,1538,1526,-12.0
80064,2015-01-27,1055,1055,0.0
80119,2015-01-27,1700,1653,-7.0
80200,2015-01-27,1005,0956,-9.0
80203,2015-01-27,1955,1945,-10.0
80204,2015-01-27,1420,1410,-10.0
80206,2015-01-27,0800,0742,-18.0
80209,2015-01-27,0630,0620,-10.0
80238,2015-01-27,1525,1518,-7.0
80240,2015-01-27,0630,0615,-15.0
80242,2015-01-27,1810,1803,-7.0
80252,2015-01-27,1955,1953,-2.0
80258,2015-01-27,0850,,
80270,2015-01-27,0700,0653,-7.0
80272,2015-01-27,1015,1009,-6.0
80310,2015-01-27,1127,,
80357,2015-01-27,1210,1159,-11.0
80370,2015-01-27,1323,1314,-9.0
80376,2015-01-27,0810,0807,-3.0
80380,2015-01-27,1230,1224,-6.0
80382,2015-01-27,1110,1132,22.0
80397,2015-01-27,0625,0619,-6.0
80431,2015-01-27,0640,,
80454,2015-01-27,0710,0706,-4.0
80459,2015-01-27,0615,0610,-5.0
80520,2015-01-27,0645,0641,-4.0
80527,2015-01-27,1710,1705,-5.0
80544,2015-01-27,2230,2226,-4.0
80558,2015-01-27,1018,1017,-1.0
80569,2015-01-27,1315,1305,-10.0
80583,2015-01-27,1438,1430,-8.0
80600,2015-01-27,1925,1912,-13.0
80620,2015-01-27,1000,0954,-6.0
80636,2015-01-27,1730,1727,-3.0
80639,2015-01-27,0928,0926,-2.0
80657,2015-01-27,2011,2036,25.0
80660,2015-01-27,0800,0753,-7.0
80673,2015-01-27,1714,1707,-7.0
80713,2015-01-27,1820,1848,28.0
80717,2015-01-27,0630,0615,-15.0
80720,2015-01-27,1535,1525,-10.0
80739,2015-01-27,1520,1506,-14.0
80798,2015-01-27,1135,1121,-14.0
80853,2015-01-27,0700,0649,-11.0
80856,2015-01-27,1440,1435,-5.0
80861,2015-01-27,1842,1832,-10.0
80862,2015-01-27,1415,1405,-10.0
80909,2015-01-27,1704,1654,-10.0
80912,2015-01-27,0900,0850,-10.0
80956,2015-01-27,1355,1345,-10.0
81059,2015-01-27,1003,0953,-10.0
81067,2015-01-27,0620,0612,-8.0
81143,2015-01-27,0805,0818,13.0
81145,2015-01-27,1032,1025,-7.0
81147,2015-01-27,1255,1306,11.0
81151,2015-01-27,1718,1713,-5.0
81164,2015-01-27,1600,1659,59.0
81168,2015-01-27,0920,0908,-12.0
81172,2015-01-27,1925,1915,-10.0
81342,2015-01-27,1515,1515,0.0
81461,2015-01-27,1331,1324,-7.0
81467,2015-01-27,0841,0833,-8.0
81475,2015-01-27,0615,0608,-7.0
81492,2015-01-27,2135,2136,1.0
81499,2015-01-27,1111,,
81506,2015-01-27,1251,1259,8.0
81513,2015-01-27,1306,1256,-10.0
81538,2015-01-27,1540,1533,-7.0
81556,2015-01-27,0730,0731,1.0
81563,2015-01-27,1655,1700,5.0
81566,2015-01-27,0805,0801,-4.0
81632,2015-01-27,0850,,
81678,2015-01-27,1615,1607,-8.0
81680,2015-01-27,1120,1113,-7.0
81693,2015-01-27,1000,0955,-5.0
81694,2015-01-27,0630,0621,-9.0
81695,2015-01-27,1235,1229,-6.0
81696,2015-01-27,2245,2239,-6.0
81698,2015-01-27,1125,1120,-5.0
81794,2015-01-27,0700,0652,-8.0
81828,2015-01-27,1005,1002,-3.0
81832,2015-01-27,1405,1356,-9.0
81833,2015-01-27,1715,1707,-8.0
81835,2015-01-27,1940,1930,-10.0
81851,2015-01-27,1211,,
81860,2015-01-27,0645,0645,0.0
81909,2015-01-27,0615,,
82212,2015-01-27,0945,0941,-4.0
82213,2015-01-27,2040,2034,-6.0
82214,2015-01-27,0915,0914,-1.0
82215,2015-01-27,1735,1732,-3.0
82216,2015-01-27,0640,0633,-7.0
82217,2015-01-27,1440,1435,-5.0
82218,2015-01-27,1340,1337,-3.0
82219,2015-01-27,0805,0800,-5.0
82220,2015-01-27,0700,0804,64.0
82221,2015-01-27,1535,1528,-7.0
82222,2015-01-27,1520,1515,-5.0
82223,2015-01-27,1310,1305,-5.0
82224,2015-01-27,0630,0641,11.0
82225,2015-01-27,1015,1008,-7.0
82226,2015-01-27,1745,1742,-3.0
82227,2015-01-27,0825,0825,0.0
82228,2015-01-27,1255,1304,9.0
82229,2015-01-27,0940,0935,-5.0
82230,2015-01-27,1655,1656,1.0
82231,2015-01-27,0740,0735,-5.0
82232,2015-01-27,0630,0626,-4.0
82233,2015-01-27,1000,1011,11.0
82234,2015-01-27,1305,1302,-3.0
82235,2015-01-27,1135,1200,25.0
82236,2015-01-27,2045,2059,14.0
82237,2015-01-27,1445,1442,-3.0
82238,2015-01-27,1940,1930,-10.0
82239,2015-01-27,2155,2151,-4.0
82240,2015-01-27,1840,1840,0.0
82241,2015-01-27,1700,1652,-8.0
82242,2015-01-27,1135,1219,44.0
82243,2015-01-27,0625,0623,-2.0
82244,2015-01-27,1415,1408,-7.0
82245,2015-01-27,1045,1044,-1.0
82246,2015-01-27,1245,1250,5.0
82247,2015-01-27,1655,1650,-5.0
82248,2015-01-27,1300,1300,0.0
82249,2015-01-27,2035,2032,-3.0
82250,2015-01-27,0720,0720,0.0
82251,2015-01-27,1830,1826,-4.0
82252,2015-01-27,1140,1138,-2.0
82253,2015-01-27,0945,0942,-3.0
82254,2015-01-27,0640,0638,-2.0
82255,2015-01-27,1615,1611,-4.0
82256,2015-01-27,1445,1512,27.0
82257,2015-01-27,2110,2108,-2.0
82258,2015-01-27,0800,0756,-4.0
82259,2015-01-27,2055,2048,-7.0
82260,2015-01-27,1430,1425,-5.0
82261,2015-01-27,1015,1017,2.0
82262,2015-01-27,0650,0649,-1.0
82263,2015-01-27,0910,0905,-5.0
82264,2015-01-27,1240,1247,7.0
82265,2015-01-27,1715,1714,-1.0
82266,2015-01-27,1605,1609,4.0
82267,2015-01-27,0730,0726,-4.0
82268,2015-01-27,1535,1529,-6.0
82269,2015-01-27,2105,2101,-4.0
82270,2015-01-27,1120,1117,-3.0
82271,2015-01-27,1205,1157,-8.0
82272,2015-01-27,1930,1923,-7.0
82273,2015-01-27,1425,1424,-1.0
82274,2015-01-27,0825,0824,-1.0
82275,2015-01-27,2035,2031,-4.0
82276,2015-01-27,1545,1543,-2.0
82277,2015-01-27,0720,0719,-1.0
82278,2015-01-27,1150,1141,-9.0
82279,2015-01-27,1600,1555,-5.0
82280,2015-01-27,2000,1959,-1.0
82281,2015-01-27,0800,0755,-5.0
82282,2015-01-27,0920,0917,-3.0
82283,2015-01-27,0700,0703,3.0
82284,2015-01-27,1325,1321,-4.0
82285,2015-01-27,1725,1729,4.0
82286,2015-01-27,0730,0726,-4.0
82287,2015-01-27,1355,1352,-3.0
82288,2015-01-27,2030,2030,0.0
82289,2015-01-27,1800,1754,-6.0
82290,2015-01-27,0620,0618,-2.0
82291,2015-01-27,0955,0945,-10.0
82292,2015-01-27,1910,1921,11.0
82293,2015-01-27,1155,1150,-5.0
82294,2015-01-27,1650,1648,-2.0
82295,2015-01-27,0915,0913,-2.0
82296,2015-01-27,1800,1758,-2.0
82297,2015-01-27,0620,0615,-5.0
82298,2015-01-27,1640,1636,-4.0
82299,2015-01-27,1415,1412,-3.0
82300,2015-01-27,2100,2055,-5.0
82301,2015-01-27,1720,1716,-4.0
82302,2015-01-27,1040,1036,-4.0
82303,2015-01-27,1250,1249,-1.0
82304,2015-01-27,2145,2142,-3.0
82305,2015-01-27,1700,1657,-3.0
82306,2015-01-27,1250,1247,-3.0
